0,0
1e-12,-1.23065e-06
2e-12,-1.63947e-06
3e-12,3.96039e-07
4e-12,9.28998e-08
5e-12,-2.27947e-06
6e-12,1.79152e-06
7e-12,-1.28223e-06
8e-12,-2.96318e-07
9e-12,-1.77071e-06
1e-11,-1.26165e-06
1.1e-11,-1.53831e-06
1.2e-11,9.37148e-07
1.3e-11,-5.26097e-07
1.4e-11,-3.004e-06
1.5e-11,-5.65237e-07
1.6e-11,-2.27185e-06
1.7e-11,-1.23727e-06
1.8e-11,-4.2251e-07
1.9e-11,-2.71413e-06
2e-11,-1.7827e-06
2.1e-11,-4.17142e-07
2.2e-11,-1.74433e-06
2.3e-11,-5.6284e-07
2.4e-11,-2.10198e-06
2.5e-11,-1.42067e-06
2.6e-11,-7.76995e-07
2.7e-11,-1.31014e-06
2.8e-11,3.78762e-07
2.9e-11,-3.12469e-07
3e-11,-7.74345e-07
3.1e-11,-1.64706e-06
3.2e-11,-2.15381e-07
3.3e-11,-1.57879e-07
3.4e-11,-1.72327e-06
3.5e-11,2.01382e-08
3.6e-11,-1.35744e-06
3.7e-11,-6.95297e-07
3.8e-11,-1.46974e-07
3.9e-11,-9.83697e-07
4e-11,-4.65387e-07
4.1e-11,-4.4114e-07
4.2e-11,-1.51063e-06
4.3e-11,1.71322e-07
4.4e-11,-1.07125e-06
4.5e-11,2.34204e-07
4.6e-11,-6.18213e-07
4.7e-11,-1.11814e-06
4.8e-11,-5.76879e-07
4.9e-11,1.45784e-07
5e-11,-1.71118e-06
5.1e-11,6.93564e-07
5.2e-11,-7.59938e-07
5.3e-11,-4.77069e-07
5.4e-11,-3.48736e-07
5.5e-11,-4.81741e-07
5.6e-11,-3.35467e-07
5.7e-11,5.40218e-08
5.8e-11,-3.6265e-07
5.9e-11,-5.26767e-07
6e-11,-1.30433e-06
6.1e-11,-8.9291e-07
6.2e-11,-6.21998e-07
6.3e-11,-5.22433e-07
6.4e-11,-9.43444e-07
6.5e-11,-6.74433e-07
6.6e-11,-1.72361e-06
6.7e-11,4.81927e-07
6.8e-11,-6.85354e-07
6.9e-11,-1.38722e-06
7e-11,-9.09156e-07
7.1e-11,-7.64373e-07
7.2e-11,5.30648e-07
7.3e-11,-6.10067e-07
7.4e-11,-2.56678e-06
7.5e-11,-1.04648e-06
7.6e-11,-3.44537e-07
7.7e-11,-1.9323e-06
7.8e-11,-2.55076e-07
7.9e-11,-2.38807e-06
8e-11,-7.28652e-07
8.1e-11,1.44996e-07
8.2e-11,-1.89699e-06
8.3e-11,-3.45361e-08
8.4e-11,-1.20826e-06
8.5e-11,-7.20632e-07
8.6e-11,-3.6809e-09
8.7e-11,7.47258e-07
8.8e-11,-2.55506e-06
8.9e-11,-4.2632e-07
9e-11,-1.4393e-07
9.1e-11,-5.29934e-07
9.2e-11,-7.6786e-07
9.3e-11,-7.79285e-07
9.4e-11,-2.61956e-07
9.5e-11,-3.98879e-07
9.6e-11,-9.14911e-07
9.7e-11,-1.51157e-06
9.8e-11,-4.78179e-07
9.9e-11,-7.99495e-07
1e-10,-1.62594e-06
1.01e-10,-7.18701e-07
1.02e-10,-7.89274e-08
1.03e-10,-5.85212e-07
1.04e-10,-1.54433e-06
1.05e-10,-1.02892e-06
1.06e-10,-4.43768e-07
1.07e-10,-3.29008e-07
1.08e-10,-1.57762e-06
1.09e-10,-5.26062e-07
1.1e-10,-7.82901e-07
1.11e-10,1.15621e-07
1.12e-10,1.48439e-08
1.13e-10,-2.21335e-06
1.14e-10,2.68087e-07
1.15e-10,-1.22589e-06
1.16e-10,-2.47809e-07
1.17e-10,-1.93123e-08
1.18e-10,-1.26215e-07
1.19e-10,-1.26027e-06
1.2e-10,-1.01347e-06
1.21e-10,-8.88536e-07
1.22e-10,2.0846e-07
1.23e-10,-1.70181e-06
1.24e-10,-1.64603e-07
1.25e-10,-9.41219e-07
1.26e-10,-5.44541e-07
1.27e-10,-4.81091e-07
1.28e-10,-1.5131e-06
1.29e-10,-1.57585e-07
1.3e-10,-1.01864e-06
1.31e-10,-6.52527e-07
1.32e-10,-6.68068e-07
1.33e-10,-3.71447e-07
1.34e-10,-9.24152e-07
1.35e-10,4.07895e-07
1.36e-10,-8.64274e-07
1.37e-10,-1.21514e-07
1.38e-10,-6.66069e-07
1.39e-10,-2.31918e-07
1.4e-10,-1.28286e-06
1.41e-10,-1.74023e-06
1.42e-10,-2.42654e-07
1.43e-10,-3.74197e-08
1.44e-10,-1.22026e-06
1.45e-10,-6.17079e-07
1.46e-10,-4.5783e-07
1.47e-10,-5.98974e-07
1.48e-10,-5.33305e-07
1.49e-10,-4.00805e-07
1.5e-10,-5.88051e-07
1.51e-10,-3.06498e-07
1.52e-10,-3.931e-07
1.53e-10,-7.49968e-07
1.54e-10,2.53238e-07
1.55e-10,-8.08114e-07
1.56e-10,-1.65256e-07
1.57e-10,-7.32885e-07
1.58e-10,-1.16502e-06
1.59e-10,3.0145e-07
1.6e-10,-8.96702e-07
1.61e-10,-1.19457e-08
1.62e-10,-1.32205e-07
1.63e-10,-7.873e-07
1.64e-10,3.35888e-07
1.65e-10,-5.13748e-07
1.66e-10,9.22109e-07
1.67e-10,-6.03527e-07
1.68e-10,-1.41697e-06
1.69e-10,-7.56705e-07
1.7e-10,-1.0788e-06
1.71e-10,6.18518e-07
1.72e-10,-3.71961e-07
1.73e-10,-2.70194e-07
1.74e-10,-9.37871e-07
1.75e-10,7.00292e-08
1.76e-10,-1.12487e-06
1.77e-10,-3.98543e-07
1.78e-10,-4.88022e-07
1.79e-10,-5.9827e-07
1.8e-10,-1.31683e-06
1.81e-10,-4.53426e-07
1.82e-10,3.5251e-07
1.83e-10,-1.08295e-06
1.84e-10,-1.1141e-06
1.85e-10,-7.79976e-07
1.86e-10,-5.75042e-07
1.87e-10,-1.40532e-06
1.88e-10,-1.52049e-06
1.89e-10,5.2302e-07
1.9e-10,-8.50214e-07
1.91e-10,-5.99264e-07
1.92e-10,-9.67209e-07
1.93e-10,-1.14027e-06
1.94e-10,-2.20321e-07
1.95e-10,-2.42965e-07
1.96e-10,-1.93762e-06
1.97e-10,-2.19262e-07
1.98e-10,-6.32512e-07
1.99e-10,-3.69465e-07
2e-10,-5.33362e-08
2.01e-10,-2.15262e-07
2.02e-10,-1.04775e-06
2.03e-10,-6.63057e-07
2.04e-10,-5.5357e-07
2.05e-10,-5.90233e-07
2.06e-10,-8.88803e-07
2.07e-10,-2.22072e-07
2.08e-10,-2.29961e-07
2.09e-10,1.28259e-07
2.1e-10,-1.78776e-07
2.11e-10,-2.94275e-07
2.12e-10,-7.63599e-07
2.13e-10,-7.40626e-07
2.14e-10,-1.63972e-07
2.15e-10,-1.79308e-07
2.16e-10,-2.95349e-07
2.17e-10,-4.01386e-07
2.18e-10,-4.33782e-07
2.19e-10,-3.63139e-07
2.2e-10,-4.58711e-07
2.21e-10,-6.02749e-07
2.22e-10,-5.29762e-07
2.23e-10,-5.38842e-07
2.24e-10,-2.08603e-07
2.25e-10,-4.46173e-07
2.26e-10,-1.90491e-07
2.27e-10,-5.54053e-07
2.28e-10,-1.2487e-06
2.29e-10,1.161e-06
2.3e-10,-1.21715e-06
2.31e-10,-5.68122e-07
2.32e-10,-3.77007e-07
2.33e-10,-1.39153e-06
2.34e-10,-1.9431e-07
2.35e-10,-1.06267e-06
2.36e-10,9.87867e-09
2.37e-10,-7.41185e-07
2.38e-10,-1.19499e-06
2.39e-10,-2.55033e-07
2.4e-10,-1.43913e-06
2.41e-10,-8.33155e-07
2.42e-10,1.05715e-07
2.43e-10,-6.21194e-07
2.44e-10,-1.35476e-06
2.45e-10,-3.12935e-07
2.46e-10,-9.52849e-07
2.47e-10,-7.2924e-07
2.48e-10,-7.55713e-07
2.49e-10,2.36022e-07
2.5e-10,-1.07315e-06
2.51e-10,-4.9246e-07
2.52e-10,-1.17838e-06
2.53e-10,-4.54568e-07
2.54e-10,-3.33027e-07
2.55e-10,-7.68611e-07
2.56e-10,-4.61924e-07
2.57e-10,-1.24226e-06
2.58e-10,-1.86262e-07
2.59e-10,-7.4139e-07
2.6e-10,-9.09129e-08
2.61e-10,-3.93773e-08
2.62e-10,-1.72176e-06
2.63e-10,1.79686e-07
2.64e-10,-4.58885e-07
2.65e-10,-1.09679e-06
2.66e-10,-3.658e-07
2.67e-10,-3.40385e-07
2.68e-10,-4.90749e-07
2.69e-10,1.5394e-07
2.7e-10,-1.09312e-06
2.71e-10,-1.66197e-06
2.72e-10,-2.72234e-07
2.73e-10,-8.74795e-07
2.74e-10,-1.51504e-06
2.75e-10,-5.36908e-07
2.76e-10,1.17477e-07
2.77e-10,-1.26822e-06
2.78e-10,-5.48729e-07
2.79e-10,-5.96681e-07
2.8e-10,3.45646e-07
2.81e-10,-8.01725e-07
2.82e-10,-6.74474e-07
2.83e-10,1.73617e-07
2.84e-10,-1.71064e-06
2.85e-10,-6.72497e-07
2.86e-10,-2.08641e-07
2.87e-10,-7.4456e-07
2.88e-10,1.98528e-07
2.89e-10,-2.2801e-06
2.9e-10,-1.964e-07
2.91e-10,1.1166e-07
2.92e-10,-8.10715e-07
2.93e-10,4.37443e-07
2.94e-10,-1.74437e-07
2.95e-10,4.80324e-08
2.96e-10,-9.79538e-07
2.97e-10,-4.28208e-07
2.98e-10,1.38893e-07
2.99e-10,-6.36988e-07
3e-10,-5.28264e-07
3.01e-10,-1.20351e-06
3.02e-10,-2.33078e-07
3.03e-10,1.51223e-07
3.04e-10,4.77524e-08
3.05e-10,4.57109e-07
3.06e-10,5.67976e-07
3.07e-10,-4.97894e-07
3.08e-10,1.61802e-07
3.09e-10,-9.12761e-07
3.1e-10,-8.51664e-07
3.11e-10,-1.3331e-07
3.12e-10,1.92896e-08
3.13e-10,4.84632e-07
3.14e-10,-1.40802e-07
3.15e-10,-3.57705e-08
3.16e-10,2.55642e-07
3.17e-10,-6.03986e-07
3.18e-10,-7.3522e-07
3.19e-10,-4.01209e-07
3.2e-10,-1.20957e-07
3.21e-10,3.38476e-07
3.22e-10,-2.26418e-07
3.23e-10,-5.63077e-07
3.24e-10,-8.99658e-08
3.25e-10,3.40383e-07
3.26e-10,-1.63135e-07
3.27e-10,7.31272e-07
3.28e-10,-5.93571e-07
3.29e-10,-1.37079e-07
3.3e-10,-4.23687e-07
3.31e-10,6.69271e-07
3.32e-10,-1.30857e-07
3.33e-10,-1.2986e-08
3.34e-10,-1.0994e-06
3.35e-10,1.19101e-07
3.36e-10,-2.67758e-07
3.37e-10,-1.53559e-07
3.38e-10,2.54905e-08
3.39e-10,-6.31416e-07
3.4e-10,-6.34884e-07
3.41e-10,-7.56611e-08
3.42e-10,-1.09786e-06
3.43e-10,-1.7527e-07
3.44e-10,-1.86431e-07
3.45e-10,-9.62587e-07
3.46e-10,-1.26318e-07
3.47e-10,-9.69092e-08
3.48e-10,-4.11354e-07
3.49e-10,-9.52095e-07
3.5e-10,-1.50486e-07
3.51e-10,-1.94741e-07
3.52e-10,-6.02246e-07
3.53e-10,-8.70575e-07
3.54e-10,-1.84852e-07
3.55e-10,9.57173e-08
3.56e-10,-9.30226e-07
3.57e-10,3.98589e-08
3.58e-10,-6.50748e-07
3.59e-10,-4.16724e-07
3.6e-10,2.00375e-07
3.61e-10,-8.77732e-07
3.62e-10,-3.34119e-07
3.63e-10,-8.24096e-07
3.64e-10,-5.46469e-07
3.65e-10,-5.52043e-07
3.66e-10,-2.00301e-07
3.67e-10,-1.00452e-06
3.68e-10,-1.0435e-07
3.69e-10,-9.78292e-08
3.7e-10,-1.04522e-06
3.71e-10,6.71014e-07
3.72e-10,-2.04277e-06
3.73e-10,-3.31478e-07
3.74e-10,1.46258e-07
3.75e-10,-4.26224e-07
3.76e-10,3.66784e-07
3.77e-10,-6.26934e-07
3.78e-10,-3.48606e-07
3.79e-10,-1.54852e-06
3.8e-10,3.58723e-07
3.81e-10,6.1769e-07
3.82e-10,-9.29879e-08
3.83e-10,-3.22984e-07
3.84e-10,-9.27779e-08
3.85e-10,-8.54937e-07
3.86e-10,-2.45037e-07
3.87e-10,-1.77935e-07
3.88e-10,-7.85075e-07
3.89e-10,-4.56936e-07
3.9e-10,-1.64698e-07
3.91e-10,-4.39826e-08
3.92e-10,-6.68072e-07
3.93e-10,-3.58614e-07
3.94e-10,2.50805e-07
3.95e-10,2.2836e-07
3.96e-10,-1.31686e-07
3.97e-10,-7.09183e-07
3.98e-10,-6.67008e-07
3.99e-10,-8.66395e-07
4e-10,-3.50999e-07
4.01e-10,-1.0605e-08
4.02e-10,-3.48036e-07
4.03e-10,-4.74876e-08
4.04e-10,-7.71538e-07
4.05e-10,-1.92278e-07
4.06e-10,-5.10447e-07
4.07e-10,-1.94754e-07
4.08e-10,-1.17116e-06
4.09e-10,-4.66671e-07
4.1e-10,-1.93649e-07
4.11e-10,-3.5432e-07
4.12e-10,-7.11426e-07
4.13e-10,-6.89429e-08
4.14e-10,-2.19697e-07
4.15e-10,-7.40363e-08
4.16e-10,-1.20185e-07
4.17e-10,-1.79526e-06
4.18e-10,-4.61375e-07
4.19e-10,-1.60347e-06
4.2e-10,-4.41098e-07
4.21e-10,-1.57664e-06
4.22e-10,3.37122e-07
4.23e-10,2.0386e-07
4.24e-10,-1.1759e-06
4.25e-10,-1.19159e-06
4.26e-10,-4.80079e-07
4.27e-10,6.99579e-08
4.28e-10,-1.10143e-06
4.29e-10,-5.21548e-07
4.3e-10,-1.37276e-06
4.31e-10,-5.69521e-07
4.32e-10,4.43082e-07
4.33e-10,-2.57386e-07
4.34e-10,-1.28598e-07
4.35e-10,3.17272e-07
4.36e-10,-6.84596e-07
4.37e-10,-9.72918e-07
4.38e-10,-4.87754e-07
4.39e-10,-9.94825e-08
4.4e-10,-7.29435e-07
4.41e-10,1.3277e-07
4.42e-10,-9.21083e-07
4.43e-10,-2.97885e-07
4.44e-10,-9.78363e-08
4.45e-10,-7.83198e-07
4.46e-10,-1.1485e-06
4.47e-10,-2.46143e-07
4.48e-10,-1.8069e-07
4.49e-10,-1.11075e-06
4.5e-10,-8.65322e-07
4.51e-10,6.52269e-08
4.52e-10,6.40849e-07
4.53e-10,-1.62129e-07
4.54e-10,-2.82858e-07
4.55e-10,-1.04579e-06
4.56e-10,-6.83233e-07
4.57e-10,1.53025e-07
4.58e-10,-1.13739e-07
4.59e-10,3.39968e-07
4.6e-10,4.21296e-07
4.61e-10,-3.63256e-07
4.62e-10,-2.65406e-07
4.63e-10,1.20857e-07
4.64e-10,2.18843e-07
4.65e-10,-3.39361e-07
4.66e-10,-1.71384e-07
4.67e-10,-9.59626e-08
4.68e-10,-8.33341e-07
4.69e-10,3.22749e-07
4.7e-10,-2.02191e-08
4.71e-10,9.38721e-08
4.72e-10,8.76671e-08
4.73e-10,-1.59489e-07
4.74e-10,-5.65573e-08
4.75e-10,-7.24005e-07
4.76e-10,2.06745e-07
4.77e-10,-1.03916e-06
4.78e-10,1.57186e-07
4.79e-10,-6.75421e-07
4.8e-10,-2.46967e-07
4.81e-10,9.31999e-08
4.82e-10,-8.98952e-07
4.83e-10,-6.49144e-07
4.84e-10,-2.62564e-07
4.85e-10,-5.28833e-07
4.86e-10,-2.29251e-06
4.87e-10,7.11993e-07
4.88e-10,-2.23544e-07
4.89e-10,-1.09686e-06
4.9e-10,-5.36083e-08
4.91e-10,-5.91816e-07
4.92e-10,1.3289e-08
4.93e-10,-8.26398e-07
4.94e-10,9.34123e-07
4.95e-10,1.99332e-08
4.96e-10,2.33084e-07
4.97e-10,3.39269e-07
4.98e-10,-2.71719e-07
4.99e-10,-9.17173e-08
5e-10,-2.62527e-08
5.01e-10,-2.66595e-07
5.02e-10,-9.78306e-07
5.03e-10,2.55873e-08
5.04e-10,4.76301e-07
5.05e-10,-8.28957e-07
5.06e-10,3.88867e-07
5.07e-10,-3.24242e-07
5.08e-10,-4.58506e-07
5.09e-10,3.02869e-07
5.1e-10,-8.25367e-07
5.11e-10,2.69599e-07
5.12e-10,-8.55073e-07
5.13e-10,-5.08637e-07
5.14e-10,1.84802e-07
5.15e-10,-7.01885e-07
5.16e-10,-3.73426e-07
5.17e-10,6.2371e-07
5.18e-10,-4.74985e-07
5.19e-10,-6.48648e-07
5.2e-10,-4.15002e-07
5.21e-10,-3.18208e-07
5.22e-10,2.50255e-07
5.23e-10,-6.7504e-07
5.24e-10,-1.59493e-08
5.25e-10,-1.21511e-07
5.26e-10,-7.59776e-07
5.27e-10,-8.14626e-07
5.28e-10,-5.25835e-07
5.29e-10,-3.67535e-08
5.3e-10,-9.15109e-07
5.31e-10,-6.20299e-07
5.32e-10,-1.87238e-07
5.33e-10,-2.31371e-07
5.34e-10,6.87406e-07
5.35e-10,2.91572e-07
5.36e-10,-5.70096e-07
5.37e-10,1.94468e-07
5.38e-10,-9.30263e-08
5.39e-10,-5.28878e-07
5.4e-10,4.6267e-08
5.41e-10,-5.68097e-08
5.42e-10,3.03577e-07
5.43e-10,-2.19978e-07
5.44e-10,1.02013e-07
5.45e-10,-1.59316e-07
5.46e-10,-2.44665e-07
5.47e-10,-5.63186e-07
5.48e-10,-8.09123e-08
5.49e-10,2.34052e-07
5.5e-10,-2.32445e-07
5.51e-10,-6.54347e-07
5.52e-10,6.10586e-08
5.53e-10,-2.76704e-07
5.54e-10,-1.18747e-07
5.55e-10,-1.13322e-06
5.56e-10,3.77124e-08
5.57e-10,-2.53102e-07
5.58e-10,-3.64285e-08
5.59e-10,-1.14121e-07
5.6e-10,-7.16486e-07
5.61e-10,4.05113e-07
5.62e-10,-4.26286e-08
5.63e-10,-3.963e-07
5.64e-10,4.59119e-08
5.65e-10,-1.82055e-07
5.66e-10,-4.12796e-08
5.67e-10,1.50369e-08
5.68e-10,-1.51844e-07
5.69e-10,4.02876e-07
5.7e-10,3.74917e-07
5.71e-10,-2.97437e-07
5.72e-10,9.44319e-08
5.73e-10,5.07725e-09
5.74e-10,-2.12833e-07
5.75e-10,2.55337e-07
5.76e-10,-8.68841e-07
5.77e-10,-1.64707e-07
5.78e-10,2.28693e-07
5.79e-10,-1.1055e-08
5.8e-10,2.90457e-07
5.81e-10,1.27074e-08
5.82e-10,2.07465e-07
5.83e-10,-1.04506e-06
5.84e-10,-8.89653e-07
5.85e-10,3.81669e-07
5.86e-10,8.81687e-08
5.87e-10,4.15767e-07
5.88e-10,-8.37639e-07
5.89e-10,-2.69414e-08
5.9e-10,2.47317e-07
5.91e-10,-9.24235e-08
5.92e-10,-4.90049e-07
5.93e-10,1.67239e-09
5.94e-10,-1.06033e-06
5.95e-10,-1.59835e-07
5.96e-10,-6.85183e-07
5.97e-10,6.36633e-07
5.98e-10,-4.09467e-07
5.99e-10,-3.1855e-07
6e-10,-1.46427e-06
6.01e-10,-3.29093e-08
6.02e-10,2.69709e-07
6.03e-10,4.14937e-08
6.04e-10,-1.26417e-07
6.05e-10,1.92428e-07
6.06e-10,-9.50723e-07
6.07e-10,-3.07143e-08
6.08e-10,-6.52543e-08
6.09e-10,1.09553e-07
6.1e-10,3.76831e-07
6.11e-10,-3.19423e-08
6.12e-10,-6.35228e-08
6.13e-10,-5.85559e-08
6.14e-10,-2.42176e-07
6.15e-10,7.51224e-08
6.16e-10,3.2336e-07
6.17e-10,-1.30979e-07
6.18e-10,-1.32217e-06
6.19e-10,7.68625e-07
6.2e-10,-8.5699e-07
6.21e-10,-2.48359e-07
6.22e-10,4.04146e-07
6.23e-10,-9.2804e-07
6.24e-10,1.49256e-07
6.25e-10,-4.58771e-09
6.26e-10,-5.96049e-08
6.27e-10,-8.32838e-07
6.28e-10,2.95897e-07
6.29e-10,-1.73881e-07
6.3e-10,-1.02011e-06
6.31e-10,-5.89496e-07
6.32e-10,-3.24532e-08
6.33e-10,-9.54108e-08
6.34e-10,1.03741e-07
6.35e-10,-7.67511e-07
6.36e-10,-1.25214e-07
6.37e-10,-3.68313e-08
6.38e-10,-9.49584e-08
6.39e-10,-1.31486e-07
6.4e-10,-3.28011e-08
6.41e-10,-1.64636e-07
6.42e-10,-3.9134e-07
6.43e-10,-3.1542e-07
6.44e-10,-3.13906e-08
6.45e-10,-6.19748e-08
6.46e-10,-3.48073e-08
6.47e-10,-1.26269e-09
6.48e-10,-8.80289e-08
6.49e-10,-2.82367e-08
6.5e-10,-2.13659e-07
6.51e-10,-5.97609e-08
6.52e-10,2.38836e-07
6.53e-10,-2.98581e-07
6.54e-10,-7.32203e-08
6.55e-10,-1.8719e-08
6.56e-10,-4.13961e-09
6.57e-10,-2.74407e-08
6.58e-10,-6.6955e-08
6.59e-10,-2.99027e-08
6.6e-10,-6.8386e-08
6.61e-10,-5.99773e-08
6.62e-10,3.48742e-08
6.63e-10,-2.27679e-08
6.64e-10,9.44596e-08
6.65e-10,-1.22196e-07
6.66e-10,1.10932e-07
6.67e-10,-1.55285e-07
6.68e-10,7.17569e-08
6.69e-10,-6.27169e-08
6.7e-10,-3.10598e-08
6.71e-10,-2.58619e-08
6.72e-10,1.89162e-07
6.73e-10,-2.49172e-08
6.74e-10,3.57404e-08
6.75e-10,-5.76777e-08
6.76e-10,-2.64177e-07
6.77e-10,-2.48827e-08
6.78e-10,3.09896e-07
6.79e-10,5.24106e-10
6.8e-10,-3.76024e-09
6.81e-10,-1.5853e-07
6.82e-10,3.17916e-07
6.83e-10,1.53934e-07
6.84e-10,-3.4011e-07
6.85e-10,7.23145e-07
6.86e-10,-1.82883e-08
6.87e-10,-3.03095e-07
6.88e-10,2.93911e-07
6.89e-10,2.38099e-07
6.9e-10,3.28002e-08
6.91e-10,-4.24641e-07
6.92e-10,3.361e-07
6.93e-10,-2.96995e-08
6.94e-10,-1.16029e-07
6.95e-10,-2.07342e-08
6.96e-10,2.68369e-08
6.97e-10,1.04593e-07
6.98e-10,1.88797e-07
6.99e-10,-6.85368e-08
7e-10,3.99099e-08
7.01e-10,-1.50166e-07
7.02e-10,-1.10191e-07
7.03e-10,-5.55825e-08
7.04e-10,-2.39224e-09
7.05e-10,3.38677e-09
7.06e-10,5.99727e-08
7.07e-10,-2.59416e-08
7.08e-10,-2.87885e-08
7.09e-10,-2.64923e-08
7.1e-10,-1.48612e-07
7.11e-10,0
7.12e-10,-2.83517e-08
7.13e-10,-6.2062e-08
7.14e-10,-3.54861e-08
7.15e-10,-2.85193e-08
7.16e-10,-3.36768e-08
7.17e-10,6.66215e-10
7.18e-10,-1.54374e-07
7.19e-10,-3.74582e-09
7.2e-10,-3.91772e-08
7.21e-10,-4.80259e-08
7.22e-10,-3.5833e-09
7.23e-10,-2.53641e-08
7.24e-10,-6.35427e-08
7.25e-10,7.27472e-10
7.26e-10,-2.81393e-08
7.27e-10,-9.97326e-08
7.28e-10,1.59643e-10
7.29e-10,-2.15458e-09
7.3e-10,-1.56541e-07
7.31e-10,-2.78694e-08
7.32e-10,1.31292e-07
7.33e-10,-2.97228e-08
7.34e-10,2.70786e-08
7.35e-10,-2.88382e-08
7.36e-10,-3.57685e-07
7.37e-10,1.55724e-07
7.38e-10,-3.46272e-08
7.39e-10,3.5156e-08
7.4e-10,-6.90215e-08
7.41e-10,3.43605e-08
7.42e-10,1.67499e-09
7.43e-10,-5.19492e-08
7.44e-10,-6.0162e-08
7.45e-10,-1.43944e-07
7.46e-10,3.53408e-08
7.47e-10,-3.17442e-08
7.48e-10,4.9528e-11
7.49e-10,-7.60055e-10
7.5e-10,1.26811e-09
7.51e-10,-1.81756e-07
7.52e-10,-2.34993e-09
7.53e-10,-3.12538e-08
7.54e-10,-1.51599e-07
7.55e-10,-2.95222e-08
7.56e-10,-2.84758e-08
7.57e-10,-2.06823e-09
7.58e-10,7.92638e-10
7.59e-10,3.34812e-08
7.6e-10,-4.73944e-10
7.61e-10,-9.48989e-08
7.62e-10,3.10917e-08
7.63e-10,-1.26662e-07
7.64e-10,-3.85768e-08
7.65e-10,1.50389e-09
7.66e-10,2.90183e-08
7.67e-10,-9.46331e-08
7.68e-10,-1.25276e-09
7.69e-10,-2.89844e-08
7.7e-10,-6.0145e-08
7.71e-10,4.04207e-09
7.72e-10,-1.08022e-07
7.73e-10,-2.45136e-09
7.74e-10,-2.88105e-08
7.75e-10,-5.83326e-08
7.76e-10,1.0826e-09
7.77e-10,0
7.78e-10,-5.85066e-10
7.79e-10,3.54888e-08
7.8e-10,-3.54744e-08
7.81e-10,-1.85097e-07
7.82e-10,2.25589e-09
7.83e-10,0
7.84e-10,-1.52298e-09
7.85e-10,-5.9205e-08
7.86e-10,3.1422e-08
7.87e-10,2.31218e-09
7.88e-10,-2.71528e-07
7.89e-10,1.98653e-09
7.9e-10,-3.6515e-10
7.91e-10,-1.35129e-09
7.92e-10,-1.42409e-07
7.93e-10,-2.98445e-08
7.94e-10,1.40762e-07
7.95e-10,-3.24684e-08
7.96e-10,-1.40178e-07
7.97e-10,-1.40992e-11
7.98e-10,-2.66919e-07
7.99e-10,-2.48555e-08
8e-10,-3.06389e-08
8.01e-10,-3.38752e-08
8.02e-10,-3.18974e-08
8.03e-10,3.02508e-08
8.04e-10,-6.2898e-08
8.05e-10,-2.25586e-09
8.06e-10,1.30846e-09
8.07e-10,1.53647e-09
8.08e-10,-2.39801e-07
8.09e-10,4.61434e-09
8.1e-10,-2.28083e-10
8.11e-10,-3.55649e-08
8.12e-10,-3.17779e-08
8.13e-10,9.80273e-10
8.14e-10,-9.29786e-10
8.15e-10,-1.8484e-11
8.16e-10,-2.89256e-07
8.17e-10,-9.15107e-10
8.18e-10,-2.28083e-10
8.19e-10,-6.51663e-11
8.2e-10,3.25831e-11
8.21e-10,-3.03141e-08
8.22e-10,-2.55782e-07
8.23e-10,7.51485e-10
8.24e-10,-3.30558e-08
8.25e-10,-4.10169e-07
8.26e-10,-6.62586e-08
8.27e-10,3.28603e-08
8.28e-10,-3.28277e-08
8.29e-10,-8.27174e-10
8.3e-10,-6.29427e-08
8.31e-10,3.28074e-08
8.32e-10,-3.40617e-07
8.33e-10,3.33837e-08
8.34e-10,3.25831e-11
8.35e-10,-7.0468e-07
8.36e-10,-2.28083e-10
8.37e-10,-4.83089e-07
8.38e-10,-1.52888e-10
8.39e-10,2.28083e-10
8.4e-10,-2.28083e-10
8.41e-10,-2.28083e-10
8.42e-10,4.11806e-10
8.43e-10,-2.08054e-11
8.44e-10,-4.51551e-07
8.45e-10,-1.85786e-10
8.46e-10,2.02224e-09
8.47e-10,-1.0649e-09
8.48e-10,7.51908e-10
8.49e-10,-7.40015e-08
8.5e-10,0
8.51e-10,5.59102e-11
8.52e-10,-2.95629e-08
8.53e-10,-1.2174e-09
8.54e-10,-9.79991e-10
8.55e-10,0
8.56e-10,-1.73197e-09
8.57e-10,1.62138e-09
8.58e-10,3.25831e-11
8.59e-10,7.115e-11
8.6e-10,-3.28929e-08
8.61e-10,3.36449e-08
8.62e-10,-3.25831e-11
8.63e-10,-3.36124e-08
8.64e-10,3.35111e-08
8.65e-10,3.1107e-08
8.66e-10,-3.34572e-08
8.67e-10,-2.13699e-09
8.68e-10,-3.13078e-08
8.69e-10,0
8.7e-10,-3.37752e-08
8.71e-10,3.38943e-08
8.72e-10,-3.37392e-08
8.73e-10,3.2719e-08
8.74e-10,-2.88105e-08
8.75e-10,0
8.76e-10,-2.8856e-11
8.77e-10,2.28083e-10
8.78e-10,1.55091e-10
8.79e-10,-1.91964e-09
8.8e-10,-1.955e-10
8.81e-10,-3.25831e-11
8.82e-10,1.50389e-09
8.83e-10,2.28083e-10
8.84e-10,-2.28083e-10
8.85e-10,4.23584e-10
8.86e-10,-3.38404e-08
8.87e-10,2.28083e-10
8.88e-10,-2.28083e-10
8.89e-10,2.60667e-10
8.9e-10,-1.955e-10
8.91e-10,-2.60667e-10
8.92e-10,2.28083e-10
8.93e-10,2.28083e-10
8.94e-10,-1.955e-10
8.95e-10,4.70434e-10
8.96e-10,2.90053e-08
8.97e-10,-2.28083e-10
8.98e-10,-1.87674e-10
8.99e-10,-2.88644e-08
9e-10,2.88644e-08
9.01e-10,-5.38997e-11
9.02e-10,-3.28631e-08
9.03e-10,-6.48847e-10
9.04e-10,1.955e-10
9.05e-10,0
9.06e-10,-1.955e-10
9.07e-10,2.28083e-10
9.08e-10,-2.90386e-08
9.09e-10,6.18664e-08
9.1e-10,-3.28929e-08
9.11e-10,4.04976e-09
9.12e-10,2.73067e-08
9.13e-10,-2.79179e-08
9.14e-10,1.40992e-11
9.15e-10,2.13984e-10
9.16e-10,-1.50389e-09
9.17e-10,3.55912e-11
9.18e-10,1.955e-10
9.19e-10,-3.1389e-08
9.2e-10,-4.23584e-10
9.21e-10,-1.955e-10
9.22e-10,-3.00805e-12
9.23e-10,3.00805e-12
9.24e-10,1.955e-10
9.25e-10,-2.28083e-10
9.26e-10,2.28083e-10
9.27e-10,-3.91001e-10
9.28e-10,4.23584e-10
9.29e-10,3.25831e-11
9.3e-10,-3.25831e-11
9.31e-10,3.91001e-10
9.32e-10,3.25831e-11
9.33e-10,-6.51667e-10
9.34e-10,2.28083e-10
9.35e-10,-1.955e-10
9.36e-10,0
9.37e-10,-4.56167e-10
9.38e-10,4.23584e-10
9.39e-10,0
9.4e-10,-4.56167e-10
9.41e-10,3.25831e-11
9.42e-10,4.56167e-10
9.43e-10,7.07013e-10
9.44e-10,-7.04958e-12
9.45e-10,-2.28083e-10
9.46e-10,0
9.47e-10,2.28083e-10
9.48e-10,-2.28083e-10
9.49e-10,2.28083e-10
9.5e-10,-3.25831e-11
9.51e-10,-6.98517e-10
9.52e-10,6.98517e-10
9.53e-10,-5.03017e-10
9.54e-10,2.28083e-10
9.55e-10,-6.51667e-10
9.56e-10,0
9.57e-10,9.12334e-10
9.58e-10,-9.44917e-10
9.59e-10,5.03017e-10
9.6e-10,2.28083e-10
9.61e-10,-2.4235e-10
9.62e-10,2.74934e-10
9.63e-10,-3.25831e-11
9.64e-10,-1.62917e-10
9.65e-10,-1.955e-10
9.66e-10,-2.28083e-10
9.67e-10,4.56167e-10
9.68e-10,-6.51663e-11
9.69e-10,-3.58417e-10
9.7e-10,1.955e-10
9.71e-10,-1.955e-10
9.72e-10,0
9.73e-10,0
9.74e-10,3.83951e-10
9.75e-10,2.49232e-10
9.76e-10,-2.35133e-10
9.77e-10,-2.21034e-10
9.78e-10,1.8484e-11
9.79e-10,0
9.8e-10,-3.96327e-11
9.81e-10,2.28083e-10
9.82e-10,2.28083e-10
9.83e-10,-4.56167e-10
9.84e-10,7.04958e-12
9.85e-10,2.28083e-10
9.86e-10,2.28083e-10
9.87e-10,-2.0255e-10
9.88e-10,1.955e-10
9.89e-10,-4.56167e-10
9.9e-10,8.34347e-10
9.91e-10,-4.23584e-10
9.92e-10,0
9.93e-10,4.23584e-10
9.94e-10,4.56167e-10
9.95e-10,-2.65828e-10
9.96e-10,4.42068e-10
9.97e-10,-4.56167e-10
9.98e-10,2.60667e-10
9.99e-10,-4.8875e-10
1e-09,0
1.001e-09,-4.18422e-10
1.002e-09,1.955e-10
1.003e-09,2.55505e-10
1.004e-09,1.955e-10
1.005e-09,0
1.006e-09,3.25831e-11
1.007e-09,0
1.008e-09,-2.28083e-10
1.009e-09,-1.90339e-10
1.01e-09,1.955e-10
1.011e-09,-4.56167e-10
1.012e-09,3.25831e-11
1.013e-09,-3.25831e-11
1.014e-09,-2.28083e-10
1.015e-09,2.28083e-10
1.016e-09,0
1.017e-09,0
1.018e-09,4.23584e-10
1.019e-09,-3.91001e-10
1.02e-09,1.955e-10
1.021e-09,1.955e-10
1.022e-09,-1.955e-10
1.023e-09,0
1.024e-09,1.955e-10
1.025e-09,-1.955e-10
1.026e-09,0
1.027e-09,4.23584e-10
1.028e-09,2.28083e-10
1.029e-09,-4.22975e-11
1.03e-09,2.70381e-10
1.031e-09,-6.51667e-10
1.032e-09,2.28083e-10
1.033e-09,-2.28083e-10
1.034e-09,1.955e-10
1.035e-09,-3.25831e-11
1.036e-09,-4.23584e-10
1.037e-09,-1.955e-10
1.038e-09,-4.65881e-10
1.039e-09,4.23584e-10
1.04e-09,4.56167e-10
1.041e-09,-2.28083e-10
1.042e-09,2.28083e-10
1.043e-09,4.22975e-11
1.044e-09,-4.23584e-10
1.045e-09,-3.25831e-11
1.046e-09,-2.28083e-10
1.047e-09,0
1.048e-09,-4.23584e-10
1.049e-09,-3.25831e-11
1.05e-09,-2.88105e-08
1.051e-09,0
1.052e-09,2.92667e-08
1.053e-09,2.28083e-10
1.054e-09,-2.28083e-10
1.055e-09,-2.28083e-10
1.056e-09,0
1.057e-09,0
1.058e-09,-2.28083e-10
1.059e-09,3.25831e-11
1.06e-09,-3.25831e-11
1.061e-09,0
1.062e-09,3.25831e-11
1.063e-09,-2.28083e-10
1.064e-09,0
1.065e-09,4.23584e-10
1.066e-09,-4.23584e-10
1.067e-09,0
1.068e-09,2.28083e-10
1.069e-09,0
1.07e-09,0
1.071e-09,-2.85825e-08
1.072e-09,-2.28083e-10
1.073e-09,0
1.074e-09,-3.25831e-11
1.075e-09,0
1.076e-09,-1.955e-10
1.077e-09,3.91001e-10
1.078e-09,0
1.079e-09,0
1.08e-09,2.28083e-10
1.081e-09,-2.28083e-10
1.082e-09,2.28083e-10
1.083e-09,-4.23584e-10
1.084e-09,0
1.085e-09,0
1.086e-09,0
1.087e-09,0
1.088e-09,0
1.089e-09,-1.955e-10
1.09e-09,0
1.091e-09,0
1.092e-09,0
1.093e-09,-3.13971e-08
1.094e-09,0
1.095e-09,0
1.096e-09,0
1.097e-09,0
1.098e-09,2.28083e-10
1.099e-09,0
1.1e-09,0
1.101e-09,-2.28083e-10
1.102e-09,-2.76359e-08
1.103e-09,-1.85786e-10
1.104e-09,0
1.105e-09,1.85786e-10
1.106e-09,0
1.107e-09,4.22975e-11
1.108e-09,-2.28083e-10
1.109e-09,-1.90301e-08
1.11e-09,1.92582e-08
1.111e-09,0
1.112e-09,-3.07848e-08
1.113e-09,0
1.114e-09,0
1.115e-09,-1.90301e-08
1.116e-09,1.8802e-08
1.117e-09,0
1.118e-09,0
1.119e-09,0
1.12e-09,0
1.121e-09,-2.04361e-08
1.122e-09,-2.44141e-08
1.123e-09,0
1.124e-09,0
1.125e-09,1.74287e-08
1.126e-09,-6.50331e-09
1.127e-09,8.46315e-09
1.128e-09,-6.50331e-09
1.129e-09,6.50331e-09
1.13e-09,-2.28083e-10
1.131e-09,0
1.132e-09,-1.50367e-09
1.133e-09,0
1.134e-09,-2.63996e-08
1.135e-09,0
1.136e-09,0
1.137e-09,0
1.138e-09,0
1.139e-09,0
1.14e-09,0
1.141e-09,0
1.142e-09,2.42183e-10
1.143e-09,-2.42183e-10
1.144e-09,-2.75885e-08
1.145e-09,-2.28083e-10
1.146e-09,1.40992e-11
1.147e-09,0
1.148e-09,0
1.149e-09,-1.40992e-11
1.15e-09,0
1.151e-09,-2.28083e-10
1.152e-09,0
1.153e-09,-2.8438e-08
1.154e-09,0
1.155e-09,0
1.156e-09,0
1.157e-09,2.28083e-10
1.158e-09,-1.50367e-09
1.159e-09,-2.28083e-10
1.16e-09,-2.57056e-08
1.161e-09,2.28083e-10
1.162e-09,-1.22169e-09
1.163e-09,-1.955e-10
1.164e-09,1.22169e-09
1.165e-09,-2.95415e-09
1.166e-09,2.28083e-10
1.167e-09,0
1.168e-09,1.50438e-09
1.169e-09,-2.85688e-08
1.17e-09,0
1.171e-09,0
1.172e-09,-6.40556e-09
1.173e-09,-2.72607e-09
1.174e-09,6.40556e-09
1.175e-09,-6.30781e-09
1.176e-09,0
1.177e-09,0
1.178e-09,-2.87457e-08
1.179e-09,0
1.18e-09,0
1.181e-09,0
1.182e-09,6.25742e-09
1.183e-09,0
1.184e-09,2.28083e-10
1.185e-09,-2.28083e-10
1.186e-09,0
1.187e-09,-3.18722e-08
1.188e-09,2.77927e-09
1.189e-09,2.28083e-10
1.19e-09,-2.28083e-10
1.191e-09,-3.00735e-09
1.192e-09,0
1.193e-09,0
1.194e-09,0
1.195e-09,0
1.196e-09,0
1.197e-09,-3.05966e-08
1.198e-09,0
1.199e-09,0
1.2e-09,0
1.201e-09,0
1.202e-09,0
1.203e-09,-1.40992e-11
1.204e-09,0
1.205e-09,0
1.206e-09,-3.08356e-08
1.207e-09,0
1.208e-09,0
1.209e-09,0
1.21e-09,0
1.211e-09,0
1.212e-09,0
1.213e-09,2.28083e-10
1.214e-09,0
1.215e-09,-2.95981e-08
1.216e-09,0
1.217e-09,0
1.218e-09,-1.955e-10
1.219e-09,0
1.22e-09,0
1.221e-09,0
1.222e-09,-2.88102e-08
1.223e-09,0
1.224e-09,-1.50438e-09
1.225e-09,0
1.226e-09,1.50438e-09
1.227e-09,0
1.228e-09,-1.50438e-09
1.229e-09,0
1.23e-09,0
1.231e-09,-3.13481e-08
1.232e-09,0
1.233e-09,0
1.234e-09,0
1.235e-09,0
1.236e-09,0
1.237e-09,0
1.238e-09,0
1.239e-09,0
1.24e-09,-3.06798e-08
1.241e-09,0
1.242e-09,0
1.243e-09,0
1.244e-09,0
1.245e-09,0
1.246e-09,0
1.247e-09,0
1.248e-09,0
1.249e-09,-3.58682e-08
1.25e-09,4.51173e-09
1.251e-09,0
1.252e-09,-4.51173e-09
1.253e-09,0
1.254e-09,0
1.255e-09,4.51173e-09
1.256e-09,-3.36124e-08
1.257e-09,0
1.258e-09,0
1.259e-09,0
1.26e-09,-6.76759e-09
1.261e-09,0
1.262e-09,2.28083e-10
1.263e-09,-2.28083e-10
1.264e-09,-3.12088e-08
1.265e-09,0
1.266e-09,0
1.267e-09,0
1.268e-09,6.76759e-09
1.269e-09,0
1.27e-09,0
1.271e-09,0
1.272e-09,0
1.273e-09,-3.05966e-08
1.274e-09,0
1.275e-09,-2.28083e-10
1.276e-09,0
1.277e-09,-7.51908e-09
1.278e-09,0
1.279e-09,1.50367e-09
1.28e-09,-1.50367e-09
1.281e-09,-3.68298e-08
1.282e-09,0
1.283e-09,0
1.284e-09,-2.28083e-10
1.285e-09,2.28083e-10
1.286e-09,-7.4937e-10
1.287e-09,0
1.288e-09,0
1.289e-09,0
1.29e-09,-3.36124e-08
1.291e-09,5.19172e-10
1.292e-09,0
1.293e-09,0
1.294e-09,-5.51755e-10
1.295e-09,-1.955e-10
1.296e-09,0
1.297e-09,0
1.298e-09,0
1.299e-09,0
1.3e-09,-3.13565e-08
1.301e-09,0
1.302e-09,0
1.303e-09,-1.00104e-08
1.304e-09,0
1.305e-09,2.28083e-10
1.306e-09,8.27371e-09
1.307e-09,0
1.308e-09,-3.53959e-08
1.309e-09,1.955e-10
1.31e-09,-2.02778e-09
1.311e-09,0
1.312e-09,0
1.313e-09,-4.75142e-09
1.314e-09,7.00728e-09
1.315e-09,-7.20278e-09
1.316e-09,-1.50861e-09
1.317e-09,1.28053e-09
1.318e-09,-3.61573e-08
1.319e-09,7.49181e-09
1.32e-09,2.25586e-09
1.321e-09,2.28083e-10
1.322e-09,-2.25586e-09
1.323e-09,2.28083e-10
1.324e-09,-2.28083e-10
1.325e-09,-3.69045e-08
1.326e-09,-2.28083e-10
1.327e-09,0
1.328e-09,0
1.329e-09,0
1.33e-09,0
1.331e-09,-1.03135e-08
1.332e-09,1.72964e-09
1.333e-09,8.58389e-09
1.334e-09,2.28083e-10
1.335e-09,-3.51915e-08
1.336e-09,-2.28083e-10
1.337e-09,0
1.338e-09,0
1.339e-09,-9.54968e-09
1.34e-09,-2.28083e-10
1.341e-09,0
1.342e-09,2.28083e-10
1.343e-09,0
1.344e-09,-4.15079e-08
1.345e-09,-2.28083e-10
1.346e-09,2.28083e-10
1.347e-09,0
1.348e-09,-2.28083e-10
1.349e-09,0
1.35e-09,0
1.351e-09,0
1.352e-09,-4.32139e-08
1.353e-09,0
1.354e-09,0
1.355e-09,0
1.356e-09,2.60834e-10
1.357e-09,0
1.358e-09,0
1.359e-09,0
1.36e-09,0
1.361e-09,-3.62182e-08
1.362e-09,-2.28083e-10
1.363e-09,0
1.364e-09,2.28083e-10
1.365e-09,-2.28083e-10
1.366e-09,0
1.367e-09,0
1.368e-09,0
1.369e-09,0
1.37e-09,-3.9816e-08
1.371e-09,0
1.372e-09,0
1.373e-09,2.28083e-10
1.374e-09,0
1.375e-09,0
1.376e-09,-2.28083e-10
1.377e-09,0
1.378e-09,-1.955e-10
1.379e-09,4.23584e-10
1.38e-09,-4.33978e-08
1.381e-09,2.28083e-10
1.382e-09,0
1.383e-09,0
1.384e-09,-2.28083e-10
1.385e-09,0
1.386e-09,0
1.387e-09,-4.55378e-08
1.388e-09,0
1.389e-09,0
1.39e-09,-1.17759e-10
1.391e-09,0
1.392e-09,-1.0475e-11
1.393e-09,0
1.394e-09,1.0475e-11
1.395e-09,-4.43066e-08
1.396e-09,0
1.397e-09,0
1.398e-09,0
1.399e-09,0
1.4e-09,0
1.401e-09,0
1.402e-09,1.955e-10
1.403e-09,0
1.404e-09,-1.955e-10
1.405e-09,-4.38766e-08
1.406e-09,1.955e-10
1.407e-09,-4.23584e-10
1.408e-09,0
1.409e-09,0
1.41e-09,0
1.411e-09,0
1.412e-09,2.28083e-10
1.413e-09,-4.60549e-08
1.414e-09,0
1.415e-09,0
1.416e-09,2.28083e-10
1.417e-09,-2.28083e-10
1.418e-09,0
1.419e-09,0
1.42e-09,0
1.421e-09,-4.88042e-08
1.422e-09,2.28083e-10
1.423e-09,-2.28083e-10
1.424e-09,0
1.425e-09,2.28083e-10
1.426e-09,0
1.427e-09,0
1.428e-09,0
1.429e-09,-2.28083e-10
1.43e-09,2.28083e-10
1.431e-09,-4.40906e-08
1.432e-09,0
1.433e-09,0
1.434e-09,2.28083e-10
1.435e-09,0
1.436e-09,0
1.437e-09,-2.28083e-10
1.438e-09,0
1.439e-09,0
1.44e-09,0
1.441e-09,1.955e-10
1.442e-09,-5.02943e-08
1.443e-09,0
1.444e-09,0
1.445e-09,0
1.446e-09,0
1.447e-09,0
1.448e-09,-2.28083e-10
1.449e-09,2.28083e-10
1.45e-09,-2.28083e-10
1.451e-09,0
1.452e-09,-5.32973e-08
1.453e-09,0
1.454e-09,2.28083e-10
1.455e-09,0
1.456e-09,0
1.457e-09,0
1.458e-09,-2.28083e-10
1.459e-09,0
1.46e-09,-5.07545e-08
1.461e-09,0
1.462e-09,0
1.463e-09,0
1.464e-09,0
1.465e-09,0
1.466e-09,0
1.467e-09,0
1.468e-09,0
1.469e-09,2.28083e-10
1.47e-09,-5.21225e-08
1.471e-09,0
1.472e-09,2.28083e-10
1.473e-09,0
1.474e-09,0
1.475e-09,2.28083e-10
1.476e-09,0
1.477e-09,2.28083e-10
1.478e-09,-2.28083e-10
1.479e-09,0
1.48e-09,0
1.481e-09,-5.28648e-08
1.482e-09,0
1.483e-09,-3.51069e-09
1.484e-09,3.28261e-09
1.485e-09,0
1.486e-09,0
1.487e-09,0
1.488e-09,0
1.489e-09,0
1.49e-09,-6.00131e-08
1.491e-09,1.955e-10
1.492e-09,0
1.493e-09,2.28083e-10
1.494e-09,-2.28083e-10
1.495e-09,-3.28626e-08
1.496e-09,4.1374e-08
1.497e-09,0
1.498e-09,-8.28325e-09
1.499e-09,-2.28083e-10
1.5e-09,-5.51841e-08
1.501e-09,0
1.502e-09,-1.955e-10
1.503e-09,0
1.504e-09,0
1.505e-09,0
1.506e-09,1.955e-10
1.507e-09,0
1.508e-09,0
1.509e-09,-1.955e-10
1.51e-09,-5.68407e-08
1.511e-09,0
1.512e-09,0
1.513e-09,0
1.514e-09,0
1.515e-09,0
1.516e-09,0
1.517e-09,0
1.518e-09,-1.06047e-07
1.519e-09,0
1.52e-09,0
1.521e-09,4.87267e-08
1.522e-09,0
1.523e-09,0
1.524e-09,0
1.525e-09,0
1.526e-09,0
1.527e-09,-6.60732e-08
1.528e-09,-2.28083e-10
1.529e-09,-4.61677e-08
1.53e-09,0
1.531e-09,4.61677e-08
1.532e-09,-4.61677e-08
1.533e-09,0
1.534e-09,0
1.535e-09,0
1.536e-09,-6.56104e-08
1.537e-09,0
1.538e-09,0
1.539e-09,5.23361e-08
1.54e-09,0
1.541e-09,0
1.542e-09,-5.23361e-08
1.543e-09,-7.06438e-08
1.544e-09,0
1.545e-09,0
1.546e-09,2.28083e-10
1.547e-09,0
1.548e-09,0
1.549e-09,0
1.55e-09,-2.28083e-10
1.551e-09,-6.83809e-08
1.552e-09,0
1.553e-09,-3.25831e-11
1.554e-09,0
1.555e-09,0
1.556e-09,3.25831e-11
1.557e-09,-3.25831e-11
1.558e-09,3.33634e-09
1.559e-09,2.28083e-10
1.56e-09,0
1.561e-09,-6.99107e-08
1.562e-09,0
1.563e-09,-3.25831e-11
1.564e-09,0
1.565e-09,0
1.566e-09,0
1.567e-09,-1.955e-10
1.568e-09,0
1.569e-09,0
1.57e-09,0
1.571e-09,0
1.572e-09,-7.0108e-08
1.573e-09,0
1.574e-09,0
1.575e-09,0
1.576e-09,0
1.577e-09,0
1.578e-09,0
1.579e-09,0
1.58e-09,0
1.581e-09,0
1.582e-09,0
1.583e-09,-7.65584e-08
1.584e-09,0
1.585e-09,0
1.586e-09,0
1.587e-09,0
1.588e-09,0
1.589e-09,0
1.59e-09,0
1.591e-09,-7.1377e-08
1.592e-09,0
1.593e-09,0
1.594e-09,0
1.595e-09,0
1.596e-09,0
1.597e-09,0
1.598e-09,0
1.599e-09,0
1.6e-09,-7.71999e-08
1.601e-09,0
1.602e-09,0
1.603e-09,0
1.604e-09,0
1.605e-09,2.28083e-10
1.606e-09,1.16508e-07
1.607e-09,0
1.608e-09,0
1.609e-09,-7.86335e-08
1.61e-09,0
1.611e-09,0
1.612e-09,0
1.613e-09,0
1.614e-09,1.955e-10
1.615e-09,0
1.616e-09,0
1.617e-09,0
1.618e-09,-7.37149e-08
1.619e-09,-2.28083e-10
1.62e-09,0
1.621e-09,0
1.622e-09,0
1.623e-09,0
1.624e-09,0
1.625e-09,0
1.626e-09,0
1.627e-09,-1.955e-10
1.628e-09,-1.43478e-08
1.629e-09,-1.955e-10
1.63e-09,0
1.631e-09,0
1.632e-09,0
1.633e-09,0
1.634e-09,0
1.635e-09,0
1.636e-09,-9.70022e-09
1.637e-09,0
1.638e-09,0
1.639e-09,0
1.64e-09,1.955e-10
1.641e-09,0
1.642e-09,0
1.643e-09,0
1.644e-09,0
1.645e-09,0
1.646e-09,0
1.647e-09,-1.55232e-08
1.648e-09,2.28083e-10
1.649e-09,0
1.65e-09,0
1.651e-09,0
1.652e-09,0
1.653e-09,0
1.654e-09,0
1.655e-09,-4.23584e-10
1.656e-09,1.25252e-08
1.657e-09,2.58278e-07
1.658e-09,2.28083e-10
1.659e-09,0
1.66e-09,-1.955e-10
1.661e-09,1.955e-10
1.662e-09,0
1.663e-09,0
1.664e-09,1.25722e-07
1.665e-09,1.955e-10
1.666e-09,3.25831e-11
1.667e-09,1.955e-10
1.668e-09,-4.23584e-10
1.669e-09,0
1.67e-09,1.955e-10
1.671e-09,-1.955e-10
1.672e-09,2.56774e-07
1.673e-09,0
1.674e-09,2.76266e-07
1.675e-09,0
1.676e-09,1.955e-10
1.677e-09,2.9291e-07
1.678e-09,0
1.679e-09,0
1.68e-09,0
1.681e-09,0
1.682e-09,-2.28083e-10
1.683e-09,0
1.684e-09,6.70521e-07
1.685e-09,-2.46735e-10
1.686e-09,0
1.687e-09,0
1.688e-09,3.05435e-07
1.689e-09,0
1.69e-09,0
1.691e-09,2.14307e-10
1.692e-09,2.25301e-07
1.693e-09,0
1.694e-09,0
1.695e-09,0
1.696e-09,0
1.697e-09,6.18086e-08
1.698e-09,0
1.699e-09,0
1.7e-09,0
1.701e-09,0
1.702e-09,0
1.703e-09,0
1.704e-09,0
1.705e-09,1.58498e-07
1.706e-09,0
1.707e-09,3.25831e-11
1.708e-09,0
1.709e-09,-3.25831e-11
1.71e-09,2.06787e-12
1.711e-09,-2.06787e-12
1.712e-09,0
1.713e-09,3.4651e-11
1.714e-09,-2.06787e-12
1.715e-09,2.28083e-10
1.716e-09,-2.28083e-10
1.717e-09,2.28083e-10
1.718e-09,-3.25831e-11
1.719e-09,-1.955e-10
1.72e-09,0
1.721e-09,2.28083e-10
1.722e-09,-2.28083e-10
1.723e-09,2.28083e-10
1.724e-09,0
1.725e-09,-2.28083e-10
1.726e-09,2.28083e-10
1.727e-09,2.63184e-12
1.728e-09,1.94936e-10
1.729e-09,-1.94936e-10
1.73e-09,1.955e-10
1.731e-09,-1.955e-10
1.732e-09,-2.63184e-12
1.733e-09,-2.28083e-10
1.734e-09,1.955e-10
1.735e-09,0
1.736e-09,-1.955e-10
1.737e-09,1.955e-10
1.738e-09,-4.23584e-10
1.739e-09,0
1.74e-09,2.63184e-12
1.741e-09,-2.63184e-12
1.742e-09,0
1.743e-09,0
1.744e-09,0
1.745e-09,2.63184e-12
1.746e-09,0
1.747e-09,0
1.748e-09,0
1.749e-09,0
1.75e-09,1.955e-10
1.751e-09,-4.39136e-10
1.752e-09,2.43636e-10
1.753e-09,-2.43636e-10
1.754e-09,7.51957e-11
1.755e-09,0
1.756e-09,1.6844e-10
1.757e-09,0
1.758e-09,0
1.759e-09,0
1.76e-09,0
1.761e-09,0
1.762e-09,2.28083e-10
1.763e-09,0
1.764e-09,0
1.765e-09,0
1.766e-09,0
1.767e-09,0
1.768e-09,-2.28083e-10
1.769e-09,0
1.77e-09,0
1.771e-09,2.28083e-10
1.772e-09,-2.28083e-10
1.773e-09,0
1.774e-09,0
1.775e-09,2.28083e-10
1.776e-09,0
1.777e-09,0
1.778e-09,0
1.779e-09,0
1.78e-09,0
1.781e-09,0
1.782e-09,-2.28083e-10
1.783e-09,-2.63184e-12
1.784e-09,0
1.785e-09,0
1.786e-09,0
1.787e-09,0
1.788e-09,0
1.789e-09,0
1.79e-09,0
1.791e-09,2.63184e-12
1.792e-09,0
1.793e-09,0
1.794e-09,0
1.795e-09,0
1.796e-09,-2.63184e-12
1.797e-09,2.63184e-12
1.798e-09,0
1.799e-09,0
1.8e-09,0
1.801e-09,0
1.802e-09,0
1.803e-09,0
1.804e-09,-2.63184e-12
1.805e-09,0
1.806e-09,2.63184e-12
1.807e-09,0
1.808e-09,0
1.809e-09,0
1.81e-09,-2.63184e-12
1.811e-09,0
1.812e-09,0
1.813e-09,0
1.814e-09,0
1.815e-09,0
1.816e-09,0
1.817e-09,0
1.818e-09,0
1.819e-09,0
1.82e-09,-7.60055e-10
1.821e-09,7.60055e-10
1.822e-09,0
1.823e-09,0
1.824e-09,0
1.825e-09,0
1.826e-09,0
1.827e-09,0
1.828e-09,0
1.829e-09,0
1.83e-09,0
1.831e-09,0
1.832e-09,2.28083e-10
1.833e-09,0
1.834e-09,-2.25452e-10
1.835e-09,2.28083e-10
1.836e-09,0
1.837e-09,0
1.838e-09,0
1.839e-09,0
1.84e-09,-2.63184e-12
1.841e-09,1.955e-10
1.842e-09,0
1.843e-09,0
1.844e-09,0
1.845e-09,0
1.846e-09,0
1.847e-09,0
1.848e-09,0
1.849e-09,0
1.85e-09,0
1.851e-09,0
1.852e-09,-7.60055e-10
1.853e-09,7.60055e-10
1.854e-09,-7.60055e-10
1.855e-09,7.60055e-10
1.856e-09,-2.28083e-10
1.857e-09,0
1.858e-09,0
1.859e-09,0
1.86e-09,0
1.861e-09,0
1.862e-09,0
1.863e-09,0
1.864e-09,2.28083e-10
1.865e-09,-2.28083e-10
1.866e-09,3.25831e-11
1.867e-09,-2.28083e-10
1.868e-09,0
1.869e-09,0
1.87e-09,0
1.871e-09,1.955e-10
1.872e-09,-1.955e-10
1.873e-09,1.955e-10
1.874e-09,-7.60055e-10
1.875e-09,7.60055e-10
1.876e-09,0
1.877e-09,-7.60055e-10
1.878e-09,0
1.879e-09,7.60055e-10
1.88e-09,-1.955e-10
1.881e-09,0
1.882e-09,1.955e-10
1.883e-09,0
1.884e-09,0
1.885e-09,0
1.886e-09,0
1.887e-09,0
1.888e-09,0
1.889e-09,2.28083e-10
1.89e-09,0
1.891e-09,0
1.892e-09,-9.59917e-10
1.893e-09,-2.28083e-10
1.894e-09,2.28083e-10
1.895e-09,-2.28083e-10
1.896e-09,2.28083e-10
1.897e-09,0
1.898e-09,-2.28083e-10
1.899e-09,0
1.9e-09,0
1.901e-09,-1.955e-10
1.902e-09,0
1.903e-09,0
1.904e-09,0
1.905e-09,0
1.906e-09,0
1.907e-09,0
1.908e-09,0
1.909e-09,0
1.91e-09,0
1.911e-09,4.23584e-10
1.912e-09,0
1.913e-09,0
1.914e-09,0
1.915e-09,0
1.916e-09,0
1.917e-09,0
1.918e-09,-1.955e-10
1.919e-09,1.955e-10
1.92e-09,-1.955e-10
1.921e-09,1.955e-10
1.922e-09,0
1.923e-09,0
1.924e-09,0
1.925e-09,0
1.926e-09,0
1.927e-09,3.25831e-11
1.928e-09,-3.25831e-11
1.929e-09,0
1.93e-09,0
1.931e-09,0
1.932e-09,0
1.933e-09,0
1.934e-09,-2.28083e-10
1.935e-09,0
1.936e-09,3.25831e-11
1.937e-09,-2.28083e-10
1.938e-09,2.28083e-10
1.939e-09,0
1.94e-09,0
1.941e-09,0
1.942e-09,0
1.943e-09,0
1.944e-09,0
1.945e-09,0
1.946e-09,0
1.947e-09,0
1.948e-09,0
1.949e-09,0
1.95e-09,-3.25831e-11
1.951e-09,0
1.952e-09,0
1.953e-09,0
1.954e-09,0
1.955e-09,0
1.956e-09,0
1.957e-09,0
1.958e-09,0
1.959e-09,0
1.96e-09,0
1.961e-09,0
1.962e-09,0
1.963e-09,0
1.964e-09,0
1.965e-09,0
1.966e-09,0
1.967e-09,0
1.968e-09,0
1.969e-09,0
1.97e-09,0
1.971e-09,0
1.972e-09,0
1.973e-09,0
1.974e-09,-1.955e-10
1.975e-09,0
1.976e-09,0
1.977e-09,0
1.978e-09,0
1.979e-09,0
1.98e-09,0
1.981e-09,1.955e-10
1.982e-09,-1.955e-10
1.983e-09,0
1.984e-09,0
1.985e-09,0
1.986e-09,0
1.987e-09,0
1.988e-09,0
1.989e-09,0
1.99e-09,0
1.991e-09,0
1.992e-09,0
1.993e-09,0
1.994e-09,0
1.995e-09,0
1.996e-09,0
1.997e-09,0
1.998e-09,0
1.999e-09,0
2e-09,0
2.001e-09,0
2.1e-09,0
