0,0
1e-12,-5.66734e-07
2e-12,-1.66516e-06
3e-12,4.13186e-07
4e-12,-1.37256e-06
5e-12,-1.26813e-06
6e-12,3.38889e-07
7e-12,-8.68604e-07
8e-12,-3.52585e-07
9e-12,-3.59829e-07
1e-11,-1.4266e-06
1.1e-11,-7.93148e-07
1.2e-11,-1.08162e-06
1.3e-11,-1.94682e-06
1.4e-11,-6.31545e-07
1.5e-11,-1.16635e-07
1.6e-11,-2.57183e-06
1.7e-11,4.16283e-07
1.8e-11,-2.04452e-08
1.9e-11,-5.73835e-07
2e-11,-3.80707e-07
2.1e-11,-5.557e-07
2.2e-11,-9.35344e-07
2.3e-11,-8.52587e-07
2.4e-11,-6.89597e-07
2.5e-11,-8.60512e-07
2.6e-11,-8.73029e-07
2.7e-11,-1.57772e-06
2.8e-11,-8.25886e-07
2.9e-11,-1.88907e-06
3e-11,-8.97761e-07
3.1e-11,-2.03026e-07
3.2e-11,-7.86451e-07
3.3e-11,-4.66683e-07
3.4e-11,-1.95778e-06
3.5e-11,-9.0043e-07
3.6e-11,-2.1164e-06
3.7e-11,-6.27419e-07
3.8e-11,5.44733e-08
3.9e-11,-2.4655e-06
4e-11,-1.10587e-06
4.1e-11,-5.03602e-07
4.2e-11,-4.82328e-07
4.3e-11,-3.14136e-07
4.4e-11,-2.03818e-06
4.5e-11,-3.86765e-07
4.6e-11,-1.67568e-06
4.7e-11,-6.79306e-07
4.8e-11,-2.01553e-06
4.9e-11,-3.56516e-07
5e-11,-3.10727e-07
5.1e-11,-5.79594e-07
5.2e-11,-1.10561e-06
5.3e-11,-1.4324e-06
5.4e-11,-2.29804e-06
5.5e-11,-1.30452e-06
5.6e-11,1.13957e-07
5.7e-11,-8.3901e-07
5.8e-11,-6.05157e-07
5.9e-11,-1.97257e-06
6e-11,-1.48351e-06
6.1e-11,3.63763e-07
6.2e-11,-2.53349e-07
6.3e-11,-1.6137e-06
6.4e-11,-6.26459e-08
6.5e-11,-1.97088e-06
6.6e-11,-3.43181e-07
6.7e-11,3.04674e-07
6.8e-11,-1.53799e-06
6.9e-11,-1.41455e-06
7e-11,1.39847e-07
7.1e-11,-4.47868e-07
7.2e-11,-1.64096e-06
7.3e-11,-3.25925e-08
7.4e-11,-6.58111e-07
7.5e-11,-6.80344e-07
7.6e-11,-7.18179e-07
7.7e-11,-5.1035e-07
7.8e-11,-2.04939e-06
7.9e-11,-5.52963e-07
8e-11,-8.77783e-08
8.1e-11,-1.54596e-06
8.2e-11,-8.03215e-07
8.3e-11,-3.24922e-07
8.4e-11,-1.41466e-06
8.5e-11,-4.9609e-10
8.6e-11,-5.65856e-07
8.7e-11,-8.97205e-07
8.8e-11,-1.04085e-06
8.9e-11,4.67987e-07
9e-11,-1.32361e-06
9.1e-11,-5.83326e-07
9.2e-11,-2.06055e-06
9.3e-11,1.19708e-06
9.4e-11,-8.827e-08
9.5e-11,-1.16423e-06
9.6e-11,2.02e-07
9.7e-11,-1.94925e-06
9.8e-11,-2.29567e-07
9.9e-11,-1.96039e-06
1e-10,-6.27067e-08
1.01e-10,-6.33992e-07
1.02e-10,-5.85672e-07
1.03e-10,-5.82999e-07
1.04e-10,-6.0169e-07
1.05e-10,-3.9341e-07
1.06e-10,-7.14873e-07
1.07e-10,-2.45829e-07
1.08e-10,-1.89414e-07
1.09e-10,-1.44505e-06
1.1e-10,1.30532e-07
1.11e-10,-1.42676e-06
1.12e-10,-1.44942e-06
1.13e-10,1.63387e-07
1.14e-10,-1.81276e-06
1.15e-10,-1.34744e-06
1.16e-10,5.52023e-07
1.17e-10,-6.21513e-07
1.18e-10,-1.6944e-06
1.19e-10,-1.5088e-06
1.2e-10,-8.65228e-07
1.21e-10,-4.20728e-07
1.22e-10,-1.18495e-06
1.23e-10,-2.19343e-06
1.24e-10,-4.52909e-07
1.25e-10,-1.26509e-06
1.26e-10,-2.07761e-06
1.27e-10,-6.76434e-07
1.28e-10,-8.9573e-08
1.29e-10,-1.47049e-06
1.3e-10,-3.35476e-07
1.31e-10,-1.6962e-06
1.32e-10,-1.4343e-06
1.33e-10,-1.33347e-06
1.34e-10,-7.30527e-07
1.35e-10,7.2193e-07
1.36e-10,-1.77785e-06
1.37e-10,-4.77861e-07
1.38e-10,-2.98295e-06
1.39e-10,-1.39633e-06
1.4e-10,-6.20391e-07
1.41e-10,-1.68839e-07
1.42e-10,-8.31894e-07
1.43e-10,-1.51425e-06
1.44e-10,-5.66987e-08
1.45e-10,-1.98135e-06
1.46e-10,-9.33079e-07
1.47e-10,-9.51759e-07
1.48e-10,-2.52318e-07
1.49e-10,-1.50101e-06
1.5e-10,-1.38004e-08
1.51e-10,4.85909e-07
1.52e-10,-2.39812e-07
1.53e-10,-7.75819e-07
1.54e-10,-2.97418e-07
1.55e-10,-1.40617e-06
1.56e-10,-7.15863e-07
1.57e-10,-9.84688e-07
1.58e-10,6.80094e-08
1.59e-10,-2.86795e-07
1.6e-10,-9.98279e-07
1.61e-10,2.57153e-09
1.62e-10,-1.60731e-06
1.63e-10,-5.49436e-07
1.64e-10,-1.15292e-06
1.65e-10,-6.08616e-07
1.66e-10,-3.95321e-07
1.67e-10,-7.95247e-07
1.68e-10,-1.22827e-06
1.69e-10,-3.19041e-07
1.7e-10,-5.83899e-07
1.71e-10,3.29005e-08
1.72e-10,-8.91457e-07
1.73e-10,3.58987e-08
1.74e-10,-3.44435e-07
1.75e-10,2.43566e-08
1.76e-10,-7.27317e-07
1.77e-10,-3.06092e-07
1.78e-10,-1.1834e-06
1.79e-10,-9.97612e-07
1.8e-10,-9.43607e-07
1.81e-10,-7.18346e-07
1.82e-10,-5.66867e-07
1.83e-10,-7.83873e-07
1.84e-10,-1.71726e-07
1.85e-10,-7.43434e-07
1.86e-10,-3.6069e-07
1.87e-10,-4.15924e-07
1.88e-10,-1.77234e-06
1.89e-10,-1.11211e-07
1.9e-10,-3.94127e-08
1.91e-10,-9.00981e-08
1.92e-10,-1.23644e-06
1.93e-10,-2.9398e-07
1.94e-10,-1.54662e-06
1.95e-10,-3.32258e-07
1.96e-10,-2.40452e-07
1.97e-10,-5.90901e-07
1.98e-10,-4.8902e-07
1.99e-10,-4.09399e-07
2e-10,-1.57259e-06
2.01e-10,4.9773e-08
2.02e-10,-2.52907e-07
2.03e-10,2.08234e-07
2.04e-10,-4.22758e-07
2.05e-10,-3.35646e-07
2.06e-10,-8.01964e-07
2.07e-10,-1.09223e-06
2.08e-10,2.46617e-07
2.09e-10,-5.34254e-07
2.1e-10,-1.30585e-06
2.11e-10,6.99994e-08
2.12e-10,-8.90279e-07
2.13e-10,-8.12195e-07
2.14e-10,-1.01144e-06
2.15e-10,-1.00416e-07
2.16e-10,-1.24881e-06
2.17e-10,-6.15567e-07
2.18e-10,-2.28274e-07
2.19e-10,-8.94711e-07
2.2e-10,-1.04349e-06
2.21e-10,7.01123e-08
2.22e-10,-5.26319e-07
2.23e-10,-7.58436e-07
2.24e-10,-4.45216e-07
2.25e-10,8.14112e-07
2.26e-10,-1.06043e-06
2.27e-10,-2.69892e-07
2.28e-10,1.41446e-07
2.29e-10,-5.55058e-07
2.3e-10,-3.74823e-07
2.31e-10,-4.02398e-07
2.32e-10,-3.01681e-07
2.33e-10,-4.76292e-08
2.34e-10,-3.97541e-07
2.35e-10,9.3798e-08
2.36e-10,-2.47601e-07
2.37e-10,3.11095e-07
2.38e-10,-3.03081e-08
2.39e-10,-2.48051e-07
2.4e-10,2.95443e-07
2.41e-10,1.72846e-07
2.42e-10,-5.74935e-07
2.43e-10,5.43466e-07
2.44e-10,-1.54216e-07
2.45e-10,2.40891e-08
2.46e-10,-5.5688e-07
2.47e-10,1.9499e-08
2.48e-10,-6.19977e-07
2.49e-10,5.50275e-07
2.5e-10,5.29282e-08
2.51e-10,-3.30503e-07
2.52e-10,3.40403e-08
2.53e-10,-5.58808e-07
2.54e-10,-3.74918e-07
2.55e-10,6.77673e-07
2.56e-10,-6.72866e-07
2.57e-10,-5.82105e-07
2.58e-10,-3.63178e-07
2.59e-10,-3.55674e-07
2.6e-10,-7.41593e-08
2.61e-10,-4.1342e-07
2.62e-10,2.93233e-07
2.63e-10,-1.50692e-07
2.64e-10,-7.88283e-07
2.65e-10,-7.01562e-07
2.66e-10,1.19068e-07
2.67e-10,-4.10283e-07
2.68e-10,-5.53522e-08
2.69e-10,6.16569e-08
2.7e-10,-2.31964e-07
2.71e-10,-1.13156e-06
2.72e-10,-9.54626e-07
2.73e-10,-1.03178e-06
2.74e-10,1.84705e-07
2.75e-10,-1.38983e-06
2.76e-10,2.80551e-07
2.77e-10,-9.50419e-07
2.78e-10,-3.41333e-07
2.79e-10,-4.25519e-07
2.8e-10,-2.10124e-06
2.81e-10,-1.11998e-06
2.82e-10,-1.00631e-07
2.83e-10,-1.87188e-08
2.84e-10,-4.96259e-07
2.85e-10,-2.89859e-07
2.86e-10,-1.32007e-06
2.87e-10,-1.8563e-06
2.88e-10,-5.45739e-07
2.89e-10,-5.67776e-07
2.9e-10,-5.49533e-07
2.91e-10,-1.11242e-06
2.92e-10,-9.51312e-07
2.93e-10,-3.25392e-07
2.94e-10,-9.68603e-07
2.95e-10,-6.00961e-07
2.96e-10,-5.17644e-07
2.97e-10,-3.60759e-07
2.98e-10,-1.00712e-06
2.99e-10,-1.25026e-06
3e-10,-1.17559e-06
3.01e-10,-2.58307e-07
3.02e-10,-2.35856e-07
3.03e-10,-9.30471e-07
3.04e-10,-9.90645e-07
3.05e-10,-1.81145e-07
3.06e-10,-5.10146e-07
3.07e-10,3.15117e-07
3.08e-10,-9.29993e-08
3.09e-10,-1.13854e-06
3.1e-10,7.91398e-07
3.11e-10,2.50036e-07
3.12e-10,-6.60539e-07
3.13e-10,1.90964e-08
3.14e-10,-7.61474e-08
3.15e-10,3.36977e-07
3.16e-10,1.31747e-08
3.17e-10,2.02789e-07
3.18e-10,-9.73189e-07
3.19e-10,-5.85939e-07
3.2e-10,6.79173e-07
3.21e-10,3.60511e-08
3.22e-10,-1.70399e-07
3.23e-10,4.40416e-08
3.24e-10,-6.82052e-07
3.25e-10,-9.81822e-07
3.26e-10,1.78873e-07
3.27e-10,-1.16044e-06
3.28e-10,3.15217e-07
3.29e-10,7.02104e-08
3.3e-10,-1.58042e-07
3.31e-10,-3.77014e-07
3.32e-10,-4.46776e-08
3.33e-10,-5.36554e-07
3.34e-10,7.01419e-08
3.35e-10,-8.55678e-07
3.36e-10,-5.22227e-07
3.37e-10,9.17935e-08
3.38e-10,-1.80545e-07
3.39e-10,-3.24833e-07
3.4e-10,-1.50557e-08
3.41e-10,-7.2261e-07
3.42e-10,-3.63594e-07
3.43e-10,3.31809e-07
3.44e-10,-1.75101e-07
3.45e-10,-7.30997e-07
3.46e-10,-5.76736e-07
3.47e-10,-1.08058e-07
3.48e-10,-3.87432e-07
3.49e-10,2.01973e-07
3.5e-10,-5.71581e-07
3.51e-10,-2.05634e-07
3.52e-10,-1.05354e-06
3.53e-10,1.27949e-07
3.54e-10,-8.50697e-07
3.55e-10,-4.4317e-07
3.56e-10,-7.69298e-07
3.57e-10,-1.14311e-06
3.58e-10,-3.26684e-07
3.59e-10,-3.36911e-08
3.6e-10,-4.8858e-07
3.61e-10,1.07006e-07
3.62e-10,6.65442e-07
3.63e-10,1.68829e-07
3.64e-10,-5.78229e-07
3.65e-10,-5.74811e-07
3.66e-10,-8.09063e-07
3.67e-10,6.15328e-07
3.68e-10,-7.91504e-07
3.69e-10,-1.5453e-07
3.7e-10,-6.92059e-08
3.71e-10,-9.31261e-07
3.72e-10,-4.85853e-07
3.73e-10,5.98453e-07
3.74e-10,-1.26912e-06
3.75e-10,8.69311e-07
3.76e-10,-3.76544e-07
3.77e-10,-3.36626e-08
3.78e-10,7.10248e-07
3.79e-10,-1.9743e-06
3.8e-10,-1.00365e-06
3.81e-10,-1.82321e-07
3.82e-10,8.77444e-09
3.83e-10,-1.37225e-06
3.84e-10,-1.03494e-06
3.85e-10,2.99153e-07
3.86e-10,-1.24218e-06
3.87e-10,4.23512e-07
3.88e-10,-6.98929e-07
3.89e-10,-5.02124e-07
3.9e-10,-2.07832e-07
3.91e-10,4.79183e-07
3.92e-10,-1.94016e-06
3.93e-10,-1.76867e-07
3.94e-10,-1.01264e-06
3.95e-10,2.01444e-07
3.96e-10,-6.18229e-08
3.97e-10,-5.121e-07
3.98e-10,-2.62207e-07
3.99e-10,-5.35794e-07
4e-10,-2.68935e-07
4.01e-10,8.79957e-08
4.02e-10,-4.52233e-07
4.03e-10,1.68392e-07
4.04e-10,-7.65065e-07
4.05e-10,-6.70345e-07
4.06e-10,5.85996e-07
4.07e-10,-5.0723e-07
4.08e-10,-1.66946e-06
4.09e-10,9.09409e-08
4.1e-10,5.01168e-07
4.11e-10,-1.13791e-06
4.12e-10,-1.59093e-07
4.13e-10,-8.85003e-07
4.14e-10,-6.46313e-07
4.15e-10,-1.02354e-07
4.16e-10,-4.74248e-07
4.17e-10,-3.77608e-07
4.18e-10,-1.63623e-07
4.19e-10,-9.68854e-07
4.2e-10,2.87957e-08
4.21e-10,-2.25554e-06
4.22e-10,-8.61286e-08
4.23e-10,-9.55308e-07
4.24e-10,-5.84725e-07
4.25e-10,3.04131e-07
4.26e-10,2.84424e-08
4.27e-10,-1.59715e-06
4.28e-10,9.73578e-08
4.29e-10,1.482e-08
4.3e-10,-1.31824e-06
4.31e-10,-2.24232e-07
4.32e-10,-1.13676e-06
4.33e-10,-2.63661e-07
4.34e-10,-2.85775e-07
4.35e-10,-7.54408e-07
4.36e-10,-1.3855e-07
4.37e-10,-3.92517e-07
4.38e-10,-8.50755e-07
4.39e-10,9.49012e-09
4.4e-10,-9.54354e-08
4.41e-10,-1.14436e-06
4.42e-10,-8.73815e-09
4.43e-10,-1.18898e-07
4.44e-10,-2.55201e-07
4.45e-10,-4.96565e-07
4.46e-10,-4.10896e-08
4.47e-10,-6.18713e-07
4.48e-10,-3.94886e-07
4.49e-10,-2.8393e-07
4.5e-10,8.0367e-08
4.51e-10,2.04311e-07
4.52e-10,-5.96148e-07
4.53e-10,-2.30615e-07
4.54e-10,-9.46425e-07
4.55e-10,-1.38047e-07
4.56e-10,1.32497e-07
4.57e-10,-5.95375e-08
4.58e-10,2.27834e-07
4.59e-10,-6.23707e-07
4.6e-10,-2.66697e-08
4.61e-10,-6.80077e-07
4.62e-10,-2.62434e-07
4.63e-10,2.26284e-07
4.64e-10,-8.97859e-07
4.65e-10,-7.76393e-07
4.66e-10,1.68041e-07
4.67e-10,-1.57167e-07
4.68e-10,-8.77345e-07
4.69e-10,-2.10622e-07
4.7e-10,-8.95283e-07
4.71e-10,1.53162e-09
4.72e-10,-2.49935e-07
4.73e-10,1.10125e-07
4.74e-10,-4.64084e-07
4.75e-10,-1.58704e-06
4.76e-10,-5.7358e-07
4.77e-10,-5.35487e-07
4.78e-10,-1.57546e-06
4.79e-10,1.92814e-07
4.8e-10,-4.69951e-08
4.81e-10,-1.81679e-06
4.82e-10,-5.33546e-07
4.83e-10,-1.29896e-07
4.84e-10,-4.1759e-07
4.85e-10,-1.20324e-06
4.86e-10,-1.88987e-06
4.87e-10,-2.32649e-07
4.88e-10,-6.36819e-07
4.89e-10,-3.07711e-07
4.9e-10,-2.16741e-06
4.91e-10,5.8493e-07
4.92e-10,-8.62517e-07
4.93e-10,-6.86257e-07
4.94e-10,-1.86587e-06
4.95e-10,-1.09433e-07
4.96e-10,-8.76159e-07
4.97e-10,-3.64895e-07
4.98e-10,-3.24784e-07
4.99e-10,-2.50199e-07
5e-10,-1.63635e-06
5.01e-10,1.66526e-07
5.02e-10,-2.29702e-07
5.03e-10,-1.05191e-06
5.04e-10,-1.78802e-08
5.05e-10,-4.58856e-07
5.06e-10,-3.14912e-07
5.07e-10,-5.94589e-08
5.08e-10,1.12975e-07
5.09e-10,-9.8865e-07
5.1e-10,-1.11154e-06
5.11e-10,-9.46406e-08
5.12e-10,1.94322e-07
5.13e-10,1.70778e-08
5.14e-10,-3.46898e-07
5.15e-10,-5.53929e-07
5.16e-10,-1.65641e-06
5.17e-10,1.54643e-07
5.18e-10,1.96401e-07
5.19e-10,-9.89088e-07
5.2e-10,-5.55149e-07
5.21e-10,-7.42647e-07
5.22e-10,-2.4649e-08
5.23e-10,-1.48011e-07
5.24e-10,-4.4224e-07
5.25e-10,-1.46669e-07
5.26e-10,-1.66952e-06
5.27e-10,-8.8798e-08
5.28e-10,-1.67573e-07
5.29e-10,-1.31423e-06
5.3e-10,1.84527e-07
5.31e-10,-1.27797e-06
5.32e-10,1.1434e-07
5.33e-10,-2.11822e-07
5.34e-10,-7.84074e-07
5.35e-10,-8.77736e-07
5.36e-10,-6.87621e-07
5.37e-10,-4.32644e-07
5.38e-10,-1.35663e-07
5.39e-10,-2.04162e-07
5.4e-10,-8.11733e-08
5.41e-10,-2.02144e-07
5.42e-10,-4.21344e-07
5.43e-10,-9.11917e-07
5.44e-10,-3.86378e-08
5.45e-10,-2.71815e-07
5.46e-10,-1.138e-06
5.47e-10,1.64303e-07
5.48e-10,-2.72115e-07
5.49e-10,-2.49023e-07
5.5e-10,-9.25786e-08
5.51e-10,-1.39272e-07
5.52e-10,1.66109e-08
5.53e-10,-3.85867e-08
5.54e-10,-3.74182e-07
5.55e-10,-1.84119e-07
5.56e-10,-1.87906e-07
5.57e-10,7.92796e-08
5.58e-10,-3.58659e-08
5.59e-10,-5.12507e-08
5.6e-10,-1.1767e-07
5.61e-10,7.7975e-08
5.62e-10,-6.39773e-07
5.63e-10,-1.02117e-07
5.64e-10,1.15486e-07
5.65e-10,-6.05429e-07
5.66e-10,-5.65584e-08
5.67e-10,-2.84518e-07
5.68e-10,-9.15554e-08
5.69e-10,2.55433e-07
5.7e-10,-6.67093e-07
5.71e-10,3.73907e-08
5.72e-10,-2.01026e-08
5.73e-10,-7.03884e-08
5.74e-10,8.20687e-07
5.75e-10,-1.64868e-07
5.76e-10,1.54371e-07
5.77e-10,1.40275e-07
5.78e-10,-7.46761e-07
5.79e-10,2.75331e-07
5.8e-10,6.00562e-07
5.81e-10,2.05622e-07
5.82e-10,-1.06761e-07
5.83e-10,1.91127e-07
5.84e-10,-3.75969e-08
5.85e-10,-9.56278e-08
5.86e-10,-4.53992e-07
5.87e-10,6.69876e-07
5.88e-10,-9.18143e-08
5.89e-10,3.76309e-07
5.9e-10,-8.28711e-08
5.91e-10,7.60322e-08
5.92e-10,9.38299e-08
5.93e-10,2.31743e-07
5.94e-10,-9.06437e-08
5.95e-10,1.82843e-07
5.96e-10,2.03418e-07
5.97e-10,-3.5371e-07
5.98e-10,-6.45263e-08
5.99e-10,-3.88567e-07
6e-10,-3.62538e-07
6.01e-10,3.17257e-07
6.02e-10,-4.3536e-07
6.03e-10,3.3e-09
6.04e-10,-6.7037e-08
6.05e-10,-7.65151e-07
6.06e-10,2.43368e-07
6.07e-10,4.66285e-07
6.08e-10,-4.80775e-07
6.09e-10,5.53302e-07
6.1e-10,3.19967e-07
6.11e-10,-4.71468e-07
6.12e-10,-3.8901e-07
6.13e-10,-2.36697e-08
6.14e-10,-5.94942e-08
6.15e-10,-2.62807e-07
6.16e-10,-5.85808e-07
6.17e-10,4.22799e-07
6.18e-10,-7.90871e-07
6.19e-10,3.62175e-07
6.2e-10,-5.40824e-08
6.21e-10,-6.07543e-07
6.22e-10,-5.88587e-08
6.23e-10,2.42691e-07
6.24e-10,-1.07521e-07
6.25e-10,-6.49006e-07
6.26e-10,-4.15202e-08
6.27e-10,-2.2981e-07
6.28e-10,-9.99287e-08
6.29e-10,-1.29316e-06
6.3e-10,2.68308e-07
6.31e-10,-2.26474e-07
6.32e-10,2.83682e-09
6.33e-10,-9.66928e-07
6.34e-10,-2.67072e-07
6.35e-10,-9.40142e-08
6.36e-10,2.41099e-07
6.37e-10,-3.03647e-07
6.38e-10,-7.88293e-07
6.39e-10,-9.23017e-08
6.4e-10,-1.0526e-07
6.41e-10,-8.54888e-08
6.42e-10,-5.66452e-08
6.43e-10,-6.9406e-10
6.44e-10,-2.44472e-10
6.45e-10,2.61763e-07
6.46e-10,1.01998e-07
6.47e-10,-2.4745e-07
6.48e-10,6.45856e-08
6.49e-10,-4.11643e-07
6.5e-10,-1.54128e-07
6.51e-10,2.53226e-07
6.52e-10,-3.01276e-07
6.53e-10,2.89904e-09
6.54e-10,-1.00189e-07
6.55e-10,-3.38206e-08
6.56e-10,-8.17591e-08
6.57e-10,-1.18269e-08
6.58e-10,-2.93816e-09
6.59e-10,-3.42971e-08
6.6e-10,-8.87768e-08
6.61e-10,-7.50861e-08
6.62e-10,-9.13886e-08
6.63e-10,-9.77058e-08
6.64e-10,-8.61658e-08
6.65e-10,1.49134e-09
6.66e-10,-5.76349e-08
6.67e-10,-2.58031e-08
6.68e-10,-2.96946e-10
6.69e-10,-3.25014e-08
6.7e-10,-3.46461e-08
6.71e-10,-5.81635e-08
6.72e-10,-8.46092e-08
6.73e-10,3.28606e-08
6.74e-10,-1.09968e-07
6.75e-10,-3.04088e-08
6.76e-10,-3.11289e-08
6.77e-10,-3.39189e-08
6.78e-10,-1.22073e-07
6.79e-10,7.16384e-09
6.8e-10,4.00275e-11
6.81e-10,-3.14734e-10
6.82e-10,-1.58318e-07
6.83e-10,-3.47317e-10
6.84e-10,-2.9006e-08
6.85e-10,-5.41395e-10
6.86e-10,-5.72526e-08
6.87e-10,-2.34404e-08
6.88e-10,-6.04386e-08
6.89e-10,-3.35556e-08
6.9e-10,-5.45919e-08
6.91e-10,-1.87087e-07
6.92e-10,3.33631e-08
6.93e-10,-3.38401e-08
6.94e-10,-8.72622e-08
6.95e-10,3.68714e-08
6.96e-10,-4.14873e-09
6.97e-10,3.05636e-08
6.98e-10,2.84142e-08
6.99e-10,-1.37669e-07
7e-10,-9.02324e-08
7.01e-10,-5.56686e-08
7.02e-10,-3.9977e-10
7.03e-10,-9.03718e-08
7.04e-10,-8.84756e-08
7.05e-10,0
7.06e-10,-3.48985e-08
7.07e-10,-3.3274e-08
7.08e-10,-2.02799e-09
7.09e-10,-1.00544e-07
7.1e-10,-2.89139e-08
7.11e-10,-3.16908e-08
7.12e-10,1.43386e-09
7.13e-10,-5.72605e-08
7.14e-10,-1.18877e-09
7.15e-10,7.51908e-10
7.16e-10,-7.11514e-10
7.17e-10,-1.11965e-07
7.18e-10,-9.50017e-08
7.19e-10,-8.74952e-08
7.2e-10,-1.34778e-10
7.21e-10,-2.50905e-08
7.22e-10,3.2362e-08
7.23e-10,-1.19543e-07
7.24e-10,-3.68566e-08
7.25e-10,3.49207e-08
7.26e-10,-3.28754e-07
7.27e-10,-5.55125e-08
7.28e-10,3.19898e-08
7.29e-10,-3.42676e-08
7.3e-10,6.04221e-08
7.31e-10,-9.05083e-08
7.32e-10,-3.23498e-08
7.33e-10,6.12297e-10
7.34e-10,-1.955e-10
7.35e-10,3.50841e-08
7.36e-10,3.91847e-08
7.37e-10,-9.15422e-08
7.38e-10,-3.2954e-08
7.39e-10,-2.54933e-08
7.4e-10,-1.89381e-07
7.41e-10,-6.53324e-08
7.42e-10,-1.73176e-09
7.43e-10,-3.0086e-08
7.44e-10,-2.70952e-09
7.45e-10,2.32199e-07
7.46e-10,-1.58279e-07
7.47e-10,-1.43851e-09
7.48e-10,-8.53693e-08
7.49e-10,-3.15923e-08
7.5e-10,-3.41359e-08
7.51e-10,-1.67581e-07
7.52e-10,-6.12027e-08
7.53e-10,2.494e-10
7.54e-10,-1.98453e-07
7.55e-10,-1.69988e-09
7.56e-10,-1.03035e-10
7.57e-10,-2.95866e-08
7.58e-10,-6.24717e-08
7.59e-10,-6.30675e-08
7.6e-10,1.97388e-09
7.61e-10,-1.36143e-09
7.62e-10,-1.21626e-07
7.63e-10,-2.92877e-08
7.64e-10,-2.94552e-08
7.65e-10,2.85821e-08
7.66e-10,-3.12237e-07
7.67e-10,-5.21583e-08
7.68e-10,2.28083e-10
7.69e-10,-2.95304e-08
7.7e-10,3.07712e-08
7.71e-10,-2.66834e-07
7.72e-10,2.57211e-09
7.73e-10,-3.25624e-08
7.74e-10,-4.27855e-07
7.75e-10,2.80182e-08
7.76e-10,-2.95219e-08
7.77e-10,-2.22356e-09
7.78e-10,-5.76043e-08
7.79e-10,-2.91032e-08
7.8e-10,-4.911e-10
7.81e-10,-3.14117e-07
7.82e-10,-1.955e-10
7.83e-10,2.60667e-10
7.84e-10,-5.85621e-07
7.85e-10,-9.47479e-10
7.86e-10,-8.56469e-08
7.87e-10,-2.72657e-08
7.88e-10,-6.6514e-07
7.89e-10,-3.90083e-10
7.9e-10,-1.31355e-09
7.91e-10,-2.63331e-10
7.92e-10,-4.00787e-07
7.93e-10,-1.11061e-09
7.94e-10,3.14619e-08
7.95e-10,-4.11601e-07
7.96e-10,-2.97329e-08
7.97e-10,1.955e-10
7.98e-10,-1.50389e-09
7.99e-10,-5.1617e-12
8e-10,9.21153e-09
8.01e-10,3.71793e-07
8.02e-10,-1.53675e-09
8.03e-10,-4.38295e-07
8.04e-10,3.79951e-07
8.05e-10,7.84899e-10
8.06e-10,5.77795e-10
8.07e-10,-3.01186e-08
8.08e-10,-3.79691e-07
8.09e-10,3.77716e-07
8.1e-10,-3.78882e-07
8.11e-10,-6.02429e-08
8.12e-10,4.23821e-09
8.13e-10,-3.38922e-08
8.14e-10,7.0328e-11
8.15e-10,-3.33772e-08
8.16e-10,2.93964e-08
8.17e-10,-3.34168e-08
8.18e-10,1.955e-10
8.19e-10,-2.28083e-10
8.2e-10,2.28083e-10
8.21e-10,-3.38404e-08
8.22e-10,-3.13564e-08
8.23e-10,-2.0255e-10
8.24e-10,2.55269e-09
8.25e-10,-1.50389e-09
8.26e-10,-3.41687e-08
8.27e-10,-3.08406e-08
8.28e-10,2.91697e-09
8.29e-10,-3.13971e-08
8.3e-10,-3.15519e-08
8.31e-10,3.15519e-08
8.32e-10,2.28083e-10
8.33e-10,-3.15845e-08
8.34e-10,2.70506e-07
8.35e-10,-2.39902e-07
8.36e-10,3.25831e-11
8.37e-10,-2.91809e-08
8.38e-10,-3.13564e-08
8.39e-10,6.29816e-08
8.4e-10,-3.43236e-08
8.41e-10,-2.94019e-08
8.42e-10,-6.47406e-08
8.43e-10,3.36123e-08
8.44e-10,-2.28083e-10
8.45e-10,2.60667e-10
8.46e-10,3.05964e-08
8.47e-10,0
8.48e-10,0
8.49e-10,-3.05753e-08
8.5e-10,7.04958e-12
8.51e-10,6.34692e-08
8.52e-10,-9.60352e-08
8.53e-10,-6.35496e-08
8.54e-10,3.23213e-08
8.55e-10,-9.73012e-10
8.56e-10,0
8.57e-10,-1.50389e-09
8.58e-10,-3.05894e-08
8.59e-10,9.73012e-10
8.6e-10,3.03754e-08
8.61e-10,-3.06035e-08
8.62e-10,0
8.63e-10,2.81531e-08
8.64e-10,-3.06967e-08
8.65e-10,-9.12334e-10
8.66e-10,-3.33842e-08
8.67e-10,7.51978e-10
8.68e-10,0
8.69e-10,3.43236e-08
8.7e-10,-3.31887e-08
8.71e-10,-2.45136e-09
8.72e-10,1.955e-10
8.73e-10,-1.955e-10
8.74e-10,0
8.75e-10,-2.28083e-10
8.76e-10,2.28083e-10
8.77e-10,-3.08245e-08
8.78e-10,3.05964e-08
8.79e-10,1.2758e-09
8.8e-10,-3.23284e-08
8.81e-10,3.03683e-08
8.82e-10,0
8.83e-10,3.30804e-08
8.84e-10,-6.44368e-08
8.85e-10,-3.05964e-08
8.86e-10,1.53448e-09
8.87e-10,9.47323e-08
8.88e-10,1.71082e-09
8.89e-10,-3.20607e-08
8.9e-10,-1.2617e-09
8.91e-10,-3.23576e-08
8.92e-10,-6.55171e-08
8.93e-10,3.36123e-08
8.94e-10,-3.38404e-08
8.95e-10,1.88412e-09
8.96e-10,-4.49117e-10
8.97e-10,-1.85154e-09
8.98e-10,-2.70129e-08
8.99e-10,-2.05848e-09
9e-10,3.48364e-08
9.01e-10,8.34347e-10
9.02e-10,6.29329e-08
9.03e-10,-8.34347e-10
9.04e-10,-9.57108e-08
9.05e-10,2.95487e-08
9.06e-10,2.21204e-09
9.07e-10,3.38404e-08
9.08e-10,-3.34168e-08
9.09e-10,6.23024e-08
9.1e-10,-6.29003e-08
9.11e-10,0
9.12e-10,3.36123e-08
9.13e-10,-1.62917e-10
9.14e-10,-2.11487e-11
9.15e-10,-3.38192e-08
9.16e-10,-3.25831e-11
9.17e-10,2.06935e-10
9.18e-10,3.25831e-11
9.19e-10,3.33842e-08
9.2e-10,-6.74527e-08
9.21e-10,4.56167e-10
9.22e-10,-4.56167e-10
9.23e-10,1.955e-10
9.24e-10,-1.955e-10
9.25e-10,2.28083e-10
9.26e-10,-6.51667e-10
9.27e-10,1.88451e-10
9.28e-10,2.81983e-11
9.29e-10,-2.28083e-10
9.3e-10,-6.07815e-11
9.31e-10,-2.21034e-10
9.32e-10,3.76259e-09
9.33e-10,-1.955e-10
9.34e-10,0
9.35e-10,-4.68501e-11
9.36e-10,-1.955e-10
9.37e-10,1.955e-10
9.38e-10,2.74934e-10
9.39e-10,3.25831e-11
9.4e-10,0
9.41e-10,-3.25831e-11
9.42e-10,-4.70434e-10
9.43e-10,2.4235e-10
9.44e-10,1.955e-10
9.45e-10,-1.955e-10
9.46e-10,-4.34271e-27
9.47e-10,0
9.48e-10,1.955e-10
9.49e-10,1.955e-10
9.5e-10,-1.955e-10
9.51e-10,1.955e-10
9.52e-10,-3.25831e-11
9.53e-10,2.28083e-10
9.54e-10,3.25831e-11
9.55e-10,-3.25831e-11
9.56e-10,-1.955e-10
9.57e-10,0
9.58e-10,2.28083e-10
9.59e-10,-8.79751e-10
9.6e-10,1.955e-10
9.61e-10,0
9.62e-10,3.25831e-11
9.63e-10,0
9.64e-10,-4.23584e-10
9.65e-10,-1.955e-10
9.66e-10,-1.955e-10
9.67e-10,0
9.68e-10,4.23584e-10
9.69e-10,-2.28083e-10
9.7e-10,0
9.71e-10,2.28083e-10
9.72e-10,1.955e-10
9.73e-10,3.25831e-11
9.74e-10,0
9.75e-10,-2.28083e-10
9.76e-10,-1.955e-10
9.77e-10,2.28083e-10
9.78e-10,0
9.79e-10,-2.28083e-10
9.8e-10,-1.955e-10
9.81e-10,1.955e-10
9.82e-10,-1.955e-10
9.83e-10,-1.955e-10
9.84e-10,-3.25831e-11
9.85e-10,0
9.86e-10,-1.955e-10
9.87e-10,1.955e-10
9.88e-10,1.955e-10
9.89e-10,-2.28083e-10
9.9e-10,-1.955e-10
9.91e-10,4.23584e-10
9.92e-10,-1.955e-10
9.93e-10,1.955e-10
9.94e-10,0
9.95e-10,-2.28083e-10
9.96e-10,2.60667e-10
9.97e-10,-4.34271e-27
9.98e-10,0
9.99e-10,0
1e-09,0
1.001e-09,-6.51667e-10
1.002e-09,6.51667e-10
1.003e-09,-2.28083e-10
1.004e-09,2.28083e-10
1.005e-09,-2.28083e-10
1.006e-09,1.955e-10
1.007e-09,0
1.008e-09,0
1.009e-09,0
1.01e-09,-1.955e-10
1.011e-09,-4.23584e-10
1.012e-09,0
1.013e-09,0
1.014e-09,0
1.015e-09,-2.28083e-10
1.016e-09,0
1.017e-09,4.56167e-10
1.018e-09,-2.28083e-10
1.019e-09,2.28083e-10
1.02e-09,0
1.021e-09,0
1.022e-09,0
1.023e-09,1.955e-10
1.024e-09,0
1.025e-09,0
1.026e-09,0
1.027e-09,0
1.028e-09,0
1.029e-09,2.28083e-10
1.03e-09,-4.23584e-10
1.031e-09,0
1.032e-09,0
1.033e-09,-4.56167e-10
1.034e-09,0
1.035e-09,1.955e-10
1.036e-09,-2.28083e-10
1.037e-09,0
1.038e-09,0
1.039e-09,0
1.04e-09,0
1.041e-09,0
1.042e-09,0
1.043e-09,0
1.044e-09,0
1.045e-09,0
1.046e-09,1.955e-10
1.047e-09,-1.955e-10
1.048e-09,1.955e-10
1.049e-09,-3.25831e-11
1.05e-09,-1.62917e-10
1.051e-09,2.28083e-10
1.052e-09,0
1.053e-09,-2.28083e-10
1.054e-09,-3.25831e-11
1.055e-09,0
1.056e-09,2.28083e-10
1.057e-09,-1.955e-10
1.058e-09,2.28083e-10
1.059e-09,0
1.06e-09,0
1.061e-09,0
1.062e-09,1.955e-10
1.063e-09,-1.955e-10
1.064e-09,-3.25831e-11
1.065e-09,0
1.066e-09,-1.955e-10
1.067e-09,1.955e-10
1.068e-09,0
1.069e-09,0
1.07e-09,0
1.071e-09,0
1.072e-09,0
1.073e-09,0
1.074e-09,1.955e-10
1.075e-09,2.28083e-10
1.076e-09,-2.28083e-10
1.077e-09,3.25831e-11
1.078e-09,-3.25831e-11
1.079e-09,0
1.08e-09,4.23584e-10
1.081e-09,-1.955e-10
1.082e-09,0
1.083e-09,-2.28083e-10
1.084e-09,0
1.085e-09,0
1.086e-09,-2.81108e-10
1.087e-09,-1.955e-10
1.088e-09,1.955e-10
1.089e-09,-1.955e-10
1.09e-09,-2.28083e-10
1.091e-09,2.28083e-10
1.092e-09,1.955e-10
1.093e-09,-5.65319e-10
1.094e-09,2.28083e-10
1.095e-09,-3.28264e-11
1.096e-09,2.28083e-10
1.097e-09,0
1.098e-09,3.25831e-11
1.099e-09,0
1.1e-09,1.955e-10
1.101e-09,-1.955e-10
1.102e-09,-2.28083e-10
1.103e-09,0
1.104e-09,0
1.105e-09,2.28083e-10
1.106e-09,-1.955e-10
1.107e-09,1.955e-10
1.108e-09,-4.23584e-10
1.109e-09,0
1.11e-09,1.955e-10
1.111e-09,0
1.112e-09,0
1.113e-09,3.25831e-11
1.114e-09,6.51667e-10
1.115e-09,-4.56167e-10
1.116e-09,0
1.117e-09,0
1.118e-09,0
1.119e-09,0
1.12e-09,2.28083e-10
1.121e-09,-1.955e-10
1.122e-09,1.955e-10
1.123e-09,-4.23584e-10
1.124e-09,0
1.125e-09,0
1.126e-09,-2.28083e-10
1.127e-09,2.28083e-10
1.128e-09,0
1.129e-09,0
1.13e-09,-2.28083e-10
1.131e-09,2.28083e-10
1.132e-09,0
1.133e-09,4.23584e-10
1.134e-09,-2.28083e-10
1.135e-09,0
1.136e-09,0
1.137e-09,-2.28083e-10
1.138e-09,2.28083e-10
1.139e-09,0
1.14e-09,0
1.141e-09,0
1.142e-09,0
1.143e-09,0
1.144e-09,0
1.145e-09,0
1.146e-09,-2.28083e-10
1.147e-09,0
1.148e-09,0
1.149e-09,-3.25831e-11
1.15e-09,0
1.151e-09,0
1.152e-09,0
1.153e-09,0
1.154e-09,1.955e-10
1.155e-09,-1.955e-10
1.156e-09,0
1.157e-09,-1.955e-10
1.158e-09,0
1.159e-09,-2.28083e-10
1.16e-09,0
1.161e-09,0
1.162e-09,2.28083e-10
1.163e-09,2.28083e-10
1.164e-09,0
1.165e-09,0
1.166e-09,-3.25831e-11
1.167e-09,0
1.168e-09,0
1.169e-09,3.25831e-11
1.17e-09,-2.28083e-10
1.171e-09,4.23584e-10
1.172e-09,0
1.173e-09,-3.33842e-08
1.174e-09,2.28083e-10
1.175e-09,-2.28083e-10
1.176e-09,2.28083e-10
1.177e-09,-1.955e-10
1.178e-09,-2.28083e-10
1.179e-09,3.25831e-11
1.18e-09,1.955e-10
1.181e-09,1.955e-10
1.182e-09,-1.955e-10
1.183e-09,4.23584e-10
1.184e-09,-2.28083e-10
1.185e-09,0
1.186e-09,3.25831e-11
1.187e-09,-2.28083e-10
1.188e-09,1.955e-10
1.189e-09,1.955e-10
1.19e-09,-1.955e-10
1.191e-09,-3.91001e-10
1.192e-09,4.23584e-10
1.193e-09,-6.51667e-10
1.194e-09,1.955e-10
1.195e-09,-4.23584e-10
1.196e-09,0
1.197e-09,-2.28083e-10
1.198e-09,6.51667e-10
1.199e-09,-4.56167e-10
1.2e-09,2.28083e-10
1.201e-09,0
1.202e-09,-2.28083e-10
1.203e-09,0
1.204e-09,0
1.205e-09,-3.32816e-08
1.206e-09,0
1.207e-09,2.48395e-09
1.208e-09,0
1.209e-09,-1.955e-10
1.21e-09,-2.28083e-10
1.211e-09,2.28083e-10
1.212e-09,0
1.213e-09,-2.28083e-10
1.214e-09,2.28083e-10
1.215e-09,-2.28083e-10
1.216e-09,-3.10666e-08
1.217e-09,1.50438e-09
1.218e-09,-1.50438e-09
1.219e-09,1.50438e-09
1.22e-09,1.955e-10
1.221e-09,-1.50438e-09
1.222e-09,0
1.223e-09,-1.955e-10
1.224e-09,0
1.225e-09,0
1.226e-09,0
1.227e-09,1.73246e-09
1.228e-09,-2.28083e-10
1.229e-09,-2.88109e-08
1.23e-09,0
1.231e-09,0
1.232e-09,0
1.233e-09,2.28083e-10
1.234e-09,0
1.235e-09,0
1.236e-09,-2.28083e-10
1.237e-09,0
1.238e-09,0
1.239e-09,-2.90383e-08
1.24e-09,0
1.241e-09,0
1.242e-09,0
1.243e-09,0
1.244e-09,0
1.245e-09,0
1.246e-09,0
1.247e-09,2.28083e-10
1.248e-09,-2.28083e-10
1.249e-09,0
1.25e-09,-2.88109e-08
1.251e-09,-1.50367e-09
1.252e-09,2.28083e-10
1.253e-09,-2.28083e-10
1.254e-09,0
1.255e-09,0
1.256e-09,0
1.257e-09,0
1.258e-09,-3.03146e-08
1.259e-09,0
1.26e-09,0
1.261e-09,2.28083e-10
1.262e-09,0
1.263e-09,2.28083e-10
1.264e-09,0
1.265e-09,-2.15647e-09
1.266e-09,3.25831e-11
1.267e-09,-2.28083e-10
1.268e-09,-3.25831e-11
1.269e-09,0
1.27e-09,-2.9235e-08
1.271e-09,-3.09003e-08
1.272e-09,0
1.273e-09,0
1.274e-09,2.40884e-09
1.275e-09,-2.28083e-10
1.276e-09,-4.83219e-10
1.277e-09,0
1.278e-09,-1.50367e-09
1.279e-09,-3.3231e-08
1.28e-09,-2.28083e-10
1.281e-09,0
1.282e-09,0
1.283e-09,0
1.284e-09,-7.11302e-10
1.285e-09,-3.13971e-08
1.286e-09,0
1.287e-09,0
1.288e-09,0
1.289e-09,-2.59911e-08
1.29e-09,0
1.291e-09,0
1.292e-09,1.50389e-09
1.293e-09,-1.50389e-09
1.294e-09,0
1.295e-09,0
1.296e-09,0
1.297e-09,0
1.298e-09,-2.9645e-08
1.299e-09,0
1.3e-09,-2.94954e-08
1.301e-09,-2.28083e-10
1.302e-09,0
1.303e-09,0
1.304e-09,-3.39085e-10
1.305e-09,2.28083e-10
1.306e-09,0
1.307e-09,0
1.308e-09,-2.97898e-08
1.309e-09,3.23543e-09
1.31e-09,-3.38052e-08
1.311e-09,0
1.312e-09,0
1.313e-09,0
1.314e-09,0
1.315e-09,-3.25831e-11
1.316e-09,0
1.317e-09,0
1.318e-09,2.28083e-10
1.319e-09,-2.88109e-08
1.32e-09,-4.41727e-09
1.321e-09,-3.15909e-08
1.322e-09,0
1.323e-09,0
1.324e-09,0
1.325e-09,0
1.326e-09,0
1.327e-09,1.955e-10
1.328e-09,0
1.329e-09,3.25831e-11
1.33e-09,-2.88428e-08
1.331e-09,1.955e-10
1.332e-09,0
1.333e-09,0
1.334e-09,-2.88102e-08
1.335e-09,0
1.336e-09,-1.50367e-09
1.337e-09,0
1.338e-09,-1.955e-10
1.339e-09,-3.01783e-08
1.34e-09,0
1.341e-09,-2.75027e-08
1.342e-09,0
1.343e-09,-1.955e-10
1.344e-09,1.955e-10
1.345e-09,-1.69918e-09
1.346e-09,1.50438e-09
1.347e-09,0
1.348e-09,-1.96205e-10
1.349e-09,-3.16305e-08
1.35e-09,-2.74976e-08
1.351e-09,0
1.352e-09,-1.88224e-10
1.353e-09,0
1.354e-09,0
1.355e-09,0
1.356e-09,-1.50367e-09
1.357e-09,-3.25597e-08
1.358e-09,-3.01238e-08
1.359e-09,0
1.36e-09,0
1.361e-09,1.50438e-09
1.362e-09,-1.50438e-09
1.363e-09,0
1.364e-09,1.50438e-09
1.365e-09,-4.69995e-09
1.366e-09,-6.25354e-08
1.367e-09,3.19628e-09
1.368e-09,0
1.369e-09,-3.19628e-09
1.37e-09,0
1.371e-09,6.01611e-09
1.372e-09,-5.78803e-09
1.373e-09,0
1.374e-09,-2.28083e-10
1.375e-09,1.50367e-09
1.376e-09,-3.03146e-08
1.377e-09,-3.66277e-08
1.378e-09,2.28083e-10
1.379e-09,0
1.38e-09,-2.28083e-10
1.381e-09,-1.54353e-09
1.382e-09,1.28287e-09
1.383e-09,3.25831e-11
1.384e-09,0
1.385e-09,-3.2887e-08
1.386e-09,0
1.387e-09,-3.36117e-08
1.388e-09,0
1.389e-09,1.50367e-09
1.39e-09,0
1.391e-09,0
1.392e-09,6.71369e-09
1.393e-09,-6.48561e-09
1.394e-09,6.48561e-09
1.395e-09,-3.36124e-08
1.396e-09,-2.88726e-08
1.397e-09,-4.92804e-09
1.398e-09,4.69995e-09
1.399e-09,-4.56167e-10
1.4e-09,-4.47187e-09
1.401e-09,-4.51173e-09
1.402e-09,-3.517e-08
1.403e-09,4.28365e-09
1.404e-09,-2.95733e-08
1.405e-09,0
1.406e-09,2.28083e-10
1.407e-09,-2.28083e-10
1.408e-09,2.28083e-10
1.409e-09,0
1.41e-09,0
1.411e-09,-3.62388e-08
1.412e-09,0
1.413e-09,-4.23584e-10
1.414e-09,-2.90383e-08
1.415e-09,0
1.416e-09,0
1.417e-09,1.955e-10
1.418e-09,0
1.419e-09,0
1.42e-09,-3.50012e-08
1.421e-09,2.28083e-10
1.422e-09,0
1.423e-09,0
1.424e-09,-3.06727e-09
1.425e-09,-2.86304e-08
1.426e-09,-2.18889e-09
1.427e-09,2.18889e-09
1.428e-09,-3.84272e-08
1.429e-09,0
1.43e-09,-1.955e-10
1.431e-09,0
1.432e-09,-1.99339e-09
1.433e-09,-1.955e-10
1.434e-09,-2.95624e-08
1.435e-09,1.955e-10
1.436e-09,-3.75463e-08
1.437e-09,0
1.438e-09,0
1.439e-09,0
1.44e-09,1.1089e-09
1.441e-09,-2.28083e-10
1.442e-09,0
1.443e-09,0
1.444e-09,-1.1089e-09
1.445e-09,-6.99812e-08
1.446e-09,-1.05271e-08
1.447e-09,0
1.448e-09,0
1.449e-09,1.955e-10
1.45e-09,0
1.451e-09,1.955e-10
1.452e-09,-4.16137e-08
1.453e-09,-1.955e-10
1.454e-09,-3.15846e-08
1.455e-09,2.28083e-10
1.456e-09,1.955e-10
1.457e-09,-1.955e-10
1.458e-09,-9.80273e-10
1.459e-09,1.15053e-08
1.46e-09,0
1.461e-09,-7.5219e-10
1.462e-09,-7.21207e-08
1.463e-09,-2.28083e-10
1.464e-09,0
1.465e-09,-1.20336e-08
1.466e-09,0
1.467e-09,1.955e-10
1.468e-09,1.20336e-08
1.469e-09,0
1.47e-09,-3.09053e-08
1.471e-09,0
1.472e-09,-4.3221e-08
1.473e-09,0
1.474e-09,0
1.475e-09,-1.955e-10
1.476e-09,1.955e-10
1.477e-09,-4.32139e-09
1.478e-09,-1.955e-10
1.479e-09,-2.8822e-08
1.48e-09,-4.36862e-08
1.481e-09,-3.00312e-09
1.482e-09,3.00312e-09
1.483e-09,0
1.484e-09,-1.20266e-08
1.485e-09,1.20266e-08
1.486e-09,-1.20266e-08
1.487e-09,1.20266e-08
1.488e-09,0
1.489e-09,-8.79801e-08
1.49e-09,1.35352e-08
1.491e-09,0
1.492e-09,0
1.493e-09,-1.955e-10
1.494e-09,1.955e-10
1.495e-09,0
1.496e-09,-4.51173e-09
1.497e-09,7.51908e-09
1.498e-09,-4.11315e-08
1.499e-09,-4.5216e-08
1.5e-09,-6.01329e-09
1.501e-09,6.01329e-09
1.502e-09,0
1.503e-09,3.25831e-11
1.504e-09,-3.25831e-11
1.505e-09,3.25831e-11
1.506e-09,-7.21722e-10
1.507e-09,4.70723e-09
1.508e-09,-3.42641e-08
1.509e-09,-5.03193e-08
1.51e-09,2.28083e-10
1.511e-09,-2.28083e-10
1.512e-09,7.54305e-10
1.513e-09,0
1.514e-09,0
1.515e-09,5.31538e-09
1.516e-09,5.25898e-09
1.517e-09,-4.43823e-08
1.518e-09,-4.62311e-08
1.519e-09,-3.01017e-09
1.52e-09,3.01017e-09
1.521e-09,2.28083e-10
1.522e-09,0
1.523e-09,0
1.524e-09,-2.28083e-10
1.525e-09,0
1.526e-09,0
1.527e-09,-8.21558e-08
1.528e-09,0
1.529e-09,0
1.53e-09,0
1.531e-09,0
1.532e-09,-5.26603e-09
1.533e-09,5.26603e-09
1.534e-09,-4.14233e-08
1.535e-09,-1.95933e-08
1.536e-09,-4.94739e-08
1.537e-09,0
1.538e-09,0
1.539e-09,2.28083e-10
1.54e-09,0
1.541e-09,0
1.542e-09,0
1.543e-09,0
1.544e-09,0
1.545e-09,0
1.546e-09,-8.81877e-08
1.547e-09,-1.05321e-08
1.548e-09,1.05321e-08
1.549e-09,0
1.55e-09,-1.05321e-08
1.551e-09,1.955e-10
1.552e-09,0
1.553e-09,1.95555e-08
1.554e-09,-5.12344e-08
1.555e-09,-4.15079e-08
1.556e-09,0
1.557e-09,0
1.558e-09,0
1.559e-09,0
1.56e-09,0
1.561e-09,1.05321e-08
1.562e-09,-1.07602e-08
1.563e-09,-4.16137e-08
1.564e-09,2.28083e-10
1.565e-09,-5.7802e-08
1.566e-09,1.17985e-08
1.567e-09,4.56167e-10
1.568e-09,-2.28083e-10
1.569e-09,-2.10571e-08
1.57e-09,2.10571e-08
1.571e-09,-2.12852e-08
1.572e-09,2.10571e-08
1.573e-09,-3.52288e-08
1.574e-09,-9.05523e-08
1.575e-09,-3.25831e-11
1.576e-09,4.8875e-10
1.577e-09,-3.25831e-11
1.578e-09,1.20336e-08
1.579e-09,2.60667e-10
1.58e-09,-1.20336e-08
1.581e-09,0
1.582e-09,-6.01681e-08
1.583e-09,-4.1811e-08
1.584e-09,-2.28083e-10
1.585e-09,0
1.586e-09,2.28083e-10
1.587e-09,-2.28083e-10
1.588e-09,2.28083e-10
1.589e-09,-2.28083e-10
1.59e-09,0
1.591e-09,0
1.592e-09,-1.04877e-07
1.593e-09,0
1.594e-09,0
1.595e-09,0
1.596e-09,0
1.597e-09,-1.42895e-08
1.598e-09,1.42895e-08
1.599e-09,0
1.6e-09,-1.42895e-08
1.601e-09,-4.97982e-08
1.602e-09,-4.3792e-08
1.603e-09,0
1.604e-09,-1.57911e-08
1.605e-09,0
1.606e-09,1.57911e-08
1.607e-09,0
1.608e-09,1.955e-10
1.609e-09,-8.30703e-08
1.61e-09,0
1.611e-09,0
1.612e-09,-8.19531e-08
1.613e-09,-1.955e-10
1.614e-09,0
1.615e-09,0
1.616e-09,1.955e-10
1.617e-09,0
1.618e-09,-6.88372e-08
1.619e-09,0
1.62e-09,0
1.621e-09,0
1.622e-09,-4.44777e-08
1.623e-09,0
1.624e-09,0
1.625e-09,-1.64602e-09
1.626e-09,1.45052e-09
1.627e-09,-1.45052e-09
1.628e-09,-2.28083e-10
1.629e-09,2.28083e-10
1.63e-09,-7.11302e-08
1.631e-09,0
1.632e-09,-4.60478e-08
1.633e-09,-2.28083e-10
1.634e-09,0
1.635e-09,0
1.636e-09,2.28083e-10
1.637e-09,1.6786e-09
1.638e-09,-7.69444e-08
1.639e-09,0
1.64e-09,0
1.641e-09,-4.95233e-08
1.642e-09,0
1.643e-09,0
1.644e-09,0
1.645e-09,-3.34691e-08
1.646e-09,0
1.647e-09,2.18114e-08
1.648e-09,-9.9674e-08
1.649e-09,2.18114e-08
1.65e-09,-2.18114e-08
1.651e-09,-4.94246e-08
1.652e-09,0
1.653e-09,1.01489e-08
1.654e-09,0
1.655e-09,-4.04787e-08
1.656e-09,3.68669e-08
1.657e-09,-8.03793e-08
1.658e-09,-7.46543e-08
1.659e-09,4.5505e-08
1.66e-09,2.18043e-08
1.661e-09,-9.4845e-08
1.662e-09,-2.39827e-08
1.663e-09,6.97158e-08
1.664e-09,0
1.665e-09,-2.39827e-08
1.666e-09,-8.53492e-08
1.667e-09,-5.15067e-08
1.668e-09,2.28083e-10
1.669e-09,-2.28083e-10
1.67e-09,-5.33442e-08
1.671e-09,0
1.672e-09,-3.36124e-08
1.673e-09,0
1.674e-09,2.66192e-08
1.675e-09,-2.66192e-08
1.676e-09,-9.0432e-08
1.677e-09,-5.43381e-08
1.678e-09,0
1.679e-09,0
1.68e-09,0
1.681e-09,0
1.682e-09,0
1.683e-09,0
1.684e-09,2.66192e-08
1.685e-09,-1.00619e-07
1.686e-09,-5.35274e-08
1.687e-09,0
1.688e-09,2.28083e-10
1.689e-09,0
1.69e-09,-6.31642e-08
1.691e-09,3.38405e-08
1.692e-09,-1.41918e-07
1.693e-09,-2.28083e-10
1.694e-09,2.28083e-10
1.695e-09,-5.84153e-08
1.696e-09,0
1.697e-09,0
1.698e-09,0
1.699e-09,2.28083e-10
1.7e-09,-2.28083e-10
1.701e-09,-1.40453e-07
1.702e-09,-2.28083e-10
1.703e-09,0
1.704e-09,-5.92753e-08
1.705e-09,2.28083e-10
1.706e-09,0
1.707e-09,-2.28083e-10
1.708e-09,0
1.709e-09,-1.21894e-07
1.71e-09,0
1.711e-09,0
1.712e-09,0
1.713e-09,-3.02286e-08
1.714e-09,-6.13595e-08
1.715e-09,0
1.716e-09,0
1.717e-09,-1.21958e-07
1.718e-09,-2.28083e-10
1.719e-09,-1.36289e-08
1.72e-09,0
1.721e-09,0
1.722e-09,0
1.723e-09,-6.40666e-08
1.724e-09,-3.5527e-08
1.725e-09,0
1.726e-09,0
1.727e-09,2.28083e-10
1.728e-09,-1.35641e-07
1.729e-09,0
1.73e-09,0
1.731e-09,0
1.732e-09,-6.45107e-08
1.733e-09,0
1.734e-09,-3.40473e-08
1.735e-09,0
1.736e-09,0
1.737e-09,0
1.738e-09,-1.55203e-07
1.739e-09,0
1.74e-09,-6.72741e-08
1.741e-09,0
1.742e-09,0
1.743e-09,0
1.744e-09,-3.36124e-08
1.745e-09,0
1.746e-09,-1.76209e-07
1.747e-09,2.28083e-10
1.748e-09,-7.04464e-08
1.749e-09,0
1.75e-09,0
1.751e-09,-2.28083e-10
1.752e-09,0
1.753e-09,-5.31704e-08
1.754e-09,1.67382e-08
1.755e-09,-1.90712e-07
1.756e-09,-7.02772e-08
1.757e-09,0
1.758e-09,0
1.759e-09,0
1.76e-09,0
1.761e-09,-3.36124e-08
1.762e-09,-2.39305e-07
1.763e-09,-5.22732e-08
1.764e-09,-2.27349e-08
1.765e-09,0
1.766e-09,-6.02291e-08
1.767e-09,6.04572e-08
1.768e-09,-2.28083e-10
1.769e-09,-7.1541e-08
1.77e-09,7.19646e-08
1.771e-09,-9.42644e-08
1.772e-09,-1.84925e-07
1.773e-09,-1.30118e-08
1.774e-09,1.69988e-09
1.775e-09,-7.48905e-08
1.776e-09,-4.70723e-09
1.777e-09,1.955e-10
1.778e-09,0
1.779e-09,-3.71953e-08
1.78e-09,5.50604e-09
1.781e-09,-2.9604e-07
1.782e-09,0
1.783e-09,0
1.784e-09,1.55274e-08
1.785e-09,-7.55926e-08
1.786e-09,2.28083e-10
1.787e-09,-9.38299e-09
1.788e-09,-3.84139e-08
1.789e-09,-8.49474e-09
1.79e-09,-3.40375e-07
1.791e-09,0
1.792e-09,-4.12299e-07
1.793e-09,0
1.794e-09,6.77464e-09
1.795e-09,-2.28083e-10
1.796e-09,-3.79509e-08
1.797e-09,-3.09081e-07
1.798e-09,0
1.799e-09,-1.27533e-08
1.8e-09,-5.5781e-09
1.801e-09,-7.5826e-07
1.802e-09,-1.35802e-08
1.803e-09,0
1.804e-09,-4.88079e-07
1.805e-09,-3.25831e-11
1.806e-09,-7.31976e-08
1.807e-09,-2.28083e-10
1.808e-09,-1.955e-10
1.809e-09,1.955e-10
1.81e-09,-3.23886e-07
1.811e-09,-1.955e-10
1.812e-09,1.33942e-09
1.813e-09,0
1.814e-09,0
1.815e-09,-4.00879e-08
1.816e-09,0
1.817e-09,-3.38078e-08
1.818e-09,-1.10215e-07
1.819e-09,0
1.82e-09,3.36123e-08
1.821e-09,0
1.822e-09,0
1.823e-09,-2.75969e-08
1.824e-09,-2.40724e-07
1.825e-09,-7.72697e-08
1.826e-09,3.95058e-08
1.827e-09,-1.38212e-07
1.828e-09,0
1.829e-09,2.34709e-07
1.83e-09,0
1.831e-09,-2.74214e-07
1.832e-09,0
1.833e-09,2.0255e-10
1.834e-09,-4.11131e-08
1.835e-09,-4.08875e-10
1.836e-09,-7.34307e-08
1.837e-09,9.27709e-10
1.838e-09,0
1.839e-09,0
1.84e-09,0
1.841e-09,-3.10258e-08
1.842e-09,-4.11362e-08
1.843e-09,7.33156e-09
1.844e-09,0
1.845e-09,0
1.846e-09,-1.29134e-07
1.847e-09,-7.04958e-12
1.848e-09,0
1.849e-09,1.955e-10
1.85e-09,0
1.851e-09,-7.33156e-09
1.852e-09,-3.53113e-08
1.853e-09,-5.83945e-09
1.854e-09,0
1.855e-09,7.04958e-12
1.856e-09,-9.45701e-08
1.857e-09,-2.05037e-07
1.858e-09,0
1.859e-09,-7.04958e-12
1.86e-09,6.02739e-09
1.861e-09,-3.98372e-08
1.862e-09,-4.69502e-09
1.863e-09,-3.12546e-08
1.864e-09,0
1.865e-09,0
1.866e-09,0
1.867e-09,-1.68917e-07
1.868e-09,-1.50438e-09
1.869e-09,-4.17166e-08
1.87e-09,0
1.871e-09,-1.50438e-09
1.872e-09,0
1.873e-09,0
1.874e-09,0
1.875e-09,0
1.876e-09,-2.63661e-08
1.877e-09,-1.54673e-07
1.878e-09,0
1.879e-09,-3.22166e-10
1.88e-09,-4.82473e-08
1.881e-09,0
1.882e-09,-3.60092e-09
1.883e-09,-2.41941e-09
1.884e-09,-3.00865e-08
1.885e-09,1.27559e-09
1.886e-09,-7.47322e-08
1.887e-09,0
1.888e-09,-4.92226e-08
1.889e-09,0
1.89e-09,2.28083e-10
1.891e-09,-2.28083e-10
1.892e-09,0
1.893e-09,-3.09935e-08
1.894e-09,2.9205e-07
1.895e-09,1.50367e-09
1.896e-09,-1.50367e-09
1.897e-09,-4.99745e-08
1.898e-09,-5.8656e-07
1.899e-09,-2.76414e-07
1.9e-09,1.50367e-09
1.901e-09,-6.16086e-07
1.902e-09,2.76414e-07
1.903e-09,-3.13029e-07
1.904e-09,7.80388e-09
1.905e-09,2.80118e-09
1.906e-09,-5.50015e-07
1.907e-09,-7.54305e-10
1.908e-09,-4.92836e-08
1.909e-09,3.54594e-09
1.91e-09,0
1.911e-09,0
1.912e-09,0
1.913e-09,-6.39519e-07
1.914e-09,-8.00324e-07
1.915e-09,7.7176e-07
1.916e-09,-7.7176e-07
1.917e-09,0
1.918e-09,-5.37601e-08
1.919e-09,0
1.92e-09,1.955e-10
1.921e-09,-3.40918e-08
1.922e-09,2.76218e-07
1.923e-09,-2.76218e-07
1.924e-09,2.76218e-07
1.925e-09,-2.76414e-07
1.926e-09,2.66841e-07
1.927e-09,9.57333e-09
1.928e-09,-6.21209e-08
1.929e-09,0
1.93e-09,-2.88109e-08
1.931e-09,-2.60242e-07
1.932e-09,-1.61717e-08
1.933e-09,0
1.934e-09,-2.74934e-09
1.935e-09,0
1.936e-09,-4.97066e-08
1.937e-09,0
1.938e-09,1.07205e-08
1.939e-09,-7.97118e-09
1.94e-09,-3.23153e-08
1.941e-09,1.955e-10
1.942e-09,0
1.943e-09,0
1.944e-09,-5.29212e-08
1.945e-09,0
1.946e-09,1.20266e-08
1.947e-09,-1.20266e-08
1.948e-09,2.87143e-07
1.949e-09,-3.18821e-07
1.95e-09,1.20266e-08
1.951e-09,0
1.952e-09,-6.0436e-08
1.953e-09,2.77711e-07
1.954e-09,-1.955e-10
1.955e-09,0
1.956e-09,0
1.957e-09,-2.76414e-07
1.958e-09,1.955e-10
1.959e-09,0
1.96e-09,-8.59851e-08
1.961e-09,-1.35352e-08
1.962e-09,0
1.963e-09,-2.74934e-09
1.964e-09,0
1.965e-09,0
1.966e-09,1.35352e-08
1.967e-09,-2.89984e-08
1.968e-09,-6.14843e-08
1.969e-09,2.76218e-07
1.97e-09,-2.70461e-07
1.971e-09,-5.75739e-09
1.972e-09,3.00805e-09
1.973e-09,0
1.974e-09,-1.955e-10
1.975e-09,1.955e-10
1.976e-09,-5.84621e-08
1.977e-09,-3.03879e-08
1.978e-09,-1.955e-10
1.979e-09,-1.26376e-09
1.98e-09,0
1.981e-09,0
1.982e-09,1.27081e-09
1.983e-09,-1.46631e-09
1.984e-09,-3.61502e-08
1.985e-09,4.51173e-09
1.986e-09,-7.02772e-08
1.987e-09,0
1.988e-09,0
1.989e-09,0
1.99e-09,0
1.991e-09,0
1.992e-09,0
1.993e-09,-3.72591e-08
1.994e-09,-2.28083e-10
1.995e-09,-6.80637e-08
1.996e-09,0
1.997e-09,0
1.998e-09,0
1.999e-09,1.49451e-09
2e-09,2.28083e-10
2.001e-09,0
2.1e-09,0
