0,0
1e-12,-7.05083e-07
2e-12,-8.37122e-07
3e-12,-5.35529e-07
4e-12,-1.33717e-06
5e-12,1.0401e-06
6e-12,-2.22278e-06
7e-12,-9.33323e-07
8e-12,-8.88694e-07
9e-12,-1.50849e-06
1e-11,7.79291e-07
1.1e-11,-2.49481e-06
1.2e-11,-1.51023e-06
1.3e-11,5.4954e-07
1.4e-11,8.00169e-07
1.5e-11,1.09863e-07
1.6e-11,-4.46921e-08
1.7e-11,-1.65011e-06
1.8e-11,-5.45859e-07
1.9e-11,-5.31649e-07
2e-11,-1.03266e-06
2.1e-11,-5.8303e-07
2.2e-11,-1.38819e-06
2.3e-11,-8.87373e-07
2.4e-11,-1.85661e-06
2.5e-11,1.33352e-07
2.6e-11,-1.24325e-06
2.7e-11,-9.70993e-07
2.8e-11,-1.5112e-07
2.9e-11,-7.06325e-07
3e-11,-6.99407e-07
3.1e-11,7.60291e-08
3.2e-11,-1.38078e-06
3.3e-11,-1.72439e-06
3.4e-11,-1.00638e-06
3.5e-11,8.35916e-08
3.6e-11,-2.37031e-07
3.7e-11,-1.33681e-06
3.8e-11,-6.68285e-07
3.9e-11,-7.34803e-07
4e-11,-8.9295e-07
4.1e-11,5.75831e-07
4.2e-11,-1.86055e-06
4.3e-11,-1.7508e-06
4.4e-11,6.9899e-09
4.5e-11,-1.12488e-06
4.6e-11,6.52908e-07
4.7e-11,-1.77363e-06
4.8e-11,-3.38665e-07
4.9e-11,-1.04263e-06
5e-11,-6.34312e-07
5.1e-11,-2.47076e-07
5.2e-11,-1.98602e-06
5.3e-11,-3.7915e-07
5.4e-11,-6.67158e-07
5.5e-11,-1.43403e-06
5.6e-11,-1.37649e-06
5.7e-11,-2.45506e-07
5.8e-11,-3.10402e-07
5.9e-11,-8.80609e-08
6e-11,-1.08891e-06
6.1e-11,-1.47806e-06
6.2e-11,-4.60684e-08
6.3e-11,-3.70888e-07
6.4e-11,-1.39e-06
6.5e-11,-1.60105e-06
6.6e-11,1.24264e-07
6.7e-11,-1.12491e-06
6.8e-11,-3.1411e-07
6.9e-11,-6.48634e-07
7e-11,-9.90585e-07
7.1e-11,2.21713e-07
7.2e-11,-2.0112e-06
7.3e-11,1.56935e-07
7.4e-11,-2.86671e-07
7.5e-11,1.74271e-07
7.6e-11,-8.50573e-07
7.7e-11,-3.28921e-07
7.8e-11,-1.96134e-06
7.9e-11,-6.45858e-07
8e-11,3.72235e-07
8.1e-11,-6.6403e-07
8.2e-11,-5.0873e-07
8.3e-11,-7.88929e-07
8.4e-11,-8.76957e-09
8.5e-11,-1.59177e-06
8.6e-11,-1.0639e-07
8.7e-11,7.48107e-07
8.8e-11,-6.64407e-07
8.9e-11,-3.84023e-07
9e-11,-1.07795e-06
9.1e-11,3.40233e-07
9.2e-11,-1.00191e-06
9.3e-11,-1.18034e-06
9.4e-11,-2.97525e-07
9.5e-11,-5.55348e-07
9.6e-11,5.39604e-07
9.7e-11,-7.13801e-07
9.8e-11,-6.48749e-07
9.9e-11,-4.93354e-07
1e-10,-1.4707e-07
1.01e-10,-2.82857e-07
1.02e-10,-9.35809e-07
1.03e-10,2.31946e-07
1.04e-10,-2.55039e-07
1.05e-10,-2.52623e-07
1.06e-10,-8.01866e-07
1.07e-10,-6.48817e-07
1.08e-10,-4.76449e-07
1.09e-10,-7.21888e-07
1.1e-10,-3.8396e-07
1.11e-10,-8.93129e-07
1.12e-10,5.63831e-07
1.13e-10,-1.17592e-07
1.14e-10,1.54864e-07
1.15e-10,-1.65673e-06
1.16e-10,-2.06889e-07
1.17e-10,-9.08926e-08
1.18e-10,-1.5388e-06
1.19e-10,-1.24624e-08
1.2e-10,-1.42116e-06
1.21e-10,-1.8e-07
1.22e-10,8.47892e-07
1.23e-10,-8.11723e-07
1.24e-10,-1.63475e-06
1.25e-10,-2.0389e-06
1.26e-10,-1.66838e-06
1.27e-10,-2.77891e-07
1.28e-10,-4.45583e-07
1.29e-10,-2.74343e-07
1.3e-10,-1.32959e-06
1.31e-10,-2.53833e-07
1.32e-10,-8.82328e-07
1.33e-10,-1.41126e-06
1.34e-10,-7.26306e-07
1.35e-10,-5.03954e-07
1.36e-10,-7.91979e-08
1.37e-10,-8.47105e-07
1.38e-10,-6.54736e-07
1.39e-10,-7.32178e-07
1.4e-10,-5.91016e-07
1.41e-10,-5.36001e-07
1.42e-10,-1.00031e-06
1.43e-10,-5.14782e-07
1.44e-10,-8.89748e-07
1.45e-10,-4.97061e-07
1.46e-10,-6.07213e-07
1.47e-10,-2.1917e-07
1.48e-10,-3.85197e-07
1.49e-10,-2.43476e-06
1.5e-10,-7.34551e-08
1.51e-10,-1.43928e-06
1.52e-10,4.65263e-08
1.53e-10,-1.516e-06
1.54e-10,-6.16e-07
1.55e-10,1.58842e-08
1.56e-10,2.49079e-07
1.57e-10,-1.12161e-06
1.58e-10,-1.71394e-06
1.59e-10,-2.55087e-07
1.6e-10,-5.76866e-07
1.61e-10,1.54475e-07
1.62e-10,-2.50333e-07
1.63e-10,-4.17522e-07
1.64e-10,-1.52207e-06
1.65e-10,7.62317e-07
1.66e-10,-1.24869e-06
1.67e-10,3.53241e-07
1.68e-10,-8.52849e-07
1.69e-10,-5.39854e-07
1.7e-10,2.16367e-07
1.71e-10,-8.24074e-07
1.72e-10,2.05907e-07
1.73e-10,-3.88559e-07
1.74e-10,-8.18722e-07
1.75e-10,-9.17475e-07
1.76e-10,2.13057e-07
1.77e-10,3.10869e-07
1.78e-10,-4.10648e-07
1.79e-10,6.89336e-08
1.8e-10,-3.22838e-07
1.81e-10,-4.05912e-07
1.82e-10,-5.82765e-07
1.83e-10,3.46424e-07
1.84e-10,-8.02893e-07
1.85e-10,1.36572e-07
1.86e-10,-1.27097e-07
1.87e-10,-1.68239e-07
1.88e-10,1.6207e-07
1.89e-10,-3.54619e-07
1.9e-10,2.30054e-09
1.91e-10,-6.28705e-07
1.92e-10,-6.57558e-07
1.93e-10,-3.52974e-07
1.94e-10,7.33466e-07
1.95e-10,1.75896e-09
1.96e-10,-8.11903e-07
1.97e-10,-6.30801e-08
1.98e-10,-1.21183e-06
1.99e-10,-2.36942e-07
2e-10,5.50382e-08
2.01e-10,-4.76674e-07
2.02e-10,-3.3408e-07
2.03e-10,2.2475e-08
2.04e-10,-1.28922e-06
2.05e-10,-3.1013e-07
2.06e-10,2.06351e-07
2.07e-10,-5.79665e-07
2.08e-10,-7.49646e-07
2.09e-10,-7.15274e-07
2.1e-10,-6.30208e-07
2.11e-10,-8.9668e-07
2.12e-10,2.41714e-07
2.13e-10,-3.91725e-07
2.14e-10,1.30477e-07
2.15e-10,-1.45132e-06
2.16e-10,-2.23309e-06
2.17e-10,-3.8825e-07
2.18e-10,-6.42777e-07
2.19e-10,-9.86769e-07
2.2e-10,-9.38972e-07
2.21e-10,-2.39071e-06
2.22e-10,-4.24254e-07
2.23e-10,-4.85885e-07
2.24e-10,-5.73625e-07
2.25e-10,-8.47015e-08
2.26e-10,-2.09548e-07
2.27e-10,-8.31733e-07
2.28e-10,-1.21667e-06
2.29e-10,2.55779e-07
2.3e-10,-4.54301e-07
2.31e-10,-8.08082e-07
2.32e-10,9.91931e-08
2.33e-10,-7.60857e-07
2.34e-10,-3.58401e-07
2.35e-10,-4.38367e-07
2.36e-10,3.12032e-08
2.37e-10,-1.1149e-07
2.38e-10,-3.65938e-07
2.39e-10,-1.48318e-07
2.4e-10,1.12596e-06
2.41e-10,-7.06956e-07
2.42e-10,-8.67429e-07
2.43e-10,2.72068e-07
2.44e-10,-1.04518e-06
2.45e-10,-9.79912e-08
2.46e-10,-6.77983e-07
2.47e-10,3.35481e-07
2.48e-10,-5.24859e-07
2.49e-10,-9.74694e-08
2.5e-10,-7.39145e-07
2.51e-10,-1.40834e-07
2.52e-10,-1.18679e-06
2.53e-10,-6.86508e-07
2.54e-10,2.88432e-08
2.55e-10,-4.4735e-07
2.56e-10,-8.18861e-07
2.57e-10,-4.77929e-07
2.58e-10,2.54073e-08
2.59e-10,-1.52135e-07
2.6e-10,-4.53509e-07
2.61e-10,-1.49992e-06
2.62e-10,-1.8129e-06
2.63e-10,7.14741e-08
2.64e-10,-5.77234e-07
2.65e-10,2.26243e-07
2.66e-10,-1.27442e-06
2.67e-10,2.87305e-07
2.68e-10,-8.52773e-07
2.69e-10,-5.65367e-07
2.7e-10,-1.70713e-06
2.71e-10,-3.29503e-07
2.72e-10,-6.55934e-07
2.73e-10,-4.15128e-09
2.74e-10,-8.34334e-07
2.75e-10,-8.73427e-07
2.76e-10,-1.65276e-06
2.77e-10,-1.16303e-06
2.78e-10,2.11922e-07
2.79e-10,-2.21765e-06
2.8e-10,-5.25971e-07
2.81e-10,-9.47361e-07
2.82e-10,-6.40373e-08
2.83e-10,-1.75116e-06
2.84e-10,-1.4959e-07
2.85e-10,-6.71872e-07
2.86e-10,-2.10119e-06
2.87e-10,-1.3408e-07
2.88e-10,-7.03776e-07
2.89e-10,-1.97006e-07
2.9e-10,-1.4067e-06
2.91e-10,-2.37032e-07
2.92e-10,-7.48265e-07
2.93e-10,-4.65024e-07
2.94e-10,-1.27622e-06
2.95e-10,-1.27445e-07
2.96e-10,-1.0754e-06
2.97e-10,-1.71053e-07
2.98e-10,-4.54435e-07
2.99e-10,-5.7762e-07
3e-10,-3.72262e-07
3.01e-10,-4.68216e-07
3.02e-10,-6.26146e-07
3.03e-10,-5.11732e-07
3.04e-10,-2.56636e-07
3.05e-10,-3.37182e-07
3.06e-10,-5.47729e-07
3.07e-10,-5.55491e-07
3.08e-10,-2.17178e-07
3.09e-10,-5.49085e-07
3.1e-10,1.28809e-07
3.11e-10,-5.14672e-07
3.12e-10,-6.51089e-07
3.13e-10,-1.08844e-06
3.14e-10,-3.78572e-08
3.15e-10,-5.69244e-07
3.16e-10,-3.9965e-08
3.17e-10,-6.09397e-07
3.18e-10,-5.8832e-07
3.19e-10,4.57859e-07
3.2e-10,-8.32979e-07
3.21e-10,-3.43927e-07
3.22e-10,-2.77364e-07
3.23e-10,-1.30698e-06
3.24e-10,-9.59685e-07
3.25e-10,-3.69672e-08
3.26e-10,-2.51417e-07
3.27e-10,-2.47869e-07
3.28e-10,-1.30448e-06
3.29e-10,-1.03838e-06
3.3e-10,-9.26614e-08
3.31e-10,-3.97023e-07
3.32e-10,-2.20915e-06
3.33e-10,-3.57543e-07
3.34e-10,-2.19241e-07
3.35e-10,-1.92689e-07
3.36e-10,2.6104e-08
3.37e-10,-8.80403e-07
3.38e-10,-1.65256e-06
3.39e-10,1.43177e-07
3.4e-10,-1.82826e-07
3.41e-10,-5.22191e-07
3.42e-10,-4.7105e-07
3.43e-10,-4.13935e-07
3.44e-10,-4.55115e-07
3.45e-10,-1.55471e-07
3.46e-10,-8.84731e-07
3.47e-10,2.37614e-07
3.48e-10,-8.37654e-07
3.49e-10,-3.44641e-07
3.5e-10,-1.01611e-08
3.51e-10,-6.69419e-07
3.52e-10,-2.85664e-07
3.53e-10,-3.93771e-08
3.54e-10,4.90894e-08
3.55e-10,3.242e-07
3.56e-10,-1.73383e-06
3.57e-10,3.32936e-07
3.58e-10,-3.52947e-07
3.59e-10,-1.24559e-06
3.6e-10,2.52363e-07
3.61e-10,-6.48759e-07
3.62e-10,-1.38901e-06
3.63e-10,-1.75742e-08
3.64e-10,-1.64814e-06
3.65e-10,1.5712e-07
3.66e-10,-1.30285e-06
3.67e-10,-4.64856e-07
3.68e-10,-4.52691e-07
3.69e-10,-4.7204e-07
3.7e-10,-2.27132e-07
3.71e-10,-5.822e-07
3.72e-10,-4.5546e-07
3.73e-10,-6.18711e-07
3.74e-10,-6.88606e-07
3.75e-10,-3.64202e-07
3.76e-10,-3.3345e-07
3.77e-10,-6.28696e-07
3.78e-10,-2.02397e-06
3.79e-10,5.22349e-07
3.8e-10,3.35917e-08
3.81e-10,-1.00867e-06
3.82e-10,-1.64375e-06
3.83e-10,6.9226e-07
3.84e-10,-5.35142e-07
3.85e-10,-5.14545e-07
3.86e-10,-3.24137e-07
3.87e-10,-1.97105e-07
3.88e-10,-1.69159e-06
3.89e-10,-1.03868e-06
3.9e-10,2.73135e-08
3.91e-10,2.81791e-07
3.92e-10,-2.08672e-06
3.93e-10,5.0567e-07
3.94e-10,-3.54902e-07
3.95e-10,-8.77109e-07
3.96e-10,-6.27393e-07
3.97e-10,-9.58365e-07
3.98e-10,-8.93613e-08
3.99e-10,3.03065e-07
4e-10,-1.36546e-06
4.01e-10,-6.72836e-07
4.02e-10,-2.35546e-07
4.03e-10,-2.61881e-06
4.04e-10,1.69589e-08
4.05e-10,-3.20381e-07
4.06e-10,-4.6077e-08
4.07e-10,-1.64592e-06
4.08e-10,-3.14668e-08
4.09e-10,-1.83963e-06
4.1e-10,-7.96975e-08
4.11e-10,-4.7902e-07
4.12e-10,-6.6551e-08
4.13e-10,-8.47406e-07
4.14e-10,-2.77415e-07
4.15e-10,-6.95652e-07
4.16e-10,-1.88764e-07
4.17e-10,8.88045e-08
4.18e-10,-1.82811e-06
4.19e-10,-7.72618e-07
4.2e-10,-4.01098e-07
4.21e-10,-4.92051e-07
4.22e-10,4.73162e-07
4.23e-10,-1.54255e-06
4.24e-10,-3.87394e-07
4.25e-10,-4.09472e-07
4.26e-10,-4.44809e-07
4.27e-10,-1.93177e-07
4.28e-10,-3.68563e-07
4.29e-10,-4.04454e-07
4.3e-10,-5.28716e-07
4.31e-10,-5.09406e-07
4.32e-10,-3.72036e-07
4.33e-10,-3.15467e-07
4.34e-10,-9.65558e-07
4.35e-10,1.00319e-07
4.36e-10,-1.55409e-07
4.37e-10,-8.37732e-07
4.38e-10,3.60226e-08
4.39e-10,-1.93983e-07
4.4e-10,-1.13985e-06
4.41e-10,2.93564e-07
4.42e-10,-4.50168e-07
4.43e-10,-2.66075e-07
4.44e-10,-1.19882e-06
4.45e-10,-2.59126e-07
4.46e-10,-9.09303e-07
4.47e-10,7.93588e-07
4.48e-10,-6.12004e-07
4.49e-10,-2.51134e-07
4.5e-10,-7.87255e-07
4.51e-10,-1.72107e-07
4.52e-10,-2.41902e-07
4.53e-10,2.93035e-08
4.54e-10,-5.36404e-07
4.55e-10,7.05546e-08
4.56e-10,-3.11726e-07
4.57e-10,-4.53475e-07
4.58e-10,-1.98905e-07
4.59e-10,4.59507e-07
4.6e-10,-5.82176e-08
4.61e-10,-5.44164e-07
4.62e-10,-5.47608e-07
4.63e-10,-2.55377e-07
4.64e-10,-1.74826e-07
4.65e-10,-2.0675e-07
4.66e-10,-2.38835e-07
4.67e-10,-1.50112e-07
4.68e-10,-1.00354e-06
4.69e-10,-7.04381e-07
4.7e-10,-7.87066e-08
4.71e-10,-8.65389e-08
4.72e-10,-2.25258e-07
4.73e-10,3.44036e-07
4.74e-10,-8.32379e-07
4.75e-10,-3.72089e-07
4.76e-10,1.5106e-07
4.77e-10,2.86107e-07
4.78e-10,-1.45402e-06
4.79e-10,-6.57876e-08
4.8e-10,-8.76293e-08
4.81e-10,6.92473e-07
4.82e-10,-4.02918e-07
4.83e-10,-4.19613e-07
4.84e-10,-3.4918e-07
4.85e-10,-5.28414e-07
4.86e-10,-2.27829e-07
4.87e-10,-8.06e-07
4.88e-10,8.99158e-08
4.89e-10,-4.78865e-07
4.9e-10,-5.32558e-07
4.91e-10,3.44235e-07
4.92e-10,2.53905e-08
4.93e-10,-1.5131e-06
4.94e-10,5.02148e-07
4.95e-10,3.55753e-07
4.96e-10,-1.8444e-07
4.97e-10,-4.60754e-07
4.98e-10,-4.70327e-07
4.99e-10,-3.77921e-07
5e-10,-6.13802e-08
5.01e-10,-1.118e-07
5.02e-10,-3.17394e-07
5.03e-10,1.27986e-07
5.04e-10,3.4022e-08
5.05e-10,-2.92881e-07
5.06e-10,3.94228e-07
5.07e-10,-2.04201e-07
5.08e-10,-8.14442e-08
5.09e-10,-3.69808e-07
5.1e-10,-4.34557e-07
5.11e-10,6.9994e-07
5.12e-10,-9.08992e-10
5.13e-10,-1.3358e-07
5.14e-10,2.4691e-08
5.15e-10,-1.46392e-07
5.16e-10,1.45584e-07
5.17e-10,-6.8335e-07
5.18e-10,-3.49328e-07
5.19e-10,-2.73147e-07
5.2e-10,1.37241e-08
5.21e-10,-3.21586e-07
5.22e-10,6.19515e-07
5.23e-10,-3.05763e-07
5.24e-10,-2.07224e-07
5.25e-10,-1.6681e-07
5.26e-10,-8.09306e-08
5.27e-10,-7.06213e-07
5.28e-10,-5.29883e-07
5.29e-10,-2.88495e-07
5.3e-10,-1.15267e-07
5.31e-10,-3.62246e-07
5.32e-10,-8.15899e-07
5.33e-10,-5.36773e-08
5.34e-10,-6.82662e-07
5.35e-10,-7.70707e-08
5.36e-10,-1.10783e-06
5.37e-10,1.32294e-07
5.38e-10,-8.51697e-07
5.39e-10,-8.30028e-07
5.4e-10,1.54278e-07
5.41e-10,-1.39624e-06
5.42e-10,-3.43164e-07
5.43e-10,-3.68874e-07
5.44e-10,-1.63774e-07
5.45e-10,-6.25488e-07
5.46e-10,-1.41975e-06
5.47e-10,1.07253e-07
5.48e-10,-3.01885e-07
5.49e-10,-8.93839e-07
5.5e-10,-7.82134e-07
5.51e-10,1.7437e-07
5.52e-10,-7.02941e-07
5.53e-10,-7.18777e-09
5.54e-10,-3.69558e-07
5.55e-10,7.40474e-08
5.56e-10,-1.51828e-07
5.57e-10,-1.55541e-06
5.58e-10,-1.36883e-07
5.59e-10,3.31139e-07
5.6e-10,-3.05894e-07
5.61e-10,-1.24264e-06
5.62e-10,-1.00466e-07
5.63e-10,-5.79913e-07
5.64e-10,-1.30129e-06
5.65e-10,-1.8723e-09
5.66e-10,2.34456e-07
5.67e-10,2.27758e-07
5.68e-10,-1.3701e-06
5.69e-10,3.41502e-07
5.7e-10,-5.65797e-07
5.71e-10,-6.90033e-07
5.72e-10,2.80183e-07
5.73e-10,-3.64595e-07
5.74e-10,2.3875e-08
5.75e-10,-2.0069e-07
5.76e-10,8.57612e-07
5.77e-10,-6.31447e-07
5.78e-10,-2.59718e-07
5.79e-10,-1.07495e-06
5.8e-10,3.48178e-07
5.81e-10,-4.929e-07
5.82e-10,5.17869e-08
5.83e-10,-2.13303e-07
5.84e-10,-1.46112e-06
5.85e-10,-4.96894e-07
5.86e-10,-4.7925e-07
5.87e-10,2.40326e-08
5.88e-10,-1.04242e-06
5.89e-10,-5.3304e-07
5.9e-10,-7.36402e-07
5.91e-10,-2.23389e-08
5.92e-10,-1.33618e-07
5.93e-10,-1.0584e-06
5.94e-10,-9.15856e-08
5.95e-10,-2.82679e-08
5.96e-10,-1.31555e-06
5.97e-10,-1.4795e-07
5.98e-10,-6.63309e-07
5.99e-10,-2.78708e-07
6e-10,2.36553e-07
6.01e-10,-1.64784e-06
6.02e-10,-5.01548e-07
6.03e-10,-1.61337e-07
6.04e-10,-1.07163e-07
6.05e-10,-1.24236e-07
6.06e-10,-1.3308e-07
6.07e-10,-2.82557e-07
6.08e-10,9.886e-08
6.09e-10,-4.56373e-07
6.1e-10,2.78161e-07
6.11e-10,-3.90944e-07
6.12e-10,-6.8989e-08
6.13e-10,-9.97041e-09
6.14e-10,-3.32389e-07
6.15e-10,-9.69094e-08
6.16e-10,1.74613e-09
6.17e-10,-9.82926e-08
6.18e-10,-5.27066e-09
6.19e-10,1.24636e-07
6.2e-10,-3.09334e-07
6.21e-10,1.4682e-09
6.22e-10,1.28424e-07
6.23e-10,-1.84518e-07
6.24e-10,-7.14254e-08
6.25e-10,-4.00397e-07
6.26e-10,1.26358e-07
6.27e-10,-3.73327e-08
6.28e-10,-2.47987e-07
6.29e-10,-5.02137e-08
6.3e-10,-5.38681e-08
6.31e-10,1.33141e-07
6.32e-10,-6.78685e-08
6.33e-10,-9.72262e-08
6.34e-10,-3.3394e-08
6.35e-10,-3.0329e-07
6.36e-10,9.85532e-08
6.37e-10,-1.21191e-07
6.38e-10,2.78137e-09
6.39e-10,-2.40476e-08
6.4e-10,-9.60423e-08
6.41e-10,-2.67089e-08
6.42e-10,-5.91947e-08
6.43e-10,-3.76731e-07
6.44e-10,6.21115e-07
6.45e-10,-5.49767e-08
6.46e-10,2.37444e-07
6.47e-10,-7.48985e-07
6.48e-10,2.67331e-07
6.49e-10,-4.30259e-07
6.5e-10,3.73725e-07
6.51e-10,-3.20868e-07
6.52e-10,-6.5102e-07
6.53e-10,-1.10896e-07
6.54e-10,-6.19912e-08
6.55e-10,-3.06525e-08
6.56e-10,1.87349e-07
6.57e-10,-8.84909e-07
6.58e-10,3.22424e-08
6.59e-10,-6.68125e-08
6.6e-10,4.12923e-08
6.61e-10,-5.80247e-07
6.62e-10,-3.08061e-08
6.63e-10,1.92284e-08
6.64e-10,-1.53843e-06
6.65e-10,-3.10252e-08
6.66e-10,-2.90554e-08
6.67e-10,-9.59882e-08
6.68e-10,-8.0259e-08
6.69e-10,-5.17145e-07
6.7e-10,-1.14093e-06
6.71e-10,5.73248e-08
6.72e-10,-3.4214e-08
6.73e-10,-3.7244e-07
6.74e-10,-1.50911e-07
6.75e-10,-1.43845e-07
6.76e-10,-5.80165e-07
6.77e-10,-2.43284e-07
6.78e-10,-1.17006e-07
6.79e-10,1.84518e-07
6.8e-10,-2.37592e-07
6.81e-10,5.06529e-08
6.82e-10,-1.41033e-07
6.83e-10,1.04999e-07
6.84e-10,-9.33284e-08
6.85e-10,-2.03398e-07
6.86e-10,-1.01682e-07
6.87e-10,-3.3108e-08
6.88e-10,2.93162e-09
6.89e-10,3.45921e-08
6.9e-10,-1.20157e-07
6.91e-10,6.01999e-11
6.92e-10,-1.81512e-07
6.93e-10,-6.94679e-08
6.94e-10,-1.12475e-07
6.95e-10,-3.52774e-08
6.96e-10,-5.62559e-08
6.97e-10,-5.24022e-08
6.98e-10,-9.99495e-08
6.99e-10,8.07009e-09
7e-10,-6.46603e-08
7.01e-10,3.75697e-08
7.02e-10,-2.9581e-07
7.03e-10,-6.92343e-08
7.04e-10,-3.1693e-08
7.05e-10,2.52157e-09
7.06e-10,7.15616e-08
7.07e-10,-7.81393e-08
7.08e-10,-1.98375e-08
7.09e-10,1.4218e-08
7.1e-10,-1.383e-08
7.11e-10,-2.89515e-07
7.12e-10,-5.56202e-08
7.13e-10,3.97256e-08
7.14e-10,-7.13438e-08
7.15e-10,-7.5219e-10
7.16e-10,-5.96118e-08
7.17e-10,3.72585e-09
7.18e-10,-6.54937e-08
7.19e-10,-5.85753e-08
7.2e-10,-3.12154e-07
7.21e-10,2.51594e-09
7.22e-10,-6.53896e-08
7.23e-10,1.57621e-10
7.24e-10,-5.99998e-08
7.25e-10,-3.09828e-08
7.26e-10,8.49573e-08
7.27e-10,-2.98903e-08
7.28e-10,-4.20024e-07
7.29e-10,-3.11618e-08
7.3e-10,1.5126e-07
7.31e-10,-2.40504e-07
7.32e-10,2.73681e-08
7.33e-10,-2.10077e-09
7.34e-10,1.06841e-08
7.35e-10,3.08323e-08
7.36e-10,-5.42338e-08
7.37e-10,-2.49815e-08
7.38e-10,-3.48051e-07
7.39e-10,4.15602e-10
7.4e-10,-2.8327e-08
7.41e-10,-1.2203e-10
7.42e-10,-1.18585e-07
7.43e-10,3.13155e-08
7.44e-10,-7.25401e-10
7.45e-10,2.82427e-08
7.46e-10,-2.69661e-07
7.47e-10,-9.61705e-10
7.48e-10,-5.58779e-10
7.49e-10,-1.56963e-07
7.5e-10,1.23336e-07
7.51e-10,4.49017e-10
7.52e-10,-2.59558e-08
7.53e-10,-3.26673e-08
7.54e-10,5.28561e-09
7.55e-10,-2.1383e-07
7.56e-10,3.58668e-08
7.57e-10,2.52749e-07
7.58e-10,-2.72819e-07
7.59e-10,-6.77924e-08
7.6e-10,-2.37886e-08
7.61e-10,3.33388e-08
7.62e-10,2.68324e-07
7.63e-10,-8.76483e-07
7.64e-10,-3.34526e-08
7.65e-10,3.74834e-08
7.66e-10,2.1137e-07
7.67e-10,-6.70342e-08
7.68e-10,-2.9524e-08
7.69e-10,-2.83612e-08
7.7e-10,4.17041e-07
7.71e-10,-1.24169e-07
7.72e-10,2.92187e-08
7.73e-10,-3.21815e-08
7.74e-10,-4.43074e-09
7.75e-10,3.7197e-09
7.76e-10,1.13999e-09
7.77e-10,-3.94417e-08
7.78e-10,3.28551e-08
7.79e-10,-2.62406e-08
7.8e-10,4.02739e-08
7.81e-10,-2.12417e-07
7.82e-10,-3.83926e-10
7.83e-10,3.49784e-08
7.84e-10,-4.04421e-08
7.85e-10,-3.83174e-10
7.86e-10,-2.84653e-08
7.87e-10,-1.26536e-07
7.88e-10,6.68939e-08
7.89e-10,-1.58469e-09
7.9e-10,-3.85671e-10
7.91e-10,-6.32693e-08
7.92e-10,7.01604e-10
7.93e-10,-3.34745e-08
7.94e-10,-3.55766e-08
7.95e-10,4.47971e-10
7.96e-10,-3.11088e-08
7.97e-10,-6.09161e-08
7.98e-10,-6.43408e-08
7.99e-10,-2.88807e-08
8e-10,-3.43998e-08
8.01e-10,-8.27142e-10
8.02e-10,-1.19843e-10
8.03e-10,-2.94396e-08
8.04e-10,-3.17833e-08
8.05e-10,-3.32291e-08
8.06e-10,4.12665e-09
8.07e-10,1.96005e-09
8.08e-10,-3.18267e-08
8.09e-10,-3.13499e-08
8.1e-10,-3.3577e-08
8.11e-10,-3.30907e-08
8.12e-10,1.28849e-09
8.13e-10,2.32959e-10
8.14e-10,-3.38554e-08
8.15e-10,6.8379e-08
8.16e-10,-6.54971e-08
8.17e-10,-5.23895e-10
8.18e-10,7.51978e-10
8.19e-10,-6.82516e-08
8.2e-10,-2.90438e-08
8.21e-10,-7.57551e-10
8.22e-10,-2.85922e-08
8.23e-10,2.4738e-09
8.24e-10,1.45211e-09
8.25e-10,-6.31233e-08
8.26e-10,3.68176e-08
8.27e-10,1.50389e-09
8.28e-10,-2.3103e-10
8.29e-10,-2.87054e-08
8.3e-10,-3.98888e-08
8.31e-10,1.04772e-09
8.32e-10,3.71091e-08
8.33e-10,3.33842e-08
8.34e-10,-3.8352e-08
8.35e-10,1.20759e-10
8.36e-10,-3.66218e-08
8.37e-10,3.63492e-08
8.38e-10,-6.02994e-08
8.39e-10,-4.9373e-09
8.4e-10,-3.51079e-08
8.41e-10,3.30884e-08
8.42e-10,-9.67238e-08
8.43e-10,-3.22364e-08
8.44e-10,8.16553e-10
8.45e-10,-1.63594e-09
8.46e-10,2.28083e-10
8.47e-10,-2.75019e-08
8.48e-10,1.72715e-09
8.49e-10,-6.73914e-08
8.5e-10,-3.16251e-08
8.51e-10,3.04496e-08
8.52e-10,-2.96625e-08
8.53e-10,3.17858e-08
8.54e-10,-3.69641e-08
8.55e-10,-2.10792e-08
8.56e-10,-9.73865e-08
8.57e-10,-2.21519e-09
8.58e-10,3.36104e-08
8.59e-10,-3.18784e-08
8.6e-10,4.83219e-10
8.61e-10,-6.77967e-10
8.62e-10,3.10484e-08
8.63e-10,-6.10258e-09
8.64e-10,-6.16166e-08
8.65e-10,3.37321e-08
8.66e-10,-7.51957e-13
8.67e-10,-6.52091e-08
8.68e-10,-7.51978e-10
8.69e-10,0
8.7e-10,-3.30884e-08
8.71e-10,-2.39953e-08
8.72e-10,3.13759e-08
8.73e-10,-6.49556e-08
8.74e-10,-6.34462e-11
8.75e-10,3.38712e-08
8.76e-10,-6.98647e-08
8.77e-10,-2.9153e-10
8.78e-10,1.40992e-11
8.79e-10,3.35982e-08
8.8e-10,-3.0089e-08
8.81e-10,9.67584e-10
8.82e-10,1.92836e-10
8.83e-10,-7.11302e-10
8.84e-10,-2.28083e-10
8.85e-10,-3.33815e-08
8.86e-10,-2.06935e-10
8.87e-10,-3.28603e-08
8.88e-10,-3.2325e-08
8.89e-10,1.35325e-09
8.9e-10,0
8.91e-10,0
8.92e-10,-2.95303e-08
8.93e-10,-2.28083e-10
8.94e-10,-4.7172e-10
8.95e-10,-3.83427e-08
8.96e-10,4.30633e-10
8.97e-10,-2.28083e-10
8.98e-10,-3.05693e-08
8.99e-10,-3.61642e-08
9e-10,-2.28083e-10
9.01e-10,-3.71373e-08
9.02e-10,3.23614e-09
9.03e-10,-7.04958e-12
9.04e-10,2.35133e-10
9.05e-10,7.04958e-11
9.06e-10,-3.21182e-10
9.07e-10,7.04958e-11
9.08e-10,1.7314e-10
9.09e-10,7.29927e-11
9.1e-10,-3.05454e-08
9.11e-10,-3.6936e-08
9.12e-10,-5.14619e-10
9.13e-10,-1.955e-10
9.14e-10,1.955e-10
9.15e-10,-3.91001e-10
9.16e-10,7.51957e-13
9.17e-10,3.0073e-09
9.18e-10,-3.03683e-08
9.19e-10,-3.00101e-09
9.2e-10,-3.68365e-08
9.21e-10,3.51112e-09
9.22e-10,-3.05964e-08
9.23e-10,-5.22092e-09
9.24e-10,3.05515e-08
9.25e-10,-2.46567e-10
9.26e-10,-1.32054e-10
9.27e-10,4.56167e-10
9.28e-10,-4.1543e-08
9.29e-10,1.51203e-09
9.3e-10,-1.74352e-10
9.31e-10,0
9.32e-10,0
9.33e-10,-3.36449e-08
9.34e-10,4.34709e-09
9.35e-10,-4.36824e-09
9.36e-10,-2.92671e-08
9.37e-10,-2.28083e-10
9.38e-10,0
9.39e-10,-3.88272e-08
9.4e-10,7.04958e-12
9.41e-10,2.28083e-10
9.42e-10,-1.52237e-09
9.43e-10,2.28083e-10
9.44e-10,0
9.45e-10,-2.95695e-08
9.46e-10,-3.68881e-08
9.47e-10,-3.04009e-08
9.48e-10,3.08245e-08
9.49e-10,-3.102e-08
9.5e-10,-2.28083e-10
9.51e-10,3.40685e-08
9.52e-10,-3.36123e-08
9.53e-10,2.33083e-08
9.54e-10,-7.39515e-08
9.55e-10,0
9.56e-10,-3.36123e-08
9.57e-10,-2.28083e-10
9.58e-10,0
9.59e-10,-1.40992e-11
9.6e-10,1.40992e-11
9.61e-10,1.50156e-09
9.62e-10,-4.71219e-08
9.63e-10,1.20336e-08
9.64e-10,0
9.65e-10,-3.17506e-08
9.66e-10,0
9.67e-10,0
9.68e-10,3.25831e-11
9.69e-10,-2.81815e-10
9.7e-10,2.28083e-10
9.71e-10,2.28083e-10
9.72e-10,4.23584e-10
9.73e-10,-4.18795e-08
9.74e-10,7.04958e-12
9.75e-10,-3.23822e-08
9.76e-10,2.42183e-10
9.77e-10,-1.37448e-08
9.78e-10,4.23584e-10
9.79e-10,0
9.8e-10,2.28083e-10
9.81e-10,0
9.82e-10,-2.28083e-10
9.83e-10,-4.66118e-08
9.84e-10,-3.32261e-08
9.85e-10,0
9.86e-10,0
9.87e-10,2.13984e-10
9.88e-10,1.86153e-08
9.89e-10,-3.36123e-08
9.9e-10,2.28083e-10
9.91e-10,-4.84708e-08
9.92e-10,1.5286e-08
9.93e-10,-3.14587e-08
9.94e-10,-1.52322e-08
9.95e-10,1.48087e-08
9.96e-10,3.96327e-11
9.97e-10,0
9.98e-10,-1.52648e-08
9.99e-10,2.21034e-10
1e-09,-2.28083e-10
1.001e-09,-2.90922e-08
1.002e-09,1.50367e-08
1.003e-09,-4.82428e-08
1.004e-09,2.28083e-10
1.005e-09,6.29739e-09
1.006e-09,0
1.007e-09,-4.56167e-10
1.008e-09,2.28083e-10
1.009e-09,0
1.01e-09,-3.33117e-08
1.011e-09,0
1.012e-09,-5.13869e-08
1.013e-09,0
1.014e-09,0
1.015e-09,0
1.016e-09,0
1.017e-09,0
1.018e-09,0
1.019e-09,-3.35955e-08
1.02e-09,-5.30647e-08
1.021e-09,0
1.022e-09,0
1.023e-09,2.28083e-10
1.024e-09,8.51057e-09
1.025e-09,0
1.026e-09,-3.36467e-08
1.027e-09,0
1.028e-09,-1.65993e-08
1.029e-09,-5.52616e-08
1.03e-09,-2.28083e-10
1.031e-09,-2.28083e-10
1.032e-09,6.06264e-10
1.033e-09,0
1.034e-09,0
1.035e-09,0
1.036e-09,-3.16878e-08
1.037e-09,-2.72819e-09
1.038e-09,-5.70221e-08
1.039e-09,-3.25831e-11
1.04e-09,1.955e-10
1.041e-09,0
1.042e-09,-1.955e-10
1.043e-09,1.955e-10
1.044e-09,0
1.045e-09,0
1.046e-09,-9.21027e-08
1.047e-09,0
1.048e-09,0
1.049e-09,0
1.05e-09,0
1.051e-09,2.28083e-10
1.052e-09,0
1.053e-09,0
1.054e-09,0
1.055e-09,-6.08565e-08
1.056e-09,-3.36124e-08
1.057e-09,-2.28083e-10
1.058e-09,0
1.059e-09,0
1.06e-09,0
1.061e-09,0
1.062e-09,-6.32136e-12
1.063e-09,0
1.064e-09,0
1.065e-09,-6.14064e-08
1.066e-09,-3.36124e-08
1.067e-09,0
1.068e-09,1.04052e-10
1.069e-09,-1.04052e-10
1.07e-09,-7.69983e-09
1.071e-09,7.80388e-09
1.072e-09,-4.23584e-10
1.073e-09,1.955e-10
1.074e-09,-1.14351e-07
1.075e-09,3.32213e-08
1.076e-09,-3.34168e-08
1.077e-09,4.23584e-10
1.078e-09,-2.28083e-10
1.079e-09,0
1.08e-09,1.10838e-08
1.081e-09,0
1.082e-09,-1.955e-10
1.083e-09,-3.58772e-08
1.084e-09,-6.81746e-08
1.085e-09,1.955e-10
1.086e-09,-1.955e-10
1.087e-09,0
1.088e-09,1.955e-10
1.089e-09,4.6716e-10
1.09e-09,-3.65309e-08
1.091e-09,1.955e-10
1.092e-09,-1.955e-10
1.093e-09,2.92369e-09
1.094e-09,-7.45051e-08
1.095e-09,3.25831e-11
1.096e-09,2.92369e-09
1.097e-09,-2.72819e-09
1.098e-09,0
1.099e-09,0
1.1e-09,-3.72058e-08
1.101e-09,-3.33163e-08
1.102e-09,-7.07944e-08
1.103e-09,2.28083e-10
1.104e-09,-4.66823e-11
1.105e-09,2.28083e-10
1.106e-09,1.76874e-08
1.107e-09,-3.86932e-08
1.108e-09,-1.62447e-08
1.109e-09,-1.76426e-08
1.11e-09,-2.5449e-09
1.111e-09,-9.71432e-08
1.112e-09,3.77293e-08
1.113e-09,2.72819e-09
1.114e-09,2.13984e-10
1.115e-09,-3.71513e-09
1.116e-09,-3.71326e-08
1.117e-09,-3.67283e-08
1.118e-09,3.69045e-08
1.119e-09,-8.17187e-08
1.12e-09,1.97138e-09
1.121e-09,2.28083e-10
1.122e-09,-2.28083e-10
1.123e-09,2.28083e-10
1.124e-09,1.43459e-08
1.125e-09,-1.4574e-08
1.126e-09,1.43459e-08
1.127e-09,-3.66694e-08
1.128e-09,-9.62363e-08
1.129e-09,0
1.13e-09,2.28083e-10
1.131e-09,-2.42183e-10
1.132e-09,1.40992e-11
1.133e-09,0
1.134e-09,-1.73772e-08
1.135e-09,1.73772e-08
1.136e-09,-5.51559e-08
1.137e-09,0
1.138e-09,0
1.139e-09,-8.35516e-08
1.14e-09,0
1.141e-09,1.58897e-08
1.142e-09,1.40992e-11
1.143e-09,-3.65944e-08
1.144e-09,0
1.145e-09,0
1.146e-09,-1.95555e-08
1.147e-09,-9.92721e-08
1.148e-09,1.40992e-11
1.149e-09,-1.40992e-11
1.15e-09,0
1.151e-09,-3.93603e-08
1.152e-09,-3.81837e-09
1.153e-09,4.06056e-09
1.154e-09,-9.32095e-08
1.155e-09,-2.28083e-10
1.156e-09,0
1.157e-09,-4.06056e-09
1.158e-09,-3.8319e-08
1.159e-09,0
1.16e-09,0
1.161e-09,0
1.162e-09,0
1.163e-09,0
1.164e-09,-1.09205e-07
1.165e-09,0
1.166e-09,-6.27976e-08
1.167e-09,-4.06338e-08
1.168e-09,6.27976e-08
1.169e-09,0
1.17e-09,0
1.171e-09,-6.30257e-08
1.172e-09,0
1.173e-09,-1.13858e-07
1.174e-09,0
1.175e-09,0
1.176e-09,-4.51173e-08
1.177e-09,0
1.178e-09,0
1.179e-09,0
1.18e-09,0
1.181e-09,0
1.182e-09,-1.39969e-07
1.183e-09,0
1.184e-09,0
1.185e-09,-4.16066e-08
1.186e-09,0
1.187e-09,0
1.188e-09,0
1.189e-09,-2.55618e-08
1.19e-09,0
1.191e-09,-1.04249e-07
1.192e-09,-4.51173e-09
1.193e-09,-3.70949e-08
1.194e-09,0
1.195e-09,0
1.196e-09,0
1.197e-09,-2.85719e-08
1.198e-09,0
1.199e-09,-1.39575e-07
1.2e-09,0
1.201e-09,-4.50609e-08
1.202e-09,0
1.203e-09,0
1.204e-09,0
1.205e-09,0
1.206e-09,0
1.207e-09,3.19769e-08
1.208e-09,-3.19769e-08
1.209e-09,-1.59144e-07
1.21e-09,-4.73072e-08
1.211e-09,0
1.212e-09,-2.28083e-10
1.213e-09,1.05934e-07
1.214e-09,-1.05934e-07
1.215e-09,1.06162e-07
1.216e-09,0
1.217e-09,0
1.218e-09,-1.37248e-07
1.219e-09,-4.29344e-08
1.22e-09,0
1.221e-09,0
1.222e-09,0
1.223e-09,-1.59067e-07
1.224e-09,0
1.225e-09,0
1.226e-09,-1.48506e-07
1.227e-09,-4.18533e-08
1.228e-09,-3.95199e-08
1.229e-09,0
1.23e-09,0
1.231e-09,3.95199e-08
1.232e-09,-3.95199e-08
1.233e-09,-1.25278e-07
1.234e-09,-1.0408e-07
1.235e-09,-4.54627e-08
1.236e-09,0
1.237e-09,0
1.238e-09,-1.37608e-07
1.239e-09,1.37608e-07
1.24e-09,0
1.241e-09,3.81453e-08
1.242e-09,-2.71423e-07
1.243e-09,-2.28329e-07
1.244e-09,0
1.245e-09,4.37638e-08
1.246e-09,0
1.247e-09,0
1.248e-09,0
1.249e-09,0
1.25e-09,0
1.251e-09,-3.90688e-08
1.252e-09,0
1.253e-09,-3.4744e-07
1.254e-09,0
1.255e-09,0
1.256e-09,0
1.257e-09,0
1.258e-09,0
1.259e-09,-4.81246e-07
1.26e-09,0
1.261e-09,0
1.262e-09,0
1.263e-09,3.25831e-11
1.264e-09,0
1.265e-09,0
1.266e-09,0
1.267e-09,-6.16993e-07
1.268e-09,1.955e-10
1.269e-09,0
1.27e-09,0
1.271e-09,0
1.272e-09,1.955e-10
1.273e-09,-3.91001e-10
1.274e-09,-2.73878e-07
1.275e-09,-5.33427e-07
1.276e-09,-4.50376e-07
1.277e-09,3.3133e-09
1.278e-09,-3.5088e-09
1.279e-09,0
1.28e-09,-2.01807e-09
1.281e-09,0
1.282e-09,5.66152e-08
1.283e-09,0
1.284e-09,-1.955e-10
1.285e-09,-3.20704e-08
1.286e-09,-7.10245e-08
1.287e-09,7.10245e-08
1.288e-09,0
1.289e-09,-7.08976e-08
1.29e-09,0
1.291e-09,0
1.292e-09,0
1.293e-09,-9.88351e-09
1.294e-09,0
1.295e-09,0
1.296e-09,0
1.297e-09,1.955e-10
1.298e-09,-1.26892e-10
1.299e-09,0
1.3e-09,0
1.301e-09,5.44932e-09
1.302e-09,-1.26892e-10
1.303e-09,0
1.304e-09,0
1.305e-09,-1.955e-10
1.306e-09,0
1.307e-09,0
1.308e-09,-1.81401e-10
1.309e-09,-3.87092e-08
1.31e-09,1.81401e-10
1.311e-09,-6.71825e-08
1.312e-09,0
1.313e-09,6.6987e-08
1.314e-09,-6.6987e-08
1.315e-09,0
1.316e-09,0
1.317e-09,0
1.318e-09,6.71825e-08
1.319e-09,-8.56735e-08
1.32e-09,0
1.321e-09,0
1.322e-09,1.15113e-07
1.323e-09,-1.10303e-07
1.324e-09,0
1.325e-09,1.10107e-07
1.326e-09,-4.56813e-09
1.327e-09,2.08526e-08
1.328e-09,-3.52479e-11
1.329e-09,3.52479e-11
1.33e-09,4.27204e-09
1.331e-09,-4.27204e-09
1.332e-09,4.04396e-09
1.333e-09,0
1.334e-09,0
1.335e-09,0
1.336e-09,0
1.337e-09,6.17709e-08
1.338e-09,0
1.339e-09,0
1.34e-09,0
1.341e-09,0
1.342e-09,1.40992e-11
1.343e-09,-1.40992e-11
1.344e-09,-3.52479e-11
1.345e-09,3.52479e-11
1.346e-09,-3.52479e-11
1.347e-09,9.81705e-08
1.348e-09,-1.955e-10
1.349e-09,-1.92836e-10
1.35e-09,2.28083e-10
1.351e-09,2.28083e-10
1.352e-09,-3.81177e-09
1.353e-09,2.28083e-10
1.354e-09,-2.28083e-10
1.355e-09,2.28083e-10
1.356e-09,1.5593e-07
1.357e-09,1.19843e-10
1.358e-09,-2.13984e-10
1.359e-09,9.41415e-11
1.36e-09,-2.28083e-10
1.361e-09,1.955e-10
1.362e-09,1.43008e-07
1.363e-09,1.19843e-10
1.364e-09,0
1.365e-09,2.39159e-07
1.366e-09,0
1.367e-09,2.28083e-10
1.368e-09,-2.28083e-10
1.369e-09,1.40992e-11
1.37e-09,0
1.371e-09,0
1.372e-09,0
1.373e-09,3.60233e-07
1.374e-09,0
1.375e-09,0
1.376e-09,0
1.377e-09,1.48337e-07
1.378e-09,0
1.379e-09,0
1.38e-09,0
1.381e-09,0
1.382e-09,0
1.383e-09,5.47852e-07
1.384e-09,0
1.385e-09,5.59203e-08
1.386e-09,-5.59203e-08
1.387e-09,1.955e-10
1.388e-09,0
1.389e-09,0
1.39e-09,5.59203e-08
1.391e-09,0
1.392e-09,0
1.393e-09,-5.59203e-08
1.394e-09,5.59203e-08
1.395e-09,2.28083e-10
1.396e-09,4.32596e-08
1.397e-09,0
1.398e-09,0
1.399e-09,-7.04958e-11
1.4e-09,0
1.401e-09,-1.955e-10
1.402e-09,0
1.403e-09,-2.28083e-10
1.404e-09,2.28083e-10
1.405e-09,-2.28083e-10
1.406e-09,-7.04958e-12
1.407e-09,1.40992e-11
1.408e-09,2.28083e-10
1.409e-09,-2.28083e-10
1.41e-09,0
1.411e-09,0
1.412e-09,0
1.413e-09,0
1.414e-09,0
1.415e-09,0
1.416e-09,0
1.417e-09,0
1.418e-09,0
1.419e-09,0
1.42e-09,0
1.421e-09,0
1.422e-09,-2.11487e-11
1.423e-09,0
1.424e-09,0
1.425e-09,7.51957e-11
1.426e-09,-7.51957e-11
1.427e-09,0
1.428e-09,7.51957e-11
1.429e-09,0
1.43e-09,0
1.431e-09,0
1.432e-09,0
1.433e-09,0
1.434e-09,0
1.435e-09,0
1.436e-09,0
1.437e-09,0
1.438e-09,0
1.439e-09,0
1.44e-09,0
1.441e-09,0
1.442e-09,0
1.443e-09,0
1.444e-09,0
1.445e-09,0
1.446e-09,0
1.447e-09,1.955e-10
1.448e-09,0
1.449e-09,0
1.45e-09,0
1.451e-09,0
1.452e-09,0
1.453e-09,0
1.454e-09,0
1.455e-09,0
1.456e-09,0
1.457e-09,0
1.458e-09,0
1.459e-09,0
1.46e-09,0
1.461e-09,0
1.462e-09,0
1.463e-09,-2.42484e-11
1.464e-09,0
1.465e-09,0
1.466e-09,0
1.467e-09,0
1.468e-09,0
1.469e-09,0
1.47e-09,7.51957e-11
1.471e-09,-7.51957e-11
1.472e-09,-1.20305e-10
1.473e-09,1.955e-10
1.474e-09,0
1.475e-09,0
1.476e-09,0
1.477e-09,0
1.478e-09,0
1.479e-09,0
1.48e-09,0
1.481e-09,-1.955e-10
1.482e-09,0
1.483e-09,0
1.484e-09,0
1.485e-09,1.955e-10
1.486e-09,-1.955e-10
1.487e-09,1.955e-10
1.488e-09,0
1.489e-09,4.22975e-11
1.49e-09,-2.37798e-10
1.491e-09,7.04958e-12
1.492e-09,3.52479e-11
1.493e-09,-3.52479e-11
1.494e-09,0
1.495e-09,0
1.496e-09,1.955e-10
1.497e-09,0
1.498e-09,4.22975e-11
1.499e-09,3.25831e-11
1.5e-09,-9.60293e-11
1.501e-09,4.22975e-11
1.502e-09,3.25831e-11
1.503e-09,-3.25831e-11
1.504e-09,2.28083e-10
1.505e-09,0
1.506e-09,-2.28083e-10
1.507e-09,2.60667e-10
1.508e-09,-2.60667e-10
1.509e-09,7.04958e-12
1.51e-09,1.88451e-10
1.511e-09,1.955e-10
1.512e-09,-2.30748e-10
1.513e-09,-1.53203e-10
1.514e-09,0
1.515e-09,-1.955e-10
1.516e-09,0
1.517e-09,0
1.518e-09,0
1.519e-09,7.04958e-12
1.52e-09,0
1.521e-09,0
1.522e-09,0
1.523e-09,7.04958e-12
1.524e-09,0
1.525e-09,0
1.526e-09,0
1.527e-09,1.40992e-11
1.528e-09,0
1.529e-09,-1.40992e-11
1.53e-09,0
1.531e-09,0
1.532e-09,0
1.533e-09,0
1.534e-09,-1.17493e-10
1.535e-09,1.31592e-10
1.536e-09,-7.04958e-12
1.537e-09,0
1.538e-09,0
1.539e-09,0
1.54e-09,0
1.541e-09,7.04958e-11
1.542e-09,0
1.543e-09,0
1.544e-09,0
1.545e-09,0
1.546e-09,-6.34462e-11
1.547e-09,0
1.548e-09,6.34462e-11
1.549e-09,-6.34462e-11
1.55e-09,6.34462e-11
1.551e-09,0
1.552e-09,0
1.553e-09,-7.75453e-11
1.554e-09,1.40992e-11
1.555e-09,0
1.556e-09,-7.04958e-12
1.557e-09,0
1.558e-09,-7.04958e-12
1.559e-09,0
1.56e-09,7.75453e-11
1.561e-09,1.90339e-10
1.562e-09,-2.60834e-10
1.563e-09,7.04958e-12
1.564e-09,-7.04958e-12
1.565e-09,0
1.566e-09,-7.04958e-12
1.567e-09,0
1.568e-09,0
1.569e-09,7.04958e-12
1.57e-09,-7.04958e-12
1.571e-09,0
1.572e-09,1.40992e-11
1.573e-09,-1.40992e-11
1.574e-09,0
1.575e-09,0
1.576e-09,0
1.577e-09,0
1.578e-09,0
1.579e-09,7.04958e-12
1.58e-09,0
1.581e-09,-2.87124e-10
1.582e-09,0
1.583e-09,0
1.584e-09,0
1.585e-09,0
1.586e-09,0
1.587e-09,0
1.588e-09,0
1.589e-09,0
1.59e-09,0
1.591e-09,0
1.592e-09,0
1.593e-09,0
1.594e-09,0
1.595e-09,0
1.596e-09,0
1.597e-09,0
1.598e-09,0
1.599e-09,0
1.6e-09,0
1.601e-09,0
1.602e-09,0
1.603e-09,0
1.604e-09,0
1.605e-09,0
1.606e-09,0
1.607e-09,0
1.608e-09,0
1.609e-09,0
1.61e-09,0
1.611e-09,0
1.612e-09,2.28083e-10
1.613e-09,0
1.614e-09,0
1.615e-09,-2.28083e-10
1.616e-09,0
1.617e-09,2.28083e-10
1.618e-09,0
1.619e-09,-2.28083e-10
1.62e-09,0
1.621e-09,2.28083e-10
1.622e-09,0
1.623e-09,0
1.624e-09,-2.28083e-10
1.625e-09,0
1.626e-09,0
1.627e-09,0
1.628e-09,0
1.629e-09,0
1.63e-09,0
1.631e-09,0
1.632e-09,0
1.633e-09,0
1.634e-09,0
1.635e-09,0
1.636e-09,0
1.637e-09,0
1.638e-09,0
1.639e-09,0
1.64e-09,0
1.641e-09,0
1.642e-09,0
1.643e-09,0
1.644e-09,0
1.645e-09,0
1.646e-09,0
1.647e-09,0
1.648e-09,0
1.649e-09,0
1.65e-09,0
1.651e-09,0
1.652e-09,0
1.653e-09,0
1.654e-09,0
1.655e-09,0
1.656e-09,0
1.657e-09,0
1.658e-09,0
1.659e-09,0
1.66e-09,0
1.661e-09,0
1.662e-09,0
1.663e-09,0
1.664e-09,0
1.665e-09,0
1.666e-09,0
1.667e-09,0
1.668e-09,0
1.669e-09,0
1.67e-09,0
1.671e-09,0
1.672e-09,0
1.673e-09,0
1.674e-09,0
1.675e-09,0
1.676e-09,-7.04958e-12
1.677e-09,7.04958e-12
1.678e-09,0
1.679e-09,-7.04958e-12
1.68e-09,0
1.681e-09,2.28083e-10
1.682e-09,0
1.683e-09,0
1.684e-09,0
1.685e-09,0
1.686e-09,0
1.687e-09,1.55091e-10
1.688e-09,-1.55091e-10
1.689e-09,0
1.69e-09,0
1.691e-09,0
1.692e-09,0
1.693e-09,0
1.694e-09,0
1.695e-09,0
1.696e-09,0
1.697e-09,0
1.698e-09,0
1.699e-09,0
1.7e-09,-2.28083e-10
1.701e-09,0
1.702e-09,0
1.703e-09,0
1.704e-09,7.04958e-12
1.705e-09,0
1.706e-09,0
1.707e-09,2.21034e-10
1.708e-09,0
1.709e-09,0
1.71e-09,-2.28083e-10
1.711e-09,0
1.712e-09,0
1.713e-09,7.04958e-12
1.714e-09,2.28083e-10
1.715e-09,-2.35133e-10
1.716e-09,0
1.717e-09,0
1.718e-09,7.04958e-12
1.719e-09,-7.04958e-12
1.72e-09,0
1.721e-09,0
1.722e-09,0
1.723e-09,2.42183e-10
1.724e-09,-2.28083e-10
1.725e-09,0
1.726e-09,0
1.727e-09,1.55091e-10
1.728e-09,-1.55091e-10
1.729e-09,-1.40992e-11
1.73e-09,0
1.731e-09,0
1.732e-09,0
1.733e-09,0
1.734e-09,-7.04958e-12
1.735e-09,0
1.736e-09,0
1.737e-09,0
1.738e-09,0
1.739e-09,2.11487e-11
1.74e-09,0
1.741e-09,2.28083e-10
1.742e-09,0
1.743e-09,-2.28083e-10
1.744e-09,0
1.745e-09,0
1.746e-09,0
1.747e-09,0
1.748e-09,0
1.749e-09,-7.04958e-12
1.75e-09,7.04958e-12
1.751e-09,0
1.752e-09,0
1.753e-09,0
1.754e-09,0
1.755e-09,2.21034e-10
1.756e-09,-2.28083e-10
1.757e-09,0
1.758e-09,0
1.759e-09,0
1.76e-09,2.28083e-10
1.761e-09,-2.28083e-10
1.762e-09,1.955e-10
1.763e-09,0
1.764e-09,0
1.765e-09,3.25831e-11
1.766e-09,1.955e-10
1.767e-09,-2.28083e-10
1.768e-09,0
1.769e-09,2.28083e-10
1.77e-09,-1.955e-10
1.771e-09,1.955e-10
1.772e-09,-4.23584e-10
1.773e-09,0
1.774e-09,2.28083e-10
1.775e-09,-2.28083e-10
1.776e-09,0
1.777e-09,0
1.778e-09,0
1.779e-09,0
1.78e-09,0
1.781e-09,0
1.782e-09,1.955e-10
1.783e-09,-5.1617e-12
1.784e-09,-1.83289e-10
1.785e-09,-7.04958e-12
1.786e-09,7.04958e-12
1.787e-09,0
1.788e-09,-7.04958e-12
1.789e-09,1.955e-10
1.79e-09,-1.955e-10
1.791e-09,7.04958e-12
1.792e-09,-7.04958e-12
1.793e-09,0
1.794e-09,2.28083e-10
1.795e-09,0
1.796e-09,0
1.797e-09,0
1.798e-09,0
1.799e-09,-2.28083e-10
1.8e-09,0
1.801e-09,0
1.802e-09,0
1.803e-09,0
1.804e-09,0
1.805e-09,0
1.806e-09,0
1.807e-09,0
1.808e-09,0
1.809e-09,2.28083e-10
1.81e-09,0
1.811e-09,0
1.812e-09,0
1.813e-09,-2.28083e-10
1.814e-09,2.28083e-10
1.815e-09,-2.28083e-10
1.816e-09,2.28083e-10
1.817e-09,-2.42183e-10
1.818e-09,1.40992e-11
1.819e-09,0
1.82e-09,2.28083e-10
1.821e-09,-2.28083e-10
1.822e-09,0
1.823e-09,0
1.824e-09,0
1.825e-09,1.955e-10
1.826e-09,-1.955e-10
1.827e-09,1.955e-10
1.828e-09,-1.955e-10
1.829e-09,0
1.83e-09,1.955e-10
1.831e-09,0
1.832e-09,0
1.833e-09,0
1.834e-09,1.55091e-10
1.835e-09,-1.55091e-10
1.836e-09,1.90339e-10
1.837e-09,0
1.838e-09,0
1.839e-09,0
1.84e-09,-1.90339e-10
1.841e-09,-5.1617e-12
1.842e-09,0
1.843e-09,1.955e-10
1.844e-09,7.04958e-12
1.845e-09,-1.955e-10
1.846e-09,0
1.847e-09,1.955e-10
1.848e-09,0
1.849e-09,0
1.85e-09,-1.90339e-10
1.851e-09,7.04958e-11
1.852e-09,-7.04958e-11
1.853e-09,0
1.854e-09,7.04958e-11
1.855e-09,-2.65996e-10
1.856e-09,1.955e-10
1.857e-09,0
1.858e-09,0
1.859e-09,0
1.86e-09,2.98579e-10
1.861e-09,-4.23584e-10
1.862e-09,0
1.863e-09,0
1.864e-09,-7.04958e-11
1.865e-09,6.34462e-11
1.866e-09,-6.34462e-11
1.867e-09,0
1.868e-09,2.21034e-10
1.869e-09,-1.40992e-11
1.87e-09,2.28083e-10
1.871e-09,0
1.872e-09,7.04958e-12
1.873e-09,-7.04958e-12
1.874e-09,-2.28083e-10
1.875e-09,0
1.876e-09,7.04958e-12
1.877e-09,0
1.878e-09,-7.04958e-12
1.879e-09,-2.06935e-10
1.88e-09,4.35018e-10
1.881e-09,-2.28083e-10
1.882e-09,0
1.883e-09,-2.28083e-10
1.884e-09,2.28083e-10
1.885e-09,-2.28083e-10
1.886e-09,0
1.887e-09,2.28083e-10
1.888e-09,-2.28083e-10
1.889e-09,2.28083e-10
1.89e-09,0
1.891e-09,2.28083e-10
1.892e-09,-4.56167e-10
1.893e-09,2.35133e-10
1.894e-09,-7.04958e-12
1.895e-09,0
1.896e-09,0
1.897e-09,0
1.898e-09,0
1.899e-09,0
1.9e-09,0
1.901e-09,-2.28083e-10
1.902e-09,0
1.903e-09,0
1.904e-09,0
1.905e-09,0
1.906e-09,0
1.907e-09,0
1.908e-09,0
1.909e-09,0
1.91e-09,0
1.911e-09,0
1.912e-09,0
1.913e-09,0
1.914e-09,0
1.915e-09,0
1.916e-09,0
1.917e-09,0
1.918e-09,0
1.919e-09,0
1.92e-09,0
1.921e-09,7.04958e-12
1.922e-09,0
1.923e-09,-7.04958e-12
1.924e-09,1.955e-10
1.925e-09,0
1.926e-09,0
1.927e-09,-1.955e-10
1.928e-09,4.23584e-10
1.929e-09,-2.28083e-10
1.93e-09,0
1.931e-09,0
1.932e-09,0
1.933e-09,0
1.934e-09,0
1.935e-09,-1.955e-10
1.936e-09,1.955e-10
1.937e-09,0
1.938e-09,0
1.939e-09,7.04958e-12
1.94e-09,0
1.941e-09,0
1.942e-09,0
1.943e-09,0
1.944e-09,0
1.945e-09,0
1.946e-09,0
1.947e-09,0
1.948e-09,0
1.949e-09,-7.04958e-12
1.95e-09,0
1.951e-09,0
1.952e-09,7.04958e-12
1.953e-09,6.06264e-10
1.954e-09,-8.01764e-10
1.955e-09,0
1.956e-09,1.955e-10
1.957e-09,-1.955e-10
1.958e-09,0
1.959e-09,0
1.96e-09,2.28083e-10
1.961e-09,8.01764e-10
1.962e-09,-2.87145e-10
1.963e-09,0
1.964e-09,0
1.965e-09,0
1.966e-09,-2.28083e-10
1.967e-09,0
1.968e-09,2.28083e-10
1.969e-09,0
1.97e-09,0
1.971e-09,-1.36439e-10
1.972e-09,1.03856e-10
1.973e-09,2.28083e-10
1.974e-09,0
1.975e-09,-2.28083e-10
1.976e-09,-1.955e-10
1.977e-09,0
1.978e-09,0
1.979e-09,0
1.98e-09,1.955e-10
1.981e-09,-1.955e-10
1.982e-09,1.955e-10
1.983e-09,0
1.984e-09,0
1.985e-09,0
1.986e-09,0
1.987e-09,0
1.988e-09,0
1.989e-09,0
1.99e-09,0
1.991e-09,-1.955e-10
1.992e-09,0
1.993e-09,0
1.994e-09,0
1.995e-09,0
1.996e-09,1.955e-10
1.997e-09,0
1.998e-09,-1.955e-10
1.999e-09,0
2e-09,0
2.001e-09,0
2.1e-09,0
