0,0
1e-12,-1.28328e-06
2e-12,-2.76094e-07
3e-12,-4.48169e-07
4e-12,-1.40988e-06
5e-12,7.17415e-08
6e-12,-1.47084e-06
7e-12,2.06809e-06
8e-12,-1.25035e-06
9e-12,-3.26148e-08
1e-11,-2.69696e-06
1.1e-11,-4.93897e-07
1.2e-11,-3.35703e-07
1.3e-11,-2.57863e-07
1.4e-11,-1.78034e-06
1.5e-11,-1.83048e-08
1.6e-11,-5.69637e-07
1.7e-11,-9.06622e-07
1.8e-11,-3.12037e-07
1.9e-11,-2.10169e-06
2e-11,-4.07076e-07
2.1e-11,-1.71242e-06
2.2e-11,-3.43959e-07
2.3e-11,8.03669e-07
2.4e-11,-2.44258e-07
2.5e-11,-1.92358e-06
2.6e-11,-3.59369e-07
2.7e-11,-9.30561e-07
2.8e-11,-7.47748e-08
2.9e-11,-1.89242e-06
3e-11,-5.27275e-07
3.1e-11,-6.30715e-07
3.2e-11,-1.0996e-06
3.3e-11,3.86028e-07
3.4e-11,-8.87483e-07
3.5e-11,-1.71172e-06
3.6e-11,-1.19073e-06
3.7e-11,-2.62984e-07
3.8e-11,-8.82229e-07
3.9e-11,-1.83567e-06
4e-11,-1.50206e-06
4.1e-11,-1.19093e-06
4.2e-11,2.98735e-07
4.3e-11,-1.69865e-06
4.4e-11,-1.57169e-06
4.5e-11,-8.39039e-07
4.6e-11,-1.47635e-06
4.7e-11,-8.14194e-07
4.8e-11,-8.20858e-07
4.9e-11,2.57539e-07
5e-11,-1.53843e-06
5.1e-11,-2.29661e-06
5.2e-11,-9.13991e-07
5.3e-11,-8.99409e-07
5.4e-11,-2.04625e-06
5.5e-11,-1.82355e-06
5.6e-11,-5.86702e-07
5.7e-11,-6.44451e-07
5.8e-11,-4.71635e-07
5.9e-11,-5.35037e-07
6e-11,-5.96269e-07
6.1e-11,1.70328e-06
6.2e-11,-7.87142e-07
6.3e-11,-5.82129e-07
6.4e-11,-2.28128e-06
6.5e-11,-8.85091e-07
6.6e-11,3.50352e-07
6.7e-11,-4.53874e-07
6.8e-11,-1.74177e-06
6.9e-11,4.04537e-07
7e-11,-6.10073e-07
7.1e-11,-1.99911e-06
7.2e-11,-4.82015e-07
7.3e-11,-2.40464e-06
7.4e-11,5.66143e-07
7.5e-11,-1.30345e-06
7.6e-11,-3.48874e-07
7.7e-11,-1.26975e-06
7.8e-11,-8.43178e-07
7.9e-11,-4.54229e-07
8e-11,-1.78888e-06
8.1e-11,-6.74229e-08
8.2e-11,-2.18875e-07
8.3e-11,-1.78097e-06
8.4e-11,-9.09649e-08
8.5e-11,-8.74698e-07
8.6e-11,9.41401e-09
8.7e-11,-1.18743e-06
8.8e-11,-1.58915e-06
8.9e-11,-2.51284e-06
9e-11,2.69484e-08
9.1e-11,-1.38599e-06
9.2e-11,-1.33293e-06
9.3e-11,-1.50944e-06
9.4e-11,-4.69343e-07
9.5e-11,-8.14049e-07
9.6e-11,-8.21032e-07
9.7e-11,1.18194e-07
9.8e-11,-1.46533e-06
9.9e-11,-1.06268e-06
1e-10,-8.8296e-07
1.01e-10,-6.82254e-07
1.02e-10,-1.28662e-06
1.03e-10,7.58426e-07
1.04e-10,-9.27709e-07
1.05e-10,-1.23807e-06
1.06e-10,-7.13974e-07
1.07e-10,-1.18566e-06
1.08e-10,-1.35353e-06
1.09e-10,-7.20846e-07
1.1e-10,-1.28591e-06
1.11e-10,-2.83286e-07
1.12e-10,-1.63066e-06
1.13e-10,-3.3211e-07
1.14e-10,-3.94742e-07
1.15e-10,-3.4168e-06
1.16e-10,-2.6692e-07
1.17e-10,-5.43882e-07
1.18e-10,-9.27397e-07
1.19e-10,-1.03249e-06
1.2e-10,-1.02093e-07
1.21e-10,-1.7575e-06
1.22e-10,-8.54238e-07
1.23e-10,-8.41905e-07
1.24e-10,-5.74151e-07
1.25e-10,-1.63785e-07
1.26e-10,-3.19275e-07
1.27e-10,-6.30527e-07
1.28e-10,-1.26411e-06
1.29e-10,-6.70113e-07
1.3e-10,-2.11796e-06
1.31e-10,-4.27078e-07
1.32e-10,-1.55413e-06
1.33e-10,-4.41557e-07
1.34e-10,-2.52588e-07
1.35e-10,-1.46165e-06
1.36e-10,-1.11684e-06
1.37e-10,-1.36515e-06
1.38e-10,-8.68289e-07
1.39e-10,-1.13249e-06
1.4e-10,-1.45564e-06
1.41e-10,-3.05554e-07
1.42e-10,-1.06232e-06
1.43e-10,-3.30384e-07
1.44e-10,-1.45356e-06
1.45e-10,-6.22627e-07
1.46e-10,-4.04767e-07
1.47e-10,-7.94366e-07
1.48e-10,-1.71806e-06
1.49e-10,-5.08662e-08
1.5e-10,-5.91759e-07
1.51e-10,-6.51423e-07
1.52e-10,-5.52588e-07
1.53e-10,-2.41125e-06
1.54e-10,1.70504e-07
1.55e-10,-1.66856e-06
1.56e-10,-2.29112e-06
1.57e-10,-5.8937e-07
1.58e-10,-9.89203e-07
1.59e-10,-4.55286e-07
1.6e-10,-2.85104e-07
1.61e-10,3.26674e-07
1.62e-10,-1.26152e-06
1.63e-10,-1.03179e-06
1.64e-10,-1.74089e-06
1.65e-10,-7.03844e-07
1.66e-10,-5.2702e-07
1.67e-10,4.26415e-07
1.68e-10,-1.60222e-06
1.69e-10,2.79546e-07
1.7e-10,-8.13922e-07
1.71e-10,-1.01993e-06
1.72e-10,-2.06507e-07
1.73e-10,-5.6568e-07
1.74e-10,-1.39668e-06
1.75e-10,-2.58932e-07
1.76e-10,-5.93308e-07
1.77e-10,-4.5745e-07
1.78e-10,-8.50088e-07
1.79e-10,-1.73236e-07
1.8e-10,-1.03385e-06
1.81e-10,-1.30074e-06
1.82e-10,-7.73401e-07
1.83e-10,-8.05957e-07
1.84e-10,-1.93967e-07
1.85e-10,-8.50238e-07
1.86e-10,-8.26746e-07
1.87e-10,-2.67331e-07
1.88e-10,-5.77645e-07
1.89e-10,-2.14106e-06
1.9e-10,-1.32054e-06
1.91e-10,-7.23834e-07
1.92e-10,-2.15684e-07
1.93e-10,-1.28974e-06
1.94e-10,-2.13928e-07
1.95e-10,-1.60589e-06
1.96e-10,-5.74252e-07
1.97e-10,5.70827e-07
1.98e-10,-2.02227e-06
1.99e-10,-5.07938e-07
2e-10,-7.94684e-08
2.01e-10,-9.52323e-07
2.02e-10,-2.23168e-07
2.03e-10,-7.87628e-07
2.04e-10,-2.91464e-07
2.05e-10,-2.11413e-06
2.06e-10,-2.59546e-07
2.07e-10,-7.26613e-07
2.08e-10,-5.81229e-07
2.09e-10,-9.28712e-07
2.1e-10,-7.33931e-07
2.11e-10,-4.87124e-07
2.12e-10,-8.72883e-07
2.13e-10,-1.78184e-06
2.14e-10,-3.41318e-07
2.15e-10,-4.23197e-07
2.16e-10,-1.10392e-06
2.17e-10,-6.70941e-07
2.18e-10,-1.30035e-06
2.19e-10,-1.62303e-07
2.2e-10,-1.07029e-06
2.21e-10,-8.40937e-07
2.22e-10,-1.5829e-06
2.23e-10,-1.09548e-06
2.24e-10,-6.37512e-07
2.25e-10,6.22216e-08
2.26e-10,-1.10916e-06
2.27e-10,-8.17387e-07
2.28e-10,-1.29377e-06
2.29e-10,-8.82763e-07
2.3e-10,-5.83025e-07
2.31e-10,-1.00896e-07
2.32e-10,-2.01923e-06
2.33e-10,-2.56766e-07
2.34e-10,-1.09564e-06
2.35e-10,-1.03961e-06
2.36e-10,-1.61064e-07
2.37e-10,-7.79086e-07
2.38e-10,-4.79866e-07
2.39e-10,-1.0388e-06
2.4e-10,-2.62876e-07
2.41e-10,-4.40561e-08
2.42e-10,-2.03195e-06
2.43e-10,1.73498e-07
2.44e-10,-3.5003e-07
2.45e-10,-4.16517e-07
2.46e-10,-3.66348e-08
2.47e-10,-9.35388e-07
2.48e-10,-1.88838e-07
2.49e-10,-1.27719e-06
2.5e-10,-1.95944e-07
2.51e-10,-8.80783e-07
2.52e-10,-1.13885e-06
2.53e-10,-2.65887e-07
2.54e-10,-6.64633e-07
2.55e-10,-5.12577e-07
2.56e-10,-2.59081e-07
2.57e-10,-1.77759e-06
2.58e-10,-5.21219e-07
2.59e-10,-2.5083e-07
2.6e-10,-7.13527e-07
2.61e-10,-5.8613e-08
2.62e-10,-1.43263e-06
2.63e-10,-1.20417e-09
2.64e-10,-3.23547e-07
2.65e-10,-4.45433e-07
2.66e-10,-1.86806e-06
2.67e-10,-4.73547e-07
2.68e-10,1.36166e-07
2.69e-10,-1.00471e-06
2.7e-10,-1.06873e-06
2.71e-10,-4.298e-07
2.72e-10,-4.04004e-07
2.73e-10,-5.13819e-07
2.74e-10,-1.96898e-06
2.75e-10,-3.92612e-07
2.76e-10,-6.8884e-07
2.77e-10,-4.37763e-07
2.78e-10,-9.99926e-07
2.79e-10,-8.71255e-07
2.8e-10,-1.01469e-06
2.81e-10,-6.44715e-07
2.82e-10,6.74018e-07
2.83e-10,-3.56106e-07
2.84e-10,-6.55228e-07
2.85e-10,-1.14022e-06
2.86e-10,-1.46164e-06
2.87e-10,-7.16787e-07
2.88e-10,-1.4815e-06
2.89e-10,-1.15162e-06
2.9e-10,-1.42919e-06
2.91e-10,-1.33682e-07
2.92e-10,-2.99141e-07
2.93e-10,-1.00033e-06
2.94e-10,-9.49833e-07
2.95e-10,-1.09365e-06
2.96e-10,-5.04728e-07
2.97e-10,-2.06387e-07
2.98e-10,-5.43562e-07
2.99e-10,-4.92958e-07
3e-10,-1.44427e-06
3.01e-10,-4.31181e-07
3.02e-10,-1.12853e-06
3.03e-10,-7.10239e-07
3.04e-10,-1.67826e-06
3.05e-10,-6.02677e-07
3.06e-10,1.94214e-07
3.07e-10,-9.60204e-07
3.08e-10,-9.8157e-07
3.09e-10,-2.74724e-07
3.1e-10,-1.70972e-06
3.11e-10,-8.80748e-07
3.12e-10,-3.19431e-07
3.13e-10,-1.04636e-06
3.14e-10,2.90978e-08
3.15e-10,-1.43066e-06
3.16e-10,-3.24714e-07
3.17e-10,-8.64903e-07
3.18e-10,-1.89912e-06
3.19e-10,-2.57398e-07
3.2e-10,-3.59874e-07
3.21e-10,-3.18467e-07
3.22e-10,-8.95464e-07
3.23e-10,-1.99947e-06
3.24e-10,4.77212e-07
3.25e-10,-7.11764e-07
3.26e-10,-5.02359e-07
3.27e-10,-4.90347e-07
3.28e-10,-5.07093e-07
3.29e-10,-1.40369e-06
3.3e-10,-5.41542e-07
3.31e-10,-4.1189e-08
3.32e-10,-1.31435e-06
3.33e-10,-5.60787e-07
3.34e-10,-2.75498e-07
3.35e-10,-1.82164e-06
3.36e-10,2.2148e-07
3.37e-10,-1.19228e-07
3.38e-10,-1.69044e-06
3.39e-10,-5.0748e-07
3.4e-10,-7.39374e-07
3.41e-10,1.51953e-07
3.42e-10,-1.09773e-06
3.43e-10,-4.37737e-07
3.44e-10,-1.3816e-06
3.45e-10,4.64062e-07
3.46e-10,-3.0285e-07
3.47e-10,-3.46681e-07
3.48e-10,-1.50201e-06
3.49e-10,-2.16492e-07
3.5e-10,-7.5686e-08
3.51e-10,-1.25277e-06
3.52e-10,-1.98312e-07
3.53e-10,-1.25029e-07
3.54e-10,-7.73401e-07
3.55e-10,-3.21145e-08
3.56e-10,-1.13306e-06
3.57e-10,-8.29371e-07
3.58e-10,-8.09782e-07
3.59e-10,-4.10215e-07
3.6e-10,3.72275e-07
3.61e-10,-1.86014e-06
3.62e-10,-2.77703e-07
3.63e-10,2.20251e-07
3.64e-10,-4.62813e-07
3.65e-10,-1.32465e-07
3.66e-10,-6.12577e-07
3.67e-10,-3.61636e-07
3.68e-10,-7.03484e-07
3.69e-10,2.06627e-07
3.7e-10,-3.23037e-07
3.71e-10,-9.38943e-07
3.72e-10,-7.53238e-08
3.73e-10,2.42788e-07
3.74e-10,1.43251e-07
3.75e-10,-2.9772e-07
3.76e-10,-2.91899e-07
3.77e-10,-2.90646e-07
3.78e-10,-3.18355e-08
3.79e-10,7.22259e-08
3.8e-10,-1.05197e-07
3.81e-10,-4.45262e-07
3.82e-10,-7.28154e-07
3.83e-10,-2.0441e-07
3.84e-10,-2.86775e-07
3.85e-10,1.50222e-07
3.86e-10,8.43812e-09
3.87e-10,-6.9263e-07
3.88e-10,2.08977e-07
3.89e-10,-5.29832e-07
3.9e-10,-4.64164e-07
3.91e-10,-7.01923e-08
3.92e-10,-2.02776e-07
3.93e-10,-5.4317e-08
3.94e-10,-9.35839e-08
3.95e-10,1.0494e-07
3.96e-10,-3.84526e-07
3.97e-10,3.93194e-07
3.98e-10,-1.29509e-07
3.99e-10,-3.96409e-07
4e-10,-1.19805e-08
4.01e-10,-2.12821e-07
4.02e-10,-1.23242e-06
4.03e-10,6.94392e-07
4.04e-10,-7.67697e-07
4.05e-10,-1.22315e-06
4.06e-10,-1.17642e-07
4.07e-10,1.36107e-06
4.08e-10,-1.64158e-06
4.09e-10,-1.33822e-06
4.1e-10,5.17293e-07
4.11e-10,2.70899e-07
4.12e-10,-1.60387e-08
4.13e-10,-1.84191e-06
4.14e-10,-8.75294e-07
4.15e-10,9.59808e-07
4.16e-10,-8.98096e-07
4.17e-10,-4.00248e-07
4.18e-10,5.28094e-07
4.19e-10,-6.21352e-07
4.2e-10,1.05202e-07
4.21e-10,5.33492e-07
4.22e-10,-1.52227e-06
4.23e-10,1.01428e-07
4.24e-10,-3.75857e-07
4.25e-10,1.13102e-07
4.26e-10,5.48177e-08
4.27e-10,-9.56357e-08
4.28e-10,-1.15465e-06
4.29e-10,-2.51559e-07
4.3e-10,5.0379e-07
4.31e-10,1.4871e-07
4.32e-10,-2.77254e-07
4.33e-10,-1.17432e-06
4.34e-10,-1.23101e-08
4.35e-10,9.74196e-08
4.36e-10,-1.15932e-06
4.37e-10,2.23798e-07
4.38e-10,-3.04986e-07
4.39e-10,1.47681e-08
4.4e-10,-7.42256e-07
4.41e-10,-5.81562e-07
4.42e-10,4.84376e-07
4.43e-10,-2.72342e-07
4.44e-10,-2.8594e-07
4.45e-10,2.96225e-07
4.46e-10,-1.70666e-07
4.47e-10,-6.70601e-07
4.48e-10,-2.05207e-07
4.49e-10,-1.84944e-07
4.5e-10,-6.12768e-08
4.51e-10,2.24794e-07
4.52e-10,-4.06367e-07
4.53e-10,9.573e-09
4.54e-10,-1.0693e-07
4.55e-10,3.8855e-07
4.56e-10,-2.85506e-07
4.57e-10,-1.05619e-08
4.58e-10,-1.95696e-07
4.59e-10,-8.57385e-07
4.6e-10,2.54071e-07
4.61e-10,-6.6121e-07
4.62e-10,-1.45516e-06
4.63e-10,1.23149e-07
4.64e-10,-4.51089e-07
4.65e-10,-3.32813e-07
4.66e-10,-1.26291e-06
4.67e-10,8.9405e-08
4.68e-10,-1.32042e-07
4.69e-10,-6.79981e-07
4.7e-10,-3.39174e-07
4.71e-10,-1.01842e-06
4.72e-10,-3.41476e-07
4.73e-10,-1.36359e-08
4.74e-10,-7.38463e-07
4.75e-10,-5.47043e-07
4.76e-10,1.56125e-07
4.77e-10,-8.77192e-08
4.78e-10,-1.02103e-06
4.79e-10,-2.20833e-07
4.8e-10,1.30125e-07
4.81e-10,-9.92462e-07
4.82e-10,-1.37782e-06
4.83e-10,-5.36349e-09
4.84e-10,-3.77359e-07
4.85e-10,-8.47906e-07
4.86e-10,-1.18864e-06
4.87e-10,-2.69173e-07
4.88e-10,3.59397e-07
4.89e-10,-6.89386e-07
4.9e-10,-2.24604e-07
4.91e-10,-9.74652e-07
4.92e-10,5.0361e-08
4.93e-10,-2.74253e-07
4.94e-10,-9.27037e-07
4.95e-10,-5.45873e-07
4.96e-10,1.42981e-07
4.97e-10,-2.84845e-07
4.98e-10,-2.02483e-08
4.99e-10,4.88659e-08
5e-10,-1.08005e-06
5.01e-10,2.40903e-07
5.02e-10,-1.13391e-06
5.03e-10,-2.01366e-07
5.04e-10,-1.50422e-07
5.05e-10,2.31072e-07
5.06e-10,-1.08929e-06
5.07e-10,7.57079e-07
5.08e-10,-6.65276e-07
5.09e-10,-1.53646e-06
5.1e-10,1.20058e-06
5.11e-10,-1.11308e-06
5.12e-10,-1.5495e-07
5.13e-10,3.04125e-07
5.14e-10,-1.31257e-07
5.15e-10,-2.2032e-07
5.16e-10,-2.34915e-07
5.17e-10,-1.22786e-06
5.18e-10,1.67775e-07
5.19e-10,-5.55414e-07
5.2e-10,-8.17497e-07
5.21e-10,2.47709e-07
5.22e-10,3.82226e-07
5.23e-10,-7.29593e-07
5.24e-10,-5.81206e-07
5.25e-10,3.48196e-07
5.26e-10,-4.87495e-07
5.27e-10,1.73426e-08
5.28e-10,-3.52937e-07
5.29e-10,-1.61004e-06
5.3e-10,2.77001e-07
5.31e-10,-1.63336e-07
5.32e-10,1.21354e-07
5.33e-10,1.05554e-07
5.34e-10,-1.5845e-06
5.35e-10,5.06947e-07
5.36e-10,-1.67682e-07
5.37e-10,7.64444e-08
5.38e-10,-3.05629e-10
5.39e-10,-9.11026e-07
5.4e-10,-6.14293e-08
5.41e-10,1.80014e-07
5.42e-10,1.72037e-08
5.43e-10,-1.07377e-07
5.44e-10,2.18797e-07
5.45e-10,-1.67091e-08
5.46e-10,4.82944e-07
5.47e-10,1.85033e-07
5.48e-10,-1.10204e-08
5.49e-10,-2.60872e-07
5.5e-10,1.75792e-07
5.51e-10,-3.02364e-07
5.52e-10,-6.72248e-08
5.53e-10,4.5321e-08
5.54e-10,9.43425e-07
5.55e-10,1.52492e-08
5.56e-10,6.81378e-07
5.57e-10,-5.85757e-07
5.58e-10,6.90799e-07
5.59e-10,1.68603e-07
5.6e-10,9.74357e-08
5.61e-10,-6.33085e-07
5.62e-10,6.20473e-07
5.63e-10,1.97504e-07
5.64e-10,-4.98385e-07
5.65e-10,-1.23387e-07
5.66e-10,-1.65291e-07
5.67e-10,5.37961e-07
5.68e-10,4.02875e-07
5.69e-10,-2.1425e-07
5.7e-10,1.62921e-08
5.71e-10,-6.87714e-07
5.72e-10,3.63526e-07
5.73e-10,-5.18507e-08
5.74e-10,4.06988e-07
5.75e-10,3.6854e-07
5.76e-10,-4.2248e-07
5.77e-10,1.43447e-07
5.78e-10,-5.36412e-08
5.79e-10,-4.55137e-07
5.8e-10,1.88951e-07
5.81e-10,7.19607e-07
5.82e-10,2.00102e-07
5.83e-10,-7.09353e-07
5.84e-10,-3.28472e-07
5.85e-10,-2.19933e-07
5.86e-10,-7.21187e-07
5.87e-10,9.01204e-07
5.88e-10,-7.1703e-08
5.89e-10,-9.4441e-08
5.9e-10,-5.09147e-08
5.91e-10,-7.05409e-08
5.92e-10,-1.55931e-08
5.93e-10,7.77741e-07
5.94e-10,-7.97116e-08
5.95e-10,2.23725e-07
5.96e-10,3.11222e-07
5.97e-10,2.04004e-07
5.98e-10,3.64147e-07
5.99e-10,3.35364e-07
6e-10,4.3369e-09
6.01e-10,-5.66257e-07
6.02e-10,-6.91279e-08
6.03e-10,4.049e-07
6.04e-10,5.11638e-07
6.05e-10,6.54462e-09
6.06e-10,-9.17008e-08
6.07e-10,-3.76697e-08
6.08e-10,-3.61364e-07
6.09e-10,1.08847e-06
6.1e-10,1.61884e-07
6.11e-10,-4.17942e-08
6.12e-10,-1.54864e-07
6.13e-10,2.90601e-07
6.14e-10,-1.3755e-07
6.15e-10,-2.63559e-08
6.16e-10,-9.70658e-08
6.17e-10,1.40782e-07
6.18e-10,-2.61749e-08
6.19e-10,4.67098e-07
6.2e-10,-6.37911e-09
6.21e-10,-1.25525e-07
6.22e-10,-2.9533e-07
6.23e-10,4.47896e-07
6.24e-10,-1.24133e-07
6.25e-10,7.17928e-08
6.26e-10,3.45359e-09
6.27e-10,-1.08451e-07
6.28e-10,-5.14901e-08
6.29e-10,-8.27419e-08
6.3e-10,-1.3324e-07
6.31e-10,-6.27237e-07
6.32e-10,4.26016e-09
6.33e-10,-1.22424e-07
6.34e-10,-2.7139e-08
6.35e-10,-7.37582e-08
6.36e-10,-3.41926e-08
6.37e-10,-5.71921e-08
6.38e-10,-1.34872e-07
6.39e-10,-8.80953e-08
6.4e-10,-7.37139e-07
6.41e-10,6.28779e-09
6.42e-10,-1.12426e-07
6.43e-10,-9.29783e-07
6.44e-10,-1.59722e-07
6.45e-10,-1.95218e-10
6.46e-10,-2.37632e-07
6.47e-10,-9.63194e-07
6.48e-10,3.15484e-08
6.49e-10,1.05817e-07
6.5e-10,-2.18018e-07
6.51e-10,-8.2878e-07
6.52e-10,-1.36882e-07
6.53e-10,-6.6123e-08
6.54e-10,-9.45846e-08
6.55e-10,-8.06841e-08
6.56e-10,-6.50832e-08
6.57e-10,-1.67634e-07
6.58e-10,-5.05191e-08
6.59e-10,-5.66077e-07
6.6e-10,-9.50947e-08
6.61e-10,3.32323e-08
6.62e-10,-3.2021e-08
6.63e-10,-4.09253e-10
6.64e-10,-8.84508e-08
6.65e-10,-3.50882e-08
6.66e-10,-4.08863e-08
6.67e-10,-1.67797e-07
6.68e-10,-4.9455e-08
6.69e-10,-1.2192e-07
6.7e-10,-2.84748e-08
6.71e-10,3.00967e-09
6.72e-10,-6.14523e-08
6.73e-10,-8.81724e-08
6.74e-10,-6.09438e-08
6.75e-10,-6.56353e-08
6.76e-10,-1.99959e-07
6.77e-10,2.17013e-08
6.78e-10,-5.5945e-08
6.79e-10,-7.53308e-09
6.8e-10,-8.62936e-08
6.81e-10,-1.62177e-09
6.82e-10,-3.26811e-08
6.83e-10,-1.98058e-07
6.84e-10,-8.76615e-08
6.85e-10,-1.8061e-07
6.86e-10,-2.91805e-08
6.87e-10,-4.52021e-08
6.88e-10,-6.9363e-08
6.89e-10,1.4276e-07
6.9e-10,-3.14938e-07
6.91e-10,-2.64105e-08
6.92e-10,-1.93827e-07
6.93e-10,2.84765e-07
6.94e-10,-6.01562e-09
6.95e-10,-5.26841e-08
6.96e-10,-3.56049e-08
6.97e-10,6.38057e-09
6.98e-10,-3.16556e-07
6.99e-10,1.65982e-07
7e-10,5.71883e-09
7.01e-10,8.3457e-10
7.02e-10,-2.21387e-07
7.03e-10,-1.1243e-07
7.04e-10,-3.35797e-08
7.05e-10,-3.47772e-07
7.06e-10,-3.18872e-08
7.07e-10,3.00805e-09
7.08e-10,-2.28083e-10
7.09e-10,-9.54475e-08
7.1e-10,-2.44925e-08
7.11e-10,-2.7377e-07
7.12e-10,-1.18966e-07
7.13e-10,2.68821e-08
7.14e-10,-4.24101e-07
7.15e-10,-9.75509e-08
7.16e-10,-2.90914e-08
7.17e-10,-9.38545e-08
7.18e-10,-5.63036e-08
7.19e-10,-5.02295e-07
7.2e-10,-2.47561e-09
7.21e-10,-5.90843e-08
7.22e-10,-4.48732e-07
7.23e-10,-6.39155e-07
7.24e-10,-1.36649e-07
7.25e-10,-3.28352e-08
7.26e-10,-4.24285e-07
7.27e-10,2.90939e-08
7.28e-10,-1.08714e-09
7.29e-10,-1.00264e-07
7.3e-10,5.08256e-09
7.31e-10,-1.56284e-07
7.32e-10,-5.19554e-08
7.33e-10,-2.11919e-07
7.34e-10,6.83168e-08
7.35e-10,-3.32706e-08
7.36e-10,-2.71192e-07
7.37e-10,6.56879e-08
7.38e-10,-6.38219e-08
7.39e-10,2.32088e-07
7.4e-10,-2.87253e-08
7.41e-10,-3.19641e-08
7.42e-10,-9.58079e-08
7.43e-10,3.76972e-10
7.44e-10,-3.71419e-07
7.45e-10,3.08203e-07
7.46e-10,-3.3259e-07
7.47e-10,2.70272e-08
7.48e-10,-5.87935e-08
7.49e-10,-2.61015e-08
7.5e-10,-6.66887e-08
7.51e-10,-2.78961e-08
7.52e-10,1.84007e-08
7.53e-10,-4.88909e-08
7.54e-10,-4.24975e-08
7.55e-10,-8.71328e-10
7.56e-10,-3.5717e-08
7.57e-10,-2.68516e-08
7.58e-10,-1.03379e-07
7.59e-10,-2.92314e-08
7.6e-10,4.87285e-09
7.61e-10,-3.44387e-08
7.62e-10,-6.38661e-08
7.63e-10,-2.78111e-08
7.64e-10,-2.42209e-09
7.65e-10,-3.02938e-08
7.66e-10,5.50497e-09
7.67e-10,-7.68483e-08
7.68e-10,2.70006e-09
7.69e-10,-8.25559e-09
7.7e-10,-3.77931e-08
7.71e-10,-2.32534e-08
7.72e-10,4.51723e-10
7.73e-10,-1.64637e-10
7.74e-10,-3.25674e-08
7.75e-10,-1.40079e-07
7.76e-10,-2.64309e-08
7.77e-10,2.6385e-08
7.78e-10,-9.19483e-08
7.79e-10,2.23803e-09
7.8e-10,1.11554e-09
7.81e-10,-6.20294e-08
7.82e-10,-1.6811e-09
7.83e-10,-5.64994e-10
7.84e-10,-1.11112e-07
7.85e-10,1.30888e-09
7.86e-10,-3.21431e-08
7.87e-10,-6.51435e-08
7.88e-10,6.36939e-09
7.89e-10,-3.49428e-08
7.9e-10,6.48279e-08
7.91e-10,-6.57722e-08
7.92e-10,-3.14284e-08
7.93e-10,-1.49358e-07
7.94e-10,-5.70006e-09
7.95e-10,4.59821e-09
7.96e-10,-4.34226e-08
7.97e-10,-2.94424e-08
7.98e-10,-2.80906e-08
7.99e-10,-9.55757e-08
8e-10,3.09341e-08
8.01e-10,-2.35133e-10
8.02e-10,9.32448e-11
8.03e-10,-1.50389e-09
8.04e-10,-3.44002e-08
8.05e-10,-3.1865e-08
8.06e-10,-2.90851e-08
8.07e-10,1.38204e-09
8.08e-10,-5.11496e-08
8.09e-10,-2.45136e-09
8.1e-10,-5.88831e-08
8.11e-10,-6.1626e-08
8.12e-10,2.35037e-09
8.13e-10,5.85225e-08
8.14e-10,-1.25633e-07
8.15e-10,-4.85343e-08
8.16e-10,-1.34125e-08
8.17e-10,-1.23517e-07
8.18e-10,3.07359e-08
8.19e-10,-6.2449e-08
8.2e-10,3.11355e-08
8.21e-10,-2.216e-09
8.22e-10,-2.96643e-08
8.23e-10,-1.0803e-09
8.24e-10,3.18396e-08
8.25e-10,-1.65484e-07
8.26e-10,-5.10186e-08
8.27e-10,3.05701e-08
8.28e-10,9.14767e-11
8.29e-10,1.73197e-09
8.3e-10,-2.28083e-10
8.31e-10,-1.23698e-08
8.32e-10,-3.12527e-09
8.33e-10,-1.44863e-07
8.34e-10,4.10162e-08
8.35e-10,3.71907e-09
8.36e-10,-3.95345e-08
8.37e-10,-2.8975e-08
8.38e-10,-3.45577e-10
8.39e-10,-1.14598e-07
8.4e-10,-1.50389e-09
8.41e-10,-9.7536e-08
8.42e-10,-3.06602e-08
8.43e-10,-5.9723e-08
8.44e-10,1.955e-10
8.45e-10,-3.01696e-08
8.46e-10,-2.91348e-08
8.47e-10,1.38759e-07
8.48e-10,-1.71787e-09
8.49e-10,-7.64928e-08
8.5e-10,-1.955e-10
8.51e-10,-1.03384e-07
8.52e-10,6.16164e-08
8.53e-10,-3.2283e-08
8.54e-10,-3.04009e-08
8.55e-10,0
8.56e-10,1.99915e-08
8.57e-10,-1.955e-10
8.58e-10,4.23584e-10
8.59e-10,-1.72454e-07
8.6e-10,-3.90533e-08
8.61e-10,-5.86501e-10
8.62e-10,-1.26609e-09
8.63e-10,1.55801e-08
8.64e-10,-4.56378e-08
8.65e-10,-1.87825e-08
8.66e-10,6.06851e-09
8.67e-10,4.00715e-10
8.68e-10,3.10061e-08
8.69e-10,-7.59187e-08
8.7e-10,-1.03288e-07
8.71e-10,-2.77264e-09
8.72e-10,2.7158e-09
8.73e-10,-1.86625e-09
8.74e-10,-3.11609e-08
8.75e-10,-2.04146e-08
8.76e-10,1.26875e-09
8.77e-10,-3.95904e-08
8.78e-10,-1.93013e-09
8.79e-10,2.11487e-11
8.8e-10,1.69939e-09
8.81e-10,-4.2114e-07
8.82e-10,-3.00777e-09
8.83e-10,1.46159e-09
8.84e-10,1.75312e-09
8.85e-10,2.10684e-07
8.86e-10,1.89248e-08
8.87e-10,-2.74176e-07
8.88e-10,1.89112e-08
8.89e-10,-2.11487e-11
8.9e-10,-1.97011e-07
8.91e-10,1.50389e-09
8.92e-10,3.00301e-08
8.93e-10,-9.58742e-10
8.94e-10,-5.01812e-08
8.95e-10,-2.93206e-08
8.96e-10,-2.28083e-10
8.97e-10,0
8.98e-10,-1.955e-10
8.99e-10,-2.46265e-07
9e-10,-2.35105e-09
9.01e-10,3.91001e-10
9.02e-10,-4.50129e-08
9.03e-10,-4.25404e-07
9.04e-10,6.19084e-10
9.05e-10,6.13313e-10
9.06e-10,-2.90727e-08
9.07e-10,1.88451e-10
9.08e-10,-4.42633e-07
9.09e-10,-7.04958e-12
9.1e-10,-2.21034e-10
9.11e-10,-3.93749e-07
9.12e-10,-7.5271e-08
9.13e-10,-8.24298e-10
9.14e-10,-6.39152e-07
9.15e-10,2.98023e-08
9.16e-10,1.3933e-09
9.17e-10,-3.03542e-08
9.18e-10,-3.90478e-07
9.19e-10,-3.51721e-08
9.2e-10,-2.21034e-10
9.21e-10,-3.10596e-08
9.22e-10,2.28083e-10
9.23e-10,-5.17893e-10
9.24e-10,-3.4859e-07
9.25e-10,2.71823e-07
9.26e-10,3.12678e-10
9.27e-10,-2.28083e-10
9.28e-10,-9.51143e-08
9.29e-10,1.65524e-08
9.3e-10,-2.71552e-07
9.31e-10,-4.23584e-10
9.32e-10,6.913e-10
9.33e-10,-3.56841e-08
9.34e-10,5.80271e-08
9.35e-10,-4.23615e-08
9.36e-10,-1.61218e-08
9.37e-10,6.44618e-10
9.38e-10,3.80427e-09
9.39e-10,-3.9533e-08
9.4e-10,3.91745e-08
9.41e-10,-9.07281e-11
9.42e-10,1.9204e-08
9.43e-10,3.26168e-10
9.44e-10,2.28083e-10
9.45e-10,-1.88891e-08
9.46e-10,1.87809e-08
9.47e-10,-9.32518e-08
9.48e-10,1.10905e-10
9.49e-10,-2.55336e-11
9.5e-10,2.60667e-10
9.51e-10,0
9.52e-10,-1.955e-10
9.53e-10,3.91001e-10
9.54e-10,-1.40992e-11
9.55e-10,-4.30633e-10
9.56e-10,6.19084e-10
9.57e-10,-5.44331e-08
9.58e-10,-4.22975e-11
9.59e-10,-3.25831e-11
9.6e-10,-1.95414e-08
9.61e-10,4.49117e-10
9.62e-10,1.955e-10
9.63e-10,-3.74237e-10
9.64e-10,7.04958e-12
9.65e-10,-2.35133e-10
9.66e-10,-5.95293e-08
9.67e-10,-3.83951e-10
9.68e-10,-2.67716e-10
9.69e-10,3.25831e-11
9.7e-10,1.55868e-10
9.71e-10,4.56167e-10
9.72e-10,0
9.73e-10,-8.14584e-10
9.74e-10,1.62917e-10
9.75e-10,-2.28083e-10
9.76e-10,-5.87192e-08
9.77e-10,0
9.78e-10,0
9.79e-10,2.28083e-10
9.8e-10,0
9.81e-10,0
9.82e-10,-1.88451e-10
9.83e-10,1.955e-10
9.84e-10,1.74029e-08
9.85e-10,-6.38173e-08
9.86e-10,0
9.87e-10,2.39872e-08
9.88e-10,-2.4055e-08
9.89e-10,2.42408e-08
9.9e-10,-2.42408e-08
9.91e-10,-1.76969e-08
9.92e-10,1.955e-10
9.93e-10,-3.9313e-08
9.94e-10,-2.21357e-08
9.95e-10,1.955e-10
9.96e-10,2.19402e-08
9.97e-10,-4.23584e-10
9.98e-10,-1.955e-10
9.99e-10,-1.93607e-08
1e-09,9.49664e-10
1.001e-09,-1.74352e-10
1.002e-09,-6.38974e-08
1.003e-09,-5.80729e-10
1.004e-09,3.25831e-11
1.005e-09,-3.25831e-11
1.006e-09,-1.73435e-10
1.007e-09,2.28083e-10
1.008e-09,-3.0929e-08
1.009e-09,3.05054e-08
1.01e-09,1.9742e-08
1.011e-09,-1.9742e-08
1.012e-09,-6.8106e-08
1.013e-09,0
1.014e-09,-2.96223e-08
1.015e-09,2.96223e-08
1.016e-09,1.9742e-08
1.017e-09,-2.958e-08
1.018e-09,-4.22975e-11
1.019e-09,-1.99701e-08
1.02e-09,-4.98389e-08
1.021e-09,-1.89971e-08
1.022e-09,-1.955e-10
1.023e-09,1.94813e-08
1.024e-09,-1.98352e-08
1.025e-09,9.32448e-11
1.026e-09,1.02256e-10
1.027e-09,-1.02256e-10
1.028e-09,1.9742e-08
1.029e-09,-1.02879e-07
1.03e-09,1.955e-10
1.031e-09,9.32448e-11
1.032e-09,9.10151e-10
1.033e-09,0
1.034e-09,-1.955e-10
1.035e-09,-1.955e-10
1.036e-09,1.91622e-08
1.037e-09,-1.95465e-08
1.038e-09,1.95139e-08
1.039e-09,-7.40488e-08
1.04e-09,1.8049e-11
1.041e-09,-1.71252e-10
1.042e-09,1.61538e-10
1.043e-09,-1.61538e-10
1.044e-09,-2.37798e-10
1.045e-09,4.22975e-11
1.046e-09,1.955e-10
1.047e-09,0
1.048e-09,0
1.049e-09,-7.93237e-08
1.05e-09,3.48388e-10
1.051e-09,-1.955e-10
1.052e-09,0
1.053e-09,-2.28083e-10
1.054e-09,2.28083e-10
1.055e-09,-2.28083e-10
1.056e-09,-1.955e-10
1.057e-09,-9.60082e-08
1.058e-09,-1.8764e-08
1.059e-09,1.955e-10
1.06e-09,-2.81695e-10
1.061e-09,1.88302e-08
1.062e-09,2.28083e-10
1.063e-09,5.02407e-08
1.064e-09,-6.92664e-08
1.065e-09,6.94619e-08
1.066e-09,-5.01385e-08
1.067e-09,-5.61471e-08
1.068e-09,-2.74045e-08
1.069e-09,4.60876e-08
1.07e-09,2.95795e-10
1.071e-09,-7.04958e-12
1.072e-09,8.88247e-10
1.073e-09,7.04958e-12
1.074e-09,-9.37908e-08
1.075e-09,1.88451e-10
1.076e-09,-1.955e-10
1.077e-09,0
1.078e-09,0
1.079e-09,-1.87086e-08
1.08e-09,1.89112e-08
1.081e-09,-5.23835e-08
1.082e-09,2.28083e-10
1.083e-09,-1.89112e-08
1.084e-09,-9.31628e-08
1.085e-09,1.88786e-08
1.086e-09,-6.76248e-09
1.087e-09,6.53439e-09
1.088e-09,0
1.089e-09,3.25831e-11
1.09e-09,5.19599e-08
1.091e-09,-5.19925e-08
1.092e-09,0
1.093e-09,-1.09205e-07
1.094e-09,-1.91067e-08
1.095e-09,1.89112e-08
1.096e-09,-1.89112e-08
1.097e-09,0
1.098e-09,1.955e-10
1.099e-09,7.80149e-08
1.1e-09,3.25831e-11
1.101e-09,-3.21328e-10
1.102e-09,-1.16355e-10
1.103e-09,-1.09342e-07
1.104e-09,-1.8484e-11
1.105e-09,-1.89324e-08
1.106e-09,2.28083e-10
1.107e-09,1.87043e-08
1.108e-09,2.28083e-10
1.109e-09,-2.28083e-10
1.11e-09,-1.09346e-07
1.111e-09,0
1.112e-09,-1.89112e-08
1.113e-09,1.89112e-08
1.114e-09,-8.64603e-08
1.115e-09,1.8965e-08
1.116e-09,6.74953e-08
1.117e-09,3.25831e-11
1.118e-09,-2.28083e-10
1.119e-09,-1.22973e-07
1.12e-09,2.28083e-10
1.121e-09,-2.28083e-10
1.122e-09,1.955e-10
1.123e-09,3.25831e-11
1.124e-09,-3.25831e-11
1.125e-09,0
1.126e-09,0
1.127e-09,-1.33609e-07
1.128e-09,0
1.129e-09,0
1.13e-09,0
1.131e-09,0
1.132e-09,0
1.133e-09,2.28083e-10
1.134e-09,0
1.135e-09,-8.37928e-09
1.136e-09,-1.40632e-07
1.137e-09,0
1.138e-09,-5.20578e-10
1.139e-09,2.28083e-10
1.14e-09,0
1.141e-09,0
1.142e-09,-7.7926e-08
1.143e-09,0
1.144e-09,-1.68816e-07
1.145e-09,0
1.146e-09,0
1.147e-09,3.27805e-09
1.148e-09,-3.27749e-09
1.149e-09,0
1.15e-09,3.27749e-09
1.151e-09,-3.169e-10
1.152e-09,-1.93511e-12
1.153e-09,-1.93694e-07
1.154e-09,2.30019e-10
1.155e-09,-2.28083e-10
1.156e-09,2.28083e-10
1.157e-09,-2.28083e-10
1.158e-09,0
1.159e-09,0
1.16e-09,0
1.161e-09,0
1.162e-09,0
1.163e-09,-1.98749e-07
1.164e-09,0
1.165e-09,0
1.166e-09,0
1.167e-09,0
1.168e-09,0
1.169e-09,0
1.17e-09,0
1.171e-09,-2.26912e-07
1.172e-09,0
1.173e-09,0
1.174e-09,0
1.175e-09,0
1.176e-09,0
1.177e-09,0
1.178e-09,1.40992e-11
1.179e-09,-1.40992e-11
1.18e-09,-3.18923e-07
1.181e-09,0
1.182e-09,0
1.183e-09,0
1.184e-09,0
1.185e-09,0
1.186e-09,0
1.187e-09,0
1.188e-09,-3.31415e-07
1.189e-09,0
1.19e-09,0
1.191e-09,-2.34335e-07
1.192e-09,-1.40992e-11
1.193e-09,0
1.194e-09,0
1.195e-09,-2.28083e-10
1.196e-09,-4.91402e-07
1.197e-09,0
1.198e-09,0
1.199e-09,0
1.2e-09,0
1.201e-09,-3.17069e-07
1.202e-09,-2.28083e-10
1.203e-09,2.28083e-10
1.204e-09,-2.28083e-10
1.205e-09,-8.04195e-07
1.206e-09,0
1.207e-09,2.28083e-10
1.208e-09,0
1.209e-09,0
1.21e-09,0
1.211e-09,-2.13984e-10
1.212e-09,0
1.213e-09,-3.28849e-07
1.214e-09,1.40992e-11
1.215e-09,0
1.216e-09,-1.03974e-07
1.217e-09,-5.80885e-08
1.218e-09,-1.19843e-10
1.219e-09,0
1.22e-09,-2.11487e-11
1.221e-09,7.04958e-12
1.222e-09,0
1.223e-09,0
1.224e-09,-6.43664e-09
1.225e-09,-7.04958e-12
1.226e-09,1.11856e-10
1.227e-09,-1.40992e-11
1.228e-09,2.35133e-10
1.229e-09,-1.19843e-10
1.23e-09,6.32478e-09
1.231e-09,-2.21034e-10
1.232e-09,0
1.233e-09,0
1.234e-09,0
1.235e-09,0
1.236e-09,0
1.237e-09,-6.33888e-09
1.238e-09,0
1.239e-09,0
1.24e-09,-7.04958e-12
1.241e-09,6.38118e-09
1.242e-09,-7.04958e-12
1.243e-09,-1.90339e-10
1.244e-09,1.90339e-10
1.245e-09,-1.90339e-10
1.246e-09,1.90339e-10
1.247e-09,0
1.248e-09,-3.52479e-11
1.249e-09,0
1.25e-09,-6.33888e-09
1.251e-09,6.33888e-09
1.252e-09,0
1.253e-09,0
1.254e-09,3.52479e-11
1.255e-09,-6.33888e-09
1.256e-09,-3.52479e-11
1.257e-09,3.52479e-11
1.258e-09,0
1.259e-09,6.30363e-09
1.26e-09,0
1.261e-09,0
1.262e-09,3.52479e-11
1.263e-09,0
1.264e-09,0
1.265e-09,0
1.266e-09,5.1617e-12
1.267e-09,1.90339e-10
1.268e-09,-1.955e-10
1.269e-09,0
1.27e-09,0
1.271e-09,-1.90339e-10
1.272e-09,1.90339e-10
1.273e-09,0
1.274e-09,0
1.275e-09,-1.19843e-10
1.276e-09,0
1.277e-09,0
1.278e-09,0
1.279e-09,-4.9347e-11
1.28e-09,-7.04958e-12
1.281e-09,-1.88451e-10
1.282e-09,1.955e-10
1.283e-09,0
1.284e-09,0
1.285e-09,-1.40992e-11
1.286e-09,-7.04958e-12
1.287e-09,-1.88451e-10
1.288e-09,-2.11487e-11
1.289e-09,2.11487e-11
1.29e-09,1.40992e-11
1.291e-09,-1.40992e-11
1.292e-09,0
1.293e-09,6.34462e-11
1.294e-09,0
1.295e-09,-7.04958e-11
1.296e-09,0
1.297e-09,7.04958e-11
1.298e-09,0
1.299e-09,0
1.3e-09,0
1.301e-09,0
1.302e-09,-7.04958e-12
1.303e-09,-7.04958e-11
1.304e-09,7.04958e-11
1.305e-09,-7.04958e-11
1.306e-09,0
1.307e-09,0
1.308e-09,7.04958e-11
1.309e-09,-7.04958e-11
1.31e-09,0
1.311e-09,0
1.312e-09,7.75453e-11
1.313e-09,0
1.314e-09,2.28083e-10
1.315e-09,0
1.316e-09,0
1.317e-09,-7.04958e-12
1.318e-09,7.04958e-12
1.319e-09,-7.04958e-11
1.32e-09,0
1.321e-09,7.04958e-11
1.322e-09,3.15343e-10
1.323e-09,-1.90339e-10
1.324e-09,0
1.325e-09,0
1.326e-09,-1.955e-10
1.327e-09,0
1.328e-09,0
1.329e-09,0
1.33e-09,1.955e-10
1.331e-09,-1.955e-10
1.332e-09,0
1.333e-09,-2.28083e-10
1.334e-09,0
1.335e-09,-2.88035e-08
1.336e-09,1.88451e-10
1.337e-09,-1.88451e-10
1.338e-09,-7.04958e-12
1.339e-09,0
1.34e-09,0
1.341e-09,0
1.342e-09,1.40992e-11
1.343e-09,1.81401e-10
1.344e-09,-1.955e-10
1.345e-09,-2.60285e-08
1.346e-09,-1.955e-10
1.347e-09,0
1.348e-09,4.23584e-10
1.349e-09,-4.23584e-10
1.35e-09,0
1.351e-09,0
1.352e-09,0
1.353e-09,0
1.354e-09,0
1.355e-09,0
1.356e-09,0
1.357e-09,2.0255e-10
1.358e-09,0
1.359e-09,-2.43477e-08
1.36e-09,0
1.361e-09,-7.04958e-12
1.362e-09,0
1.363e-09,7.04958e-12
1.364e-09,-7.04958e-12
1.365e-09,7.04958e-12
1.366e-09,2.28083e-10
1.367e-09,-2.28083e-10
1.368e-09,1.83289e-10
1.369e-09,0
1.37e-09,-3.85839e-10
1.371e-09,1.90339e-10
1.372e-09,4.47944e-11
1.373e-09,-3.11598e-08
1.374e-09,0
1.375e-09,-2.28083e-10
1.376e-09,0
1.377e-09,1.40992e-11
1.378e-09,0
1.379e-09,-1.40992e-11
1.38e-09,0
1.381e-09,-2.64472e-08
1.382e-09,-8.45949e-10
1.383e-09,0
1.384e-09,8.45949e-10
1.385e-09,0
1.386e-09,0
1.387e-09,-1.80681e-09
1.388e-09,1.80681e-09
1.389e-09,-1.80681e-09
1.39e-09,0
1.391e-09,-2.62646e-08
1.392e-09,0
1.393e-09,3.00805e-09
1.394e-09,-3.00805e-09
1.395e-09,-7.04958e-12
1.396e-09,3.84061e-09
1.397e-09,0
1.398e-09,0
1.399e-09,-2.71966e-08
1.4e-09,0
1.401e-09,0
1.402e-09,0
1.403e-09,0
1.404e-09,7.04958e-12
1.405e-09,0
1.406e-09,-1.40992e-11
1.407e-09,0
1.408e-09,7.04958e-12
1.409e-09,-1.40992e-11
1.41e-09,1.40992e-11
1.411e-09,0
1.412e-09,0
1.413e-09,-2.67877e-08
1.414e-09,0
1.415e-09,2.28083e-10
1.416e-09,-2.28083e-10
1.417e-09,2.28083e-10
1.418e-09,-2.42183e-10
1.419e-09,2.28083e-10
1.42e-09,0
1.421e-09,-2.52706e-08
1.422e-09,-2.28083e-10
1.423e-09,-7.04958e-12
1.424e-09,0
1.425e-09,0
1.426e-09,2.28083e-10
1.427e-09,-2.28083e-10
1.428e-09,1.50438e-09
1.429e-09,0
1.43e-09,-1.2763e-09
1.431e-09,-2.88102e-08
1.432e-09,0
1.433e-09,0
1.434e-09,0
1.435e-09,0
1.436e-09,0
1.437e-09,0
1.438e-09,0
1.439e-09,0
1.44e-09,0
1.441e-09,0
1.442e-09,0
1.443e-09,-2.70915e-08
1.444e-09,0
1.445e-09,0
1.446e-09,0
1.447e-09,0
1.448e-09,7.04958e-12
1.449e-09,0
1.45e-09,0
1.451e-09,-7.04958e-12
1.452e-09,-2.7609e-08
1.453e-09,0
1.454e-09,0
1.455e-09,0
1.456e-09,0
1.457e-09,0
1.458e-09,0
1.459e-09,0
1.46e-09,1.88451e-10
1.461e-09,-1.88451e-10
1.462e-09,-2.70246e-08
1.463e-09,0
1.464e-09,0
1.465e-09,0
1.466e-09,0
1.467e-09,1.955e-10
1.468e-09,-2.28083e-10
1.469e-09,0
1.47e-09,2.28083e-10
1.471e-09,-2.52273e-08
1.472e-09,1.955e-10
1.473e-09,0
1.474e-09,0
1.475e-09,3.25831e-11
1.476e-09,-2.28083e-10
1.477e-09,2.28083e-10
1.478e-09,0
1.479e-09,-2.7358e-08
1.48e-09,0
1.481e-09,0
1.482e-09,0
1.483e-09,0
1.484e-09,0
1.485e-09,0
1.486e-09,0
1.487e-09,0
1.488e-09,-2.9603e-08
1.489e-09,4.51173e-09
1.49e-09,0
1.491e-09,-4.70723e-09
1.492e-09,0
1.493e-09,1.955e-10
1.494e-09,0
1.495e-09,0
1.496e-09,-1.955e-10
1.497e-09,0
1.498e-09,0
1.499e-09,-2.64606e-08
1.5e-09,0
1.501e-09,0
1.502e-09,0
1.503e-09,0
1.504e-09,0
1.505e-09,0
1.506e-09,0
1.507e-09,0
1.508e-09,-2.67459e-08
1.509e-09,-1.955e-10
1.51e-09,0
1.511e-09,0
1.512e-09,0
1.513e-09,0
1.514e-09,2.28083e-10
1.515e-09,0
1.516e-09,-2.28083e-10
1.517e-09,-3.04944e-08
1.518e-09,0
1.519e-09,2.28083e-10
1.52e-09,-3.25831e-11
1.521e-09,0
1.522e-09,6.01611e-09
1.523e-09,0
1.524e-09,0
1.525e-09,0
1.526e-09,-1.955e-10
1.527e-09,-2.82369e-08
1.528e-09,2.28083e-10
1.529e-09,-2.28083e-10
1.53e-09,-6.0154e-09
1.531e-09,-1.955e-10
1.532e-09,0
1.533e-09,0
1.534e-09,0
1.535e-09,0
1.536e-09,-2.73065e-08
1.537e-09,-1.50438e-09
1.538e-09,1.83571e-09
1.539e-09,-1.30888e-09
1.54e-09,1.50438e-09
1.541e-09,0
1.542e-09,0
1.543e-09,0
1.544e-09,0
1.545e-09,-1.50438e-09
1.546e-09,-2.70246e-08
1.547e-09,6.01611e-09
1.548e-09,-6.01611e-09
1.549e-09,6.01611e-09
1.55e-09,-6.05841e-09
1.551e-09,4.22975e-11
1.552e-09,-1.955e-10
1.553e-09,0
1.554e-09,-3.14418e-08
1.555e-09,0
1.556e-09,0
1.557e-09,0
1.558e-09,0
1.559e-09,0
1.56e-09,8.81197e-10
1.561e-09,-4.64285e-09
1.562e-09,0
1.563e-09,0
1.564e-09,-3.26885e-08
1.565e-09,-2.74934e-10
1.566e-09,0
1.567e-09,-2.28083e-10
1.568e-09,1.78566e-09
1.569e-09,-1.55757e-09
1.57e-09,0
1.571e-09,8.18244e-09
1.572e-09,-7.51978e-09
1.573e-09,0
1.574e-09,-2.70246e-08
1.575e-09,0
1.576e-09,7.75312e-09
1.577e-09,-2.28083e-10
1.578e-09,-7.75312e-09
1.579e-09,7.75312e-09
1.58e-09,-7.75312e-09
1.581e-09,7.75312e-09
1.582e-09,2.28083e-10
1.583e-09,-2.99297e-08
1.584e-09,0
1.585e-09,1.26892e-10
1.586e-09,0
1.587e-09,-3.84907e-09
1.588e-09,1.26892e-10
1.589e-09,-2.28083e-10
1.59e-09,0
1.591e-09,0
1.592e-09,0
1.593e-09,6.73235e-09
1.594e-09,-3.83286e-08
1.595e-09,1.15261e-08
1.596e-09,0
1.597e-09,-1.15261e-08
1.598e-09,2.28083e-10
1.599e-09,0
1.6e-09,0
1.601e-09,1.15261e-08
1.602e-09,-1.15261e-08
1.603e-09,1.15261e-08
1.604e-09,0
1.605e-09,-3.1923e-08
1.606e-09,0
1.607e-09,0
1.608e-09,0
1.609e-09,2.28083e-10
1.61e-09,0
1.611e-09,0
1.612e-09,0
1.613e-09,0
1.614e-09,0
1.615e-09,-3.33304e-08
1.616e-09,0
1.617e-09,0
1.618e-09,1.955e-10
1.619e-09,-1.955e-10
1.62e-09,0
1.621e-09,0
1.622e-09,0
1.623e-09,-3.05176e-08
1.624e-09,0
1.625e-09,0
1.626e-09,0
1.627e-09,1.955e-10
1.628e-09,-1.955e-10
1.629e-09,0
1.63e-09,1.955e-10
1.631e-09,0
1.632e-09,-3.20121e-08
1.633e-09,0
1.634e-09,0
1.635e-09,-1.50156e-09
1.636e-09,1.30606e-09
1.637e-09,-1.50156e-09
1.638e-09,1.50156e-09
1.639e-09,0
1.64e-09,-1.50156e-09
1.641e-09,-3.18288e-08
1.642e-09,-1.23086e-08
1.643e-09,-1.50861e-09
1.644e-09,1.28053e-09
1.645e-09,0
1.646e-09,2.28083e-10
1.647e-09,-1.50861e-09
1.648e-09,0
1.649e-09,1.50861e-09
1.65e-09,-3.38405e-08
1.651e-09,0
1.652e-09,0
1.653e-09,0
1.654e-09,0
1.655e-09,0
1.656e-09,0
1.657e-09,0
1.658e-09,-3.04189e-08
1.659e-09,0
1.66e-09,0
1.661e-09,-1.50156e-09
1.662e-09,0
1.663e-09,0
1.664e-09,2.28083e-10
1.665e-09,1.50156e-09
1.666e-09,-1.72964e-09
1.667e-09,2.28083e-10
1.668e-09,-3.0647e-08
1.669e-09,0
1.67e-09,1.72964e-09
1.671e-09,-1.50156e-09
1.672e-09,0
1.673e-09,1.50156e-09
1.674e-09,0
1.675e-09,-1.50156e-09
1.676e-09,1.50156e-09
1.677e-09,-3.06939e-08
1.678e-09,0
1.679e-09,-1.65454e-08
1.68e-09,0
1.681e-09,0
1.682e-09,-3.01017e-09
1.683e-09,1.83289e-08
1.684e-09,0
1.685e-09,-3.68552e-08
1.686e-09,0
1.687e-09,0
1.688e-09,-2.28083e-10
1.689e-09,0
1.69e-09,2.28083e-10
1.691e-09,0
1.692e-09,0
1.693e-09,-3.34291e-08
1.694e-09,-2.28083e-10
1.695e-09,-1.65454e-08
1.696e-09,1.80469e-08
1.697e-09,-1.80469e-08
1.698e-09,1.65454e-08
1.699e-09,0
1.7e-09,0
1.701e-09,2.28083e-10
1.702e-09,-2.28083e-10
1.703e-09,-3.17981e-08
1.704e-09,0
1.705e-09,-2.28083e-10
1.706e-09,0
1.707e-09,0
1.708e-09,1.50861e-09
1.709e-09,0
1.71e-09,0
1.711e-09,2.28083e-10
1.712e-09,0
1.713e-09,0
1.714e-09,0
1.715e-09,-3.73557e-08
1.716e-09,-2.28083e-10
1.717e-09,0
1.718e-09,0
1.719e-09,0
1.72e-09,0
1.721e-09,1.955e-10
1.722e-09,-3.33797e-08
1.723e-09,0
1.724e-09,-1.95978e-09
1.725e-09,0
1.726e-09,0
1.727e-09,0
1.728e-09,0
1.729e-09,0
1.73e-09,0
1.731e-09,-1.20195e-08
1.732e-09,0
1.733e-09,0
1.734e-09,-1.955e-10
1.735e-09,0
1.736e-09,0
1.737e-09,0
1.738e-09,0
1.739e-09,1.955e-10
1.74e-09,-1.955e-10
1.741e-09,-3.00453e-08
1.742e-09,1.955e-10
1.743e-09,0
1.744e-09,0
1.745e-09,0
1.746e-09,0
1.747e-09,0
1.748e-09,0
1.749e-09,-3.35278e-08
1.75e-09,0
1.751e-09,-1.955e-10
1.752e-09,0
1.753e-09,0
1.754e-09,0
1.755e-09,0
1.756e-09,0
1.757e-09,0
1.758e-09,-3.3267e-08
1.759e-09,0
1.76e-09,0
1.761e-09,0
1.762e-09,0
1.763e-09,1.95978e-09
1.764e-09,-1.95978e-09
1.765e-09,0
1.766e-09,1.95978e-09
1.767e-09,0
1.768e-09,-2.73806e-08
1.769e-09,0
1.77e-09,0
1.771e-09,0
1.772e-09,2.97774e-08
1.773e-09,-2.97774e-08
1.774e-09,2.97774e-08
1.775e-09,-2.97774e-08
1.776e-09,0
1.777e-09,-3.13495e-08
1.778e-09,0
1.779e-09,3.29356e-08
1.78e-09,0
1.781e-09,0
1.782e-09,0
1.783e-09,0
1.784e-09,0
1.785e-09,0
1.786e-09,0
1.787e-09,-2.65205e-08
1.788e-09,0
1.789e-09,0
1.79e-09,0
1.791e-09,0
1.792e-09,0
1.793e-09,0
1.794e-09,0
1.795e-09,0
1.796e-09,0
1.797e-09,-2.28759e-08
1.798e-09,0
1.799e-09,0
1.8e-09,0
1.801e-09,0
1.802e-09,0
1.803e-09,0
1.804e-09,-2.34892e-08
1.805e-09,1.955e-10
1.806e-09,0
1.807e-09,0
1.808e-09,0
1.809e-09,0
1.81e-09,0
1.811e-09,0
1.812e-09,0
1.813e-09,0
1.814e-09,-1.93722e-08
1.815e-09,0
1.816e-09,0
1.817e-09,0
1.818e-09,0
1.819e-09,0
1.82e-09,0
1.821e-09,0
1.822e-09,2.28083e-10
1.823e-09,-6.98158e-09
1.824e-09,0
1.825e-09,-6.46446e-09
1.826e-09,0
1.827e-09,-1.955e-10
1.828e-09,0
1.829e-09,0
1.83e-09,0
1.831e-09,0
1.832e-09,-1.27174e-08
1.833e-09,0
1.834e-09,2.28083e-10
1.835e-09,-2.28083e-10
1.836e-09,0
1.837e-09,0
1.838e-09,0
1.839e-09,0
1.84e-09,-6.26707e-09
1.841e-09,0
1.842e-09,0
1.843e-09,0
1.844e-09,0
1.845e-09,0
1.846e-09,0
1.847e-09,0
1.848e-09,0
1.849e-09,5.02635e-09
1.85e-09,0
1.851e-09,-6.28738e-09
1.852e-09,1.29704e-08
1.853e-09,-6.683e-09
1.854e-09,6.683e-09
1.855e-09,0
1.856e-09,-6.25128e-09
1.857e-09,8.25505e-09
1.858e-09,0
1.859e-09,-6.59925e-09
1.86e-09,0
1.861e-09,0
1.862e-09,0
1.863e-09,0
1.864e-09,0
1.865e-09,2.21216e-08
1.866e-09,6.28738e-09
1.867e-09,0
1.868e-09,6.46799e-08
1.869e-09,0
1.87e-09,-6.46799e-08
1.871e-09,0
1.872e-09,0
1.873e-09,3.185e-08
1.874e-09,0
1.875e-09,0
1.876e-09,0
1.877e-09,0
1.878e-09,0
1.879e-09,0
1.88e-09,0
1.881e-09,5.22797e-08
1.882e-09,0
1.883e-09,0
1.884e-09,0
1.885e-09,0
1.886e-09,0
1.887e-09,7.09046e-08
1.888e-09,0
1.889e-09,0
1.89e-09,0
1.891e-09,0
1.892e-09,0
1.893e-09,0
1.894e-09,0
1.895e-09,0
1.896e-09,0
1.897e-09,9.96176e-08
1.898e-09,0
1.899e-09,0
1.9e-09,0
1.901e-09,0
1.902e-09,0
1.903e-09,0
1.904e-09,0
1.905e-09,1.36022e-07
1.906e-09,0
1.907e-09,0
1.908e-09,2.28083e-10
1.909e-09,-2.28083e-10
1.91e-09,0
1.911e-09,2.28083e-10
1.912e-09,-2.28083e-10
1.913e-09,0
1.914e-09,0
1.915e-09,2.4665e-07
1.916e-09,6.43664e-09
1.917e-09,0
1.918e-09,0
1.919e-09,0
1.92e-09,0
1.921e-09,2.20478e-07
1.922e-09,0
1.923e-09,0
1.924e-09,0
1.925e-09,0
1.926e-09,0
1.927e-09,0
1.928e-09,2.64005e-07
1.929e-09,-6.43664e-09
1.93e-09,0
1.931e-09,6.43664e-09
1.932e-09,2.28083e-10
1.933e-09,3.23428e-08
1.934e-09,-3.25708e-08
1.935e-09,2.28083e-10
1.936e-09,0
1.937e-09,2.84473e-07
1.938e-09,-2.84473e-07
1.939e-09,2.91006e-07
1.94e-09,-9.62972e-11
1.941e-09,9.62972e-11
1.942e-09,5.63966e-13
1.943e-09,0
1.944e-09,0
1.945e-09,0
1.946e-09,0
1.947e-09,0
1.948e-09,-2.28083e-10
1.949e-09,1.22097e-08
1.95e-09,-1.22097e-08
1.951e-09,0
1.952e-09,1.22097e-08
1.953e-09,0
1.954e-09,0
1.955e-09,0
1.956e-09,0
1.957e-09,6.63347e-09
1.958e-09,-1.955e-10
1.959e-09,0
1.96e-09,0
1.961e-09,0
1.962e-09,2.28083e-10
1.963e-09,-1.88432e-08
1.964e-09,1.88432e-08
1.965e-09,0
1.966e-09,0
1.967e-09,0
1.968e-09,-2.90925e-08
1.969e-09,0
1.97e-09,0
1.971e-09,-2.28083e-10
1.972e-09,0
1.973e-09,-1.50389e-09
1.974e-09,1.50389e-09
1.975e-09,-2.03471e-08
1.976e-09,0
1.977e-09,2.28083e-10
1.978e-09,1.86151e-08
1.979e-09,2.28083e-10
1.98e-09,-1.88758e-08
1.981e-09,1.88432e-08
1.982e-09,-1.88106e-08
1.983e-09,0
1.984e-09,0
1.985e-09,-2.28083e-10
1.986e-09,-9.62972e-11
1.987e-09,1.50389e-09
1.988e-09,0
1.989e-09,1.89395e-08
1.99e-09,0
1.991e-09,0
1.992e-09,0
1.993e-09,-5.02408e-08
1.994e-09,0
1.995e-09,1.955e-10
1.996e-09,1.86482e-08
1.997e-09,1.955e-10
1.998e-09,0
1.999e-09,8.64828e-11
2e-09,0
2.001e-09,-2.81983e-10
2.1e-09,0
