0,0
1e-12,-1.17872e-06
2e-12,-4.63906e-07
3e-12,-1.97097e-06
4e-12,-1.15772e-07
5e-12,-9.09244e-07
6e-12,-2.72844e-07
7e-12,-1.80023e-06
8e-12,-7.00359e-07
9e-12,-1.83051e-07
1e-11,-1.79982e-06
1.1e-11,-2.95154e-07
1.2e-11,-1.70992e-06
1.3e-11,9.47322e-08
1.4e-11,-5.30795e-07
1.5e-11,-1.03874e-06
1.6e-11,-1.18196e-06
1.7e-11,-9.44858e-07
1.8e-11,5.50867e-07
1.9e-11,-1.30128e-07
2e-11,-3.45773e-06
2.1e-11,-4.7021e-07
2.2e-11,-3.34822e-07
2.3e-11,-1.28234e-06
2.4e-11,-1.70766e-07
2.5e-11,-3.2222e-07
2.6e-11,-1.14546e-06
2.7e-11,9.52154e-09
2.8e-11,-2.41622e-07
2.9e-11,-1.3691e-06
3e-11,-8.93343e-07
3.1e-11,-5.74962e-07
3.2e-11,-2.43458e-07
3.3e-11,-3.43096e-08
3.4e-11,-5.34717e-07
3.5e-11,-2.02501e-06
3.6e-11,-1.05717e-06
3.7e-11,4.9823e-08
3.8e-11,-8.28114e-08
3.9e-11,-1.51375e-06
4e-11,-6.1698e-07
4.1e-11,-2.16082e-07
4.2e-11,-1.43413e-06
4.3e-11,3.31778e-07
4.4e-11,-1.95476e-06
4.5e-11,6.55322e-08
4.6e-11,6.09057e-07
4.7e-11,1.27852e-07
4.8e-11,-2.30928e-06
4.9e-11,-2.03854e-06
5e-11,-5.57603e-07
5.1e-11,-4.82876e-07
5.2e-11,-1.5317e-06
5.3e-11,-1.30943e-06
5.4e-11,3.99836e-07
5.5e-11,-3.52545e-06
5.6e-11,-1.59372e-07
5.7e-11,-9.43338e-07
5.8e-11,-1.76365e-07
5.9e-11,-1.98522e-06
6e-11,-2.56982e-07
6.1e-11,-6.98468e-07
6.2e-11,-4.3102e-07
6.3e-11,-4.74753e-07
6.4e-11,-1.20225e-06
6.5e-11,-5.67857e-07
6.6e-11,-1.36828e-06
6.7e-11,-7.62075e-07
6.8e-11,-7.56869e-07
6.9e-11,-9.21887e-08
7e-11,-1.22581e-06
7.1e-11,-7.45479e-07
7.2e-11,-3.58886e-07
7.3e-11,-1.50448e-06
7.4e-11,-1.61801e-06
7.5e-11,-5.96492e-07
7.6e-11,-6.19462e-07
7.7e-11,-8.50011e-07
7.8e-11,-6.52054e-07
7.9e-11,-1.63942e-06
8e-11,-5.19898e-07
8.1e-11,-9.36045e-07
8.2e-11,-8.72506e-07
8.3e-11,-9.62292e-07
8.4e-11,-1.60347e-06
8.5e-11,-5.39229e-08
8.6e-11,-9.54969e-07
8.7e-11,1.87878e-07
8.8e-11,-4.48643e-07
8.9e-11,-2.40522e-06
9e-11,-5.28619e-07
9.1e-11,-7.71472e-07
9.2e-11,3.20549e-08
9.3e-11,-5.89254e-07
9.4e-11,-6.86177e-07
9.5e-11,1.66228e-07
9.6e-11,-1.54461e-06
9.7e-11,-6.44948e-07
9.8e-11,-3.5707e-07
9.9e-11,-5.93513e-07
1e-10,-5.76734e-07
1.01e-10,-3.35566e-07
1.02e-10,5.02887e-07
1.03e-10,2.09297e-07
1.04e-10,-1.74247e-06
1.05e-10,3.60798e-07
1.06e-10,-1.05865e-06
1.07e-10,1.7804e-07
1.08e-10,-7.6361e-07
1.09e-10,-3.54711e-07
1.1e-10,-8.97087e-07
1.11e-10,-1.15301e-06
1.12e-10,-6.74135e-07
1.13e-10,-8.61016e-07
1.14e-10,-2.33744e-07
1.15e-10,4.41726e-07
1.16e-10,-1.50307e-06
1.17e-10,-5.72675e-07
1.18e-10,-8.83603e-07
1.19e-10,-1.06016e-06
1.2e-10,-5.45078e-07
1.21e-10,-3.13149e-07
1.22e-10,-1.39151e-06
1.23e-10,-6.12998e-07
1.24e-10,-1.21218e-06
1.25e-10,-5.77158e-07
1.26e-10,-5.78545e-07
1.27e-10,-7.11046e-07
1.28e-10,7.18372e-07
1.29e-10,-1.02696e-06
1.3e-10,-8.1799e-07
1.31e-10,-1.70593e-07
1.32e-10,-1.44412e-06
1.33e-10,-2.07642e-06
1.34e-10,-5.22536e-07
1.35e-10,-1.51176e-07
1.36e-10,1.97426e-07
1.37e-10,5.18717e-07
1.38e-10,-5.54268e-07
1.39e-10,-6.62137e-07
1.4e-10,-1.19622e-06
1.41e-10,-5.94775e-07
1.42e-10,-5.13712e-07
1.43e-10,-1.13957e-06
1.44e-10,-9.0459e-07
1.45e-10,2.00532e-07
1.46e-10,-1.65057e-07
1.47e-10,-2.46376e-07
1.48e-10,-8.41298e-07
1.49e-10,-2.02631e-06
1.5e-10,-2.67947e-07
1.51e-10,-1.07381e-06
1.52e-10,-1.25974e-06
1.53e-10,-1.09507e-06
1.54e-10,-1.2627e-06
1.55e-10,-6.41518e-07
1.56e-10,-1.30078e-06
1.57e-10,-2.43375e-06
1.58e-10,-2.17917e-07
1.59e-10,-5.74566e-07
1.6e-10,-4.55171e-07
1.61e-10,-7.20535e-07
1.62e-10,-2.02203e-07
1.63e-10,-1.91758e-06
1.64e-10,-5.38873e-07
1.65e-10,-6.49927e-07
1.66e-10,6.86226e-07
1.67e-10,-2.47648e-06
1.68e-10,-6.43126e-07
1.69e-10,-1.83876e-06
1.7e-10,-3.83931e-07
1.71e-10,-2.93131e-07
1.72e-10,-1.06573e-06
1.73e-10,-1.31593e-06
1.74e-10,-8.31927e-07
1.75e-10,1.73879e-07
1.76e-10,-1.00515e-06
1.77e-10,-5.44687e-07
1.78e-10,3.79796e-08
1.79e-10,-2.32233e-06
1.8e-10,-1.12471e-06
1.81e-10,-5.30799e-07
1.82e-10,-3.8475e-07
1.83e-10,-1.40591e-06
1.84e-10,-1.13925e-07
1.85e-10,-6.44651e-07
1.86e-10,-9.79672e-07
1.87e-10,-2.41124e-06
1.88e-10,-7.99758e-07
1.89e-10,-3.48065e-07
1.9e-10,2.6407e-07
1.91e-10,-4.17865e-07
1.92e-10,-2.14598e-06
1.93e-10,-3.80446e-07
1.94e-10,-2.0347e-08
1.95e-10,-8.26362e-07
1.96e-10,3.61085e-07
1.97e-10,-4.19304e-07
1.98e-10,-1.59952e-06
1.99e-10,-6.67553e-08
2e-10,-4.92001e-07
2.01e-10,3.64191e-07
2.02e-10,-2.75367e-08
2.03e-10,-3.94564e-07
2.04e-10,3.84801e-07
2.05e-10,-5.73666e-07
2.06e-10,-3.71832e-07
2.07e-10,4.34723e-07
2.08e-10,2.66501e-07
2.09e-10,-9.2852e-07
2.1e-10,2.46416e-09
2.11e-10,-4.37437e-07
2.12e-10,3.98131e-07
2.13e-10,-9.00681e-07
2.14e-10,5.54764e-09
2.15e-10,-1.22881e-06
2.16e-10,-3.21021e-08
2.17e-10,7.27689e-07
2.18e-10,-5.87212e-07
2.19e-10,-4.40536e-07
2.2e-10,7.71222e-07
2.21e-10,-6.18615e-07
2.22e-10,-6.55423e-07
2.23e-10,1.45329e-07
2.24e-10,1.44773e-08
2.25e-10,1.12403e-07
2.26e-10,8.52213e-07
2.27e-10,-9.95748e-07
2.28e-10,-1.88372e-07
2.29e-10,-4.38795e-07
2.3e-10,-2.6798e-08
2.31e-10,-2.9762e-07
2.32e-10,-5.27016e-08
2.33e-10,3.80482e-07
2.34e-10,-9.00527e-07
2.35e-10,-2.71735e-07
2.36e-10,-4.89067e-07
2.37e-10,-6.50777e-07
2.38e-10,-6.20599e-07
2.39e-10,-9.5015e-07
2.4e-10,1.94758e-07
2.41e-10,-2.46836e-06
2.42e-10,-2.18568e-07
2.43e-10,8.83858e-08
2.44e-10,-9.98605e-07
2.45e-10,-5.15307e-07
2.46e-10,-7.24655e-08
2.47e-10,-1.33297e-06
2.48e-10,-6.84728e-07
2.49e-10,-8.3273e-07
2.5e-10,-9.1229e-07
2.51e-10,-6.42531e-07
2.52e-10,-6.40711e-07
2.53e-10,3.62868e-08
2.54e-10,-2.39109e-06
2.55e-10,-7.26975e-07
2.56e-10,-4.30238e-07
2.57e-10,2.87232e-07
2.58e-10,-1.46562e-06
2.59e-10,-1.19342e-06
2.6e-10,-5.68116e-08
2.61e-10,-3.26519e-07
2.62e-10,-4.26192e-07
2.63e-10,-9.62092e-07
2.64e-10,-3.61466e-07
2.65e-10,-4.62642e-07
2.66e-10,-6.65336e-07
2.67e-10,-3.75418e-07
2.68e-10,-1.94769e-07
2.69e-10,-1.23307e-07
2.7e-10,-5.11055e-07
2.71e-10,-6.65142e-07
2.72e-10,-1.40991e-07
2.73e-10,-6.6379e-08
2.74e-10,-6.52267e-07
2.75e-10,1.96382e-08
2.76e-10,-5.21571e-07
2.77e-10,-8.26389e-07
2.78e-10,-8.87944e-08
2.79e-10,-3.43593e-07
2.8e-10,-4.55053e-07
2.81e-10,-4.32316e-07
2.82e-10,2.03427e-07
2.83e-10,-1.61252e-07
2.84e-10,-4.90341e-07
2.85e-10,-5.3888e-07
2.86e-10,-1.36261e-06
2.87e-10,-1.2152e-07
2.88e-10,-8.77893e-07
2.89e-10,-1.47785e-06
2.9e-10,3.78477e-08
2.91e-10,-1.05035e-06
2.92e-10,-5.68505e-07
2.93e-10,2.60937e-07
2.94e-10,2.03274e-07
2.95e-10,-8.60975e-07
2.96e-10,-1.18768e-06
2.97e-10,-4.88912e-07
2.98e-10,2.45723e-07
2.99e-10,-1.1943e-07
3e-10,-9.25342e-07
3.01e-10,2.01528e-07
3.02e-10,4.07629e-07
3.03e-10,2.7515e-07
3.04e-10,-7.5834e-08
3.05e-10,-3.82882e-07
3.06e-10,-8.35711e-07
3.07e-10,-7.805e-07
3.08e-10,-7.38989e-07
3.09e-10,1.38298e-07
3.1e-10,-5.07319e-07
3.11e-10,2.78395e-07
3.12e-10,-8.91302e-07
3.13e-10,-4.66394e-07
3.14e-10,-9.28745e-07
3.15e-10,2.74242e-07
3.16e-10,-4.72209e-07
3.17e-10,-1.02965e-06
3.18e-10,-3.46209e-07
3.19e-10,-6.56334e-07
3.2e-10,-5.71627e-08
3.21e-10,-1.21272e-06
3.22e-10,-1.17077e-06
3.23e-10,2.81557e-07
3.24e-10,-2.20606e-08
3.25e-10,-1.64096e-06
3.26e-10,8.37471e-08
3.27e-10,1.66601e-07
3.28e-10,-6.40225e-07
3.29e-10,-5.37505e-07
3.3e-10,-5.06003e-07
3.31e-10,-1.3082e-06
3.32e-10,-2.7067e-07
3.33e-10,-3.90055e-07
3.34e-10,-9.61596e-07
3.35e-10,2.68668e-07
3.36e-10,-6.2394e-08
3.37e-10,-3.30125e-07
3.38e-10,-1.64317e-07
3.39e-10,-8.07903e-07
3.4e-10,-3.10088e-07
3.41e-10,-7.27044e-07
3.42e-10,-7.70007e-07
3.43e-10,-2.75198e-07
3.44e-10,-6.34142e-07
3.45e-10,-1.13872e-07
3.46e-10,-9.06837e-07
3.47e-10,-8.12221e-07
3.48e-10,-6.66866e-07
3.49e-10,1.05417e-07
3.5e-10,-3.68947e-07
3.51e-10,-1.09803e-06
3.52e-10,-4.41084e-07
3.53e-10,-7.97849e-07
3.54e-10,9.18947e-08
3.55e-10,-3.72359e-07
3.56e-10,-1.82836e-07
3.57e-10,-3.29569e-08
3.58e-10,-1.68146e-07
3.59e-10,-1.11898e-06
3.6e-10,-5.56682e-07
3.61e-10,-1.11471e-06
3.62e-10,-6.65501e-07
3.63e-10,-3.725e-07
3.64e-10,-3.63145e-07
3.65e-10,-7.16473e-07
3.66e-10,-4.82858e-08
3.67e-10,-6.25776e-07
3.68e-10,-1.32048e-06
3.69e-10,-1.26175e-06
3.7e-10,-3.09085e-07
3.71e-10,-1.11606e-06
3.72e-10,-1.08166e-06
3.73e-10,-1.14581e-06
3.74e-10,-8.97724e-07
3.75e-10,-4.67751e-07
3.76e-10,-1.84224e-07
3.77e-10,-1.53157e-06
3.78e-10,-8.80014e-07
3.79e-10,-1.45221e-06
3.8e-10,-5.72891e-08
3.81e-10,-8.39237e-07
3.82e-10,-7.03576e-07
3.83e-10,-8.11912e-08
3.84e-10,-1.52727e-06
3.85e-10,-1.34979e-06
3.86e-10,1.89256e-06
3.87e-10,-1.04254e-06
3.88e-10,-7.21235e-07
3.89e-10,-1.42295e-06
3.9e-10,-1.35636e-07
3.91e-10,-2.04228e-07
3.92e-10,-8.38669e-07
3.93e-10,-8.67778e-07
3.94e-10,-6.20439e-07
3.95e-10,-1.07171e-06
3.96e-10,-6.00234e-07
3.97e-10,-1.49349e-07
3.98e-10,-2.10801e-07
3.99e-10,-1.94115e-07
4e-10,-1.08606e-06
4.01e-10,-3.82021e-07
4.02e-10,-9.92196e-07
4.03e-10,-7.72602e-07
4.04e-10,-1.06227e-06
4.05e-10,-2.61794e-07
4.06e-10,-3.23519e-07
4.07e-10,-3.56315e-07
4.08e-10,-9.879e-07
4.09e-10,-3.41571e-07
4.1e-10,-1.93342e-07
4.11e-10,4.01245e-08
4.12e-10,-3.24025e-07
4.13e-10,-1.56164e-06
4.14e-10,-4.14333e-07
4.15e-10,-3.6262e-07
4.16e-10,-3.12261e-07
4.17e-10,-1.00419e-06
4.18e-10,9.59634e-08
4.19e-10,-1.44092e-06
4.2e-10,-6.37393e-07
4.21e-10,-5.15993e-07
4.22e-10,-4.2212e-07
4.23e-10,-5.30581e-07
4.24e-10,-1.28953e-06
4.25e-10,5.55137e-08
4.26e-10,-8.72675e-07
4.27e-10,-3.46264e-07
4.28e-10,-6.27029e-07
4.29e-10,-7.44988e-07
4.3e-10,9.71532e-07
4.31e-10,-7.00745e-07
4.32e-10,4.95686e-07
4.33e-10,-1.63614e-06
4.34e-10,-4.07314e-07
4.35e-10,-8.00619e-07
4.36e-10,-2.81807e-07
4.37e-10,5.94952e-07
4.38e-10,-1.049e-06
4.39e-10,-6.13283e-07
4.4e-10,-7.45586e-08
4.41e-10,2.04498e-07
4.42e-10,-5.32234e-07
4.43e-10,-5.21693e-07
4.44e-10,-1.30035e-06
4.45e-10,3.23061e-07
4.46e-10,-8.9025e-07
4.47e-10,-1.12741e-07
4.48e-10,-3.10948e-07
4.49e-10,-2.37011e-07
4.5e-10,-1.17186e-06
4.51e-10,-4.7293e-07
4.52e-10,3.35255e-07
4.53e-10,-2.88149e-07
4.54e-10,-7.71726e-07
4.55e-10,3.00334e-07
4.56e-10,-3.36503e-07
4.57e-10,-8.06641e-08
4.58e-10,-8.92894e-07
4.59e-10,-9.63986e-07
4.6e-10,5.15603e-07
4.61e-10,-3.21674e-07
4.62e-10,-2.89724e-07
4.63e-10,-5.45412e-07
4.64e-10,1.97145e-07
4.65e-10,-3.93768e-07
4.66e-10,-6.70968e-07
4.67e-10,-1.78184e-08
4.68e-10,-5.48878e-08
4.69e-10,-2.25174e-07
4.7e-10,-2.9866e-08
4.71e-10,-3.81068e-08
4.72e-10,-2.60813e-08
4.73e-10,-1.63287e-07
4.74e-10,-3.17729e-07
4.75e-10,-1.91591e-07
4.76e-10,-3.46955e-07
4.77e-10,2.78951e-08
4.78e-10,1.76771e-09
4.79e-10,-3.04345e-07
4.8e-10,-1.64521e-08
4.81e-10,3.39944e-07
4.82e-10,-1.16046e-06
4.83e-10,4.83974e-07
4.84e-10,-3.33828e-08
4.85e-10,-5.44674e-07
4.86e-10,-4.01024e-07
4.87e-10,-5.66506e-07
4.88e-10,-6.89669e-07
4.89e-10,-2.56132e-08
4.9e-10,5.61691e-07
4.91e-10,-1.41343e-06
4.92e-10,-2.00285e-07
4.93e-10,-1.20523e-06
4.94e-10,2.67007e-07
4.95e-10,-1.32351e-06
4.96e-10,-2.82261e-07
4.97e-10,-1.33802e-06
4.98e-10,-1.13182e-06
4.99e-10,4.192e-07
5e-10,-6.54547e-07
5.01e-10,-5.65818e-07
5.02e-10,-7.26536e-07
5.03e-10,-1.66478e-06
5.04e-10,-3.67342e-07
5.05e-10,-4.07215e-07
5.06e-10,-3.17362e-07
5.07e-10,-1.03088e-06
5.08e-10,-7.79591e-07
5.09e-10,-2.7362e-07
5.1e-10,1.31649e-07
5.11e-10,-2.65775e-08
5.12e-10,-8.99875e-07
5.13e-10,-8.84374e-08
5.14e-10,-8.93064e-08
5.15e-10,-2.0783e-07
5.16e-10,-2.61975e-08
5.17e-10,-5.37628e-07
5.18e-10,9.07772e-08
5.19e-10,2.38004e-07
5.2e-10,-2.70038e-07
5.21e-10,-4.08921e-07
5.22e-10,-2.45152e-07
5.23e-10,3.69151e-07
5.24e-10,-8.67159e-07
5.25e-10,-4.17777e-07
5.26e-10,1.01839e-07
5.27e-10,-9.69648e-08
5.28e-10,-3.35055e-07
5.29e-10,1.46221e-07
5.3e-10,-1.47977e-07
5.31e-10,-1.0777e-07
5.32e-10,-2.50187e-07
5.33e-10,-4.46696e-08
5.34e-10,5.28103e-07
5.35e-10,-3.87084e-07
5.36e-10,-1.23922e-07
5.37e-10,-2.05746e-07
5.38e-10,-3.18537e-07
5.39e-10,2.57662e-07
5.4e-10,-1.07529e-06
5.41e-10,-2.79724e-08
5.42e-10,-3.24323e-08
5.43e-10,2.5114e-08
5.44e-10,-7.69357e-08
5.45e-10,5.4974e-07
5.46e-10,-6.12633e-07
5.47e-10,-5.90434e-07
5.48e-10,1.32499e-07
5.49e-10,-1.37292e-07
5.5e-10,-7.59287e-07
5.51e-10,9.10993e-08
5.52e-10,-3.81238e-08
5.53e-10,-1.46247e-08
5.54e-10,2.71146e-07
5.55e-10,-1.933e-06
5.56e-10,-9.90802e-07
5.57e-10,-1.02745e-06
5.58e-10,-7.30097e-08
5.59e-10,-9.02942e-07
5.6e-10,1.90085e-09
5.61e-10,-1.27757e-06
5.62e-10,-7.98875e-07
5.63e-10,-1.02942e-07
5.64e-10,-7.93154e-07
5.65e-10,-1.64217e-06
5.66e-10,6.2609e-07
5.67e-10,-3.83145e-07
5.68e-10,-1.17632e-06
5.69e-10,1.50407e-07
5.7e-10,-4.9094e-07
5.71e-10,-1.27077e-07
5.72e-10,-9.12832e-08
5.73e-10,-7.31833e-07
5.74e-10,1.4356e-08
5.75e-10,-7.14788e-07
5.76e-10,-1.46232e-08
5.77e-10,-9.51904e-09
5.78e-10,6.08543e-08
5.79e-10,-4.38449e-07
5.8e-10,2.00625e-07
5.81e-10,-7.61743e-07
5.82e-10,-5.31937e-08
5.83e-10,-4.05549e-07
5.84e-10,1.30359e-07
5.85e-10,-2.15782e-07
5.86e-10,7.57171e-08
5.87e-10,-1.25182e-07
5.88e-10,-2.99476e-07
5.89e-10,2.17476e-07
5.9e-10,-6.19861e-07
5.91e-10,-4.47211e-07
5.92e-10,-2.75383e-07
5.93e-10,-7.32294e-07
5.94e-10,4.57175e-07
5.95e-10,-3.90949e-08
5.96e-10,-1.32666e-07
5.97e-10,1.32363e-09
5.98e-10,-5.75923e-07
5.99e-10,1.42282e-07
6e-10,-6.94342e-07
6.01e-10,-4.67861e-07
6.02e-10,-3.3264e-07
6.03e-10,-8.57449e-08
6.04e-10,-8.36016e-07
6.05e-10,-1.80569e-07
6.06e-10,-2.25064e-07
6.07e-10,-1.8018e-07
6.08e-10,-7.98348e-07
6.09e-10,1.03669e-07
6.1e-10,-3.70641e-07
6.11e-10,1.74642e-10
6.12e-10,-4.32e-07
6.13e-10,-1.32026e-07
6.14e-10,-7.68382e-07
6.15e-10,6.58381e-08
6.16e-10,-2.54074e-08
6.17e-10,-3.0268e-08
6.18e-10,-3.86829e-08
6.19e-10,-5.4504e-08
6.2e-10,-2.89178e-07
6.21e-10,-6.35627e-07
6.22e-10,1.48253e-09
6.23e-10,-5.60459e-08
6.24e-10,-1.25399e-07
6.25e-10,1.73429e-07
6.26e-10,-3.47466e-07
6.27e-10,3.5196e-07
6.28e-10,5.89129e-08
6.29e-10,-4.21725e-07
6.3e-10,-3.70675e-07
6.31e-10,-5.64372e-08
6.32e-10,1.06787e-07
6.33e-10,1.09677e-08
6.34e-10,-1.1507e-07
6.35e-10,-3.96454e-07
6.36e-10,2.35834e-07
6.37e-10,4.32898e-07
6.38e-10,-4.04559e-07
6.39e-10,-1.8918e-07
6.4e-10,4.0268e-07
6.41e-10,-3.18417e-07
6.42e-10,1.40992e-11
6.43e-10,-2.57693e-08
6.44e-10,-1.61235e-07
6.45e-10,-8.65558e-07
6.46e-10,-1.23329e-07
6.47e-10,2.51122e-08
6.48e-10,-2.28467e-07
6.49e-10,-5.81462e-08
6.5e-10,-3.25943e-08
6.51e-10,-8.99582e-08
6.52e-10,-3.19898e-08
6.53e-10,-1.14843e-07
6.54e-10,-8.73621e-07
6.55e-10,-1.27848e-07
6.56e-10,-8.60961e-07
6.57e-10,2.93013e-09
6.58e-10,-8.87572e-08
6.59e-10,3.79538e-09
6.6e-10,-9.48654e-08
6.61e-10,-1.27175e-07
6.62e-10,-4.17834e-07
6.63e-10,-2.38426e-08
6.64e-10,-3.98842e-07
6.65e-10,-6.21944e-08
6.66e-10,-9.14931e-07
6.67e-10,1.50132e-08
6.68e-10,-1.67653e-07
6.69e-10,1.37706e-09
6.7e-10,-3.00822e-07
6.71e-10,-2.75346e-08
6.72e-10,-6.55271e-08
6.73e-10,2.11487e-11
6.74e-10,-3.09589e-08
6.75e-10,-2.21904e-08
6.76e-10,-3.05615e-08
6.77e-10,-6.21445e-08
6.78e-10,-2.99199e-08
6.79e-10,-6.5947e-07
6.8e-10,2.91766e-09
6.81e-10,-3.51361e-08
6.82e-10,-5.53788e-08
6.83e-10,-2.953e-08
6.84e-10,-1.6483e-07
6.85e-10,3.28603e-08
6.86e-10,-6.01666e-08
6.87e-10,-1.80925e-07
6.88e-10,-5.62665e-09
6.89e-10,6.63435e-09
6.9e-10,-3.27435e-08
6.91e-10,-6.53352e-08
6.92e-10,-2.45038e-08
6.93e-10,-7.21172e-11
6.94e-10,-1.28783e-07
6.95e-10,1.50652e-09
6.96e-10,-1.17422e-07
6.97e-10,-1.96662e-07
6.98e-10,-3.10891e-08
6.99e-10,-5.50564e-08
7e-10,-6.18308e-08
7.01e-10,-3.19015e-08
7.02e-10,-2.47957e-07
7.03e-10,-5.95078e-08
7.04e-10,-5.90843e-08
7.05e-10,-2.7444e-07
7.06e-10,-2.02846e-08
7.07e-10,8.37484e-09
7.08e-10,-1.3247e-07
7.09e-10,-2.78141e-08
7.1e-10,-1.49006e-09
7.11e-10,-6.14765e-08
7.12e-10,-2.77732e-09
7.13e-10,-3.1431e-07
7.14e-10,-4.71542e-07
7.15e-10,-2.77217e-08
7.16e-10,-7.04958e-11
7.17e-10,-3.14636e-08
7.18e-10,-8.90705e-08
7.19e-10,-1.47836e-09
7.2e-10,4.80137e-09
7.21e-10,-4.43529e-07
7.22e-10,-3.1552e-08
7.23e-10,-1.24007e-07
7.24e-10,-6.19303e-07
7.25e-10,-2.89446e-08
7.26e-10,-4.95215e-07
7.27e-10,-6.23519e-10
7.28e-10,-1.74935e-09
7.29e-10,-3.1929e-08
7.3e-10,2.49232e-10
7.31e-10,-3.38647e-07
7.32e-10,6.80123e-08
7.33e-10,-3.13486e-08
7.34e-10,-6.73658e-08
7.35e-10,1.76341e-07
7.36e-10,-3.0438e-07
7.37e-10,-2.98579e-10
7.38e-10,8.05808e-10
7.39e-10,-5.37586e-08
7.4e-10,-9.18777e-08
7.41e-10,2.07982e-09
7.42e-10,-5.92509e-08
7.43e-10,-3.12566e-08
7.44e-10,2.89384e-08
7.45e-10,-5.91785e-08
7.46e-10,-3.51163e-08
7.47e-10,-2.77838e-08
7.48e-10,-3.28516e-08
7.49e-10,3.98812e-09
7.5e-10,1.1582e-07
7.51e-10,-1.40222e-07
7.52e-10,3.0661e-08
7.53e-10,-3.38078e-08
7.54e-10,3.21083e-08
7.55e-10,-1.53498e-07
7.56e-10,-3.53146e-09
7.57e-10,3.53146e-09
7.58e-10,-2.95434e-08
7.59e-10,-3.26526e-08
7.6e-10,2.38042e-09
7.61e-10,-2.7743e-10
7.62e-10,5.83353e-08
7.63e-10,-5.92449e-08
7.64e-10,-5.54818e-08
7.65e-10,7.51908e-10
7.66e-10,2.70052e-07
7.67e-10,-3.04811e-07
7.68e-10,2.35261e-07
7.69e-10,-2.65996e-10
7.7e-10,-3.65336e-07
7.71e-10,-1.60843e-08
7.72e-10,-6.99145e-08
7.73e-10,-2.02771e-09
7.74e-10,2.81461e-09
7.75e-10,-3.34168e-08
7.76e-10,2.55135e-10
7.77e-10,2.21034e-10
7.78e-10,4.52212e-09
7.79e-10,-7.84491e-10
7.8e-10,6.43667e-10
7.81e-10,-3.37378e-08
7.82e-10,-2.94889e-08
7.83e-10,-1.90339e-10
7.84e-10,-2.81043e-08
7.85e-10,-3.08092e-08
7.86e-10,-1.2456e-09
7.87e-10,-9.13741e-08
7.88e-10,-2.93331e-08
7.89e-10,7.04958e-12
7.9e-10,2.45614e-09
7.91e-10,-3.08374e-08
7.92e-10,-7.58957e-10
7.93e-10,7.51908e-10
7.94e-10,-3.04775e-08
7.95e-10,1.955e-10
7.96e-10,-9.59329e-08
7.97e-10,3.43236e-08
7.98e-10,-2.20793e-09
7.99e-10,-6.39747e-08
8e-10,1.73176e-09
8.01e-10,-3.11493e-08
8.02e-10,2.44087e-09
8.03e-10,-2.96821e-08
8.04e-10,-2.81511e-09
8.05e-10,7.04958e-11
8.06e-10,8.13603e-10
8.07e-10,-3.21788e-08
8.08e-10,2.60667e-10
8.09e-10,3.21083e-08
8.1e-10,-5.9864e-08
8.11e-10,3.45923e-08
8.12e-10,-9.81705e-08
8.13e-10,3.13564e-08
8.14e-10,-3.20753e-08
8.15e-10,3.49333e-09
8.16e-10,-2.98649e-08
8.17e-10,0
8.18e-10,4.05009e-09
8.19e-10,-3.01538e-08
8.2e-10,-1.26309e-07
8.21e-10,3.38404e-08
8.22e-10,-3.24971e-08
8.23e-10,-2.28083e-10
8.24e-10,-3.34168e-08
8.25e-10,0
8.26e-10,3.23365e-08
8.27e-10,-4.23584e-10
8.28e-10,-3.21482e-08
8.29e-10,7.51978e-10
8.3e-10,-1.50389e-09
8.31e-10,-2.80909e-08
8.32e-10,-1.14291e-09
8.33e-10,3.91001e-10
8.34e-10,-8.73106e-08
8.35e-10,2.55336e-11
8.36e-10,-1.14071e-09
8.37e-10,-2.51646e-09
8.38e-10,7.84491e-10
8.39e-10,-2.9294e-08
8.4e-10,3.06776e-09
8.41e-10,-3.12151e-08
8.42e-10,-6.26103e-08
8.43e-10,2.88176e-08
8.44e-10,-3.12283e-08
8.45e-10,-3.33842e-08
8.46e-10,3.33842e-08
8.47e-10,3.45136e-09
8.48e-10,2.81983e-10
8.49e-10,-6.13936e-08
8.5e-10,3.37276e-08
8.51e-10,-3.32746e-08
8.52e-10,-3.17231e-08
8.53e-10,-3.32213e-08
8.54e-10,-3.18945e-08
8.55e-10,2.494e-10
8.56e-10,-3.23038e-08
8.57e-10,3.03358e-08
8.58e-10,-3.20677e-08
8.59e-10,-3.08714e-08
8.6e-10,4.0303e-09
8.61e-10,3.11724e-08
8.62e-10,-6.22539e-08
8.63e-10,2.68493e-10
8.64e-10,-1.26892e-10
8.65e-10,-2.21034e-10
8.66e-10,5.21333e-10
8.67e-10,-3.16152e-08
8.68e-10,1.69939e-09
8.69e-10,-1.3488e-09
8.7e-10,-4.91415e-10
8.71e-10,3.53117e-08
8.72e-10,2.70227e-09
8.73e-10,1.2758e-09
8.74e-10,-6.39477e-08
8.75e-10,-4.56167e-10
8.76e-10,-4.51997e-09
8.77e-10,5.16382e-09
8.78e-10,2.28083e-10
8.79e-10,-2.28083e-10
8.8e-10,-2.28083e-10
8.81e-10,-7.94332e-11
8.82e-10,0
8.83e-10,-1.16067e-10
8.84e-10,-3.38051e-08
8.85e-10,-3.23752e-08
8.86e-10,-7.29927e-11
8.87e-10,-5.4093e-10
8.88e-10,6.30554e-08
8.89e-10,-3.33842e-08
8.9e-10,1.23517e-09
8.91e-10,-2.94835e-08
8.92e-10,0
8.93e-10,-3.28199e-08
8.94e-10,3.18911e-08
8.95e-10,-4.94079e-10
8.96e-10,-3.1169e-08
8.97e-10,-3.21328e-08
8.98e-10,-8.79751e-10
8.99e-10,4.49117e-10
9e-10,-3.40755e-08
9.01e-10,2.35133e-10
9.02e-10,7.04958e-12
9.03e-10,-4.30633e-10
9.04e-10,4.37683e-10
9.05e-10,4.49117e-10
9.06e-10,3.33772e-08
9.07e-10,-3.38263e-08
9.08e-10,0
9.09e-10,4.80137e-09
9.1e-10,0
9.11e-10,-3.91001e-10
9.12e-10,-2.42183e-10
9.13e-10,-2.28083e-10
9.14e-10,1.955e-10
9.15e-10,4.66823e-11
9.16e-10,0
9.17e-10,2.28083e-10
9.18e-10,0
9.19e-10,-4.63216e-10
9.2e-10,-3.01723e-08
9.21e-10,-2.28083e-10
9.22e-10,-1.955e-10
9.23e-10,0
9.24e-10,-3.38404e-08
9.25e-10,1.955e-10
9.26e-10,-4.48446e-09
9.27e-10,-2.634e-08
9.28e-10,-4.28896e-09
9.29e-10,2.28083e-10
9.3e-10,-2.97664e-08
9.31e-10,1.95437e-09
9.32e-10,-2.28083e-10
9.33e-10,4.23584e-10
9.34e-10,-2.28083e-10
9.35e-10,1.1059e-10
9.36e-10,-7.80071e-11
9.37e-10,3.04789e-08
9.38e-10,-1.1059e-10
9.39e-10,-5.82198e-08
9.4e-10,-3.12993e-10
9.41e-10,-2.28083e-10
9.42e-10,3.52626e-10
9.43e-10,7.80071e-11
9.44e-10,-4.30633e-10
9.45e-10,3.1333e-08
9.46e-10,-3.03683e-08
9.47e-10,3.05964e-08
9.48e-10,-3.1939e-08
9.49e-10,0
9.5e-10,-3.04009e-08
9.51e-10,-2.06434e-09
9.52e-10,3.05964e-08
9.53e-10,2.52051e-09
9.54e-10,-4.23584e-10
9.55e-10,-1.86884e-09
9.56e-10,-3.4212e-08
9.57e-10,-2.58969e-09
9.58e-10,-1.955e-10
9.59e-10,-3.4262e-08
9.6e-10,-2.54301e-09
9.61e-10,3.57247e-08
9.62e-10,-2.65169e-08
9.63e-10,-2.28083e-10
9.64e-10,2.28083e-10
9.65e-10,-2.99183e-08
9.66e-10,2.0255e-10
9.67e-10,8.81197e-10
9.68e-10,7.94332e-11
9.69e-10,1.955e-10
9.7e-10,-6.98517e-10
9.71e-10,2.28083e-10
9.72e-10,3.21784e-10
9.73e-10,-2.60834e-10
9.74e-10,2.13984e-10
9.75e-10,-3.69024e-08
9.76e-10,-1.955e-10
9.77e-10,-3.25831e-11
9.78e-10,-2.74934e-10
9.79e-10,7.94332e-11
9.8e-10,-3.25831e-11
9.81e-10,-1.955e-10
9.82e-10,1.02046e-08
9.83e-10,-2.28083e-10
9.84e-10,2.28083e-10
9.85e-10,-2.28083e-10
9.86e-10,-3.23822e-08
9.87e-10,-7.97525e-09
9.88e-10,2.28083e-10
9.89e-10,-7.04958e-12
9.9e-10,-2.06935e-10
9.91e-10,-2.11487e-11
9.92e-10,0
9.93e-10,-3.31162e-08
9.94e-10,0
9.95e-10,0
9.96e-10,0
9.97e-10,0
9.98e-10,0
9.99e-10,0
1e-09,-1.955e-10
1.001e-09,-3.25831e-11
1.002e-09,7.32358e-09
1.003e-09,-1.955e-10
1.004e-09,-3.56873e-08
1.005e-09,-5.95939e-09
1.006e-09,5.15207e-10
1.007e-09,0
1.008e-09,2.28083e-10
1.009e-09,5.69345e-09
1.01e-09,-5.50322e-09
1.011e-09,5.73131e-09
1.012e-09,-2.28083e-10
1.013e-09,-1.22983e-08
1.014e-09,-3.71372e-08
1.015e-09,6.33889e-09
1.016e-09,2.28083e-10
1.017e-09,-1.955e-10
1.018e-09,-3.25831e-11
1.019e-09,3.25831e-11
1.02e-09,1.04233e-09
1.021e-09,0
1.022e-09,-3.40618e-08
1.023e-09,2.25586e-10
1.024e-09,-4.21087e-10
1.025e-09,0
1.026e-09,4.21087e-10
1.027e-09,0
1.028e-09,0
1.029e-09,0
1.03e-09,-7.04958e-12
1.031e-09,3.96327e-11
1.032e-09,-3.46883e-08
1.033e-09,0
1.034e-09,-2.22328e-09
1.035e-09,8.99088e-09
1.036e-09,0
1.037e-09,-1.955e-10
1.038e-09,1.955e-10
1.039e-09,-3.36124e-08
1.04e-09,0
1.041e-09,3.34168e-08
1.042e-09,-3.36123e-08
1.043e-09,3.36123e-08
1.044e-09,-3.36123e-08
1.045e-09,3.36123e-08
1.046e-09,-6.90082e-08
1.047e-09,-2.28083e-10
1.048e-09,0
1.049e-09,2.28083e-10
1.05e-09,-2.28083e-10
1.051e-09,2.28083e-10
1.052e-09,0
1.053e-09,0
1.054e-09,-3.84907e-08
1.055e-09,0
1.056e-09,0
1.057e-09,0
1.058e-09,0
1.059e-09,1.21131e-08
1.06e-09,2.28083e-10
1.061e-09,-2.28083e-10
1.062e-09,-1.955e-10
1.063e-09,-4.22154e-08
1.064e-09,0
1.065e-09,1.955e-10
1.066e-09,0
1.067e-09,0
1.068e-09,0
1.069e-09,0
1.07e-09,7.04958e-12
1.071e-09,0
1.072e-09,1.955e-10
1.073e-09,-3.5121e-08
1.074e-09,-1.955e-10
1.075e-09,0
1.076e-09,-1.20336e-08
1.077e-09,0
1.078e-09,1.22291e-08
1.079e-09,-1.955e-10
1.08e-09,2.49232e-10
1.081e-09,-4.66823e-11
1.082e-09,-5.24584e-08
1.083e-09,1.38172e-08
1.084e-09,0
1.085e-09,4.77316e-10
1.086e-09,-4.77316e-10
1.087e-09,2.28083e-10
1.088e-09,-2.28083e-10
1.089e-09,-1.56078e-08
1.09e-09,1.50438e-08
1.091e-09,-3.93412e-08
1.092e-09,0
1.093e-09,0
1.094e-09,1.955e-10
1.095e-09,0
1.096e-09,-2.28083e-10
1.097e-09,-5.1617e-12
1.098e-09,-1.90339e-10
1.099e-09,0
1.1e-09,0
1.101e-09,-4.124e-08
1.102e-09,0
1.103e-09,2.28083e-10
1.104e-09,0
1.105e-09,-1.65454e-08
1.106e-09,0
1.107e-09,-1.955e-10
1.108e-09,1.63173e-08
1.109e-09,0
1.11e-09,-4.20507e-08
1.111e-09,0
1.112e-09,-1.57911e-08
1.113e-09,1.90339e-10
1.114e-09,-1.97388e-10
1.115e-09,1.90339e-10
1.116e-09,1.6207e-08
1.117e-09,1.90339e-10
1.118e-09,-5.81097e-08
1.119e-09,1.955e-10
1.12e-09,1.80469e-08
1.121e-09,-1.82424e-08
1.122e-09,6.08761e-10
1.123e-09,-8.04261e-10
1.124e-09,1.90339e-10
1.125e-09,2.28083e-10
1.126e-09,-2.28083e-10
1.127e-09,2.28083e-10
1.128e-09,-4.45251e-08
1.129e-09,0
1.13e-09,2.28083e-10
1.131e-09,0
1.132e-09,-2.28083e-10
1.133e-09,4.23584e-10
1.134e-09,0
1.135e-09,-4.27768e-08
1.136e-09,0
1.137e-09,1.955e-10
1.138e-09,-4.23584e-10
1.139e-09,2.28083e-10
1.14e-09,3.25831e-11
1.141e-09,-2.28083e-10
1.142e-09,1.955e-10
1.143e-09,-4.45533e-08
1.144e-09,0
1.145e-09,-1.955e-10
1.146e-09,2.28083e-10
1.147e-09,-1.97766e-08
1.148e-09,-2.28083e-10
1.149e-09,2.28083e-10
1.15e-09,2.28083e-10
1.151e-09,-5.07877e-08
1.152e-09,2.28083e-10
1.153e-09,-2.28083e-10
1.154e-09,2.49232e-10
1.155e-09,-2.28083e-10
1.156e-09,2.06935e-10
1.157e-09,-2.06935e-10
1.158e-09,1.74352e-10
1.159e-09,-5.10953e-08
1.16e-09,-2.28083e-10
1.161e-09,0
1.162e-09,2.28083e-10
1.163e-09,-2.28083e-10
1.164e-09,0
1.165e-09,1.955e-10
1.166e-09,0
1.167e-09,-4.62382e-08
1.168e-09,2.28083e-10
1.169e-09,-2.28083e-10
1.17e-09,1.955e-10
1.171e-09,4.23584e-10
1.172e-09,0
1.173e-09,-2.28083e-10
1.174e-09,-3.05529e-08
1.175e-09,3.05855e-08
1.176e-09,-5.33089e-08
1.177e-09,1.955e-10
1.178e-09,-1.955e-10
1.179e-09,-1.955e-10
1.18e-09,0
1.181e-09,3.91001e-10
1.182e-09,-4.02435e-10
1.183e-09,0
1.184e-09,1.955e-10
1.185e-09,-5.44818e-08
1.186e-09,-1.955e-10
1.187e-09,0
1.188e-09,3.91001e-10
1.189e-09,-2.28083e-10
1.19e-09,3.25831e-11
1.191e-09,0
1.192e-09,-4.82473e-08
1.193e-09,-1.955e-10
1.194e-09,1.955e-10
1.195e-09,3.25831e-11
1.196e-09,0
1.197e-09,0
1.198e-09,-2.28083e-10
1.199e-09,0
1.2e-09,0
1.201e-09,-5.7226e-08
1.202e-09,1.955e-10
1.203e-09,-4.56167e-10
1.204e-09,-1.955e-10
1.205e-09,1.955e-10
1.206e-09,3.25831e-11
1.207e-09,-1.955e-10
1.208e-09,0
1.209e-09,3.91001e-10
1.21e-09,-1.955e-10
1.211e-09,1.955e-10
1.212e-09,-5.86717e-08
1.213e-09,-3.53491e-08
1.214e-09,3.51517e-08
1.215e-09,-3.49236e-08
1.216e-09,3.49236e-08
1.217e-09,-2.89642e-10
1.218e-09,-3.14592e-08
1.219e-09,-3.37031e-09
1.22e-09,1.955e-10
1.221e-09,-2.24581e-08
1.222e-09,4.21087e-10
1.223e-09,-3.54786e-08
1.224e-09,-2.28083e-10
1.225e-09,0
1.226e-09,1.955e-10
1.227e-09,0
1.228e-09,0
1.229e-09,1.955e-10
1.23e-09,-6.62687e-08
1.231e-09,3.51421e-08
1.232e-09,-3.53702e-08
1.233e-09,0
1.234e-09,2.28083e-10
1.235e-09,-2.28083e-10
1.236e-09,0
1.237e-09,-2.28083e-10
1.238e-09,3.40039e-09
1.239e-09,-3.40039e-09
1.24e-09,-5.96375e-08
1.241e-09,0
1.242e-09,0
1.243e-09,2.28083e-10
1.244e-09,3.24281e-09
1.245e-09,3.51096e-08
1.246e-09,-3.43831e-09
1.247e-09,9.54654e-12
1.248e-09,-3.49236e-08
1.249e-09,-2.4869e-08
1.25e-09,-3.53702e-08
1.251e-09,3.49236e-08
1.252e-09,2.18537e-10
1.253e-09,-1.71093e-08
1.254e-09,-1.80399e-08
1.255e-09,1.80399e-08
1.256e-09,-1.80399e-08
1.257e-09,1.80399e-08
1.258e-09,-9.00302e-08
1.259e-09,1.955e-10
1.26e-09,0
1.261e-09,7.04958e-12
1.262e-09,-7.04958e-12
1.263e-09,0
1.264e-09,0
1.265e-09,-4.30428e-08
1.266e-09,0
1.267e-09,0
1.268e-09,0
1.269e-09,0
1.27e-09,-1.80469e-08
1.271e-09,1.82424e-08
1.272e-09,-1.80469e-08
1.273e-09,0
1.274e-09,1.955e-10
1.275e-09,-5.96939e-08
1.276e-09,0
1.277e-09,2.28083e-10
1.278e-09,0
1.279e-09,0
1.28e-09,0
1.281e-09,0
1.282e-09,0
1.283e-09,-7.63303e-08
1.284e-09,0
1.285e-09,-2.28083e-10
1.286e-09,0
1.287e-09,2.28083e-10
1.288e-09,-2.28083e-10
1.289e-09,0
1.29e-09,-3.75742e-09
1.291e-09,-5.78322e-08
1.292e-09,0
1.293e-09,0
1.294e-09,0
1.295e-09,0
1.296e-09,0
1.297e-09,0
1.298e-09,-2.28083e-10
1.299e-09,0
1.3e-09,0
1.301e-09,0
1.302e-09,-7.73057e-08
1.303e-09,0
1.304e-09,0
1.305e-09,0
1.306e-09,0
1.307e-09,-6.33888e-09
1.308e-09,6.33888e-09
1.309e-09,-6.43664e-09
1.31e-09,0
1.311e-09,-5.03315e-08
1.312e-09,0
1.313e-09,-4.56167e-10
1.314e-09,0
1.315e-09,6.43664e-09
1.316e-09,2.28083e-10
1.317e-09,-2.28083e-10
1.318e-09,0
1.319e-09,1.11652e-08
1.32e-09,-5.74823e-08
1.321e-09,2.38359e-08
1.322e-09,-6.33888e-09
1.323e-09,6.33888e-09
1.324e-09,-6.47282e-09
1.325e-09,6.33888e-09
1.326e-09,0
1.327e-09,2.28083e-10
1.328e-09,0
1.329e-09,-6.55611e-08
1.33e-09,0
1.331e-09,0
1.332e-09,0
1.333e-09,3.32474e-09
1.334e-09,-2.28083e-10
1.335e-09,-2.28083e-10
1.336e-09,2.28083e-10
1.337e-09,-1.86814e-09
1.338e-09,-2.28083e-10
1.339e-09,0
1.34e-09,-1.81104e-08
1.341e-09,-1.12793e-10
1.342e-09,2.14307e-09
1.343e-09,0
1.344e-09,0
1.345e-09,0
1.346e-09,-1.93934e-08
1.347e-09,1.93934e-08
1.348e-09,1.21887e-08
1.349e-09,0
1.35e-09,1.12793e-10
1.351e-09,0
1.352e-09,0
1.353e-09,0
1.354e-09,0
1.355e-09,1.33942e-10
1.356e-09,0
1.357e-09,0
1.358e-09,1.28796e-08
1.359e-09,-1.74971e-08
1.36e-09,0
1.361e-09,0
1.362e-09,0
1.363e-09,0
1.364e-09,0
1.365e-09,0
1.366e-09,1.3373e-07
1.367e-09,0
1.368e-09,0
1.369e-09,0
1.37e-09,0
1.371e-09,0
1.372e-09,0
1.373e-09,0
1.374e-09,0
1.375e-09,2.4694e-07
1.376e-09,0
1.377e-09,0
1.378e-09,2.35392e-07
1.379e-09,0
1.38e-09,0
1.381e-09,0
1.382e-09,0
1.383e-09,0
1.384e-09,0
1.385e-09,0
1.386e-09,0
1.387e-09,3.18218e-07
1.388e-09,3.33057e-07
1.389e-09,0
1.39e-09,0
1.391e-09,3.15906e-07
1.392e-09,0
1.393e-09,0
1.394e-09,0
1.395e-09,2.99438e-07
1.396e-09,0
1.397e-09,0
1.398e-09,0
1.399e-09,7.04958e-12
1.4e-09,-7.04958e-12
1.401e-09,3.03884e-07
1.402e-09,7.04958e-12
1.403e-09,4.44903e-07
1.404e-09,-3.4119e-09
1.405e-09,0
1.406e-09,7.04958e-12
1.407e-09,3.3978e-09
1.408e-09,0
1.409e-09,0
1.41e-09,2.28083e-10
1.411e-09,0
1.412e-09,7.04958e-12
1.413e-09,-7.04958e-12
1.414e-09,7.04958e-12
1.415e-09,-2.28083e-10
1.416e-09,0
1.417e-09,2.21034e-10
1.418e-09,-2.28083e-10
1.419e-09,0
1.42e-09,9.82504e-10
1.421e-09,0
1.422e-09,-9.75455e-10
1.423e-09,0
1.424e-09,9.75455e-10
1.425e-09,0
1.426e-09,0
1.427e-09,-1.58606e-07
1.428e-09,0
1.429e-09,0
1.43e-09,0
1.431e-09,0
1.432e-09,1.58606e-07
1.433e-09,0
1.434e-09,6.34462e-11
1.435e-09,0
1.436e-09,0
1.437e-09,0
1.438e-09,1.19843e-10
1.439e-09,-1.19843e-10
1.44e-09,0
1.441e-09,0
1.442e-09,1.19843e-10
1.443e-09,0
1.444e-09,-1.19843e-10
1.445e-09,1.19843e-10
1.446e-09,-1.19843e-10
1.447e-09,0
1.448e-09,0
1.449e-09,0
1.45e-09,0
1.451e-09,0
1.452e-09,0
1.453e-09,0
1.454e-09,0
1.455e-09,-6.34462e-11
1.456e-09,0
1.457e-09,0
1.458e-09,6.34462e-11
1.459e-09,0
1.46e-09,-6.34462e-11
1.461e-09,0
1.462e-09,0
1.463e-09,0
1.464e-09,3.50505e-08
1.465e-09,0
1.466e-09,1.30417e-09
1.467e-09,0
1.468e-09,-3.62912e-08
1.469e-09,0
1.47e-09,0
1.471e-09,-6.34462e-11
1.472e-09,6.34462e-11
1.473e-09,0
1.474e-09,-6.34462e-11
1.475e-09,2.63184e-12
1.476e-09,0
1.477e-09,-2.63184e-12
1.478e-09,6.6078e-11
1.479e-09,0
1.48e-09,0
1.481e-09,0
1.482e-09,3.62983e-08
1.483e-09,-3.60702e-08
1.484e-09,0
1.485e-09,0
1.486e-09,0
1.487e-09,-2.63184e-12
1.488e-09,3.62983e-08
1.489e-09,0
1.49e-09,0
1.491e-09,0
1.492e-09,-8.92298e-10
1.493e-09,0
1.494e-09,-3.62912e-08
1.495e-09,0
1.496e-09,0
1.497e-09,0
1.498e-09,0
1.499e-09,0
1.5e-09,-7.21877e-11
1.501e-09,-1.08241e-10
1.502e-09,0
1.503e-09,-1.19843e-10
1.504e-09,1.19843e-10
1.505e-09,7.21877e-11
1.506e-09,4.28578e-10
1.507e-09,-4.28578e-10
1.508e-09,-7.21877e-11
1.509e-09,7.21877e-11
1.51e-09,4.28578e-10
1.511e-09,0
1.512e-09,0
1.513e-09,0
1.514e-09,0
1.515e-09,0
1.516e-09,0
1.517e-09,0
1.518e-09,0
1.519e-09,0
1.52e-09,0
1.521e-09,0
1.522e-09,1.955e-10
1.523e-09,-3.15343e-10
1.524e-09,0
1.525e-09,1.19843e-10
1.526e-09,0
1.527e-09,0
1.528e-09,0
1.529e-09,0
1.53e-09,0
1.531e-09,0
1.532e-09,0
1.533e-09,0
1.534e-09,0
1.535e-09,0
1.536e-09,0
1.537e-09,0
1.538e-09,0
1.539e-09,0
1.54e-09,0
1.541e-09,-1.19843e-10
1.542e-09,0
1.543e-09,0
1.544e-09,2.28083e-10
1.545e-09,1.19843e-10
1.546e-09,2.28083e-10
1.547e-09,0
1.548e-09,-2.28083e-10
1.549e-09,0
1.55e-09,-1.90339e-10
1.551e-09,2.28083e-10
1.552e-09,-2.28083e-10
1.553e-09,4.23584e-10
1.554e-09,0
1.555e-09,-2.28083e-10
1.556e-09,0
1.557e-09,0
1.558e-09,0
1.559e-09,0
1.56e-09,0
1.561e-09,0
1.562e-09,2.28083e-10
1.563e-09,-2.28083e-10
1.564e-09,0
1.565e-09,3.25831e-11
1.566e-09,1.955e-10
1.567e-09,0
1.568e-09,-2.28083e-10
1.569e-09,0
1.57e-09,-1.955e-10
1.571e-09,0
1.572e-09,0
1.573e-09,0
1.574e-09,0
1.575e-09,0
1.576e-09,0
1.577e-09,0
1.578e-09,-7.04958e-12
1.579e-09,0
1.58e-09,7.04958e-12
1.581e-09,-7.04958e-12
1.582e-09,0
1.583e-09,7.04958e-12
1.584e-09,0
1.585e-09,0
1.586e-09,0
1.587e-09,0
1.588e-09,0
1.589e-09,0
1.59e-09,0
1.591e-09,0
1.592e-09,0
1.593e-09,0
1.594e-09,0
1.595e-09,0
1.596e-09,0
1.597e-09,0
1.598e-09,0
1.599e-09,0
1.6e-09,0
1.601e-09,0
1.602e-09,0
1.603e-09,0
1.604e-09,0
1.605e-09,0
1.606e-09,0
1.607e-09,0
1.608e-09,-2.28083e-10
1.609e-09,2.28083e-10
1.61e-09,0
1.611e-09,0
1.612e-09,0
1.613e-09,0
1.614e-09,0
1.615e-09,1.955e-10
1.616e-09,0
1.617e-09,0
1.618e-09,-1.25005e-10
1.619e-09,-2.28083e-10
1.62e-09,2.28083e-10
1.621e-09,-2.28083e-10
1.622e-09,0
1.623e-09,0
1.624e-09,0
1.625e-09,0
1.626e-09,0
1.627e-09,0
1.628e-09,0
1.629e-09,0
1.63e-09,1.955e-10
1.631e-09,-7.04958e-11
1.632e-09,0
1.633e-09,0
1.634e-09,0
1.635e-09,1.90339e-10
1.636e-09,-1.90339e-10
1.637e-09,1.90339e-10
1.638e-09,-1.90339e-10
1.639e-09,7.04958e-11
1.64e-09,0
1.641e-09,-7.04958e-11
1.642e-09,7.04958e-11
1.643e-09,0
1.644e-09,0
1.645e-09,0
1.646e-09,0
1.647e-09,0
1.648e-09,0
1.649e-09,0
1.65e-09,0
1.651e-09,0
1.652e-09,-1.955e-10
1.653e-09,3.15343e-10
1.654e-09,-1.19843e-10
1.655e-09,0
1.656e-09,0
1.657e-09,-1.955e-10
1.658e-09,1.19843e-10
1.659e-09,0
1.66e-09,1.955e-10
1.661e-09,0
1.662e-09,0
1.663e-09,-1.19843e-10
1.664e-09,1.19843e-10
1.665e-09,-1.19843e-10
1.666e-09,-7.56575e-11
1.667e-09,0
1.668e-09,0
1.669e-09,0
1.67e-09,0
1.671e-09,1.955e-10
1.672e-09,-1.955e-10
1.673e-09,-1.19843e-10
1.674e-09,0
1.675e-09,2.28083e-10
1.676e-09,-2.28083e-10
1.677e-09,0
1.678e-09,0
1.679e-09,0
1.68e-09,0
1.681e-09,1.19843e-10
1.682e-09,-1.19843e-10
1.683e-09,0
1.684e-09,1.955e-10
1.685e-09,-1.955e-10
1.686e-09,1.955e-10
1.687e-09,0
1.688e-09,-1.955e-10
1.689e-09,0
1.69e-09,-7.04958e-11
1.691e-09,0
1.692e-09,1.955e-10
1.693e-09,0
1.694e-09,-1.955e-10
1.695e-09,0
1.696e-09,0
1.697e-09,0
1.698e-09,0
1.699e-09,1.90339e-10
1.7e-09,-1.90339e-10
1.701e-09,7.04958e-11
1.702e-09,1.19843e-10
1.703e-09,-1.90339e-10
1.704e-09,0
1.705e-09,0
1.706e-09,0
1.707e-09,0
1.708e-09,0
1.709e-09,0
1.71e-09,0
1.711e-09,0
1.712e-09,0
1.713e-09,0
1.714e-09,0
1.715e-09,0
1.716e-09,2.28083e-10
1.717e-09,0
1.718e-09,0
1.719e-09,-2.28083e-10
1.72e-09,0
1.721e-09,0
1.722e-09,0
1.723e-09,0
1.724e-09,0
1.725e-09,0
1.726e-09,0
1.727e-09,0
1.728e-09,0
1.729e-09,0
1.73e-09,0
1.731e-09,0
1.732e-09,0
1.733e-09,0
1.734e-09,0
1.735e-09,0
1.736e-09,0
1.737e-09,0
1.738e-09,0
1.739e-09,0
1.74e-09,0
1.741e-09,0
1.742e-09,0
1.743e-09,0
1.744e-09,0
1.745e-09,0
1.746e-09,0
1.747e-09,0
1.748e-09,0
1.749e-09,1.55091e-10
1.75e-09,-1.55091e-10
1.751e-09,0
1.752e-09,1.55091e-10
1.753e-09,1.19843e-10
1.754e-09,-2.74934e-10
1.755e-09,0
1.756e-09,0
1.757e-09,0
1.758e-09,0
1.759e-09,0
1.76e-09,2.74934e-10
1.761e-09,0
1.762e-09,0
1.763e-09,0
1.764e-09,0
1.765e-09,-1.19843e-10
1.766e-09,0
1.767e-09,0
1.768e-09,0
1.769e-09,0
1.77e-09,0
1.771e-09,0
1.772e-09,0
1.773e-09,0
1.774e-09,0
1.775e-09,0
1.776e-09,-1.55091e-10
1.777e-09,0
1.778e-09,2.28083e-10
1.779e-09,-2.28083e-10
1.78e-09,0
1.781e-09,2.28083e-10
1.782e-09,0
1.783e-09,0
1.784e-09,0
1.785e-09,0
1.786e-09,0
1.787e-09,0
1.788e-09,-2.28083e-10
1.789e-09,0
1.79e-09,0
1.791e-09,0
1.792e-09,0
1.793e-09,0
1.794e-09,0
1.795e-09,0
1.796e-09,0
1.797e-09,0
1.798e-09,0
1.799e-09,0
1.8e-09,0
1.801e-09,0
1.802e-09,0
1.803e-09,0
1.804e-09,0
1.805e-09,0
1.806e-09,0
1.807e-09,0
1.808e-09,0
1.809e-09,0
1.81e-09,0
1.811e-09,0
1.812e-09,0
1.813e-09,0
1.814e-09,0
1.815e-09,0
1.816e-09,0
1.817e-09,0
1.818e-09,0
1.819e-09,2.28083e-10
1.82e-09,0
1.821e-09,0
1.822e-09,0
1.823e-09,0
1.824e-09,-2.28083e-10
1.825e-09,0
1.826e-09,0
1.827e-09,0
1.828e-09,0
1.829e-09,0
1.83e-09,0
1.831e-09,0
1.832e-09,0
1.833e-09,0
1.834e-09,0
1.835e-09,0
1.836e-09,0
1.837e-09,0
1.838e-09,0
1.839e-09,0
1.84e-09,0
1.841e-09,0
1.842e-09,0
1.843e-09,0
1.844e-09,2.28083e-10
1.845e-09,0
1.846e-09,0
1.847e-09,1.955e-10
1.848e-09,0
1.849e-09,-4.23584e-10
1.85e-09,2.28083e-10
1.851e-09,-2.28083e-10
1.852e-09,0
1.853e-09,1.955e-10
1.854e-09,0
1.855e-09,3.25831e-11
1.856e-09,-2.28083e-10
1.857e-09,2.28083e-10
1.858e-09,-2.28083e-10
1.859e-09,0
1.86e-09,0
1.861e-09,0
1.862e-09,2.28083e-10
1.863e-09,-2.28083e-10
1.864e-09,0
1.865e-09,0
1.866e-09,0
1.867e-09,0
1.868e-09,0
1.869e-09,0
1.87e-09,0
1.871e-09,0
1.872e-09,0
1.873e-09,0
1.874e-09,0
1.875e-09,0
1.876e-09,0
1.877e-09,0
1.878e-09,0
1.879e-09,0
1.88e-09,0
1.881e-09,0
1.882e-09,0
1.883e-09,0
1.884e-09,0
1.885e-09,0
1.886e-09,0
1.887e-09,0
1.888e-09,0
1.889e-09,0
1.89e-09,0
1.891e-09,0
1.892e-09,0
1.893e-09,0
1.894e-09,0
1.895e-09,0
1.896e-09,0
1.897e-09,0
1.898e-09,0
1.899e-09,0
1.9e-09,0
1.901e-09,0
1.902e-09,0
1.903e-09,0
1.904e-09,0
1.905e-09,0
1.906e-09,0
1.907e-09,0
1.908e-09,0
1.909e-09,0
1.91e-09,0
1.911e-09,0
1.912e-09,0
1.913e-09,0
1.914e-09,0
1.915e-09,0
1.916e-09,0
1.917e-09,0
1.918e-09,0
1.919e-09,0
1.92e-09,0
1.921e-09,0
1.922e-09,0
1.923e-09,0
1.924e-09,0
1.925e-09,0
1.926e-09,0
1.927e-09,0
1.928e-09,0
1.929e-09,0
1.93e-09,0
1.931e-09,0
1.932e-09,0
1.933e-09,0
1.934e-09,0
1.935e-09,0
1.936e-09,0
1.937e-09,0
1.938e-09,0
1.939e-09,0
1.94e-09,0
1.941e-09,0
1.942e-09,2.74934e-10
1.943e-09,-2.74934e-10
1.944e-09,2.74934e-10
1.945e-09,0
1.946e-09,0
1.947e-09,0
1.948e-09,-2.74934e-10
1.949e-09,2.74934e-10
1.95e-09,0
1.951e-09,0
1.952e-09,-2.74934e-10
1.953e-09,0
1.954e-09,0
1.955e-09,0
1.956e-09,0
1.957e-09,1.55091e-10
1.958e-09,0
1.959e-09,0
1.96e-09,0
1.961e-09,0
1.962e-09,0
1.963e-09,0
1.964e-09,0
1.965e-09,0
1.966e-09,0
1.967e-09,0
1.968e-09,-1.55091e-10
1.969e-09,0
1.97e-09,0
1.971e-09,0
1.972e-09,1.55091e-10
1.973e-09,0
1.974e-09,0
1.975e-09,0
1.976e-09,0
1.977e-09,-1.55091e-10
1.978e-09,1.55091e-10
1.979e-09,0
1.98e-09,3.52479e-11
1.981e-09,0
1.982e-09,0
1.983e-09,0
1.984e-09,-1.90339e-10
1.985e-09,1.90339e-10
1.986e-09,0
1.987e-09,0
1.988e-09,0
1.989e-09,0
1.99e-09,-1.19843e-10
1.991e-09,0
1.992e-09,0
1.993e-09,1.19843e-10
1.994e-09,0
1.995e-09,-1.90339e-10
1.996e-09,0
1.997e-09,0
1.998e-09,0
1.999e-09,0
2e-09,0
2.001e-09,0
2.1e-09,0
