0,0
1e-12,-3.17189e-07
2e-12,1.40002e-07
3e-12,-6.33026e-07
4e-12,-2.93918e-09
5e-12,-1.5767e-06
6e-12,1.58451e-07
7e-12,-7.66859e-07
8e-12,4.33538e-07
9e-12,-6.04581e-07
1e-11,5.31891e-09
1.1e-11,-1.34529e-06
1.2e-11,2.28314e-07
1.3e-11,-1.67062e-06
1.4e-11,-9.85016e-07
1.5e-11,-4.97323e-07
1.6e-11,2.60272e-08
1.7e-11,-6.74048e-07
1.8e-11,-1.08709e-06
1.9e-11,5.44305e-09
2e-11,-1.55972e-06
2.1e-11,-4.19436e-07
2.2e-11,-1.25012e-06
2.3e-11,-1.41315e-06
2.4e-11,2.26195e-07
2.5e-11,-2.38444e-06
2.6e-11,-1.24564e-06
2.7e-11,-6.27508e-07
2.8e-11,-2.60094e-08
2.9e-11,-4.15044e-07
3e-11,-2.94692e-07
3.1e-11,-7.14597e-07
3.2e-11,-1.59998e-06
3.3e-11,-1.72221e-06
3.4e-11,-1.04521e-07
3.5e-11,-7.08468e-08
3.6e-11,-2.39959e-07
3.7e-11,-1.14023e-06
3.8e-11,-1.78235e-06
3.9e-11,2.63194e-07
4e-11,-5.68873e-07
4.1e-11,-1.79723e-06
4.2e-11,-1.31773e-06
4.3e-11,-9.22604e-07
4.4e-11,-1.75279e-06
4.5e-11,-8.62092e-07
4.6e-11,-2.37364e-07
4.7e-11,-2.31808e-07
4.8e-11,-1.28385e-06
4.9e-11,-3.7461e-08
5e-11,-1.07149e-06
5.1e-11,-5.20353e-07
5.2e-11,-6.38855e-07
5.3e-11,-2.94495e-06
5.4e-11,-1.59661e-08
5.5e-11,-1.71283e-06
5.6e-11,-7.29587e-07
5.7e-11,-1.27771e-06
5.8e-11,-1.46388e-06
5.9e-11,-1.07145e-06
6e-11,-1.28226e-06
6.1e-11,-9.62756e-07
6.2e-11,-1.66023e-06
6.3e-11,-9.47477e-07
6.4e-11,-4.3379e-07
6.5e-11,-5.94083e-07
6.6e-11,-1.93417e-07
6.7e-11,-4.51779e-07
6.8e-11,-2.81454e-06
6.9e-11,3.23047e-07
7e-11,-5.26925e-07
7.1e-11,-2.09456e-06
7.2e-11,-3.52115e-07
7.3e-11,-2.27015e-07
7.4e-11,-1.02178e-06
7.5e-11,-4.72009e-07
7.6e-11,-7.42096e-07
7.7e-11,-1.09275e-07
7.8e-11,-5.60942e-07
7.9e-11,3.89895e-07
8e-11,2.04942e-07
8.1e-11,-2.91199e-07
8.2e-11,-9.05971e-07
8.3e-11,-6.3339e-07
8.4e-11,2.94833e-08
8.5e-11,-9.67529e-07
8.6e-11,-1.32307e-07
8.7e-11,-4.81666e-07
8.8e-11,-2.24704e-08
8.9e-11,-1.06815e-06
9e-11,-6.06915e-07
9.1e-11,-8.06292e-07
9.2e-11,-8.63341e-07
9.3e-11,-1.12827e-07
9.4e-11,-5.65424e-07
9.5e-11,-1.2386e-06
9.6e-11,-8.58071e-07
9.7e-11,-1.01958e-07
9.8e-11,-1.73832e-06
9.9e-11,2.38085e-07
1e-10,-4.47066e-07
1.01e-10,-5.97692e-07
1.02e-10,-2.03404e-08
1.03e-10,1.89475e-07
1.04e-10,-1.72728e-06
1.05e-10,-4.30242e-07
1.06e-10,-1.33972e-06
1.07e-10,-1.30638e-06
1.08e-10,-1.16796e-06
1.09e-10,-6.56823e-07
1.1e-10,-5.72583e-07
1.11e-10,-6.85822e-07
1.12e-10,-1.49157e-07
1.13e-10,-3.82902e-07
1.14e-10,-3.75898e-07
1.15e-10,-1.65618e-06
1.16e-10,7.13947e-08
1.17e-10,-1.97112e-07
1.18e-10,-1.17637e-06
1.19e-10,-5.95527e-07
1.2e-10,-9.38415e-07
1.21e-10,-2.00859e-07
1.22e-10,-1.94296e-06
1.23e-10,-1.93451e-07
1.24e-10,-1.46062e-06
1.25e-10,-4.71798e-07
1.26e-10,7.44986e-07
1.27e-10,4.98398e-07
1.28e-10,-6.37068e-07
1.29e-10,-1.3475e-06
1.3e-10,-1.03475e-06
1.31e-10,-7.21488e-07
1.32e-10,-1.39845e-06
1.33e-10,2.94815e-07
1.34e-10,-1.23258e-07
1.35e-10,-2.22077e-07
1.36e-10,-3.77905e-07
1.37e-10,2.7417e-07
1.38e-10,-1.17632e-06
1.39e-10,1.2426e-07
1.4e-10,-3.36251e-07
1.41e-10,-5.27311e-07
1.42e-10,-6.97859e-07
1.43e-10,-9.90494e-08
1.44e-10,-3.90075e-07
1.45e-10,8.24243e-07
1.46e-10,3.66062e-07
1.47e-10,-9.06381e-07
1.48e-10,-9.07332e-07
1.49e-10,-1.84451e-07
1.5e-10,7.45013e-08
1.51e-10,-1.13401e-06
1.52e-10,-7.08014e-07
1.53e-10,-5.08646e-07
1.54e-10,-9.76659e-07
1.55e-10,-9.48222e-07
1.56e-10,-1.98948e-07
1.57e-10,-4.14601e-07
1.58e-10,3.47354e-09
1.59e-10,-4.02278e-07
1.6e-10,-1.31715e-06
1.61e-10,4.09344e-07
1.62e-10,-1.23208e-06
1.63e-10,-1.38915e-07
1.64e-10,-1.0089e-06
1.65e-10,-2.16347e-07
1.66e-10,1.70747e-07
1.67e-10,-1.54787e-07
1.68e-10,-7.99043e-07
1.69e-10,-1.89865e-07
1.7e-10,-5.22577e-07
1.71e-10,-4.40047e-07
1.72e-10,-2.1264e-07
1.73e-10,-3.43894e-07
1.74e-10,-5.90307e-07
1.75e-10,-6.0481e-07
1.76e-10,-8.46804e-07
1.77e-10,-2.28219e-07
1.78e-10,-1.15052e-07
1.79e-10,-4.71363e-07
1.8e-10,-5.52177e-07
1.81e-10,-9.76313e-07
1.82e-10,5.14769e-08
1.83e-10,-8.24028e-07
1.84e-10,-7.86239e-07
1.85e-10,-5.92105e-07
1.86e-10,8.30461e-07
1.87e-10,-6.26798e-07
1.88e-10,-6.35081e-07
1.89e-10,-1.26272e-06
1.9e-10,-6.34915e-07
1.91e-10,-3.04953e-07
1.92e-10,-6.67417e-07
1.93e-10,-5.0128e-07
1.94e-10,2.89973e-07
1.95e-10,1.37395e-07
1.96e-10,1.56995e-07
1.97e-10,-4.99431e-07
1.98e-10,-4.18305e-07
1.99e-10,-9.06772e-07
2e-10,-6.925e-07
2.01e-10,-5.48362e-07
2.02e-10,-7.06122e-07
2.03e-10,-7.00729e-07
2.04e-10,-7.93606e-07
2.05e-10,-1.81288e-07
2.06e-10,-8.3012e-07
2.07e-10,-4.82849e-07
2.08e-10,-1.46271e-06
2.09e-10,-2.38477e-07
2.1e-10,-2.16321e-06
2.11e-10,-4.23206e-07
2.12e-10,-1.95126e-07
2.13e-10,-1.48144e-06
2.14e-10,-1.0043e-06
2.15e-10,-1.77118e-06
2.16e-10,-1.03203e-06
2.17e-10,-2.46011e-07
2.18e-10,-2.06508e-06
2.19e-10,-1.9129e-06
2.2e-10,-3.10935e-07
2.21e-10,-1.72397e-07
2.22e-10,-6.63621e-07
2.23e-10,-1.8167e-06
2.24e-10,-8.21646e-07
2.25e-10,-1.68764e-06
2.26e-10,-5.91209e-07
2.27e-10,-2.45031e-06
2.28e-10,-2.85391e-07
2.29e-10,-1.55195e-06
2.3e-10,-2.96424e-07
2.31e-10,-2.11249e-06
2.32e-10,-2.67565e-07
2.33e-10,-5.19685e-07
2.34e-10,-6.38952e-07
2.35e-10,-1.12954e-06
2.36e-10,-7.37234e-07
2.37e-10,-1.46496e-06
2.38e-10,-6.59773e-07
2.39e-10,-9.87362e-07
2.4e-10,-1.49133e-06
2.41e-10,-1.72803e-07
2.42e-10,-1.35865e-06
2.43e-10,-1.40441e-06
2.44e-10,-1.87729e-06
2.45e-10,-5.95729e-07
2.46e-10,-4.71282e-07
2.47e-10,-1.12021e-06
2.48e-10,-1.24472e-06
2.49e-10,-2.03634e-06
2.5e-10,-1.32574e-06
2.51e-10,-5.75859e-07
2.52e-10,-1.10257e-06
2.53e-10,-1.10465e-06
2.54e-10,-1.6317e-06
2.55e-10,-1.95059e-06
2.56e-10,-1.81043e-07
2.57e-10,-3.20707e-07
2.58e-10,-5.97719e-07
2.59e-10,-1.85482e-06
2.6e-10,-2.48973e-07
2.61e-10,-1.01667e-06
2.62e-10,-5.82617e-07
2.63e-10,-7.00463e-07
2.64e-10,-2.28439e-07
2.65e-10,-9.64704e-07
2.66e-10,-1.37092e-06
2.67e-10,-3.17379e-07
2.68e-10,8.20306e-09
2.69e-10,-1.14542e-06
2.7e-10,-6.54601e-07
2.71e-10,-8.76327e-08
2.72e-10,-5.36391e-07
2.73e-10,-8.45438e-07
2.74e-10,-8.69163e-07
2.75e-10,-2.25425e-06
2.76e-10,-1.25749e-07
2.77e-10,-1.43645e-07
2.78e-10,-1.75129e-09
2.79e-10,-2.19992e-06
2.8e-10,-1.60612e-06
2.81e-10,1.02123e-06
2.82e-10,-2.24924e-06
2.83e-10,-6.61434e-07
2.84e-10,-5.99472e-07
2.85e-10,-5.40861e-07
2.86e-10,-2.78624e-07
2.87e-10,-4.31012e-07
2.88e-10,-4.37418e-07
2.89e-10,-1.08088e-06
2.9e-10,-6.76002e-07
2.91e-10,-7.43287e-07
2.92e-10,-4.68113e-07
2.93e-10,-3.91964e-07
2.94e-10,-1.46399e-06
2.95e-10,7.91737e-08
2.96e-10,-1.13729e-06
2.97e-10,-1.31795e-06
2.98e-10,-2.62126e-07
2.99e-10,-4.73439e-08
3e-10,-6.01955e-08
3.01e-10,-1.34497e-06
3.02e-10,-8.63454e-07
3.03e-10,-5.77241e-08
3.04e-10,7.00982e-08
3.05e-10,-1.96044e-06
3.06e-10,-4.30842e-07
3.07e-10,-1.86505e-07
3.08e-10,-1.25053e-06
3.09e-10,-5.6173e-07
3.1e-10,2.46792e-07
3.11e-10,-3.34455e-07
3.12e-10,-1.03766e-06
3.13e-10,7.30867e-07
3.14e-10,-7.10906e-07
3.15e-10,6.10609e-08
3.16e-10,-4.3645e-07
3.17e-10,-1.14137e-06
3.18e-10,-4.93411e-08
3.19e-10,-6.25417e-07
3.2e-10,-8.71361e-08
3.21e-10,-9.53491e-07
3.22e-10,-2.38949e-07
3.23e-10,-1.64293e-07
3.24e-10,3.20671e-07
3.25e-10,-1.98994e-07
3.26e-10,-9.47385e-07
3.27e-10,-2.17499e-07
3.28e-10,-1.32879e-06
3.29e-10,-3.63849e-07
3.3e-10,-1.43734e-06
3.31e-10,3.92975e-07
3.32e-10,-9.13942e-07
3.33e-10,-4.1631e-07
3.34e-10,-8.49505e-07
3.35e-10,-2.68785e-07
3.36e-10,-9.11275e-08
3.37e-10,-8.16079e-07
3.38e-10,-1.60932e-07
3.39e-10,-1.17835e-06
3.4e-10,-9.42864e-07
3.41e-10,8.64495e-08
3.42e-10,-3.12335e-07
3.43e-10,-1.61085e-06
3.44e-10,-6.08011e-07
3.45e-10,-5.10288e-07
3.46e-10,-5.76614e-07
3.47e-10,-7.58057e-08
3.48e-10,-6.84647e-07
3.49e-10,-1.37037e-06
3.5e-10,3.98078e-07
3.51e-10,-4.30849e-07
3.52e-10,1.8808e-07
3.53e-10,-5.12608e-07
3.54e-10,3.65148e-07
3.55e-10,-1.29295e-06
3.56e-10,-4.56132e-07
3.57e-10,-4.34722e-07
3.58e-10,-7.14025e-07
3.59e-10,-1.0224e-06
3.6e-10,-5.22111e-07
3.61e-10,-3.35913e-07
3.62e-10,-3.1157e-07
3.63e-10,-4.73341e-07
3.64e-10,-1.63417e-06
3.65e-10,4.40742e-07
3.66e-10,-1.25744e-06
3.67e-10,-7.88431e-07
3.68e-10,-8.88882e-07
3.69e-10,4.80969e-07
3.7e-10,-4.76923e-07
3.71e-10,-1.84852e-06
3.72e-10,-2.74295e-07
3.73e-10,-6.19497e-07
3.74e-10,-7.86776e-07
3.75e-10,-9.03662e-07
3.76e-10,-3.7701e-07
3.77e-10,2.87629e-07
3.78e-10,-1.40853e-06
3.79e-10,9.40348e-07
3.8e-10,-1.71548e-06
3.81e-10,1.52204e-07
3.82e-10,5.36281e-07
3.83e-10,-5.41166e-07
3.84e-10,2.47417e-07
3.85e-10,-1.40774e-07
3.86e-10,-9.86529e-07
3.87e-10,1.84121e-07
3.88e-10,-9.29054e-07
3.89e-10,1.32882e-07
3.9e-10,-3.81648e-07
3.91e-10,-7.64541e-08
3.92e-10,-1.09263e-06
3.93e-10,-6.74476e-07
3.94e-10,7.99182e-08
3.95e-10,-3.9824e-07
3.96e-10,-5.00603e-07
3.97e-10,1.21347e-07
3.98e-10,-4.45488e-08
3.99e-10,-9.9155e-07
4e-10,6.89665e-08
4.01e-10,-1.20886e-06
4.02e-10,8.1437e-07
4.03e-10,-7.22304e-07
4.04e-10,-5.61814e-07
4.05e-10,-2.90977e-07
4.06e-10,-5.04495e-07
4.07e-10,1.00561e-06
4.08e-10,-6.7202e-07
4.09e-10,-1.70711e-07
4.1e-10,-1.06255e-06
4.11e-10,-8.48802e-07
4.12e-10,7.11528e-07
4.13e-10,-7.7957e-07
4.14e-10,-2.37351e-07
4.15e-10,-1.75836e-07
4.16e-10,-1.37906e-06
4.17e-10,-9.12409e-08
4.18e-10,-4.38513e-07
4.19e-10,-2.99322e-07
4.2e-10,-2.86039e-07
4.21e-10,-1.80342e-06
4.22e-10,-2.34044e-07
4.23e-10,-2.5446e-07
4.24e-10,-1.12709e-06
4.25e-10,-9.95274e-07
4.26e-10,3.79497e-07
4.27e-10,-2.11284e-07
4.28e-10,-2.33701e-07
4.29e-10,-1.41483e-06
4.3e-10,-2.05269e-06
4.31e-10,-3.1177e-08
4.32e-10,-2.84722e-07
4.33e-10,-2.7424e-07
4.34e-10,-1.64211e-07
4.35e-10,-2.54915e-06
4.36e-10,6.57404e-07
4.37e-10,-1.22832e-06
4.38e-10,-5.62954e-07
4.39e-10,-5.67377e-07
4.4e-10,-2.3103e-07
4.41e-10,-1.17575e-07
4.42e-10,3.41359e-07
4.43e-10,-1.09309e-06
4.44e-10,-2.55997e-07
4.45e-10,2.72542e-07
4.46e-10,-2.87055e-07
4.47e-10,-1.71629e-08
4.48e-10,2.62564e-07
4.49e-10,-5.03416e-07
4.5e-10,4.29508e-07
4.51e-10,1.07871e-07
4.52e-10,-5.85172e-07
4.53e-10,-1.46156e-07
4.54e-10,8.86863e-08
4.55e-10,-8.74332e-08
4.56e-10,-7.26297e-07
4.57e-10,9.40155e-07
4.58e-10,-7.25257e-07
4.59e-10,2.29388e-07
4.6e-10,-5.17306e-07
4.61e-10,-1.48603e-07
4.62e-10,7.08009e-07
4.63e-10,-6.10799e-07
4.64e-10,-3.86239e-07
4.65e-10,-4.57015e-07
4.66e-10,-2.22495e-07
4.67e-10,2.53753e-07
4.68e-10,-1.72662e-07
4.69e-10,9.46577e-08
4.7e-10,-7.41668e-07
4.71e-10,9.54646e-08
4.72e-10,-1.68071e-06
4.73e-10,2.32026e-07
4.74e-10,-2.84813e-07
4.75e-10,-1.5787e-07
4.76e-10,8.35655e-08
4.77e-10,-3.96163e-08
4.78e-10,-3.08326e-07
4.79e-10,-4.76996e-07
4.8e-10,-5.5469e-07
4.81e-10,6.34688e-07
4.82e-10,-8.99594e-08
4.83e-10,-5.01536e-07
4.84e-10,-1.04761e-06
4.85e-10,-5.12887e-07
4.86e-10,2.8838e-07
4.87e-10,-2.56754e-07
4.88e-10,5.40419e-08
4.89e-10,-5.61567e-07
4.9e-10,-5.57518e-07
4.91e-10,-1.02228e-06
4.92e-10,2.74961e-07
4.93e-10,-4.08085e-07
4.94e-10,-2.99754e-07
4.95e-10,-2.79888e-07
4.96e-10,2.73039e-07
4.97e-10,-8.3558e-07
4.98e-10,-2.04802e-07
4.99e-10,2.50795e-07
5e-10,9.85491e-08
5.01e-10,-9.4091e-07
5.02e-10,6.36518e-07
5.03e-10,-6.42028e-07
5.04e-10,2.15627e-07
5.05e-10,-2.55748e-07
5.06e-10,2.93236e-07
5.07e-10,-3.43795e-07
5.08e-10,-4.11976e-07
5.09e-10,-4.21567e-07
5.1e-10,-1.5443e-07
5.11e-10,-8.76406e-07
5.12e-10,-2.90485e-07
5.13e-10,-3.0042e-07
5.14e-10,1.24366e-07
5.15e-10,3.58366e-07
5.16e-10,-9.91573e-07
5.17e-10,-4.7491e-07
5.18e-10,-2.00258e-07
5.19e-10,-2.7188e-07
5.2e-10,-7.45894e-07
5.21e-10,-3.60038e-07
5.22e-10,-8.15243e-07
5.23e-10,-2.71421e-07
5.24e-10,-4.86116e-07
5.25e-10,-1.0881e-06
5.26e-10,-2.98312e-07
5.27e-10,-6.11471e-07
5.28e-10,-1.25553e-07
5.29e-10,6.20776e-08
5.3e-10,-2.12376e-06
5.31e-10,1.56263e-07
5.32e-10,-9.79652e-07
5.33e-10,-7.6818e-07
5.34e-10,-6.08176e-07
5.35e-10,-2.96424e-07
5.36e-10,-2.14502e-07
5.37e-10,-2.25344e-08
5.38e-10,-2.97379e-07
5.39e-10,1.17773e-07
5.4e-10,-1.69163e-07
5.41e-10,-1.93642e-07
5.42e-10,-2.62687e-07
5.43e-10,2.08299e-08
5.44e-10,2.33395e-07
5.45e-10,-2.58219e-07
5.46e-10,-8.21597e-08
5.47e-10,2.4209e-07
5.48e-10,-4.23772e-07
5.49e-10,7.38976e-07
5.5e-10,1.99826e-07
5.51e-10,-1.33128e-07
5.52e-10,-7.45535e-07
5.53e-10,6.27318e-08
5.54e-10,-2.10818e-07
5.55e-10,4.11162e-08
5.56e-10,5.84239e-10
5.57e-10,-1.19889e-07
5.58e-10,2.42557e-07
5.59e-10,6.63525e-08
5.6e-10,-8.9339e-08
5.61e-10,-3.88616e-08
5.62e-10,9.91173e-08
5.63e-10,1.898e-07
5.64e-10,7.28918e-07
5.65e-10,-2.28341e-07
5.66e-10,4.97975e-08
5.67e-10,-1.19816e-07
5.68e-10,1.09761e-07
5.69e-10,-1.44204e-07
5.7e-10,-9.80146e-08
5.71e-10,3.24204e-07
5.72e-10,-1.56272e-07
5.73e-10,9.11433e-08
5.74e-10,3.24575e-07
5.75e-10,-1.5955e-07
5.76e-10,4.24388e-08
5.77e-10,6.08269e-08
5.78e-10,-1.68278e-07
5.79e-10,4.10007e-07
5.8e-10,-5.56074e-08
5.81e-10,-8.65481e-08
5.82e-10,3.49574e-07
5.83e-10,-4.82702e-07
5.84e-10,-6.05202e-07
5.85e-10,-1.12538e-07
5.86e-10,2.91993e-07
5.87e-10,-2.29822e-07
5.88e-10,1.34035e-07
5.89e-10,-3.20812e-08
5.9e-10,1.30547e-07
5.91e-10,-1.97685e-07
5.92e-10,2.79536e-09
5.93e-10,-1.61335e-07
5.94e-10,-6.23122e-08
5.95e-10,-3.44933e-07
5.96e-10,-3.5792e-08
5.97e-10,-1.21793e-07
5.98e-10,-1.21001e-07
5.99e-10,-6.84514e-07
6e-10,8.14772e-08
6.01e-10,-1.56297e-07
6.02e-10,-1.9638e-07
6.03e-10,4.58781e-07
6.04e-10,-4.80515e-07
6.05e-10,-1.91967e-07
6.06e-10,3.8434e-08
6.07e-10,3.7966e-07
6.08e-10,-8.48189e-07
6.09e-10,-2.92566e-07
6.1e-10,2.85671e-07
6.11e-10,-2.93921e-07
6.12e-10,1.72333e-07
6.13e-10,-1.16131e-07
6.14e-10,1.84306e-07
6.15e-10,1.05858e-07
6.16e-10,1.48534e-07
6.17e-10,1.92346e-07
6.18e-10,-2.46506e-08
6.19e-10,1.79808e-07
6.2e-10,-1.06916e-07
6.21e-10,6.40645e-09
6.22e-10,3.42349e-07
6.23e-10,2.05524e-07
6.24e-10,6.17401e-08
6.25e-10,3.82459e-08
6.26e-10,-9.6638e-08
6.27e-10,5.39039e-08
6.28e-10,2.38288e-07
6.29e-10,2.11635e-07
6.3e-10,-1.75523e-07
6.31e-10,-2.35156e-07
6.32e-10,-1.56952e-07
6.33e-10,-2.23348e-07
6.34e-10,5.47085e-07
6.35e-10,-1.80677e-07
6.36e-10,-2.35748e-08
6.37e-10,1.78322e-07
6.38e-10,-3.36594e-08
6.39e-10,4.89866e-07
6.4e-10,-3.5105e-08
6.41e-10,6.91429e-08
6.42e-10,-1.31947e-07
6.43e-10,-1.96075e-07
6.44e-10,3.11662e-07
6.45e-10,-6.98326e-08
6.46e-10,-3.81338e-07
6.47e-10,-1.55324e-07
6.48e-10,2.07443e-07
6.49e-10,1.19278e-08
6.5e-10,3.8466e-08
6.51e-10,3.15737e-07
6.52e-10,-4.10637e-07
6.53e-10,-1.27808e-07
6.54e-10,-2.90382e-08
6.55e-10,2.79391e-07
6.56e-10,-2.40726e-07
6.57e-10,-3.00756e-09
6.58e-10,-6.00017e-08
6.59e-10,-2.73161e-07
6.6e-10,4.49839e-07
6.61e-10,-4.41099e-07
6.62e-10,-7.35381e-07
6.63e-10,-7.99417e-08
6.64e-10,-2.26511e-07
6.65e-10,2.96506e-08
6.66e-10,-4.32657e-07
6.67e-10,-9.13429e-08
6.68e-10,-9.21407e-08
6.69e-10,-3.42235e-08
6.7e-10,3.50581e-09
6.71e-10,-3.14333e-08
6.72e-10,4.91371e-09
6.73e-10,-1.93188e-07
6.74e-10,-2.28305e-08
6.75e-10,-4.02308e-07
6.76e-10,-5.21345e-08
6.77e-10,-1.3156e-07
6.78e-10,-1.79397e-08
6.79e-10,1.29016e-07
6.8e-10,8.70263e-09
6.81e-10,1.22625e-08
6.82e-10,-7.24719e-08
6.83e-10,-3.17844e-07
6.84e-10,8.69563e-08
6.85e-10,-1.44994e-07
6.86e-10,1.7391e-10
6.87e-10,-3.714e-08
6.88e-10,3.55497e-08
6.89e-10,-3.10661e-08
6.9e-10,-2.13781e-07
6.91e-10,-8.86321e-08
6.92e-10,9.74659e-08
6.93e-10,3.15809e-07
6.94e-10,-5.88325e-08
6.95e-10,-2.95575e-09
6.96e-10,-5.14619e-11
6.97e-10,-1.23118e-09
6.98e-10,-1.85592e-07
6.99e-10,-9.48182e-08
7e-10,-2.40672e-08
7.01e-10,-1.67236e-09
7.02e-10,3.04696e-07
7.03e-10,3.70395e-07
7.04e-10,-9.38212e-08
7.05e-10,-2.70781e-08
7.06e-10,-3.37909e-08
7.07e-10,-1.93637e-07
7.08e-10,-2.91754e-08
7.09e-10,3.12346e-09
7.1e-10,5.55356e-09
7.11e-10,-6.67264e-08
7.12e-10,2.53888e-09
7.13e-10,3.30637e-07
7.14e-10,-2.48395e-09
7.15e-10,-5.83913e-08
7.16e-10,9.31228e-09
7.17e-10,-1.25534e-07
7.18e-10,3.94808e-08
7.19e-10,4.06888e-07
7.2e-10,-4.81227e-08
7.21e-10,-3.57525e-08
7.22e-10,-5.41601e-07
7.23e-10,-3.35433e-08
7.24e-10,6.12391e-09
7.25e-10,-3.46776e-07
7.26e-10,-5.87443e-08
7.27e-10,6.482e-08
7.28e-10,-3.30859e-08
7.29e-10,-3.32236e-08
7.3e-10,-5.79609e-07
7.31e-10,-2.83143e-09
7.32e-10,-8.79356e-08
7.33e-10,3.22758e-08
7.34e-10,-2.49694e-07
7.35e-10,2.22912e-07
7.36e-10,-6.94401e-07
7.37e-10,-8.0154e-07
7.38e-10,-7.70665e-08
7.39e-10,5.22364e-08
7.4e-10,-5.1442e-08
7.41e-10,-4.16576e-08
7.42e-10,-1.5779e-07
7.43e-10,-3.38404e-08
7.44e-10,-3.03653e-08
7.45e-10,8.66235e-09
7.46e-10,1.24313e-07
7.47e-10,-2.90438e-08
7.48e-10,-3.64264e-08
7.49e-10,-1.51847e-07
7.5e-10,-3.11975e-08
7.51e-10,-5.72891e-08
7.52e-10,1.58379e-07
7.53e-10,-3.14083e-08
7.54e-10,-3.22595e-08
7.55e-10,6.14452e-09
7.56e-10,-6.04936e-08
7.57e-10,-5.83408e-08
7.58e-10,-1.9186e-07
7.59e-10,6.34462e-11
7.6e-10,5.4353e-09
7.61e-10,1.59395e-07
7.62e-10,-5.51325e-08
7.63e-10,-4.32836e-10
7.64e-10,-5.59587e-08
7.65e-10,-4.22219e-08
7.66e-10,1.28692e-09
7.67e-10,-3.0849e-08
7.68e-10,-3.51818e-09
7.69e-10,-1.99044e-08
7.7e-10,-3.21714e-08
7.71e-10,3.66676e-09
7.72e-10,2.03835e-10
7.73e-10,-3.57202e-09
7.74e-10,-2.89787e-08
7.75e-10,-2.97913e-08
7.76e-10,1.28094e-09
7.77e-10,3.25831e-11
7.78e-10,-2.88108e-08
7.79e-10,-2.98331e-08
7.8e-10,-6.3776e-08
7.81e-10,2.27681e-09
7.82e-10,-3.44495e-08
7.83e-10,-2.55779e-08
7.84e-10,-2.88106e-08
7.85e-10,-2.90645e-08
7.86e-10,-2.53457e-08
7.87e-10,-6.51667e-10
7.88e-10,-2.28083e-10
7.89e-10,-3.36149e-08
7.9e-10,3.5102e-10
7.91e-10,-3.35097e-08
7.92e-10,1.95778e-09
7.93e-10,-9.76736e-08
7.94e-10,-3.25623e-08
7.95e-10,2.70696e-10
7.96e-10,7.51908e-10
7.97e-10,2.28083e-10
7.98e-10,-1.82829e-08
7.99e-10,2.19617e-08
8e-10,-3.36123e-08
8.01e-10,2.88102e-08
8.02e-10,-5.23038e-08
8.03e-10,3.4101e-08
8.04e-10,-3.37769e-08
8.05e-10,-9.35215e-08
8.06e-10,-3.07939e-08
8.07e-10,-3.2363e-08
8.08e-10,3.60484e-10
8.09e-10,4.88116e-10
8.1e-10,-3.41331e-08
8.11e-10,0
8.12e-10,-2.62077e-08
8.13e-10,7.72319e-10
8.14e-10,-9.09434e-10
8.15e-10,1.17286e-09
8.16e-10,-2.87357e-08
8.17e-10,-1.07779e-10
8.18e-10,7.51957e-11
8.19e-10,-3.43955e-10
8.2e-10,3.11692e-08
8.21e-10,-3.36525e-08
8.22e-10,3.36449e-08
8.23e-10,-9.18613e-08
8.24e-10,-4.6426e-10
8.25e-10,3.40478e-09
8.26e-10,-2.29182e-09
8.27e-10,-3.19357e-08
8.28e-10,3.46202e-08
8.29e-10,6.78719e-10
8.3e-10,-3.29809e-08
8.31e-10,-2.37554e-09
8.32e-10,-1.955e-10
8.33e-10,-2.64774e-08
8.34e-10,8.76274e-10
8.35e-10,-4.23584e-10
8.36e-10,5.81167e-11
8.37e-10,3.37764e-08
8.38e-10,-3.42965e-08
8.39e-10,-2.01532e-08
8.4e-10,4.98754e-09
8.41e-10,-2.0256e-08
8.42e-10,-7.23643e-08
8.43e-10,0
8.44e-10,3.25831e-11
8.45e-10,-3.11609e-08
8.46e-10,3.18993e-08
8.47e-10,-5.18318e-08
8.48e-10,-3.02495e-08
8.49e-10,1.8282e-09
8.5e-10,-3.24346e-08
8.51e-10,1.53072e-09
8.52e-10,1.32977e-09
8.53e-10,-9.39386e-10
8.54e-10,-2.26916e-09
8.55e-10,3.05917e-08
8.56e-10,-7.5672e-08
8.57e-10,-1.51094e-09
8.58e-10,-5.84237e-08
8.59e-10,-1.75693e-08
8.6e-10,-1.12598e-08
8.61e-10,-1.89369e-08
8.62e-10,3.29781e-08
8.63e-10,-1.47777e-08
8.64e-10,3.21329e-08
8.65e-10,-3.25831e-11
8.66e-10,-3.02964e-10
8.67e-10,-5.86145e-08
8.68e-10,-1.955e-10
8.69e-10,-2.28083e-10
8.7e-10,-1.04772e-09
8.71e-10,-2.96815e-08
8.72e-10,-1.955e-10
8.73e-10,-2.80934e-08
8.74e-10,-2.28083e-10
8.75e-10,3.04245e-09
8.76e-10,-2.49932e-08
8.77e-10,4.56167e-10
8.78e-10,1.60892e-08
8.79e-10,-1.65454e-08
8.8e-10,-3.38404e-08
8.81e-10,0
8.82e-10,3.31561e-08
8.83e-10,-1.75231e-08
8.84e-10,1.02519e-08
8.85e-10,-6.21528e-08
8.86e-10,-1.51777e-09
8.87e-10,1.50367e-09
8.88e-10,-1.48958e-09
8.89e-10,-4.22975e-11
8.9e-10,-3.13548e-08
8.91e-10,-2.3884e-08
8.92e-10,1.955e-10
8.93e-10,0
8.94e-10,-2.94552e-08
8.95e-10,-2.28083e-10
8.96e-10,-7.11302e-10
8.97e-10,-2.18369e-10
8.98e-10,-9.71432e-12
8.99e-10,2.60667e-10
9e-10,0
9.01e-10,-2.2325e-08
9.02e-10,-2.83277e-08
9.03e-10,4.56167e-10
9.04e-10,-2.15647e-09
9.05e-10,-9.39386e-10
9.06e-10,2.28083e-10
9.07e-10,-7.51957e-11
9.08e-10,-5.45548e-10
9.09e-10,2.28083e-10
9.1e-10,0
9.11e-10,-2.04988e-08
9.12e-10,-2.15647e-09
9.13e-10,-2.637e-08
9.14e-10,-2.18076e-09
9.15e-10,-4.56167e-10
9.16e-10,2.63692e-09
9.17e-10,-2.40884e-09
9.18e-10,2.79536e-09
9.19e-10,-2.57525e-08
9.2e-10,-2.28083e-10
9.21e-10,2.63692e-09
9.22e-10,-2.18076e-09
9.23e-10,-4.56167e-10
9.24e-10,-3.33219e-08
9.25e-10,-2.12499e-08
9.26e-10,2.52332e-10
9.27e-10,-2.30019e-10
9.28e-10,-2.42484e-11
9.29e-10,-4.56167e-10
9.3e-10,2.28083e-10
9.31e-10,-2.28031e-08
9.32e-10,-2.28083e-10
9.33e-10,-3.00805e-09
9.34e-10,-1.7753e-08
9.35e-10,6.23175e-10
9.36e-10,3.25831e-11
9.37e-10,-2.28083e-10
9.38e-10,2.28083e-10
9.39e-10,-2.28083e-10
9.4e-10,2.28083e-10
9.41e-10,-4.56167e-10
9.42e-10,-1.04772e-09
9.43e-10,-1.87097e-08
9.44e-10,-2.92673e-08
9.45e-10,-3.60134e-08
9.46e-10,2.28083e-10
9.47e-10,2.77927e-09
9.48e-10,-3.03085e-09
9.49e-10,3.23543e-09
9.5e-10,0
9.51e-10,-3.47051e-08
9.52e-10,-6.81461e-11
9.53e-10,-1.46465e-08
9.54e-10,8.99996e-10
9.55e-10,-3.03279e-10
9.56e-10,-1.87754e-09
9.57e-10,-2.28083e-10
9.58e-10,-2.28083e-10
9.59e-10,2.21034e-10
9.6e-10,0
9.61e-10,-4.51702e-08
9.62e-10,-2.28083e-10
9.63e-10,-7.51957e-11
9.64e-10,2.02793e-09
9.65e-10,0
9.66e-10,-1.24669e-09
9.67e-10,-7.06045e-10
9.68e-10,4.56167e-10
9.69e-10,-2.73136e-08
9.7e-10,-1.45455e-08
9.71e-10,1.95978e-09
9.72e-10,-2.28083e-10
9.73e-10,7.51957e-11
9.74e-10,-5.31363e-10
9.75e-10,4.23584e-10
9.76e-10,7.51957e-11
9.77e-10,-2.58029e-08
9.78e-10,-1.0445e-08
9.79e-10,2.10782e-09
9.8e-10,-1.955e-10
9.81e-10,4.22975e-11
9.82e-10,1.955e-10
9.83e-10,-4.56167e-10
9.84e-10,0
9.85e-10,-3.16465e-09
9.86e-10,-4.56167e-10
9.87e-10,-3.36585e-08
9.88e-10,0
9.89e-10,0
9.9e-10,2.28083e-10
9.91e-10,-4.56167e-10
9.92e-10,2.28083e-10
9.93e-10,-2.28083e-10
9.94e-10,-3.54111e-08
9.95e-10,-9.79891e-10
9.96e-10,0
9.97e-10,-2.28083e-10
9.98e-10,2.28083e-10
9.99e-10,2.28083e-10
1e-09,0
1.001e-09,2.28083e-10
1.002e-09,0
1.003e-09,0
1.004e-09,5.25194e-09
1.005e-09,-3.05319e-08
1.006e-09,0
1.007e-09,-2.28083e-10
1.008e-09,0
1.009e-09,0
1.01e-09,0
1.011e-09,0
1.012e-09,-3.33843e-08
1.013e-09,1.23977e-08
1.014e-09,6.0154e-09
1.015e-09,3.45902e-08
1.016e-09,-2.28083e-10
1.017e-09,2.28083e-10
1.018e-09,6.0154e-09
1.019e-09,0
1.02e-09,-2.28083e-10
1.021e-09,-3.29889e-08
1.022e-09,-2.65152e-08
1.023e-09,4.01494e-08
1.024e-09,2.28083e-10
1.025e-09,0
1.026e-09,0
1.027e-09,4.56167e-10
1.028e-09,4.23584e-10
1.029e-09,-4.23584e-10
1.03e-09,-2.67884e-09
1.031e-09,0
1.032e-09,-2.28083e-10
1.033e-09,-7.60015e-09
1.034e-09,-2.10782e-09
1.035e-09,0
1.036e-09,-2.28083e-10
1.037e-09,1.955e-10
1.038e-09,3.25831e-11
1.039e-09,-3.38545e-08
1.04e-09,4.1308e-08
1.041e-09,3.72923e-09
1.042e-09,0
1.043e-09,-2.28083e-10
1.044e-09,2.28083e-10
1.045e-09,-3.25831e-11
1.046e-09,2.60667e-10
1.047e-09,-3.95731e-09
1.048e-09,3.95731e-09
1.049e-09,4.79628e-08
1.05e-09,-3.64294e-08
1.051e-09,0
1.052e-09,-2.28083e-10
1.053e-09,3.00312e-09
1.054e-09,3.08771e-09
1.055e-09,-3.00312e-09
1.056e-09,4.23584e-10
1.057e-09,-3.83472e-08
1.058e-09,6.6186e-08
1.059e-09,3.25831e-11
1.06e-09,0
1.061e-09,0
1.062e-09,0
1.063e-09,0
1.064e-09,0
1.065e-09,0
1.066e-09,-3.48857e-08
1.067e-09,9.17502e-08
1.068e-09,-4.23584e-10
1.069e-09,0
1.07e-09,0
1.071e-09,-1.27348e-09
1.072e-09,-2.28083e-10
1.073e-09,0
1.074e-09,9.15599e-08
1.075e-09,4.29742e-08
1.076e-09,6.39913e-09
1.077e-09,-4.28639e-08
1.078e-09,6.76759e-09
1.079e-09,-6.80989e-09
1.08e-09,2.70381e-10
1.081e-09,-2.28083e-10
1.082e-09,-1.955e-10
1.083e-09,1.18556e-07
1.084e-09,0
1.085e-09,0
1.086e-09,-3.91886e-08
1.087e-09,0
1.088e-09,3.01017e-09
1.089e-09,2.28083e-10
1.09e-09,-2.28083e-10
1.091e-09,1.37341e-07
1.092e-09,-2.62564e-09
1.093e-09,3.23825e-09
1.094e-09,-2.28083e-10
1.095e-09,-3.99288e-08
1.096e-09,-6.12608e-10
1.097e-09,0
1.098e-09,1.80901e-07
1.099e-09,0
1.1e-09,0
1.101e-09,0
1.102e-09,-3.00312e-09
1.103e-09,0
1.104e-09,-3.99288e-08
1.105e-09,0
1.106e-09,6.36577e-10
1.107e-09,1.78583e-07
1.108e-09,1.28133e-08
1.109e-09,3.84498e-11
1.11e-09,0
1.111e-09,2.28083e-10
1.112e-09,-5.5876e-08
1.113e-09,-1.22233e-08
1.114e-09,2.46573e-08
1.115e-09,-1.20336e-08
1.116e-09,8.38209e-08
1.117e-09,1.20336e-08
1.118e-09,0
1.119e-09,-1.20336e-08
1.12e-09,-4.23354e-08
1.121e-09,0
1.122e-09,2.28083e-10
1.123e-09,0
1.124e-09,-2.06392e-10
1.125e-09,1.22547e-08
1.126e-09,-1.22888e-08
1.127e-09,1.20266e-08
1.128e-09,2.2962e-10
1.129e-09,-3.79831e-08
1.13e-09,0
1.131e-09,0
1.132e-09,0
1.133e-09,-4.09358e-10
1.134e-09,-4.51173e-12
1.135e-09,-1.35228e-08
1.136e-09,4.51173e-12
1.137e-09,1.3721e-08
1.138e-09,4.22975e-11
1.139e-09,-4.54115e-08
1.14e-09,0
1.141e-09,1.53203e-10
1.142e-09,-1.48691e-10
1.143e-09,-2.40512e-10
1.144e-09,4.13869e-10
1.145e-09,0
1.146e-09,4.22975e-11
1.147e-09,-4.22975e-11
1.148e-09,-4.44521e-08
1.149e-09,-4.98464e-10
1.15e-09,2.70381e-10
1.151e-09,1.53203e-10
1.152e-09,1.35318e-09
1.153e-09,-1.50638e-09
1.154e-09,1.2783e-09
1.155e-09,0
1.156e-09,-4.73213e-08
1.157e-09,-2.28083e-10
1.158e-09,1.955e-10
1.159e-09,-2.28083e-10
1.16e-09,0
1.161e-09,-1.955e-10
1.162e-09,1.955e-10
1.163e-09,-4.52019e-08
1.164e-09,0
1.165e-09,0
1.166e-09,1.955e-10
1.167e-09,-1.955e-10
1.168e-09,2.28083e-10
1.169e-09,0
1.17e-09,0
1.171e-09,0
1.172e-09,0
1.173e-09,0
1.174e-09,1.955e-10
1.175e-09,-4.94739e-08
1.176e-09,2.28083e-10
1.177e-09,0
1.178e-09,-1.955e-10
1.179e-09,-4.23584e-10
1.18e-09,0
1.181e-09,0
1.182e-09,-2.28083e-10
1.183e-09,4.23584e-10
1.184e-09,-4.9058e-08
1.185e-09,0
1.186e-09,2.28083e-10
1.187e-09,0
1.188e-09,0
1.189e-09,0
1.19e-09,0
1.191e-09,0
1.192e-09,-4.97584e-08
1.193e-09,2.28083e-10
1.194e-09,0
1.195e-09,0
1.196e-09,0
1.197e-09,1.1059e-10
1.198e-09,1.17493e-10
1.199e-09,0
1.2e-09,-5.48786e-08
1.201e-09,0
1.202e-09,-1.52888e-10
1.203e-09,0
1.204e-09,0
1.205e-09,0
1.206e-09,0
1.207e-09,0
1.208e-09,-2.28083e-10
1.209e-09,0
1.21e-09,-5.44791e-08
1.211e-09,0
1.212e-09,2.28083e-10
1.213e-09,-2.28083e-10
1.214e-09,-1.85786e-10
1.215e-09,0
1.216e-09,1.85786e-10
1.217e-09,0
1.218e-09,-5.41478e-08
1.219e-09,0
1.22e-09,0
1.221e-09,-4.23584e-10
1.222e-09,0
1.223e-09,0
1.224e-09,0
1.225e-09,4.56167e-10
1.226e-09,-6.1496e-08
1.227e-09,0
1.228e-09,0
1.229e-09,2.28083e-10
1.23e-09,-2.28083e-10
1.231e-09,0
1.232e-09,1.85786e-10
1.233e-09,0
1.234e-09,-1.85786e-10
1.235e-09,0
1.236e-09,-5.92376e-08
1.237e-09,0
1.238e-09,0
1.239e-09,-2.28083e-10
1.24e-09,8.65233e-09
1.241e-09,-8.42424e-09
1.242e-09,8.19616e-09
1.243e-09,2.28083e-10
1.244e-09,0
1.245e-09,-5.95619e-08
1.246e-09,-2.28083e-10
1.247e-09,0
1.248e-09,4.56167e-10
1.249e-09,-2.28083e-10
1.25e-09,-2.70381e-10
1.251e-09,2.70381e-10
1.252e-09,0
1.253e-09,-3.25267e-08
1.254e-09,4.22975e-11
1.255e-09,0
1.256e-09,-6.86417e-08
1.257e-09,-4.22975e-11
1.258e-09,4.56167e-10
1.259e-09,0
1.26e-09,0
1.261e-09,-2.28083e-10
1.262e-09,4.22975e-11
1.263e-09,2.28083e-10
1.264e-09,0
1.265e-09,-3.07528e-08
1.266e-09,0
1.267e-09,0
1.268e-09,0
1.269e-09,0
1.27e-09,0
1.271e-09,2.28083e-10
1.272e-09,0
1.273e-09,-6.60334e-08
1.274e-09,-2.28083e-10
1.275e-09,0
1.276e-09,0
1.277e-09,-2.28083e-10
1.278e-09,2.28083e-10
1.279e-09,-1.86162e-10
1.28e-09,1.86162e-10
1.281e-09,-9.32448e-11
1.282e-09,9.32448e-11
1.283e-09,-7.7073e-08
1.284e-09,0
1.285e-09,-3.12492e-10
1.286e-09,1.86664e-10
1.287e-09,-6.63598e-11
1.288e-09,-1.61724e-10
1.289e-09,3.25831e-11
1.29e-09,-7.05506e-08
1.291e-09,0
1.292e-09,-2.07399e-11
1.293e-09,3.25831e-11
1.294e-09,-2.28083e-10
1.295e-09,0
1.296e-09,0
1.297e-09,-7.33156e-08
1.298e-09,-9.32448e-11
1.299e-09,9.32448e-11
1.3e-09,0
1.301e-09,0
1.302e-09,0
1.303e-09,0
1.304e-09,0
1.305e-09,0
1.306e-09,-8.95155e-08
1.307e-09,0
1.308e-09,0
1.309e-09,0
1.31e-09,0
1.311e-09,2.28083e-10
1.312e-09,-2.28083e-10
1.313e-09,-7.98012e-08
1.314e-09,0
1.315e-09,0
1.316e-09,6.47574e-08
1.317e-09,0
1.318e-09,0
1.319e-09,2.28083e-10
1.32e-09,0
1.321e-09,-8.60894e-08
1.322e-09,-2.28083e-10
1.323e-09,0
1.324e-09,0
1.325e-09,2.28083e-10
1.326e-09,0
1.327e-09,0
1.328e-09,-6.01611e-08
1.329e-09,0
1.33e-09,-1.38454e-08
1.331e-09,0
1.332e-09,-1.27245e-08
1.333e-09,0
1.334e-09,0
1.335e-09,1.27245e-08
1.336e-09,0
1.337e-09,0
1.338e-09,0
1.339e-09,-9.43022e-08
1.34e-09,-8.87612e-08
1.341e-09,0
1.342e-09,1.955e-10
1.343e-09,-1.955e-10
1.344e-09,0
1.345e-09,0
1.346e-09,0
1.347e-09,-2.28083e-10
1.348e-09,-1.31491e-07
1.349e-09,2.28083e-10
1.35e-09,-2.28083e-10
1.351e-09,0
1.352e-09,0
1.353e-09,2.28083e-10
1.354e-09,0
1.355e-09,0
1.356e-09,0
1.357e-09,0
1.358e-09,-5.4096e-08
1.359e-09,-2.28083e-10
1.36e-09,0
1.361e-09,0
1.362e-09,-2.28083e-10
1.363e-09,0
1.364e-09,0
1.365e-09,0
1.366e-09,2.28083e-10
1.367e-09,-1.20252e-07
1.368e-09,-3.21328e-10
1.369e-09,3.21328e-10
1.37e-09,-9.32448e-11
1.371e-09,9.32448e-11
1.372e-09,0
1.373e-09,0
1.374e-09,0
1.375e-09,0
1.376e-09,-1.26561e-07
1.377e-09,0
1.378e-09,0
1.379e-09,0
1.38e-09,0
1.381e-09,0
1.382e-09,0
1.383e-09,0
1.384e-09,0
1.385e-09,-1.43642e-07
1.386e-09,0
1.387e-09,0
1.388e-09,0
1.389e-09,0
1.39e-09,-9.32448e-11
1.391e-09,0
1.392e-09,-1.57981e-07
1.393e-09,-1.49364e-07
1.394e-09,1.49592e-07
1.395e-09,-2.28083e-10
1.396e-09,-2.28083e-10
1.397e-09,2.28083e-10
1.398e-09,0
1.399e-09,0
1.4e-09,-2.42484e-11
1.401e-09,-1.10298e-07
1.402e-09,0
1.403e-09,2.42484e-11
1.404e-09,0
1.405e-09,0
1.406e-09,-2.28083e-10
1.407e-09,0
1.408e-09,0
1.409e-09,0
1.41e-09,-1.75915e-07
1.411e-09,2.28083e-10
1.412e-09,-9.01186e-09
1.413e-09,0
1.414e-09,0
1.415e-09,0
1.416e-09,0
1.417e-09,0
1.418e-09,0
1.419e-09,-1.22374e-07
1.42e-09,0
1.421e-09,9.32448e-11
1.422e-09,0
1.423e-09,0
1.424e-09,-3.11605e-07
1.425e-09,-9.32448e-11
1.426e-09,-2.42484e-11
1.427e-09,-2.11382e-07
1.428e-09,0
1.429e-09,7.51957e-11
1.43e-09,0
1.431e-09,0
1.432e-09,1.52888e-10
1.433e-09,-4.58194e-07
1.434e-09,7.51957e-11
1.435e-09,0
1.436e-09,2.76799e-09
1.437e-09,0
1.438e-09,-4.44419e-07
1.439e-09,0
1.44e-09,1.52888e-10
1.441e-09,-4.40206e-07
1.442e-09,1.00411e-08
1.443e-09,-6.42118e-07
1.444e-09,0
1.445e-09,0
1.446e-09,0
1.447e-09,-2.28083e-10
1.448e-09,-4.09524e-07
1.449e-09,0
1.45e-09,1.17493e-10
1.451e-09,0
1.452e-09,-1.17493e-10
1.453e-09,-3.78341e-07
1.454e-09,-2.28083e-10
1.455e-09,-1.44516e-09
1.456e-09,0
1.457e-09,0
1.458e-09,0
1.459e-09,0
1.46e-09,2.42484e-11
1.461e-09,2.28083e-10
1.462e-09,-2.28083e-10
1.463e-09,0
1.464e-09,2.72847e-07
1.465e-09,0
1.466e-09,-2.72847e-07
1.467e-09,2.72847e-07
1.468e-09,-2.72847e-07
1.469e-09,0
1.47e-09,0
1.471e-09,9.32448e-11
1.472e-09,0
1.473e-09,0
1.474e-09,0
1.475e-09,0
1.476e-09,0
1.477e-09,0
1.478e-09,-2.11487e-11
1.479e-09,0
1.48e-09,0
1.481e-09,-7.04958e-12
1.482e-09,7.04958e-12
1.483e-09,0
1.484e-09,0
1.485e-09,0
1.486e-09,2.28083e-10
1.487e-09,0
1.488e-09,-2.28083e-10
1.489e-09,0
1.49e-09,0
1.491e-09,0
1.492e-09,0
1.493e-09,1.46631e-09
1.494e-09,-1.46631e-09
1.495e-09,0
1.496e-09,0
1.497e-09,0
1.498e-09,0
1.499e-09,0
1.5e-09,0
1.501e-09,2.28083e-10
1.502e-09,-2.28083e-10
1.503e-09,2.28083e-10
1.504e-09,-7.04958e-12
1.505e-09,7.04958e-12
1.506e-09,-7.04958e-12
1.507e-09,-4.16534e-10
1.508e-09,1.955e-10
1.509e-09,0
1.51e-09,0
1.511e-09,0
1.512e-09,0
1.513e-09,2.28083e-10
1.514e-09,0
1.515e-09,1.46631e-09
1.516e-09,0
1.517e-09,0
1.518e-09,-1.46631e-09
1.519e-09,0
1.52e-09,0
1.521e-09,0
1.522e-09,2.28083e-10
1.523e-09,-2.28083e-10
1.524e-09,0
1.525e-09,0
1.526e-09,0
1.527e-09,0
1.528e-09,0
1.529e-09,0
1.53e-09,0
1.531e-09,-7.04958e-12
1.532e-09,0
1.533e-09,7.04958e-12
1.534e-09,0
1.535e-09,0
1.536e-09,0
1.537e-09,0
1.538e-09,0
1.539e-09,1.7342e-09
1.54e-09,0
1.541e-09,2.11032e-09
1.542e-09,0
1.543e-09,0
1.544e-09,-2.28083e-10
1.545e-09,0
1.546e-09,0
1.547e-09,-1.88224e-09
1.548e-09,1.88224e-09
1.549e-09,-1.88224e-09
1.55e-09,-2.28083e-10
1.551e-09,0
1.552e-09,-9.2986e-11
1.553e-09,0
1.554e-09,0
1.555e-09,0
1.556e-09,0
1.557e-09,-1.955e-10
1.558e-09,0
1.559e-09,0
1.56e-09,0
1.561e-09,0
1.562e-09,0
1.563e-09,0
1.564e-09,0
1.565e-09,0
1.566e-09,2.91359e-12
1.567e-09,-2.91359e-12
1.568e-09,0
1.569e-09,0
1.57e-09,0
1.571e-09,-3.25831e-11
1.572e-09,0
1.573e-09,0
1.574e-09,0
1.575e-09,0
1.576e-09,0
1.577e-09,0
1.578e-09,-3.28603e-08
1.579e-09,0
1.58e-09,0
1.581e-09,0
1.582e-09,0
1.583e-09,0
1.584e-09,0
1.585e-09,1.50389e-09
1.586e-09,-1.2758e-09
1.587e-09,0
1.588e-09,1.50389e-09
1.589e-09,0
1.59e-09,0
1.591e-09,-3.12538e-08
1.592e-09,0
1.593e-09,-1.50396e-09
1.594e-09,1.50396e-09
1.595e-09,0
1.596e-09,0
1.597e-09,0
1.598e-09,0
1.599e-09,0
1.6e-09,0
1.601e-09,0
1.602e-09,0
1.603e-09,0
1.604e-09,0
1.605e-09,0
1.606e-09,0
1.607e-09,1.955e-10
1.608e-09,-3.10666e-08
1.609e-09,0
1.61e-09,0
1.611e-09,0
1.612e-09,0
1.613e-09,0
1.614e-09,0
1.615e-09,0
1.616e-09,0
1.617e-09,-1.955e-10
1.618e-09,5.34585e-10
1.619e-09,0
1.62e-09,-3.39085e-10
1.621e-09,0
1.622e-09,3.39085e-10
1.623e-09,-2.75808e-08
1.624e-09,0
1.625e-09,0
1.626e-09,0
1.627e-09,6.87334e-10
1.628e-09,-6.87334e-10
1.629e-09,6.87334e-10
1.63e-09,0
1.631e-09,0
1.632e-09,-1.955e-10
1.633e-09,1.955e-10
1.634e-09,-2.75885e-08
1.635e-09,-1.2224e-09
1.636e-09,0
1.637e-09,0
1.638e-09,1.2224e-09
1.639e-09,-1.2224e-09
1.64e-09,0
1.641e-09,-1.955e-10
1.642e-09,1.955e-10
1.643e-09,-2.90057e-08
1.644e-09,1.955e-10
1.645e-09,0
1.646e-09,0
1.647e-09,-1.955e-10
1.648e-09,1.955e-10
1.649e-09,-1.955e-10
1.65e-09,1.955e-10
1.651e-09,-2.92884e-08
1.652e-09,-1.30817e-09
1.653e-09,0
1.654e-09,1.50367e-09
1.655e-09,-1.69918e-09
1.656e-09,1.955e-10
1.657e-09,1.50367e-09
1.658e-09,0
1.659e-09,-1.50367e-09
1.66e-09,0
1.661e-09,-2.80023e-08
1.662e-09,0
1.663e-09,3.25831e-11
1.664e-09,1.955e-10
1.665e-09,4.20507e-09
1.666e-09,-4.23584e-10
1.667e-09,4.23584e-10
1.668e-09,-2.28083e-10
1.669e-09,-1.955e-10
1.67e-09,-3.2801e-08
1.671e-09,0
1.672e-09,0
1.673e-09,1.955e-10
1.674e-09,0
1.675e-09,-1.955e-10
1.676e-09,1.955e-10
1.677e-09,0
1.678e-09,0
1.679e-09,-2.52467e-08
1.68e-09,0
1.681e-09,-1.955e-10
1.682e-09,1.955e-10
1.683e-09,0
1.684e-09,0
1.685e-09,0
1.686e-09,0
1.687e-09,0
1.688e-09,1.50367e-09
1.689e-09,0
1.69e-09,-3.01073e-08
1.691e-09,-1.50367e-09
1.692e-09,0
1.693e-09,2.28083e-10
1.694e-09,-2.28083e-10
1.695e-09,0
1.696e-09,0
1.697e-09,0
1.698e-09,0
1.699e-09,0
1.7e-09,-2.90922e-08
1.701e-09,-3.00805e-09
1.702e-09,0
1.703e-09,0
1.704e-09,0
1.705e-09,0
1.706e-09,0
1.707e-09,-3.21002e-08
1.708e-09,4.51173e-09
1.709e-09,-4.70723e-09
1.71e-09,4.51173e-09
1.711e-09,-4.51173e-09
1.712e-09,4.51173e-09
1.713e-09,0
1.714e-09,0
1.715e-09,0
1.716e-09,0
1.717e-09,-4.51173e-09
1.718e-09,-2.45812e-08
1.719e-09,-4.51173e-09
1.72e-09,0
1.721e-09,4.51173e-09
1.722e-09,0
1.723e-09,-1.50367e-09
1.724e-09,1.50367e-09
1.725e-09,-4.51173e-09
1.726e-09,4.51173e-09
1.727e-09,-2.88102e-08
1.728e-09,-4.51173e-09
1.729e-09,0
1.73e-09,0
1.731e-09,0
1.732e-09,0
1.733e-09,0
1.734e-09,0
1.735e-09,0
1.736e-09,0
1.737e-09,-3.21002e-08
1.738e-09,0
1.739e-09,0
1.74e-09,0
1.741e-09,0
1.742e-09,0
1.743e-09,0
1.744e-09,0
1.745e-09,0
1.746e-09,0
1.747e-09,-2.93558e-08
1.748e-09,0
1.749e-09,0
1.75e-09,0
1.751e-09,0
1.752e-09,0
1.753e-09,0
1.754e-09,0
1.755e-09,0
1.756e-09,-3.1861e-08
1.757e-09,0
1.758e-09,1.17493e-10
1.759e-09,0
1.76e-09,0
1.761e-09,0
1.762e-09,0
1.763e-09,0
1.764e-09,0
1.765e-09,-3.38859e-08
1.766e-09,0
1.767e-09,0
1.768e-09,0
1.769e-09,0
1.77e-09,0
1.771e-09,0
1.772e-09,-9.32448e-11
1.773e-09,9.32448e-11
1.774e-09,-9.32448e-11
1.775e-09,9.32448e-11
1.776e-09,-3.15407e-08
1.777e-09,0
1.778e-09,0
1.779e-09,0
1.78e-09,0
1.781e-09,0
1.782e-09,-3.14376e-08
1.783e-09,0
1.784e-09,9.32448e-11
1.785e-09,0
1.786e-09,0
1.787e-09,0
1.788e-09,2.28083e-10
1.789e-09,-2.28083e-10
1.79e-09,0
1.791e-09,-3.38859e-08
1.792e-09,0
1.793e-09,2.28083e-10
1.794e-09,7.51978e-09
1.795e-09,0
1.796e-09,0
1.797e-09,-2.28083e-10
1.798e-09,0
1.799e-09,0
1.8e-09,0
1.801e-09,0
1.802e-09,0
1.803e-09,-3.53261e-08
1.804e-09,0
1.805e-09,0
1.806e-09,0
1.807e-09,0
1.808e-09,0
1.809e-09,2.28083e-10
1.81e-09,-2.28083e-10
1.811e-09,-3.36096e-08
1.812e-09,0
1.813e-09,0
1.814e-09,0
1.815e-09,-7.23992e-09
1.816e-09,0
1.817e-09,0
1.818e-09,0
1.819e-09,0
1.82e-09,-3.56286e-08
1.821e-09,0
1.822e-09,0
1.823e-09,9.02346e-09
1.824e-09,-9.02346e-09
1.825e-09,2.28083e-10
1.826e-09,0
1.827e-09,0
1.828e-09,8.79538e-09
1.829e-09,0
1.83e-09,-3.48461e-08
1.831e-09,0
1.832e-09,0
1.833e-09,2.28083e-10
1.834e-09,0
1.835e-09,0
1.836e-09,-9.30544e-09
1.837e-09,-3.56286e-08
1.838e-09,9.30544e-09
1.839e-09,0
1.84e-09,-9.30544e-09
1.841e-09,0
1.842e-09,-2.28083e-10
1.843e-09,0
1.844e-09,0
1.845e-09,0
1.846e-09,0
1.847e-09,-3.46578e-08
1.848e-09,0
1.849e-09,-2.28083e-10
1.85e-09,0
1.851e-09,0
1.852e-09,0
1.853e-09,0
1.854e-09,0
1.855e-09,9.02346e-09
1.856e-09,-4.5928e-08
1.857e-09,0
1.858e-09,1.05321e-08
1.859e-09,-1.05321e-08
1.86e-09,-2.28083e-10
1.861e-09,2.28083e-10
1.862e-09,0
1.863e-09,0
1.864e-09,-2.61751e-08
1.865e-09,0
1.866e-09,-1.0525e-08
1.867e-09,0
1.868e-09,1.0525e-08
1.869e-09,0
1.87e-09,0
1.871e-09,0
1.872e-09,0
1.873e-09,0
1.874e-09,0
1.875e-09,-4.04857e-08
1.876e-09,0
1.877e-09,-4.22975e-11
1.878e-09,4.22975e-11
1.879e-09,0
1.88e-09,0
1.881e-09,0
1.882e-09,-1.50156e-09
1.883e-09,-3.66296e-08
1.884e-09,0
1.885e-09,0
1.886e-09,-2.28083e-10
1.887e-09,2.28083e-10
1.888e-09,-2.28083e-10
1.889e-09,2.28083e-10
1.89e-09,0
1.891e-09,0
1.892e-09,-3.84131e-08
1.893e-09,0
1.894e-09,0
1.895e-09,-2.70381e-10
1.896e-09,4.22975e-11
1.897e-09,0
1.898e-09,0
1.899e-09,0
1.9e-09,-4.01967e-08
1.901e-09,0
1.902e-09,2.28083e-10
1.903e-09,-2.28083e-10
1.904e-09,0
1.905e-09,1.35352e-08
1.906e-09,-1.35352e-08
1.907e-09,0
1.908e-09,0
1.909e-09,1.35352e-08
1.91e-09,-5.7306e-08
1.911e-09,2.28083e-10
1.912e-09,1.65383e-08
1.913e-09,0
1.914e-09,1.73669e-09
1.915e-09,0
1.916e-09,0
1.917e-09,0
1.918e-09,-2.28083e-10
1.919e-09,0
1.92e-09,-5.83846e-08
1.921e-09,1.63173e-08
1.922e-09,4.56167e-10
1.923e-09,-2.28083e-10
1.924e-09,0
1.925e-09,-2.28083e-10
1.926e-09,0
1.927e-09,0
1.928e-09,0
1.929e-09,0
1.93e-09,-4.17617e-08
1.931e-09,0
1.932e-09,0
1.933e-09,0
1.934e-09,0
1.935e-09,2.28083e-10
1.936e-09,0
1.937e-09,-3.92591e-08
1.938e-09,0
1.939e-09,0
1.94e-09,0
1.941e-09,-2.28083e-10
1.942e-09,0
1.943e-09,0
1.944e-09,2.28083e-10
1.945e-09,0
1.946e-09,-1.50156e-09
1.947e-09,-4.09228e-08
1.948e-09,0
1.949e-09,0
1.95e-09,0
1.951e-09,0
1.952e-09,0
1.953e-09,0
1.954e-09,-4.32658e-08
1.955e-09,2.28083e-10
1.956e-09,-2.28083e-10
1.957e-09,0
1.958e-09,0
1.959e-09,0
1.96e-09,2.28083e-10
1.961e-09,0
1.962e-09,-4.58247e-08
1.963e-09,0
1.964e-09,0
1.965e-09,0
1.966e-09,0
1.967e-09,0
1.968e-09,2.28083e-10
1.969e-09,-4.55569e-08
1.97e-09,0
1.971e-09,0
1.972e-09,2.28083e-10
1.973e-09,0
1.974e-09,0
1.975e-09,0
1.976e-09,0
1.977e-09,-1.99221e-08
1.978e-09,-2.57662e-08
1.979e-09,2.55381e-08
1.98e-09,-2.57662e-08
1.981e-09,0
1.982e-09,2.57662e-08
1.983e-09,0
1.984e-09,-4.23609e-08
1.985e-09,-3.07407e-08
1.986e-09,0
1.987e-09,0
1.988e-09,2.87129e-08
1.989e-09,-2.87129e-08
1.99e-09,2.84848e-08
1.991e-09,2.28083e-10
1.992e-09,-2.87129e-08
1.993e-09,-4.78596e-08
1.994e-09,-2.28083e-10
1.995e-09,2.41096e-09
1.996e-09,2.28083e-10
1.997e-09,-2.28083e-10
1.998e-09,0
1.999e-09,0
2e-09,-1.17493e-10
2.001e-09,2.28083e-10
2.1e-09,0
