0,0
1e-12,-1.00358e-06
2e-12,-8.86624e-07
3e-12,-7.05427e-07
4e-12,-2.48846e-07
5e-12,-4.27188e-08
6e-12,-1.1056e-07
7e-12,-7.67788e-07
8e-12,-3.12122e-07
9e-12,-2.66752e-06
1e-11,-1.8178e-07
1.1e-11,-4.34771e-07
1.2e-11,-2.76915e-07
1.3e-11,-1.15737e-06
1.4e-11,-1.72958e-06
1.5e-11,-1.20178e-07
1.6e-11,-9.56022e-07
1.7e-11,-4.39748e-07
1.8e-11,-4.15958e-07
1.9e-11,-1.1158e-06
2e-11,1.42804e-07
2.1e-11,-4.27677e-07
2.2e-11,-1.08881e-06
2.3e-11,-1.19472e-06
2.4e-11,-3.02277e-07
2.5e-11,-5.72754e-07
2.6e-11,-2.72709e-07
2.7e-11,-2.57939e-06
2.8e-11,-6.10465e-08
2.9e-11,5.16373e-07
3e-11,-5.92903e-07
3.1e-11,-4.31105e-07
3.2e-11,-1.76551e-06
3.3e-11,-1.61249e-07
3.4e-11,2.68593e-07
3.5e-11,-9.24582e-07
3.6e-11,-1.2029e-06
3.7e-11,2.84939e-08
3.8e-11,-8.23846e-07
3.9e-11,-1.50329e-06
4e-11,2.45824e-07
4.1e-11,-6.72615e-07
4.2e-11,-3.08683e-07
4.3e-11,4.39786e-07
4.4e-11,-9.39803e-07
4.5e-11,-2.09296e-07
4.6e-11,-3.09049e-07
4.7e-11,-5.97741e-07
4.8e-11,-3.17483e-07
4.9e-11,-5.66487e-07
5e-11,-1.00993e-07
5.1e-11,5.37562e-07
5.2e-11,-1.74417e-07
5.3e-11,1.0987e-06
5.4e-11,-1.75321e-06
5.5e-11,-3.46495e-07
5.6e-11,-7.43486e-07
5.7e-11,-1.0783e-06
5.8e-11,-8.51882e-07
5.9e-11,3.78151e-07
6e-11,-8.70294e-07
6.1e-11,-1.73539e-06
6.2e-11,-7.80698e-07
6.3e-11,-2.54171e-07
6.4e-11,2.83489e-07
6.5e-11,-3.55491e-07
6.6e-11,-1.28427e-06
6.7e-11,-8.33415e-07
6.8e-11,-1.16312e-06
6.9e-11,-4.24621e-07
7e-11,-1.31768e-06
7.1e-11,-1.57149e-06
7.2e-11,-1.07225e-07
7.3e-11,-8.35819e-07
7.4e-11,-1.62691e-06
7.5e-11,-7.72796e-07
7.6e-11,-6.21844e-07
7.7e-11,-2.03925e-06
7.8e-11,-5.98927e-07
7.9e-11,-5.04099e-07
8e-11,-1.09961e-06
8.1e-11,-1.83095e-06
8.2e-11,-1.21367e-06
8.3e-11,-1.16281e-06
8.4e-11,-1.04807e-06
8.5e-11,-3.59885e-07
8.6e-11,-2.56949e-07
8.7e-11,-2.78435e-06
8.8e-11,-2.09064e-06
8.9e-11,-1.16802e-06
9e-11,-1.23378e-06
9.1e-11,-8.87518e-07
9.2e-11,-3.32815e-07
9.3e-11,-1.50195e-06
9.4e-11,-7.46589e-07
9.5e-11,-8.4994e-07
9.6e-11,-2.41459e-07
9.7e-11,-1.41706e-06
9.8e-11,-1.45186e-06
9.9e-11,-1.22066e-06
1e-10,-1.61382e-06
1.01e-10,-1.26449e-06
1.02e-10,-2.07281e-06
1.03e-10,2.86466e-07
1.04e-10,-1.81548e-06
1.05e-10,-1.65825e-06
1.06e-10,-1.9364e-07
1.07e-10,-8.59024e-07
1.08e-10,-1.64624e-06
1.09e-10,-1.66437e-06
1.1e-10,-6.56341e-07
1.11e-10,-1.24312e-06
1.12e-10,-6.42174e-07
1.13e-10,-5.2004e-08
1.14e-10,-1.47997e-06
1.15e-10,-3.55454e-07
1.16e-10,-5.23798e-07
1.17e-10,-5.85219e-07
1.18e-10,-7.65419e-07
1.19e-10,2.15525e-07
1.2e-10,-1.36428e-06
1.21e-10,-4.15179e-07
1.22e-10,-1.31334e-06
1.23e-10,-1.18293e-06
1.24e-10,-3.2426e-07
1.25e-10,-1.07471e-06
1.26e-10,-1.07357e-06
1.27e-10,-1.08498e-06
1.28e-10,-9.53953e-07
1.29e-10,-6.52482e-07
1.3e-10,1.17763e-07
1.31e-10,-6.55228e-07
1.32e-10,-1.42684e-06
1.33e-10,-1.53722e-06
1.34e-10,-2.50311e-07
1.35e-10,-7.78098e-07
1.36e-10,-6.77336e-07
1.37e-10,-5.74656e-07
1.38e-10,-1.39025e-06
1.39e-10,-1.86218e-06
1.4e-10,5.88824e-07
1.41e-10,-2.41505e-06
1.42e-10,-1.02849e-06
1.43e-10,-1.21945e-06
1.44e-10,-1.10555e-06
1.45e-10,-1.49685e-06
1.46e-10,-7.2371e-07
1.47e-10,6.2751e-07
1.48e-10,2.64936e-07
1.49e-10,-1.33396e-06
1.5e-10,-1.22982e-07
1.51e-10,-3.00349e-07
1.52e-10,-1.14778e-06
1.53e-10,-5.9817e-07
1.54e-10,-1.14828e-07
1.55e-10,-9.50539e-07
1.56e-10,-5.92327e-08
1.57e-10,-2.50189e-07
1.58e-10,-2.79661e-07
1.59e-10,1.53157e-07
1.6e-10,-3.83716e-07
1.61e-10,-5.44315e-07
1.62e-10,-5.48185e-07
1.63e-10,-1.19578e-06
1.64e-10,8.47745e-07
1.65e-10,-1.94717e-07
1.66e-10,3.77698e-07
1.67e-10,-5.47833e-07
1.68e-10,-2.65319e-07
1.69e-10,-7.53242e-08
1.7e-10,-1.16711e-07
1.71e-10,-9.9164e-07
1.72e-10,-1.0578e-06
1.73e-10,-2.51992e-07
1.74e-10,-4.45608e-08
1.75e-10,-6.13887e-07
1.76e-10,-7.71535e-07
1.77e-10,-7.66696e-07
1.78e-10,1.45817e-06
1.79e-10,-3.20549e-07
1.8e-10,1.06705e-07
1.81e-10,-6.19886e-07
1.82e-10,-1.70837e-06
1.83e-10,-2.53581e-07
1.84e-10,1.11977e-07
1.85e-10,-7.97316e-07
1.86e-10,-1.95768e-06
1.87e-10,-3.46363e-07
1.88e-10,-7.17964e-07
1.89e-10,-1.35408e-06
1.9e-10,1.72088e-07
1.91e-10,-5.23696e-07
1.92e-10,2.14793e-07
1.93e-10,-1.14908e-06
1.94e-10,9.37353e-08
1.95e-10,-6.12676e-07
1.96e-10,-6.5615e-07
1.97e-10,-1.08339e-06
1.98e-10,-5.04731e-07
1.99e-10,-3.70559e-07
2e-10,-7.31077e-07
2.01e-10,-6.74184e-07
2.02e-10,-6.43476e-07
2.03e-10,-1.95993e-08
2.04e-10,-1.33085e-06
2.05e-10,-3.52863e-07
2.06e-10,-3.6283e-07
2.07e-10,-7.29554e-07
2.08e-10,-1.2816e-06
2.09e-10,-5.30302e-07
2.1e-10,-1.0297e-06
2.11e-10,-6.39126e-07
2.12e-10,-1.49564e-06
2.13e-10,-2.60504e-07
2.14e-10,-1.52657e-07
2.15e-10,-1.69335e-06
2.16e-10,-6.67705e-07
2.17e-10,-4.54251e-07
2.18e-10,-8.54044e-07
2.19e-10,7.59169e-07
2.2e-10,6.98069e-07
2.21e-10,-6.02863e-07
2.22e-10,-4.43812e-07
2.23e-10,-1.47153e-06
2.24e-10,1.65925e-07
2.25e-10,-6.17979e-07
2.26e-10,-3.18941e-07
2.27e-10,-9.30155e-07
2.28e-10,3.57942e-07
2.29e-10,-1.65804e-07
2.3e-10,-4.67653e-07
2.31e-10,-7.83417e-07
2.32e-10,6.60228e-07
2.33e-10,-7.57255e-07
2.34e-10,7.58255e-07
2.35e-10,-5.28977e-07
2.36e-10,-8.33441e-07
2.37e-10,-3.00584e-07
2.38e-10,-8.70363e-07
2.39e-10,6.26034e-07
2.4e-10,-1.35226e-06
2.41e-10,4.75996e-07
2.42e-10,-1.67132e-06
2.43e-10,-6.65755e-07
2.44e-10,-4.2555e-07
2.45e-10,1.22571e-07
2.46e-10,-2.10962e-06
2.47e-10,2.05371e-07
2.48e-10,-4.55264e-07
2.49e-10,-1.03294e-06
2.5e-10,-1.04056e-06
2.51e-10,4.26479e-08
2.52e-10,-1.42573e-06
2.53e-10,-7.70764e-07
2.54e-10,-3.71148e-07
2.55e-10,-1.60133e-06
2.56e-10,3.06238e-07
2.57e-10,1.51046e-07
2.58e-10,-7.70702e-07
2.59e-10,-2.5036e-07
2.6e-10,-2.2881e-07
2.61e-10,-3.40625e-07
2.62e-10,-1.13652e-06
2.63e-10,-7.91371e-07
2.64e-10,-1.77255e-07
2.65e-10,-1.08148e-06
2.66e-10,-5.57202e-07
2.67e-10,-7.82376e-07
2.68e-10,-1.53074e-07
2.69e-10,-8.68631e-07
2.7e-10,-9.52936e-07
2.71e-10,2.03158e-07
2.72e-10,-1.50265e-06
2.73e-10,1.04918e-07
2.74e-10,-1.20958e-06
2.75e-10,7.52807e-08
2.76e-10,-2.32644e-07
2.77e-10,-1.08549e-06
2.78e-10,-6.56451e-07
2.79e-10,6.05158e-08
2.8e-10,-1.40053e-06
2.81e-10,4.25559e-07
2.82e-10,-3.62411e-07
2.83e-10,-2.99169e-07
2.84e-10,3.87418e-07
2.85e-10,-2.32732e-07
2.86e-10,-1.21333e-06
2.87e-10,-4.81639e-07
2.88e-10,-2.21511e-07
2.89e-10,-3.63696e-07
2.9e-10,-6.40233e-07
2.91e-10,-7.05094e-08
2.92e-10,-2.99672e-07
2.93e-10,-4.18275e-07
2.94e-10,-3.40111e-07
2.95e-10,-8.64576e-07
2.96e-10,-3.84193e-07
2.97e-10,-1.88051e-06
2.98e-10,2.32064e-07
2.99e-10,-5.71703e-07
3e-10,-1.62567e-07
3.01e-10,-1.39806e-06
3.02e-10,-1.13963e-06
3.03e-10,-1.4375e-06
3.04e-10,-1.89534e-06
3.05e-10,7.79003e-07
3.06e-10,-9.16021e-07
3.07e-10,-2.28954e-06
3.08e-10,-1.26987e-06
3.09e-10,-1.09217e-07
3.1e-10,-4.92472e-07
3.11e-10,-1.78499e-06
3.12e-10,-1.16947e-06
3.13e-10,-2.30411e-07
3.14e-10,-9.75409e-07
3.15e-10,-1.15031e-06
3.16e-10,-3.08454e-07
3.17e-10,-1.25365e-07
3.18e-10,-1.11062e-06
3.19e-10,-9.20894e-07
3.2e-10,-3.96974e-07
3.21e-10,-1.09887e-07
3.22e-10,-1.64229e-06
3.23e-10,-2.83493e-08
3.24e-10,-4.05626e-07
3.25e-10,-4.12318e-07
3.26e-10,3.197e-07
3.27e-10,-1.05495e-06
3.28e-10,-4.26494e-07
3.29e-10,2.75718e-08
3.3e-10,-4.11223e-07
3.31e-10,-2.14779e-07
3.32e-10,6.90669e-08
3.33e-10,-4.62414e-07
3.34e-10,-2.99459e-07
3.35e-10,4.93042e-07
3.36e-10,3.35329e-08
3.37e-10,-1.7523e-07
3.38e-10,-2.44775e-08
3.39e-10,-2.04571e-07
3.4e-10,6.19869e-09
3.41e-10,2.01572e-08
3.42e-10,7.57714e-08
3.43e-10,-2.48427e-07
3.44e-10,-1.79033e-08
3.45e-10,-3.33401e-07
3.46e-10,-1.65288e-07
3.47e-10,-2.47344e-07
3.48e-10,2.71606e-07
3.49e-10,-2.76982e-07
3.5e-10,4.47096e-08
3.51e-10,7.42573e-08
3.52e-10,1.09398e-07
3.53e-10,6.32292e-08
3.54e-10,-5.57929e-07
3.55e-10,6.42427e-08
3.56e-10,-3.89766e-07
3.57e-10,-3.60464e-07
3.58e-10,4.39311e-07
3.59e-10,-4.86775e-07
3.6e-10,1.38057e-07
3.61e-10,1.19371e-07
3.62e-10,-4.36334e-07
3.63e-10,-1.48443e-07
3.64e-10,9.82985e-08
3.65e-10,-5.33507e-07
3.66e-10,-7.96886e-08
3.67e-10,-9.91373e-08
3.68e-10,-2.76998e-07
3.69e-10,-3.37971e-07
3.7e-10,-3.54274e-07
3.71e-10,2.76272e-07
3.72e-10,-2.99776e-07
3.73e-10,1.45142e-07
3.74e-10,-3.27804e-07
3.75e-10,-1.1873e-07
3.76e-10,-1.05981e-06
3.77e-10,3.16325e-08
3.78e-10,5.42552e-07
3.79e-10,-1.26943e-07
3.8e-10,-6.40841e-07
3.81e-10,1.08234e-07
3.82e-10,-1.22469e-06
3.83e-10,-3.6593e-07
3.84e-10,-4.42406e-07
3.85e-10,-8.76326e-07
3.86e-10,-4.12098e-07
3.87e-10,-2.50204e-07
3.88e-10,-2.91378e-07
3.89e-10,-7.22238e-07
3.9e-10,-8.53304e-07
3.91e-10,-5.74125e-07
3.92e-10,-2.10336e-07
3.93e-10,-1.72965e-06
3.94e-10,4.28514e-08
3.95e-10,-1.22887e-06
3.96e-10,-9.08304e-07
3.97e-10,-3.07726e-07
3.98e-10,-2.85207e-07
3.99e-10,-1.69524e-07
4e-10,-5.42592e-07
4.01e-10,-4.71648e-07
4.02e-10,-4.33183e-07
4.03e-10,-4.77325e-07
4.04e-10,4.10883e-07
4.05e-10,-4.43441e-07
4.06e-10,-6.49326e-07
4.07e-10,1.64946e-07
4.08e-10,1.03444e-07
4.09e-10,-8.92331e-08
4.1e-10,-9.17587e-07
4.11e-10,-4.00497e-07
4.12e-10,-2.20688e-07
4.13e-10,2.79118e-07
4.14e-10,-5.68827e-07
4.15e-10,1.90171e-07
4.16e-10,7.28894e-07
4.17e-10,-1.51903e-07
4.18e-10,5.46822e-08
4.19e-10,-3.37567e-07
4.2e-10,-7.38412e-07
4.21e-10,-1.06483e-07
4.22e-10,-2.62446e-07
4.23e-10,-6.18987e-07
4.24e-10,-1.1981e-06
4.25e-10,-4.09117e-08
4.26e-10,-6.77948e-07
4.27e-10,-6.6129e-07
4.28e-10,-2.76674e-07
4.29e-10,-8.7632e-07
4.3e-10,-1.89697e-06
4.31e-10,2.01894e-07
4.32e-10,1.53175e-07
4.33e-10,-9.03288e-07
4.34e-10,-7.64144e-07
4.35e-10,-8.33586e-07
4.36e-10,-1.49379e-06
4.37e-10,-8.04341e-07
4.38e-10,-1.94075e-07
4.39e-10,-1.18278e-06
4.4e-10,-1.47501e-06
4.41e-10,-6.42157e-07
4.42e-10,-2.50467e-07
4.43e-10,-1.18679e-06
4.44e-10,-1.77367e-06
4.45e-10,-1.51358e-06
4.46e-10,-1.03952e-06
4.47e-10,-4.76948e-07
4.48e-10,-4.9631e-07
4.49e-10,-1.70261e-06
4.5e-10,-6.09652e-07
4.51e-10,-7.31693e-07
4.52e-10,-1.14449e-07
4.53e-10,-1.14082e-06
4.54e-10,3.81195e-08
4.55e-10,-5.14684e-07
4.56e-10,-1.4168e-06
4.57e-10,-1.39997e-06
4.58e-10,-1.85457e-08
4.59e-10,-2.82612e-07
4.6e-10,1.37155e-07
4.61e-10,-7.91507e-07
4.62e-10,-9.05161e-07
4.63e-10,-6.16876e-07
4.64e-10,1.12259e-07
4.65e-10,-8.32167e-07
4.66e-10,2.98177e-07
4.67e-10,-8.68018e-07
4.68e-10,-1.06263e-07
4.69e-10,-2.40046e-07
4.7e-10,-6.14098e-07
4.71e-10,-1.87894e-07
4.72e-10,-3.32639e-07
4.73e-10,-5.10811e-07
4.74e-10,1.52563e-07
4.75e-10,-1.23919e-06
4.76e-10,-5.5851e-08
4.77e-10,2.84457e-07
4.78e-10,-5.67826e-07
4.79e-10,-4.36755e-07
4.8e-10,-1.47027e-06
4.81e-10,-1.92286e-07
4.82e-10,-1.17486e-06
4.83e-10,-1.28861e-06
4.84e-10,-6.24147e-07
4.85e-10,-6.40021e-07
4.86e-10,2.03925e-08
4.87e-10,-8.10992e-07
4.88e-10,-2.72745e-07
4.89e-10,-1.10093e-06
4.9e-10,-1.29663e-07
4.91e-10,-4.40675e-07
4.92e-10,-4.30033e-07
4.93e-10,-1.07504e-06
4.94e-10,-9.95563e-07
4.95e-10,-5.26837e-07
4.96e-10,2.34394e-07
4.97e-10,-1.52794e-06
4.98e-10,2.84645e-07
4.99e-10,-1.57407e-06
5e-10,-1.92736e-07
5.01e-10,-2.07147e-07
5.02e-10,-1.43992e-06
5.03e-10,-2.65332e-07
5.04e-10,-3.77376e-07
5.05e-10,-3.79609e-07
5.06e-10,-5.89374e-07
5.07e-10,1.64796e-08
5.08e-10,-5.34014e-07
5.09e-10,-2.64206e-07
5.1e-10,-3.0489e-07
5.11e-10,2.71765e-07
5.12e-10,-8.19722e-07
5.13e-10,2.33752e-08
5.14e-10,4.35664e-09
5.15e-10,-9.96854e-08
5.16e-10,-2.5113e-07
5.17e-10,-1.26411e-07
5.18e-10,-2.6297e-07
5.19e-10,2.64879e-07
5.2e-10,-5.57988e-07
5.21e-10,-2.40374e-07
5.22e-10,3.74181e-07
5.23e-10,2.08568e-07
5.24e-10,6.14868e-08
5.25e-10,-5.30371e-07
5.26e-10,1.16263e-07
5.27e-10,-5.09428e-07
5.28e-10,-8.23887e-08
5.29e-10,8.30604e-07
5.3e-10,5.60982e-08
5.31e-10,1.99239e-07
5.32e-10,-7.24186e-08
5.33e-10,1.18967e-07
5.34e-10,9.52401e-08
5.35e-10,-2.93281e-07
5.36e-10,-6.97368e-10
5.37e-10,-7.68246e-07
5.38e-10,7.81898e-07
5.39e-10,-3.50717e-07
5.4e-10,1.48888e-07
5.41e-10,3.42562e-08
5.42e-10,1.39897e-07
5.43e-10,-1.84918e-07
5.44e-10,3.79746e-07
5.45e-10,-4.33624e-07
5.46e-10,-6.4289e-08
5.47e-10,9.83616e-07
5.48e-10,1.04812e-07
5.49e-10,-6.60749e-08
5.5e-10,-9.98668e-08
5.51e-10,-4.77484e-07
5.52e-10,4.53748e-07
5.53e-10,-2.15087e-07
5.54e-10,2.75018e-07
5.55e-10,-1.53307e-07
5.56e-10,-5.23798e-07
5.57e-10,-1.0938e-07
5.58e-10,9.96513e-07
5.59e-10,-5.15997e-07
5.6e-10,6.37162e-08
5.61e-10,-1.59945e-08
5.62e-10,3.64506e-07
5.63e-10,-1.32991e-07
5.64e-10,2.2631e-07
5.65e-10,-2.79514e-08
5.66e-10,3.03701e-07
5.67e-10,-5.96204e-07
5.68e-10,5.57922e-07
5.69e-10,-1.04337e-09
5.7e-10,-4.97641e-10
5.71e-10,5.04494e-07
5.72e-10,-7.9696e-08
5.73e-10,-3.1111e-07
5.74e-10,1.65691e-07
5.75e-10,1.16238e-07
5.76e-10,3.20363e-09
5.77e-10,2.35103e-07
5.78e-10,2.42409e-07
5.79e-10,-3.34679e-07
5.8e-10,-4.08702e-08
5.81e-10,-2.15212e-07
5.82e-10,-1.8403e-07
5.83e-10,-4.60991e-07
5.84e-10,-5.8072e-07
5.85e-10,6.19083e-07
5.86e-10,-2.38014e-07
5.87e-10,-7.02668e-07
5.88e-10,-6.17477e-08
5.89e-10,-4.36259e-07
5.9e-10,3.68816e-07
5.91e-10,-4.45329e-07
5.92e-10,-6.91351e-07
5.93e-10,-7.7218e-08
5.94e-10,4.22775e-09
5.95e-10,-2.67268e-08
5.96e-10,-1.0968e-07
5.97e-10,-9.18554e-08
5.98e-10,-4.6069e-07
5.99e-10,-3.21839e-07
6e-10,-1.65594e-07
6.01e-10,7.24713e-08
6.02e-10,7.12367e-08
6.03e-10,-9.58971e-09
6.04e-10,-5.90063e-07
6.05e-10,2.03417e-07
6.06e-10,-8.16669e-07
6.07e-10,9.45611e-08
6.08e-10,-7.81993e-08
6.09e-10,-4.85255e-07
6.1e-10,-6.11918e-08
6.11e-10,-4.87257e-07
6.12e-10,3.72373e-07
6.13e-10,-3.82602e-07
6.14e-10,-4.68137e-07
6.15e-10,6.00199e-08
6.16e-10,1.61751e-07
6.17e-10,-7.6291e-07
6.18e-10,-8.30583e-07
6.19e-10,7.47695e-07
6.2e-10,-4.69517e-09
6.21e-10,-2.11744e-06
6.22e-10,-1.02754e-07
6.23e-10,1.11544e-07
6.24e-10,-1.41577e-07
6.25e-10,1.28824e-07
6.26e-10,-2.402e-07
6.27e-10,-1.07917e-07
6.28e-10,-6.22137e-08
6.29e-10,-1.08177e-07
6.3e-10,-9.24732e-08
6.31e-10,-5.3341e-08
6.32e-10,3.1198e-07
6.33e-10,3.24864e-07
6.34e-10,-2.80034e-07
6.35e-10,-3.60248e-07
6.36e-10,7.13404e-08
6.37e-10,6.20797e-07
6.38e-10,3.04314e-08
6.39e-10,-2.79981e-08
6.4e-10,-1.44074e-07
6.41e-10,3.23518e-07
6.42e-10,-5.92185e-08
6.43e-10,-5.42261e-08
6.44e-10,-2.81793e-09
6.45e-10,6.69519e-08
6.46e-10,-1.15332e-07
6.47e-10,2.66078e-07
6.48e-10,-5.29076e-08
6.49e-10,-1.14949e-07
6.5e-10,1.95393e-09
6.51e-10,-2.95652e-07
6.52e-10,1.06803e-07
6.53e-10,-8.39875e-08
6.54e-10,-2.28843e-09
6.55e-10,3.3034e-08
6.56e-10,2.39549e-08
6.57e-10,-8.68559e-08
6.58e-10,3.71069e-08
6.59e-10,-3.14954e-08
6.6e-10,-1.03144e-07
6.61e-10,3.35642e-09
6.62e-10,-4.78894e-08
6.63e-10,-6.07643e-08
6.64e-10,-9.72256e-08
6.65e-10,-2.48079e-08
6.66e-10,2.80346e-07
6.67e-10,-1.9847e-07
6.68e-10,-3.09973e-08
6.69e-10,8.44288e-08
6.7e-10,1.35443e-08
6.71e-10,-2.93591e-08
6.72e-10,2.36139e-07
6.73e-10,-8.50779e-08
6.74e-10,-2.4822e-07
6.75e-10,6.25455e-08
6.76e-10,1.84609e-07
6.77e-10,2.43768e-07
6.78e-10,3.78442e-08
6.79e-10,-3.70772e-07
6.8e-10,1.01215e-09
6.81e-10,-1.2399e-08
6.82e-10,2.16482e-07
6.83e-10,-2.46081e-08
6.84e-10,-2.92488e-08
6.85e-10,1.44884e-08
6.86e-10,-8.65526e-08
6.87e-10,-1.31377e-07
6.88e-10,-9.12115e-08
6.89e-10,3.29251e-07
6.9e-10,-2.82726e-08
6.91e-10,1.65813e-07
6.92e-10,-3.55979e-07
6.93e-10,4.85649e-08
6.94e-10,-4.84557e-09
6.95e-10,4.90059e-07
6.96e-10,3.68975e-07
6.97e-10,-3.96054e-08
6.98e-10,-3.01717e-08
6.99e-10,2.5379e-09
7e-10,4.88579e-10
7.01e-10,2.22095e-07
7.02e-10,-3.23983e-07
7.03e-10,-7.68471e-08
7.04e-10,-3.97891e-09
7.05e-10,3.12594e-09
7.06e-10,2.20416e-09
7.07e-10,-2.83824e-08
7.08e-10,-3.12961e-08
7.09e-10,1.57232e-07
7.1e-10,-7.88927e-08
7.11e-10,5.26228e-09
7.12e-10,-3.06087e-08
7.13e-10,-5.73536e-08
7.14e-10,-2.70378e-08
7.15e-10,-2.98517e-08
7.16e-10,-6.02529e-08
7.17e-10,-1.62516e-07
7.18e-10,9.93424e-08
7.19e-10,-1.08102e-07
7.2e-10,-1.31269e-07
7.21e-10,1.3108e-07
7.22e-10,-3.14881e-08
7.23e-10,-3.46057e-08
7.24e-10,-6.03049e-08
7.25e-10,-3.63941e-10
7.26e-10,-5.47597e-11
7.27e-10,-8.33111e-08
7.28e-10,-6.72343e-09
7.29e-10,-5.86129e-08
7.3e-10,-5.59441e-10
7.31e-10,-3.77448e-11
7.32e-10,-3.16682e-08
7.33e-10,-8.8462e-08
7.34e-10,-3.56162e-09
7.35e-10,4.0818e-09
7.36e-10,-1.36807e-07
7.37e-10,8.5635e-08
7.38e-10,-6.28422e-08
7.39e-10,-3.15591e-08
7.4e-10,-2.57944e-09
7.41e-10,-2.59969e-08
7.42e-10,-2.58773e-08
7.43e-10,-4.26126e-11
7.44e-10,6.09778e-09
7.45e-10,-3.34666e-08
7.46e-10,-8.89385e-08
7.47e-10,-3.36288e-08
7.48e-10,-6.95778e-10
7.49e-10,-3.18287e-08
7.5e-10,2.53617e-10
7.51e-10,-5.5874e-08
7.52e-10,-2.72309e-08
7.53e-10,-1.19831e-08
7.54e-10,-2.46735e-10
7.55e-10,2.05743e-09
7.56e-10,-3.16819e-08
7.57e-10,1.37372e-09
7.58e-10,-6.24892e-08
7.59e-10,1.29538e-09
7.6e-10,1.30366e-08
7.61e-10,-2.01812e-09
7.62e-10,-8.65633e-08
7.63e-10,2.71196e-08
7.64e-10,1.31159e-09
7.65e-10,-1.23189e-07
7.66e-10,3.24971e-08
7.67e-10,-3.36123e-08
7.68e-10,-1.13314e-07
7.69e-10,1.14027e-07
7.7e-10,4.98869e-10
7.71e-10,-3.0773e-08
7.72e-10,2.6842e-09
7.73e-10,-2.82802e-09
7.74e-10,-5.79936e-08
7.75e-10,3.08206e-08
7.76e-10,3.76136e-10
7.77e-10,-2.53762e-08
7.78e-10,2.71944e-09
7.79e-10,4.74943e-08
7.8e-10,-3.18034e-08
7.81e-10,-6.46803e-08
7.82e-10,-1.99264e-09
7.83e-10,-1.22558e-07
7.84e-10,-1.40134e-09
7.85e-10,-6.4429e-08
7.86e-10,-2.90056e-08
7.87e-10,0
7.88e-10,4.30091e-08
7.89e-10,3.05816e-09
7.9e-10,-3.0837e-09
7.91e-10,-2.90057e-08
7.92e-10,1.46529e-07
7.93e-10,5.88992e-08
7.94e-10,-2.97963e-07
7.95e-10,1.49818e-07
7.96e-10,-1.7698e-07
7.97e-10,3.42363e-07
7.98e-10,-1.50389e-09
7.99e-10,1.50389e-09
8e-10,7.04958e-11
8.01e-10,-1.12793e-10
8.02e-10,-2.87683e-08
8.03e-10,4.23584e-10
8.04e-10,0
8.05e-10,-4.56167e-10
8.06e-10,2.34747e-07
8.07e-10,3.00777e-09
8.08e-10,2.35192e-07
8.09e-10,-2.0503e-09
8.1e-10,-3.94731e-10
8.11e-10,3.07092e-08
8.12e-10,-2.89047e-08
8.13e-10,1.64789e-09
8.14e-10,3.63769e-07
8.15e-10,3.1798e-07
8.16e-10,-5.58554e-10
8.17e-10,-3.04228e-08
8.18e-10,6.64646e-08
8.19e-10,-1.60846e-07
8.2e-10,3.00853e-08
8.21e-10,-3.22503e-08
8.22e-10,6.39372e-08
8.23e-10,-6.29848e-08
8.24e-10,3.14385e-07
8.25e-10,-9.63577e-08
8.26e-10,2.61245e-07
8.27e-10,-1.03244e-09
8.28e-10,2.25684e-09
8.29e-10,-1.49997e-07
8.3e-10,-6.64004e-08
8.31e-10,1.82193e-07
8.32e-10,0
8.33e-10,3.04236e-08
8.34e-10,6.54906e-10
8.35e-10,-7.25401e-10
8.36e-10,2.35133e-10
8.37e-10,3.90329e-08
8.38e-10,-6.33897e-08
8.39e-10,-1.33477e-09
8.4e-10,3.37762e-08
8.41e-10,-3.05515e-08
8.42e-10,1.45454e-09
8.43e-10,-3.2058e-08
8.44e-10,3.06387e-08
8.45e-10,-4.22975e-11
8.46e-10,-2.92938e-08
8.47e-10,6.54926e-08
8.48e-10,-6.09648e-08
8.49e-10,-3.25776e-08
8.5e-10,-3.32525e-08
8.51e-10,-3.2985e-08
8.52e-10,-2.86619e-08
8.53e-10,-9.06803e-10
8.54e-10,3.07977e-08
8.55e-10,-5.9794e-08
8.56e-10,-1.17495e-11
8.57e-10,3.35488e-08
8.58e-10,-3.36449e-08
8.59e-10,5.21669e-10
8.6e-10,3.58681e-08
8.61e-10,3.25831e-11
8.62e-10,-3.63948e-08
8.63e-10,-3.04286e-08
8.64e-10,-3.39109e-08
8.65e-10,2.95866e-08
8.66e-10,-3.45429e-10
8.67e-10,-3.60138e-10
8.68e-10,-2.88881e-08
8.69e-10,-3.41923e-08
8.7e-10,2.92667e-08
8.71e-10,2.21034e-10
8.72e-10,0
8.73e-10,6.73457e-08
8.74e-10,-1.85786e-10
8.75e-10,-3.34168e-08
8.76e-10,-2.92438e-08
8.77e-10,-9.22261e-11
8.78e-10,7.48806e-11
8.79e-10,-2.70381e-10
8.8e-10,4.98464e-10
8.81e-10,-2.63331e-10
8.82e-10,1.31105e-09
8.83e-10,-1.49684e-09
8.84e-10,7.51957e-11
8.85e-10,-2.70696e-10
8.86e-10,-3.13564e-08
8.87e-10,3.13141e-08
8.88e-10,4.22975e-11
8.89e-10,-2.28083e-10
8.9e-10,0
8.91e-10,1.95815e-10
8.92e-10,2.21725e-09
8.93e-10,-9.9595e-10
8.94e-10,2.37798e-10
8.95e-10,1.99738e-10
8.96e-10,-3.40827e-08
8.97e-10,1.955e-10
8.98e-10,-3.4415e-10
8.99e-10,2.89183e-08
9e-10,-2.79363e-08
9.01e-10,1.955e-10
9.02e-10,3.33842e-08
9.03e-10,-3.16441e-08
9.04e-10,-3.3622e-08
9.05e-10,-1.25828e-10
9.06e-10,6.69965e-08
9.07e-10,-6.74201e-08
9.08e-10,3.36775e-08
9.09e-10,9.92497e-08
9.1e-10,-1.33012e-07
9.11e-10,6.5272e-08
9.12e-10,-3.25831e-11
9.13e-10,-3.34168e-08
9.14e-10,0
9.15e-10,3.46056e-08
9.16e-10,1.28283e-09
9.17e-10,-3.37674e-08
9.18e-10,4.68084e-10
9.19e-10,-3.41015e-08
9.2e-10,3.34802e-08
9.21e-10,1.85786e-10
9.22e-10,-3.36123e-08
9.23e-10,6.70436e-08
9.24e-10,2.0255e-10
9.25e-10,-3.36566e-08
9.26e-10,-2.83195e-10
9.27e-10,1.17493e-10
9.28e-10,-3.34591e-08
9.29e-10,6.72246e-08
9.3e-10,0
9.31e-10,-6.71823e-08
9.32e-10,-1.17493e-10
9.33e-10,4.18357e-11
9.34e-10,0
9.35e-10,0
9.36e-10,0
9.37e-10,-3.47926e-10
9.38e-10,1.44091e-10
9.39e-10,0
9.4e-10,-2.42484e-11
9.41e-10,3.38078e-08
9.42e-10,-3.37321e-08
9.43e-10,4.22975e-11
9.44e-10,3.36123e-08
9.45e-10,0
9.46e-10,2.42484e-11
9.47e-10,-3.36123e-08
9.48e-10,0
9.49e-10,3.3854e-08
9.5e-10,-3.37835e-08
9.51e-10,3.39276e-08
9.52e-10,-3.36828e-08
9.53e-10,-7.04958e-12
9.54e-10,-1.19843e-10
9.55e-10,7.04958e-12
9.56e-10,3.36123e-08
9.57e-10,-3.36519e-08
9.58e-10,3.33925e-08
9.59e-10,-1.955e-10
9.6e-10,0
9.61e-10,2.26798e-10
9.62e-10,-4.23584e-10
9.63e-10,-2.58946e-10
9.64e-10,6.19084e-10
9.65e-10,-3.27554e-10
9.66e-10,5.94836e-10
9.67e-10,-1.71252e-10
9.68e-10,-3.1298e-11
9.69e-10,-4.34271e-27
9.7e-10,-1.955e-10
9.71e-10,7.8266e-22
9.72e-10,3.91001e-10
9.73e-10,-2.55336e-11
9.74e-10,-3.91001e-10
9.75e-10,-4.30633e-10
9.76e-10,1.62917e-10
9.77e-10,3.25831e-11
9.78e-10,-3.36123e-08
9.79e-10,0
9.8e-10,1.64637e-10
9.81e-10,-8.79751e-10
9.82e-10,-1.17493e-10
9.83e-10,3.45577e-10
9.84e-10,7.51957e-11
9.85e-10,1.05744e-10
9.86e-10,0
9.87e-10,0
9.88e-10,0
9.89e-10,0
9.9e-10,-6.34462e-11
9.91e-10,-2.28083e-10
9.92e-10,1.36124e-10
9.93e-10,-7.48806e-11
9.94e-10,-7.09575e-11
9.95e-10,-1.92689e-10
9.96e-10,-8.50567e-11
9.97e-10,7.04958e-12
9.98e-10,0
9.99e-10,4.22975e-11
1e-09,0
1.001e-09,-9.32448e-11
1.002e-09,-7.51957e-11
1.003e-09,2.78884e-10
1.004e-09,-1.61391e-10
1.005e-09,2.55336e-11
1.006e-09,-1.43027e-10
1.007e-09,3.45115e-10
1.008e-09,4.30743e-11
1.009e-09,4.46471e-11
1.01e-09,-4.9347e-11
1.011e-09,2.34069e-10
1.012e-09,-4.56167e-10
1.013e-09,-1.88451e-10
1.014e-09,2.28083e-10
1.015e-09,-2.35133e-10
1.016e-09,1.955e-10
1.017e-09,-1.13255e-10
1.018e-09,-2.28083e-10
1.019e-09,1.955e-10
1.02e-09,0
1.021e-09,-7.04958e-11
1.022e-09,4.22975e-11
1.023e-09,3.12678e-10
1.024e-09,-1.955e-10
1.025e-09,1.25005e-10
1.026e-09,-4.56167e-10
1.027e-09,2.28083e-10
1.028e-09,0
1.029e-09,3.25831e-11
1.03e-09,1.955e-10
1.031e-09,-5.92024e-10
1.032e-09,-1.17493e-10
1.033e-09,0
1.034e-09,-1.52888e-10
1.035e-09,-7.51957e-11
1.036e-09,0
1.037e-09,1.24543e-10
1.038e-09,0
1.039e-09,2.60667e-10
1.04e-09,-2.94776e-10
1.041e-09,4.56167e-10
1.042e-09,-4.56167e-10
1.043e-09,-3.25831e-11
1.044e-09,0
1.045e-09,-3.19399e-10
1.046e-09,0
1.047e-09,-3.25831e-11
1.048e-09,7.04958e-12
1.049e-09,2.9153e-10
1.05e-09,1.20797e-09
1.051e-09,-6.06411e-10
1.052e-09,3.12993e-10
1.053e-09,-3.12993e-10
1.054e-09,1.17493e-10
1.055e-09,3.91001e-10
1.056e-09,-3.91001e-10
1.057e-09,6.39079e-11
1.058e-09,1.96926e-10
1.059e-09,1.32054e-10
1.06e-09,-7.51957e-11
1.061e-09,2.70696e-10
1.062e-09,-9.53079e-10
1.063e-09,1.74352e-10
1.064e-09,0
1.065e-09,7.04958e-12
1.066e-09,2.28083e-10
1.067e-09,-2.28083e-10
1.068e-09,3.25831e-11
1.069e-09,0
1.07e-09,-5.63966e-13
1.071e-09,2.28647e-10
1.072e-09,2.38135e-11
1.073e-09,2.1342e-10
1.074e-09,-4.56167e-10
1.075e-09,-1.81401e-10
1.076e-09,1.53203e-10
1.077e-09,2.28083e-10
1.078e-09,-4.37683e-10
1.079e-09,2.28083e-10
1.08e-09,4.9347e-11
1.081e-09,-7.04958e-12
1.082e-09,2.28083e-10
1.083e-09,4.77316e-10
1.084e-09,0
1.085e-09,-2.90933e-10
1.086e-09,-4.21516e-10
1.087e-09,-2.30151e-10
1.088e-09,2.06787e-12
1.089e-09,0
1.09e-09,0
1.091e-09,2.3573e-10
1.092e-09,-7.64644e-12
1.093e-09,7.64644e-12
1.094e-09,3.25831e-11
1.095e-09,3.64093e-10
1.096e-09,-1.58829e-07
1.097e-09,1.58632e-07
1.098e-09,-9.60293e-11
1.099e-09,-3.79126e-11
1.1e-09,-2.81815e-10
1.101e-09,7.04958e-11
1.102e-09,0
1.103e-09,-1.955e-10
1.104e-09,-3.25831e-11
1.105e-09,1.71687e-10
1.106e-09,7.69485e-11
1.107e-09,-3.40877e-10
1.108e-09,2.98579e-10
1.109e-09,1.955e-10
1.11e-09,4.63216e-10
1.111e-09,-2.28083e-10
1.112e-09,3.80509e-10
1.113e-09,-3.47926e-10
1.114e-09,0
1.115e-09,-1.85786e-10
1.116e-09,2.28083e-10
1.117e-09,0
1.118e-09,-2.28083e-10
1.119e-09,-1.05147e-10
1.12e-09,0
1.121e-09,0
1.122e-09,0
1.123e-09,0
1.124e-09,2.60667e-10
1.125e-09,-2.21034e-10
1.126e-09,-7.04958e-12
1.127e-09,-1.01367e-09
1.128e-09,3.25831e-11
1.129e-09,1.955e-10
1.13e-09,3.25831e-11
1.131e-09,-2.28083e-10
1.132e-09,1.40992e-11
1.133e-09,0
1.134e-09,5.17872e-10
1.135e-09,0
1.136e-09,-7.60055e-10
1.137e-09,7.60055e-10
1.138e-09,-7.60055e-10
1.139e-09,9.55555e-10
1.14e-09,0
1.141e-09,0
1.142e-09,-5.31971e-10
1.143e-09,7.53005e-10
1.144e-09,-1.955e-10
1.145e-09,0
1.146e-09,0
1.147e-09,0
1.148e-09,-2.28083e-10
1.149e-09,2.28083e-10
1.15e-09,0
1.151e-09,-2.28083e-10
1.152e-09,-2.28083e-10
1.153e-09,6.51667e-10
1.154e-09,-7.04958e-12
1.155e-09,0
1.156e-09,-7.60055e-10
1.157e-09,7.60055e-10
1.158e-09,-2.28083e-10
1.159e-09,2.28083e-10
1.16e-09,-4.56167e-10
1.161e-09,2.28083e-10
1.162e-09,-1.955e-10
1.163e-09,-2.28083e-10
1.164e-09,7.04958e-12
1.165e-09,-7.04958e-12
1.166e-09,1.955e-10
1.167e-09,0
1.168e-09,-9.52868e-10
1.169e-09,2.28083e-10
1.17e-09,0
1.171e-09,2.28083e-10
1.172e-09,-4.58435e-10
1.173e-09,1.40992e-11
1.174e-09,0
1.175e-09,0
1.176e-09,0
1.177e-09,-2.11487e-11
1.178e-09,-1.74352e-10
1.179e-09,1.55835e-10
1.18e-09,-1.955e-10
1.181e-09,2.06935e-10
1.182e-09,-2.06935e-10
1.183e-09,0
1.184e-09,3.00735e-12
1.185e-09,0
1.186e-09,2.28083e-10
1.187e-09,-2.4519e-10
1.188e-09,3.00735e-12
1.189e-09,-7.04958e-12
1.19e-09,-2.13984e-10
1.191e-09,-1.71065e-11
1.192e-09,3.00735e-12
1.193e-09,0
1.194e-09,0
1.195e-09,0
1.196e-09,0
1.197e-09,0
1.198e-09,4.56167e-10
1.199e-09,0
1.2e-09,0
1.201e-09,-7.8266e-22
1.202e-09,0
1.203e-09,0
1.204e-09,-3.96327e-11
1.205e-09,0
1.206e-09,-7.04958e-12
1.207e-09,0
1.208e-09,2.35133e-10
1.209e-09,-2.28083e-10
1.21e-09,2.21034e-10
1.211e-09,2.35133e-10
1.212e-09,-2.21034e-10
1.213e-09,-2.0255e-10
1.214e-09,2.28083e-10
1.215e-09,-2.28083e-10
1.216e-09,0
1.217e-09,-7.04958e-12
1.218e-09,-2.21034e-10
1.219e-09,2.28083e-10
1.22e-09,0
1.221e-09,-2.28083e-10
1.222e-09,0
1.223e-09,2.13984e-10
1.224e-09,-2.28083e-10
1.225e-09,1.40992e-11
1.226e-09,2.28083e-10
1.227e-09,-1.40992e-11
1.228e-09,-2.13984e-10
1.229e-09,2.28083e-10
1.23e-09,0
1.231e-09,0
1.232e-09,0
1.233e-09,-2.28083e-10
1.234e-09,0
1.235e-09,0
1.236e-09,0
1.237e-09,1.955e-10
1.238e-09,0
1.239e-09,2.28083e-10
1.24e-09,0
1.241e-09,-2.28083e-10
1.242e-09,2.28083e-10
1.243e-09,0
1.244e-09,-2.28083e-10
1.245e-09,0
1.246e-09,0
1.247e-09,0
1.248e-09,0
1.249e-09,0
1.25e-09,2.28083e-10
1.251e-09,0
1.252e-09,-1.955e-10
1.253e-09,-7.04958e-12
1.254e-09,1.955e-10
1.255e-09,-2.28083e-10
1.256e-09,-1.955e-10
1.257e-09,1.955e-10
1.258e-09,0
1.259e-09,0
1.26e-09,-2.28083e-10
1.261e-09,2.28083e-10
1.262e-09,-2.28083e-10
1.263e-09,2.28083e-10
1.264e-09,-4.23584e-10
1.265e-09,2.28083e-10
1.266e-09,-2.28083e-10
1.267e-09,1.955e-10
1.268e-09,3.25831e-11
1.269e-09,0
1.27e-09,0
1.271e-09,-2.28083e-10
1.272e-09,7.04958e-12
1.273e-09,0
1.274e-09,2.28083e-10
1.275e-09,-1.90054e-08
1.276e-09,1.87774e-08
1.277e-09,-1.90054e-08
1.278e-09,0
1.279e-09,0
1.28e-09,1.90054e-08
1.281e-09,0
1.282e-09,0
1.283e-09,-7.04958e-12
1.284e-09,0
1.285e-09,0
1.286e-09,0
1.287e-09,0
1.288e-09,0
1.289e-09,0
1.29e-09,0
1.291e-09,0
1.292e-09,0
1.293e-09,0
1.294e-09,-1.40992e-11
1.295e-09,1.40992e-11
1.296e-09,0
1.297e-09,-1.90195e-08
1.298e-09,1.90054e-08
1.299e-09,0
1.3e-09,1.40992e-11
1.301e-09,2.21034e-10
1.302e-09,0
1.303e-09,0
1.304e-09,7.04958e-12
1.305e-09,0
1.306e-09,-1.40992e-11
1.307e-09,-1.56711e-10
1.308e-09,1.40992e-11
1.309e-09,3.86317e-11
1.31e-09,-3.15821e-11
1.311e-09,0
1.312e-09,0
1.313e-09,0
1.314e-09,-1.40992e-11
1.315e-09,7.04958e-12
1.316e-09,0
1.317e-09,1.40992e-11
1.318e-09,-2.28083e-10
1.319e-09,-7.04958e-12
1.32e-09,2.59666e-10
1.321e-09,-3.15821e-11
1.322e-09,1.40992e-11
1.323e-09,-2.28083e-10
1.324e-09,3.85671e-10
1.325e-09,4.22975e-11
1.326e-09,-4.22975e-11
1.327e-09,-2.28083e-10
1.328e-09,2.28083e-10
1.329e-09,-2.28083e-10
1.33e-09,2.28083e-10
1.331e-09,1.40992e-11
1.332e-09,0
1.333e-09,0
1.334e-09,-2.42183e-10
1.335e-09,2.28083e-10
1.336e-09,2.70381e-10
1.337e-09,0
1.338e-09,7.04958e-12
1.339e-09,0
1.34e-09,0
1.341e-09,0
1.342e-09,0
1.343e-09,-4.22975e-11
1.344e-09,-1.85786e-10
1.345e-09,2.28083e-10
1.346e-09,0
1.347e-09,0
1.348e-09,0
1.349e-09,0
1.35e-09,1.955e-10
1.351e-09,2.28083e-10
1.352e-09,0
1.353e-09,0
1.354e-09,0
1.355e-09,-1.955e-10
1.356e-09,1.40992e-11
1.357e-09,0
1.358e-09,1.48818e-10
1.359e-09,3.25831e-11
1.36e-09,-4.22975e-11
1.361e-09,3.52479e-11
1.362e-09,-4.22975e-11
1.363e-09,-2.28083e-10
1.364e-09,-1.955e-10
1.365e-09,9.71432e-12
1.366e-09,1.40992e-11
1.367e-09,-7.04958e-12
1.368e-09,-1.955e-10
1.369e-09,2.28083e-10
1.37e-09,4.23584e-10
1.371e-09,-2.28083e-10
1.372e-09,-3.25831e-11
1.373e-09,-1.62917e-10
1.374e-09,-4.22975e-11
1.375e-09,-3.25831e-11
1.376e-09,-2.28083e-10
1.377e-09,0
1.378e-09,0
1.379e-09,0
1.38e-09,0
1.381e-09,0
1.382e-09,0
1.383e-09,4.22975e-11
1.384e-09,1.955e-10
1.385e-09,3.25831e-11
1.386e-09,3.25831e-11
1.387e-09,0
1.388e-09,0
1.389e-09,-3.25831e-11
1.39e-09,3.25831e-11
1.391e-09,-3.25831e-11
1.392e-09,-3.25831e-11
1.393e-09,3.25831e-11
1.394e-09,1.955e-10
1.395e-09,3.25831e-11
1.396e-09,-1.955e-10
1.397e-09,0
1.398e-09,1.955e-10
1.399e-09,0
1.4e-09,3.25831e-11
1.401e-09,1.955e-10
1.402e-09,-4.56167e-10
1.403e-09,4.23584e-10
1.404e-09,-2.28083e-10
1.405e-09,0
1.406e-09,4.56167e-10
1.407e-09,-4.56167e-10
1.408e-09,2.60667e-10
1.409e-09,-3.25831e-11
1.41e-09,2.28083e-10
1.411e-09,2.28083e-10
1.412e-09,0
1.413e-09,7.89553e-10
1.414e-09,-3.25831e-11
1.415e-09,-1.955e-10
1.416e-09,-2.28083e-10
1.417e-09,3.77448e-11
1.418e-09,-3.77448e-11
1.419e-09,2.28083e-10
1.42e-09,0
1.421e-09,0
1.422e-09,0
1.423e-09,0
1.424e-09,0
1.425e-09,0
1.426e-09,0
1.427e-09,0
1.428e-09,0
1.429e-09,0
1.43e-09,-1.955e-10
1.431e-09,0
1.432e-09,0
1.433e-09,-1.955e-10
1.434e-09,-3.25831e-11
1.435e-09,0
1.436e-09,2.28083e-10
1.437e-09,0
1.438e-09,0
1.439e-09,0
1.44e-09,0
1.441e-09,0
1.442e-09,-3.25831e-11
1.443e-09,0
1.444e-09,0
1.445e-09,0
1.446e-09,0
1.447e-09,-1.955e-10
1.448e-09,0
1.449e-09,-3.25831e-11
1.45e-09,3.25831e-11
1.451e-09,0
1.452e-09,-3.25831e-11
1.453e-09,3.25831e-11
1.454e-09,0
1.455e-09,3.25831e-11
1.456e-09,-3.25831e-11
1.457e-09,0
1.458e-09,0
1.459e-09,3.25831e-11
1.46e-09,-6.51663e-11
1.461e-09,0
1.462e-09,3.25831e-11
1.463e-09,-4.56167e-10
1.464e-09,3.25831e-11
1.465e-09,3.25831e-11
1.466e-09,0
1.467e-09,0
1.468e-09,-3.25831e-11
1.469e-09,-3.25831e-11
1.47e-09,-3.2372e-10
1.471e-09,-2.87362e-08
1.472e-09,0
1.473e-09,0
1.474e-09,-3.56303e-10
1.475e-09,-2.28083e-10
1.476e-09,0
1.477e-09,2.81983e-10
1.478e-09,0
1.479e-09,0
1.48e-09,0
1.481e-09,0
1.482e-09,-2.81983e-10
1.483e-09,-3.13971e-08
1.484e-09,2.81983e-10
1.485e-09,3.11151e-08
1.486e-09,-2.86319e-08
1.487e-09,-2.44388e-09
1.488e-09,0
1.489e-09,2.28083e-10
1.49e-09,-2.28083e-10
1.491e-09,0
1.492e-09,0
1.493e-09,2.28083e-10
1.494e-09,-2.81983e-10
1.495e-09,-1.955e-10
1.496e-09,0
1.497e-09,-3.24278e-08
1.498e-09,0
1.499e-09,0
1.5e-09,0
1.501e-09,-2.28083e-10
1.502e-09,0
1.503e-09,-2.13984e-10
1.504e-09,0
1.505e-09,2.13984e-10
1.506e-09,1.40992e-11
1.507e-09,0
1.508e-09,0
1.509e-09,0
1.51e-09,2.4744e-10
1.511e-09,0
1.512e-09,-2.28083e-10
1.513e-09,-2.75808e-08
1.514e-09,2.28083e-10
1.515e-09,0
1.516e-09,0
1.517e-09,1.955e-10
1.518e-09,-1.69918e-09
1.519e-09,0
1.52e-09,-2.28083e-10
1.521e-09,1.73176e-09
1.522e-09,-2.71293e-08
1.523e-09,2.28083e-10
1.524e-09,0
1.525e-09,0
1.526e-09,1.955e-10
1.527e-09,0
1.528e-09,-4.23584e-10
1.529e-09,4.23584e-10
1.53e-09,-1.955e-10
1.531e-09,0
1.532e-09,-2.55209e-08
1.533e-09,0
1.534e-09,-1.50367e-09
1.535e-09,0
1.536e-09,0
1.537e-09,0
1.538e-09,0
1.539e-09,0
1.54e-09,0
1.541e-09,-2.28083e-10
1.542e-09,0
1.543e-09,2.28083e-10
1.544e-09,0
1.545e-09,-2.88109e-08
1.546e-09,0
1.547e-09,-2.28083e-10
1.548e-09,0
1.549e-09,0
1.55e-09,0
1.551e-09,1.955e-10
1.552e-09,-1.955e-10
1.553e-09,0
1.554e-09,0
1.555e-09,0
1.556e-09,-2.8873e-08
1.557e-09,0
1.558e-09,0
1.559e-09,0
1.56e-09,0
1.561e-09,0
1.562e-09,0
1.563e-09,0
1.564e-09,2.28083e-10
1.565e-09,-2.9739e-08
1.566e-09,0
1.567e-09,0
1.568e-09,0
1.569e-09,0
1.57e-09,0
1.571e-09,0
1.572e-09,0
1.573e-09,0
1.574e-09,-2.6751e-08
1.575e-09,0
1.576e-09,0
1.577e-09,2.28083e-10
1.578e-09,2.28083e-10
1.579e-09,0
1.58e-09,-2.28083e-10
1.581e-09,-3.1893e-08
1.582e-09,0
1.583e-09,-2.28083e-10
1.584e-09,0
1.585e-09,2.28083e-10
1.586e-09,-2.28083e-10
1.587e-09,1.78566e-09
1.588e-09,0
1.589e-09,2.28083e-10
1.59e-09,-2.01374e-09
1.591e-09,0
1.592e-09,0
1.593e-09,-2.88102e-08
1.594e-09,0
1.595e-09,0
1.596e-09,2.28083e-10
1.597e-09,-2.28083e-10
1.598e-09,2.28083e-10
1.599e-09,-2.28083e-10
1.6e-09,0
1.601e-09,0
1.602e-09,0
1.603e-09,-3.05966e-08
1.604e-09,-4.51173e-09
1.605e-09,9.90466e-10
1.606e-09,0
1.607e-09,0
1.608e-09,0
1.609e-09,-9.90466e-10
1.61e-09,0
1.611e-09,-2.60848e-08
1.612e-09,0
1.613e-09,0
1.614e-09,0
1.615e-09,0
1.616e-09,0
1.617e-09,-2.72607e-09
1.618e-09,2.72607e-09
1.619e-09,0
1.62e-09,0
1.621e-09,2.28083e-10
1.622e-09,-3.25831e-11
1.623e-09,-2.90057e-08
1.624e-09,-4.51173e-09
1.625e-09,4.51173e-09
1.626e-09,0
1.627e-09,0
1.628e-09,0
1.629e-09,0
1.63e-09,-4.51173e-09
1.631e-09,4.51173e-09
1.632e-09,-3.05966e-08
1.633e-09,0
1.634e-09,0
1.635e-09,0
1.636e-09,0
1.637e-09,0
1.638e-09,0
1.639e-09,0
1.64e-09,0
1.641e-09,-2.93558e-08
1.642e-09,0
1.643e-09,0
1.644e-09,0
1.645e-09,0
1.646e-09,0
1.647e-09,0
1.648e-09,0
1.649e-09,0
1.65e-09,0
1.651e-09,-3.17435e-08
1.652e-09,0
1.653e-09,0
1.654e-09,0
1.655e-09,0
1.656e-09,0
1.657e-09,0
1.658e-09,0
1.659e-09,0
1.66e-09,0
1.661e-09,0
1.662e-09,4.51173e-09
1.663e-09,-3.08779e-08
1.664e-09,0
1.665e-09,0
1.666e-09,2.60834e-10
1.667e-09,4.22975e-11
1.668e-09,-6.01611e-09
1.669e-09,0
1.67e-09,0
1.671e-09,0
1.672e-09,-3.32331e-08
1.673e-09,0
1.674e-09,0
1.675e-09,-1.40992e-11
1.676e-09,-1.50438e-09
1.677e-09,0
1.678e-09,0
1.679e-09,-6.0154e-09
1.68e-09,0
1.681e-09,0
1.682e-09,-3.36124e-08
1.683e-09,0
1.684e-09,0
1.685e-09,0
1.686e-09,0
1.687e-09,0
1.688e-09,0
1.689e-09,0
1.69e-09,5.46483e-09
1.691e-09,-3.38859e-08
1.692e-09,0
1.693e-09,0
1.694e-09,0
1.695e-09,0
1.696e-09,0
1.697e-09,0
1.698e-09,-3.60135e-08
1.699e-09,0
1.7e-09,0
1.701e-09,0
1.702e-09,0
1.703e-09,0
1.704e-09,0
1.705e-09,-3.59345e-08
1.706e-09,0
1.707e-09,0
1.708e-09,0
1.709e-09,0
1.71e-09,0
1.711e-09,3.29215e-09
1.712e-09,0
1.713e-09,0
1.714e-09,0
1.715e-09,-3.56286e-08
1.716e-09,0
1.717e-09,0
1.718e-09,0
1.719e-09,0
1.72e-09,-1.50861e-09
1.721e-09,0
1.722e-09,0
1.723e-09,0
1.724e-09,0
1.725e-09,0
1.726e-09,-3.36194e-08
1.727e-09,-2.25586e-10
1.728e-09,0
1.729e-09,0
1.73e-09,0
1.731e-09,0
1.732e-09,0
1.733e-09,0
1.734e-09,0
1.735e-09,-3.6404e-08
1.736e-09,0
1.737e-09,0
1.738e-09,0
1.739e-09,0
1.74e-09,1.00104e-09
1.741e-09,0
1.742e-09,-1.00104e-09
1.743e-09,-3.46557e-08
1.744e-09,0
1.745e-09,-1.23086e-08
1.746e-09,1.23086e-08
1.747e-09,-1.23086e-08
1.748e-09,0
1.749e-09,0
1.75e-09,0
1.751e-09,0
1.752e-09,-3.39014e-08
1.753e-09,0
1.754e-09,0
1.755e-09,0
1.756e-09,0
1.757e-09,0
1.758e-09,0
1.759e-09,0
1.76e-09,-4.15079e-08
1.761e-09,-7.54305e-10
1.762e-09,0
1.763e-09,0
1.764e-09,0
1.765e-09,0
1.766e-09,0
1.767e-09,-4.01121e-08
1.768e-09,0
1.769e-09,0
1.77e-09,0
1.771e-09,0
1.772e-09,0
1.773e-09,0
1.774e-09,0
1.775e-09,-4.32069e-08
1.776e-09,3.00312e-09
1.777e-09,-3.00312e-09
1.778e-09,0
1.779e-09,0
1.78e-09,3.00312e-09
1.781e-09,0
1.782e-09,0
1.783e-09,-3.00312e-09
1.784e-09,0
1.785e-09,3.00312e-09
1.786e-09,-4.00275e-08
1.787e-09,0
1.788e-09,0
1.789e-09,0
1.79e-09,0
1.791e-09,0
1.792e-09,0
1.793e-09,0
1.794e-09,0
1.795e-09,-4.21071e-08
1.796e-09,1.76239e-08
1.797e-09,-1.76239e-08
1.798e-09,0
1.799e-09,0
1.8e-09,2.28083e-10
1.801e-09,1.76239e-08
1.802e-09,-4.70091e-08
1.803e-09,2.28083e-10
1.804e-09,-1.43529e-08
1.805e-09,1.41249e-08
1.806e-09,-1.41249e-08
1.807e-09,1.43529e-08
1.808e-09,0
1.809e-09,0
1.81e-09,-4.21212e-08
1.811e-09,0
1.812e-09,0
1.813e-09,0
1.814e-09,0
1.815e-09,0
1.816e-09,0
1.817e-09,0
1.818e-09,0
1.819e-09,-3.99711e-08
1.82e-09,0
1.821e-09,0
1.822e-09,0
1.823e-09,0
1.824e-09,0
1.825e-09,0
1.826e-09,0
1.827e-09,-4.6781e-08
1.828e-09,0
1.829e-09,0
1.83e-09,0
1.831e-09,0
1.832e-09,0
1.833e-09,0
1.834e-09,0
1.835e-09,7.75453e-11
1.836e-09,-4.09721e-08
1.837e-09,0
1.838e-09,0
1.839e-09,0
1.84e-09,0
1.841e-09,0
1.842e-09,0
1.843e-09,0
1.844e-09,0
1.845e-09,-4.94246e-08
1.846e-09,0
1.847e-09,0
1.848e-09,0
1.849e-09,0
1.85e-09,-3.25831e-11
1.851e-09,0
1.852e-09,3.25831e-11
1.853e-09,0
1.854e-09,-3.25831e-11
1.855e-09,-4.89946e-08
1.856e-09,0
1.857e-09,2.29957e-08
1.858e-09,-2.29957e-08
1.859e-09,2.29957e-08
1.86e-09,-2.29957e-08
1.861e-09,0
1.862e-09,0
1.863e-09,0
1.864e-09,-4.70418e-08
1.865e-09,0
1.866e-09,0
1.867e-09,0
1.868e-09,0
1.869e-09,-6.6266e-09
1.87e-09,0
1.871e-09,3.25831e-11
1.872e-09,-3.25831e-11
1.873e-09,-4.60101e-08
1.874e-09,0
1.875e-09,-3.25831e-11
1.876e-09,0
1.877e-09,0
1.878e-09,0
1.879e-09,3.25831e-11
1.88e-09,0
1.881e-09,-5.33089e-08
1.882e-09,-3.25831e-11
1.883e-09,0
1.884e-09,3.25831e-11
1.885e-09,2.58719e-09
1.886e-09,-2.81528e-09
1.887e-09,1.955e-10
1.888e-09,2.39169e-09
1.889e-09,0
1.89e-09,0
1.891e-09,-4.92906e-08
1.892e-09,0
1.893e-09,0
1.894e-09,0
1.895e-09,0
1.896e-09,0
1.897e-09,0
1.898e-09,0
1.899e-09,-5.90473e-08
1.9e-09,0
1.901e-09,0
1.902e-09,0
1.903e-09,0
1.904e-09,0
1.905e-09,0
1.906e-09,0
1.907e-09,0
1.908e-09,-5.12697e-08
1.909e-09,0
1.91e-09,0
1.911e-09,0
1.912e-09,0
1.913e-09,0
1.914e-09,0
1.915e-09,1.955e-10
1.916e-09,-1.86442e-08
1.917e-09,0
1.918e-09,0
1.919e-09,0
1.92e-09,0
1.921e-09,0
1.922e-09,0
1.923e-09,0
1.924e-09,0
1.925e-09,0
1.926e-09,-5.51418e-08
1.927e-09,0
1.928e-09,0
1.929e-09,0
1.93e-09,0
1.931e-09,0
1.932e-09,0
1.933e-09,0
1.934e-09,0
1.935e-09,-4.97418e-08
1.936e-09,0
1.937e-09,0
1.938e-09,0
1.939e-09,0
1.94e-09,0
1.941e-09,0
1.942e-09,0
1.943e-09,0
1.944e-09,-5.6453e-08
1.945e-09,0
1.946e-09,0
1.947e-09,0
1.948e-09,0
1.949e-09,0
1.95e-09,0
1.951e-09,0
1.952e-09,1.955e-10
1.953e-09,0
1.954e-09,-5.72496e-08
1.955e-09,-1.955e-10
1.956e-09,0
1.957e-09,0
1.958e-09,-5.78065e-08
1.959e-09,0
1.96e-09,5.78065e-08
1.961e-09,0
1.962e-09,0
1.963e-09,-4.81275e-08
1.964e-09,0
1.965e-09,0
1.966e-09,0
1.967e-09,0
1.968e-09,1.955e-10
1.969e-09,-1.955e-10
1.97e-09,-3.47028e-09
1.971e-09,3.47028e-09
1.972e-09,-5.6453e-08
1.973e-09,0
1.974e-09,-6.33827e-08
1.975e-09,5.95407e-08
1.976e-09,3.84202e-09
1.977e-09,2.28083e-10
1.978e-09,0
1.979e-09,0
1.98e-09,-2.28083e-10
1.981e-09,-5.58397e-08
1.982e-09,2.28083e-10
1.983e-09,0
1.984e-09,0
1.985e-09,0
1.986e-09,-2.28083e-10
1.987e-09,2.28083e-10
1.988e-09,0
1.989e-09,0
1.99e-09,0
1.991e-09,-4.01614e-08
1.992e-09,0
1.993e-09,0
1.994e-09,0
1.995e-09,0
1.996e-09,0
1.997e-09,-8.82678e-08
1.998e-09,0
1.999e-09,-2.95377e-08
2e-09,2.28083e-10
2.001e-09,0
2.1e-09,0
