0,0
1e-12,-4.93449e-07
2e-12,-1.20393e-06
3e-12,-1.22333e-06
4e-12,-7.17191e-07
5e-12,-3.72241e-08
6e-12,-1.17595e-06
7e-12,1.03085e-07
8e-12,-1.12334e-06
9e-12,-2.43798e-07
1e-11,-2.15463e-06
1.1e-11,1.57186e-08
1.2e-11,-2.36543e-06
1.3e-11,-1.1538e-06
1.4e-11,-6.72613e-07
1.5e-11,-3.88815e-07
1.6e-11,-1.22572e-06
1.7e-11,4.80396e-07
1.8e-11,-1.3206e-06
1.9e-11,-1.89336e-06
2e-11,9.91667e-08
2.1e-11,-2.02742e-07
2.2e-11,-1.4178e-06
2.3e-11,-1.33706e-06
2.4e-11,-1.42404e-07
2.5e-11,-8.39079e-07
2.6e-11,3.48445e-07
2.7e-11,-2.68449e-06
2.8e-11,-1.32342e-06
2.9e-11,-2.27464e-06
3e-11,-1.23494e-07
3.1e-11,-7.50166e-07
3.2e-11,-1.07349e-06
3.3e-11,-6.75797e-07
3.4e-11,-2.28016e-07
3.5e-11,-3.4399e-06
3.6e-11,-1.21381e-07
3.7e-11,-1.13939e-06
3.8e-11,-1.98169e-06
3.9e-11,-2.47145e-06
4e-11,-4.01743e-07
4.1e-11,1.76373e-07
4.2e-11,-3.47369e-06
4.3e-11,-6.36648e-07
4.4e-11,-2.1603e-06
4.5e-11,-1.36971e-06
4.6e-11,-2.46101e-06
4.7e-11,-9.49002e-07
4.8e-11,-2.29085e-06
4.9e-11,-9.58265e-07
5e-11,-7.44146e-08
5.1e-11,-2.02096e-06
5.2e-11,-1.65125e-06
5.3e-11,6.92661e-07
5.4e-11,-3.01578e-07
5.5e-11,-7.66265e-07
5.6e-11,-2.55645e-06
5.7e-11,-8.92251e-07
5.8e-11,-1.55904e-06
5.9e-11,-6.25135e-07
6e-11,-5.9599e-07
6.1e-11,-1.68064e-07
6.2e-11,-4.96241e-07
6.3e-11,-1.58976e-06
6.4e-11,-3.79056e-07
6.5e-11,-9.88866e-07
6.6e-11,4.76161e-07
6.7e-11,7.14845e-07
6.8e-11,-2.18176e-06
6.9e-11,-6.38386e-07
7e-11,-1.24e-06
7.1e-11,-1.26454e-06
7.2e-11,-1.94061e-07
7.3e-11,-1.26287e-06
7.4e-11,-1.32796e-06
7.5e-11,-8.1334e-07
7.6e-11,-7.27974e-07
7.7e-11,-3.76726e-07
7.8e-11,-5.31196e-07
7.9e-11,-2.66525e-07
8e-11,-6.42913e-07
8.1e-11,-8.39821e-07
8.2e-11,-2.08211e-06
8.3e-11,-4.0265e-07
8.4e-11,4.1829e-08
8.5e-11,-1.04213e-06
8.6e-11,-2.8142e-07
8.7e-11,-1.24228e-06
8.8e-11,-1.66843e-06
8.9e-11,-4.47483e-07
9e-11,-6.81383e-07
9.1e-11,-2.98965e-07
9.2e-11,-1.26917e-07
9.3e-11,-8.32442e-07
9.4e-11,-6.54591e-07
9.5e-11,-9.37555e-07
9.6e-11,-1.37842e-06
9.7e-11,-1.59163e-06
9.8e-11,-4.58582e-08
9.9e-11,-6.39496e-07
1e-10,-1.89873e-06
1.01e-10,-3.05637e-07
1.02e-10,-5.48591e-07
1.03e-10,-7.88932e-07
1.04e-10,-1.13734e-06
1.05e-10,-2.65108e-07
1.06e-10,-3.96881e-07
1.07e-10,-3.76153e-07
1.08e-10,-1.77019e-06
1.09e-10,-3.83298e-07
1.1e-10,-1.96509e-06
1.11e-10,-2.61533e-07
1.12e-10,-4.34933e-07
1.13e-10,-1.48805e-06
1.14e-10,-1.2419e-06
1.15e-10,-5.75934e-07
1.16e-10,-3.74183e-07
1.17e-10,-3.23702e-07
1.18e-10,-6.35572e-07
1.19e-10,-6.16976e-07
1.2e-10,-1.36028e-06
1.21e-10,-2.81112e-07
1.22e-10,-1.94979e-07
1.23e-10,-5.92762e-07
1.24e-10,-3.27544e-07
1.25e-10,-1.30513e-06
1.26e-10,-1.18832e-06
1.27e-10,5.92885e-07
1.28e-10,-1.03041e-06
1.29e-10,-3.06941e-07
1.3e-10,-1.01561e-06
1.31e-10,-8.3549e-07
1.32e-10,-2.36304e-07
1.33e-10,-7.97432e-07
1.34e-10,-1.12272e-06
1.35e-10,5.07045e-07
1.36e-10,-5.40855e-07
1.37e-10,-1.06115e-06
1.38e-10,-6.1907e-07
1.39e-10,-3.1535e-07
1.4e-10,-2.84259e-08
1.41e-10,-1.15531e-06
1.42e-10,2.07984e-07
1.43e-10,5.01755e-08
1.44e-10,-4.07172e-07
1.45e-10,-1.70468e-07
1.46e-10,-1.13334e-06
1.47e-10,-3.85716e-08
1.48e-10,-7.88253e-07
1.49e-10,6.35871e-08
1.5e-10,-1.14878e-06
1.51e-10,-5.55905e-07
1.52e-10,-4.12406e-07
1.53e-10,-6.16602e-07
1.54e-10,-1.0009e-06
1.55e-10,-1.11696e-07
1.56e-10,-4.07987e-07
1.57e-10,-8.2018e-09
1.58e-10,-4.318e-07
1.59e-10,-1.05926e-06
1.6e-10,-1.1349e-06
1.61e-10,-4.81006e-07
1.62e-10,-5.31359e-07
1.63e-10,-1.7469e-06
1.64e-10,-4.7718e-07
1.65e-10,-9.11741e-07
1.66e-10,-3.49956e-08
1.67e-10,-1.30341e-06
1.68e-10,-4.52553e-07
1.69e-10,-3.30731e-07
1.7e-10,-5.39984e-07
1.71e-10,1.39848e-07
1.72e-10,-9.7823e-07
1.73e-10,-2.07564e-06
1.74e-10,-1.2437e-07
1.75e-10,-7.8654e-07
1.76e-10,-2.54469e-07
1.77e-10,-1.63808e-06
1.78e-10,-1.18584e-06
1.79e-10,-2.34145e-07
1.8e-10,-4.4106e-07
1.81e-10,-1.39511e-06
1.82e-10,-1.39707e-06
1.83e-10,4.32187e-08
1.84e-10,-8.47952e-07
1.85e-10,-8.47304e-07
1.86e-10,-1.43785e-06
1.87e-10,-1.65859e-06
1.88e-10,-1.56439e-06
1.89e-10,-5.37225e-07
1.9e-10,-1.06652e-06
1.91e-10,-1.63887e-07
1.92e-10,-3.22869e-07
1.93e-10,-7.80537e-07
1.94e-10,-5.28698e-07
1.95e-10,-1.00285e-06
1.96e-10,-2.57137e-07
1.97e-10,-4.13564e-07
1.98e-10,-7.5197e-07
1.99e-10,-3.37634e-07
2e-10,-1.19797e-06
2.01e-10,-6.88791e-07
2.02e-10,-6.38713e-07
2.03e-10,-6.95916e-07
2.04e-10,-2.71897e-07
2.05e-10,-7.44753e-07
2.06e-10,-5.18946e-07
2.07e-10,5.78705e-07
2.08e-10,-1.89323e-06
2.09e-10,-9.16509e-07
2.1e-10,-1.34916e-07
2.11e-10,-1.23393e-06
2.12e-10,2.54537e-07
2.13e-10,-4.74679e-07
2.14e-10,-8.22536e-07
2.15e-10,-8.03386e-07
2.16e-10,-3.72352e-07
2.17e-10,-8.43204e-07
2.18e-10,1.10604e-07
2.19e-10,2.12537e-07
2.2e-10,-1.4745e-06
2.21e-10,-7.40699e-07
2.22e-10,-4.89804e-07
2.23e-10,3.23928e-07
2.24e-10,-1.10457e-06
2.25e-10,-7.28351e-07
2.26e-10,3.52594e-07
2.27e-10,-4.05981e-07
2.28e-10,-3.5249e-07
2.29e-10,-1.49273e-06
2.3e-10,-1.17133e-07
2.31e-10,7.42854e-08
2.32e-10,-1.20784e-06
2.33e-10,-6.08085e-07
2.34e-10,2.64732e-07
2.35e-10,-4.39091e-07
2.36e-10,-3.93434e-07
2.37e-10,-8.94242e-07
2.38e-10,3.08538e-07
2.39e-10,-5.47968e-07
2.4e-10,-1.6795e-06
2.41e-10,-3.35594e-08
2.42e-10,-7.17464e-08
2.43e-10,-3.99669e-07
2.44e-10,-4.66322e-07
2.45e-10,-4.88948e-07
2.46e-10,-2.54336e-07
2.47e-10,-3.94235e-07
2.48e-10,-6.26209e-07
2.49e-10,2.88624e-07
2.5e-10,-2.10643e-06
2.51e-10,4.74341e-07
2.52e-10,-7.12016e-07
2.53e-10,-1.36663e-06
2.54e-10,7.29868e-07
2.55e-10,-1.22272e-06
2.56e-10,-6.29277e-07
2.57e-10,-1.12954e-06
2.58e-10,-1.07254e-06
2.59e-10,-1.24248e-06
2.6e-10,-9.1569e-07
2.61e-10,-7.77285e-07
2.62e-10,-2.16016e-06
2.63e-10,-4.17167e-07
2.64e-10,-8.1369e-07
2.65e-10,-1.81652e-06
2.66e-10,-9.74206e-07
2.67e-10,-1.03538e-07
2.68e-10,-6.96168e-07
2.69e-10,-2.51281e-06
2.7e-10,3.12208e-07
2.71e-10,-1.35219e-07
2.72e-10,-2.11836e-07
2.73e-10,-6.71728e-07
2.74e-10,-5.6571e-08
2.75e-10,-1.23737e-06
2.76e-10,-2.13087e-06
2.77e-10,-1.79226e-07
2.78e-10,8.79653e-08
2.79e-10,-1.15067e-06
2.8e-10,-1.85076e-06
2.81e-10,-2.35871e-07
2.82e-10,-4.68172e-07
2.83e-10,-6.69853e-08
2.84e-10,-5.20609e-07
2.85e-10,-4.3832e-07
2.86e-10,-4.67891e-07
2.87e-10,-7.31919e-09
2.88e-10,-1.44206e-06
2.89e-10,-2.74878e-07
2.9e-10,-3.49079e-07
2.91e-10,1.64919e-07
2.92e-10,-2.24577e-07
2.93e-10,-8.30466e-07
2.94e-10,-4.62526e-07
2.95e-10,4.0606e-07
2.96e-10,-7.54627e-07
2.97e-10,-2.83944e-07
2.98e-10,1.38534e-07
2.99e-10,-1.53998e-06
3e-10,2.40741e-07
3.01e-10,-8.3216e-07
3.02e-10,-1.26585e-06
3.03e-10,-1.41413e-06
3.04e-10,3.40523e-07
3.05e-10,-2.19126e-07
3.06e-10,-7.25913e-07
3.07e-10,-1.1361e-06
3.08e-10,-1.2904e-07
3.09e-10,-5.23669e-07
3.1e-10,-5.04332e-07
3.11e-10,-4.01909e-07
3.12e-10,-5.12279e-07
3.13e-10,-9.91324e-07
3.14e-10,-6.46284e-07
3.15e-10,-1.01044e-06
3.16e-10,-6.18804e-07
3.17e-10,-1.68894e-06
3.18e-10,-2.76761e-07
3.19e-10,-3.03463e-07
3.2e-10,-5.86578e-07
3.21e-10,-8.77411e-07
3.22e-10,-6.44966e-07
3.23e-10,-1.87299e-06
3.24e-10,-3.58503e-07
3.25e-10,-1.15596e-06
3.26e-10,-6.50468e-07
3.27e-10,-1.00544e-06
3.28e-10,-1.27898e-06
3.29e-10,-5.86988e-07
3.3e-10,-1.20916e-06
3.31e-10,-2.57975e-06
3.32e-10,2.28298e-08
3.33e-10,-6.12027e-07
3.34e-10,-1.2595e-07
3.35e-10,-6.73852e-07
3.36e-10,-1.04921e-06
3.37e-10,-1.22141e-06
3.38e-10,-8.30931e-07
3.39e-10,-4.39728e-07
3.4e-10,-3.60571e-07
3.41e-10,-9.35091e-08
3.42e-10,1.42322e-07
3.43e-10,-5.03833e-07
3.44e-10,-1.44428e-06
3.45e-10,-3.10837e-08
3.46e-10,-2.29877e-07
3.47e-10,-9.91383e-07
3.48e-10,-1.08634e-08
3.49e-10,-3.25655e-07
3.5e-10,-9.91587e-07
3.51e-10,-3.16575e-07
3.52e-10,-3.66069e-08
3.53e-10,-3.65227e-07
3.54e-10,-4.98556e-07
3.55e-10,-6.13581e-07
3.56e-10,-3.4221e-08
3.57e-10,-1.11808e-07
3.58e-10,-4.64131e-07
3.59e-10,-1.97209e-07
3.6e-10,-3.34909e-07
3.61e-10,-9.14236e-07
3.62e-10,-6.6709e-07
3.63e-10,6.31483e-08
3.64e-10,-5.21385e-07
3.65e-10,-9.49207e-08
3.66e-10,-1.13798e-06
3.67e-10,-4.93779e-07
3.68e-10,-7.44367e-07
3.69e-10,-3.74651e-07
3.7e-10,-5.02839e-08
3.71e-10,-1.18285e-06
3.72e-10,1.44724e-07
3.73e-10,-2.32923e-07
3.74e-10,-6.91093e-07
3.75e-10,-6.97995e-07
3.76e-10,-1.45862e-06
3.77e-10,-7.56812e-07
3.78e-10,-3.92041e-07
3.79e-10,-1.18337e-06
3.8e-10,-9.93477e-07
3.81e-10,-8.24757e-07
3.82e-10,-1.127e-06
3.83e-10,-5.58006e-07
3.84e-10,-1.2819e-06
3.85e-10,-2.29532e-08
3.86e-10,2.66215e-08
3.87e-10,-2.20153e-07
3.88e-10,-1.13356e-07
3.89e-10,-8.74367e-07
3.9e-10,-8.81553e-07
3.91e-10,-8.41066e-07
3.92e-10,-2.37823e-07
3.93e-10,-1.83023e-07
3.94e-10,-1.40888e-06
3.95e-10,-6.3693e-07
3.96e-10,-2.25153e-07
3.97e-10,-2.39292e-07
3.98e-10,-1.4021e-07
3.99e-10,-2.55309e-07
4e-10,-2.87886e-07
4.01e-10,2.99159e-07
4.02e-10,-5.33942e-07
4.03e-10,2.78585e-08
4.04e-10,-5.25594e-07
4.05e-10,-2.03453e-07
4.06e-10,1.06599e-07
4.07e-10,-2.11752e-07
4.08e-10,-3.55607e-07
4.09e-10,-7.47523e-08
4.1e-10,-2.25893e-07
4.11e-10,1.90811e-07
4.12e-10,1.17014e-08
4.13e-10,-7.21455e-08
4.14e-10,-1.97367e-08
4.15e-10,-4.56631e-07
4.16e-10,5.15414e-07
4.17e-10,-8.06776e-08
4.18e-10,1.08305e-07
4.19e-10,-7.0621e-07
4.2e-10,4.63935e-07
4.21e-10,3.29604e-08
4.22e-10,7.03322e-08
4.23e-10,-6.71909e-07
4.24e-10,-3.19312e-07
4.25e-10,4.34546e-07
4.26e-10,-7.07812e-07
4.27e-10,2.20427e-07
4.28e-10,-3.67394e-07
4.29e-10,2.56284e-07
4.3e-10,-2.09921e-07
4.31e-10,-6.79578e-07
4.32e-10,1.85183e-07
4.33e-10,-2.89733e-07
4.34e-10,-2.06389e-07
4.35e-10,-1.89857e-07
4.36e-10,-2.15757e-06
4.37e-10,-6.93382e-08
4.38e-10,-5.07612e-08
4.39e-10,-7.07047e-07
4.4e-10,8.90018e-07
4.41e-10,-1.22313e-06
4.42e-10,-1.49304e-06
4.43e-10,-5.47866e-07
4.44e-10,-6.47453e-07
4.45e-10,-1.07306e-06
4.46e-10,3.19571e-07
4.47e-10,-2.40754e-07
4.48e-10,-5.6993e-07
4.49e-10,1.70934e-08
4.5e-10,-1.15068e-06
4.51e-10,-3.66436e-07
4.52e-10,-6.58673e-07
4.53e-10,-7.63946e-07
4.54e-10,4.97829e-07
4.55e-10,-1.60942e-07
4.56e-10,-1.40961e-07
4.57e-10,-6.42991e-07
4.58e-10,-1.66032e-06
4.59e-10,-3.42939e-07
4.6e-10,7.98149e-07
4.61e-10,-2.45898e-07
4.62e-10,-1.51558e-06
4.63e-10,4.78045e-09
4.64e-10,5.38368e-07
4.65e-10,3.61219e-07
4.66e-10,-1.68971e-07
4.67e-10,-8.64356e-07
4.68e-10,-1.2086e-08
4.69e-10,-2.42238e-07
4.7e-10,-4.66712e-07
4.71e-10,-3.97443e-07
4.72e-10,-6.06615e-07
4.73e-10,5.04535e-07
4.74e-10,-6.84993e-08
4.75e-10,-6.43971e-07
4.76e-10,-2.37286e-08
4.77e-10,5.10671e-07
4.78e-10,5.19538e-07
4.79e-10,1.08098e-07
4.8e-10,-2.16672e-07
4.81e-10,4.0584e-07
4.82e-10,-1.73417e-07
4.83e-10,5.55732e-07
4.84e-10,-9.80892e-11
4.85e-10,-6.31774e-07
4.86e-10,6.27473e-07
4.87e-10,-6.74515e-07
4.88e-10,5.44393e-07
4.89e-10,-1.05206e-07
4.9e-10,-2.44276e-07
4.91e-10,9.94301e-07
4.92e-10,-5.51603e-07
4.93e-10,9.51659e-09
4.94e-10,2.65493e-08
4.95e-10,-5.36411e-07
4.96e-10,-3.4331e-07
4.97e-10,-4.81875e-07
4.98e-10,-3.91041e-08
4.99e-10,-2.99244e-08
5e-10,-5.98851e-07
5.01e-10,1.7423e-07
5.02e-10,-9.7557e-07
5.03e-10,2.3656e-07
5.04e-10,-1.39415e-06
5.05e-10,1.31736e-06
5.06e-10,-4.46612e-07
5.07e-10,1.41772e-07
5.08e-10,-8.21174e-07
5.09e-10,3.2301e-07
5.1e-10,-2.89525e-07
5.11e-10,3.62567e-07
5.12e-10,2.2809e-07
5.13e-10,-5.91791e-07
5.14e-10,4.98382e-08
5.15e-10,6.28475e-08
5.16e-10,-6.93575e-07
5.17e-10,-3.04044e-07
5.18e-10,3.47092e-07
5.19e-10,7.83621e-08
5.2e-10,4.09573e-07
5.21e-10,-3.29715e-07
5.22e-10,-7.72314e-07
5.23e-10,8.05356e-07
5.24e-10,-1.66932e-07
5.25e-10,-5.57149e-07
5.26e-10,-4.87477e-07
5.27e-10,5.88231e-08
5.28e-10,1.88864e-07
5.29e-10,3.54827e-07
5.3e-10,-3.79411e-07
5.31e-10,-5.05755e-07
5.32e-10,1.58688e-08
5.33e-10,-8.05266e-09
5.34e-10,-7.27649e-07
5.35e-10,7.06042e-07
5.36e-10,3.6274e-07
5.37e-10,2.7203e-07
5.38e-10,-1.94457e-06
5.39e-10,2.83823e-07
5.4e-10,-1.78905e-07
5.41e-10,3.08948e-07
5.42e-10,-7.44791e-07
5.43e-10,-1.10745e-06
5.44e-10,1.80819e-07
5.45e-10,-1.00606e-07
5.46e-10,5.97533e-08
5.47e-10,-5.52979e-07
5.48e-10,4.78091e-07
5.49e-10,-1.09226e-06
5.5e-10,3.33198e-07
5.51e-10,-4.61633e-07
5.52e-10,-4.14692e-07
5.53e-10,1.00076e-07
5.54e-10,1.86152e-08
5.55e-10,2.15767e-07
5.56e-10,2.06053e-07
5.57e-10,2.96043e-07
5.58e-10,3.50091e-07
5.59e-10,-4.67118e-07
5.6e-10,-5.17706e-07
5.61e-10,5.38625e-08
5.62e-10,-4.3621e-09
5.63e-10,6.98819e-08
5.64e-10,2.75937e-07
5.65e-10,-1.83809e-08
5.66e-10,-1.24799e-07
5.67e-10,5.26117e-08
5.68e-10,2.90582e-07
5.69e-10,7.33398e-08
5.7e-10,-2.57824e-07
5.71e-10,4.23941e-07
5.72e-10,-1.65506e-07
5.73e-10,-6.16064e-07
5.74e-10,-5.96256e-08
5.75e-10,2.39517e-07
5.76e-10,6.24714e-07
5.77e-10,1.90049e-07
5.78e-10,-2.52995e-07
5.79e-10,-1.26592e-07
5.8e-10,-8.16798e-08
5.81e-10,2.56912e-07
5.82e-10,-9.73089e-08
5.83e-10,1.82599e-07
5.84e-10,9.34424e-08
5.85e-10,3.67958e-07
5.86e-10,3.22757e-07
5.87e-10,-9.96892e-08
5.88e-10,-3.13577e-07
5.89e-10,-2.57964e-08
5.9e-10,-7.53041e-07
5.91e-10,-1.49888e-07
5.92e-10,3.98182e-07
5.93e-10,-7.29697e-08
5.94e-10,-7.04743e-08
5.95e-10,-2.55517e-07
5.96e-10,-5.39918e-07
5.97e-10,-2.60851e-08
5.98e-10,-1.85616e-07
5.99e-10,-1.04293e-07
6e-10,-9.78562e-08
6.01e-10,6.77319e-07
6.02e-10,-1.50403e-06
6.03e-10,-2.51663e-07
6.04e-10,-1.71632e-07
6.05e-10,-4.44517e-08
6.06e-10,-4.76808e-08
6.07e-10,-8.45961e-08
6.08e-10,-1.32386e-07
6.09e-10,-2.40195e-09
6.1e-10,-3.27974e-07
6.11e-10,3.01142e-08
6.12e-10,-9.26549e-08
6.13e-10,5.1765e-08
6.14e-10,2.3822e-08
6.15e-10,-1.69703e-07
6.16e-10,-1.15284e-07
6.17e-10,-3.12915e-08
6.18e-10,-3.53906e-08
6.19e-10,-9.91275e-08
6.2e-10,-9.32494e-07
6.21e-10,-1.27228e-07
6.22e-10,9.65585e-08
6.23e-10,-4.98374e-07
6.24e-10,-2.91681e-08
6.25e-10,-7.82963e-09
6.26e-10,9.72139e-08
6.27e-10,4.5475e-07
6.28e-10,-1.0134e-06
6.29e-10,-6.59684e-09
6.3e-10,-5.99646e-08
6.31e-10,-1.05644e-06
6.32e-10,-1.68329e-07
6.33e-10,-1.23571e-07
6.34e-10,-5.18546e-07
6.35e-10,-8.26079e-08
6.36e-10,-6.82691e-07
6.37e-10,-1.07532e-06
6.38e-10,3.02482e-07
6.39e-10,-4.97982e-07
6.4e-10,1.01607e-07
6.41e-10,-1.06343e-06
6.42e-10,-6.04448e-08
6.43e-10,-6.26444e-08
6.44e-10,-3.48926e-08
6.45e-10,-1.32331e-06
6.46e-10,9.16186e-08
6.47e-10,-2.11701e-07
6.48e-10,-3.15913e-08
6.49e-10,-1.09941e-07
6.5e-10,-3.5441e-07
6.51e-10,-1.20507e-07
6.52e-10,-3.30206e-08
6.53e-10,-5.48161e-08
6.54e-10,-2.68684e-08
6.55e-10,-2.10006e-08
6.56e-10,-6.99911e-08
6.57e-10,-1.60101e-07
6.58e-10,2.11291e-07
6.59e-10,-6.55265e-08
6.6e-10,-6.40728e-08
6.61e-10,-5.84396e-07
6.62e-10,2.75521e-07
6.63e-10,-1.50367e-09
6.64e-10,-3.59228e-07
6.65e-10,-2.23703e-07
6.66e-10,-3.1779e-08
6.67e-10,-1.69118e-09
6.68e-10,-1.5275e-08
6.69e-10,1.53554e-08
6.7e-10,-5.58677e-08
6.71e-10,-2.92503e-09
6.72e-10,-5.89401e-08
6.73e-10,-1.45205e-07
6.74e-10,-2.88966e-07
6.75e-10,-2.90599e-08
6.76e-10,-5.84919e-08
6.77e-10,-3.02373e-08
6.78e-10,-1.28176e-07
6.79e-10,3.45097e-08
6.8e-10,3.12235e-09
6.81e-10,-9.85879e-08
6.82e-10,-3.53648e-08
6.83e-10,-6.77458e-08
6.84e-10,-5.60726e-08
6.85e-10,-2.5971e-07
6.86e-10,1.23351e-09
6.87e-10,-3.08227e-08
6.88e-10,-3.55109e-08
6.89e-10,-2.75035e-08
6.9e-10,-3.14392e-07
6.91e-10,-3.52204e-08
6.92e-10,-5.29519e-08
6.93e-10,-1.83432e-07
6.94e-10,-3.38445e-07
6.95e-10,3.45554e-08
6.96e-10,-6.69601e-08
6.97e-10,-9.54631e-10
6.98e-10,-6.11724e-08
6.99e-10,-3.30294e-08
7e-10,-4.24483e-07
7.01e-10,1.93529e-08
7.02e-10,-5.38757e-08
7.03e-10,-1.40703e-07
7.04e-10,-5.81648e-07
7.05e-10,-4.63652e-07
7.06e-10,1.22575e-08
7.07e-10,3.57096e-11
7.08e-10,-6.42895e-09
7.09e-10,-6.91634e-08
7.1e-10,-6.63591e-08
7.11e-10,-5.65732e-07
7.12e-10,-4.24723e-07
7.13e-10,1.28462e-07
7.14e-10,-2.90057e-08
7.15e-10,-2.86833e-08
7.16e-10,-2.0255e-10
7.17e-10,-1.20214e-07
7.18e-10,-4.52773e-08
7.19e-10,-2.8886e-08
7.2e-10,3.09017e-08
7.21e-10,-8.72653e-08
7.22e-10,-2.35767e-08
7.23e-10,-1.73197e-09
7.24e-10,-5.78264e-08
7.25e-10,3.02001e-08
7.26e-10,5.30451e-10
7.27e-10,-7.20657e-08
7.28e-10,-2.92562e-08
7.29e-10,-3.22272e-08
7.3e-10,-9.97333e-08
7.31e-10,-2.27225e-08
7.32e-10,-2.78219e-08
7.33e-10,-5.86294e-08
7.34e-10,-2.78295e-08
7.35e-10,-2.79216e-07
7.36e-10,2.40315e-07
7.37e-10,-2.98e-07
7.38e-10,-9.48866e-08
7.39e-10,-6.17628e-08
7.4e-10,-2.26047e-08
7.41e-10,-3.56991e-08
7.42e-10,-3.18803e-08
7.43e-10,4.88588e-08
7.44e-10,-6.57552e-09
7.45e-10,-4.14025e-08
7.46e-10,-1.04076e-07
7.47e-10,5.91582e-08
7.48e-10,-1.44609e-07
7.49e-10,3.47757e-07
7.5e-10,-3.78452e-07
7.51e-10,3.42377e-07
7.52e-10,-4.38908e-08
7.53e-10,-3.53364e-08
7.54e-10,-4.33711e-07
7.55e-10,2.29795e-09
7.56e-10,-1.01815e-07
7.57e-10,3.85261e-07
7.58e-10,-3.8345e-07
7.59e-10,3.76863e-07
7.6e-10,-4.4454e-07
7.61e-10,3.38093e-07
7.62e-10,-3.25051e-07
7.63e-10,-5.73107e-08
7.64e-10,-2.97412e-08
7.65e-10,-3.04406e-08
7.66e-10,-5.75489e-08
7.67e-10,-3.02131e-08
7.68e-10,-2.28083e-10
7.69e-10,-2.84757e-08
7.7e-10,-2.07963e-09
7.71e-10,-3.64428e-08
7.72e-10,-4.50087e-08
7.73e-10,-1.20303e-07
7.74e-10,7.4232e-08
7.75e-10,-3.31296e-08
7.76e-10,3.0629e-08
7.77e-10,-4.63917e-08
7.78e-10,-5.22722e-08
7.79e-10,-1.67302e-10
7.8e-10,4.56704e-08
7.81e-10,-1.23296e-07
7.82e-10,1.50389e-09
7.83e-10,-3.12947e-08
7.84e-10,-3.36141e-08
7.85e-10,4.76619e-09
7.86e-10,2.9405e-07
7.87e-10,-1.05898e-07
7.88e-10,-2.99496e-07
7.89e-10,2.16649e-10
7.9e-10,-6.30846e-08
7.91e-10,-5.73786e-08
7.92e-10,1.32772e-09
7.93e-10,-4.71535e-09
7.94e-10,6.36742e-08
7.95e-10,-6.31535e-08
7.96e-10,-5.38022e-08
7.97e-10,-2.70789e-08
7.98e-10,-9.24061e-08
7.99e-10,3.15146e-08
8e-10,-3.23994e-08
8.01e-10,-2.94495e-09
8.02e-10,1.43851e-09
8.03e-10,4.94519e-09
8.04e-10,-6.59164e-08
8.05e-10,-5.58204e-08
8.06e-10,-1.94713e-08
8.07e-10,3.41787e-08
8.08e-10,-2.96047e-08
8.09e-10,-3.29606e-08
8.1e-10,-1.69918e-09
8.11e-10,-3.06373e-08
8.12e-10,-6.56238e-08
8.13e-10,0
8.14e-10,-1.06298e-07
8.15e-10,3.28199e-08
8.16e-10,-6.58757e-08
8.17e-10,4.70176e-09
8.18e-10,-3.41186e-08
8.19e-10,1.30244e-09
8.2e-10,4.94653e-08
8.21e-10,5.75739e-10
8.22e-10,-3.13564e-08
8.23e-10,3.12032e-08
8.24e-10,-9.00819e-08
8.25e-10,2.12031e-08
8.26e-10,-3.47541e-08
8.27e-10,1.43572e-08
8.28e-10,-3.26322e-08
8.29e-10,-4.40921e-10
8.3e-10,3.31e-08
8.31e-10,-3.30884e-08
8.32e-10,-5.4428e-08
8.33e-10,3.26648e-08
8.34e-10,1.37185e-08
8.35e-10,0
8.36e-10,-6.37818e-08
8.37e-10,-3.16776e-08
8.38e-10,3.23284e-08
8.39e-10,1.00191e-09
8.4e-10,-6.10584e-08
8.41e-10,-1.1403e-07
8.42e-10,-3.23284e-08
8.43e-10,1.17441e-08
8.44e-10,1.955e-10
8.45e-10,2.89106e-08
8.46e-10,-2.89649e-08
8.47e-10,-2.28083e-10
8.48e-10,3.2263e-08
8.49e-10,-3.50152e-10
8.5e-10,-1.00579e-07
8.51e-10,8.26445e-08
8.52e-10,9.47408e-10
8.53e-10,2.65303e-07
8.54e-10,-1.2758e-09
8.55e-10,1.50389e-09
8.56e-10,3.13971e-08
8.57e-10,-3.31561e-08
8.58e-10,-4.56167e-10
8.59e-10,5.032e-08
8.6e-10,0
8.61e-10,6.70291e-08
8.62e-10,-6.69965e-08
8.63e-10,-3.16251e-08
8.64e-10,2.28083e-10
8.65e-10,-2.28083e-10
8.66e-10,2.75006e-07
8.67e-10,0
8.68e-10,-6.88551e-08
8.69e-10,2.61656e-07
8.7e-10,0
8.71e-10,4.23584e-10
8.72e-10,-2.28083e-10
8.73e-10,3.12468e-08
8.74e-10,-4.56167e-10
8.75e-10,-2.29704e-08
8.76e-10,2.95209e-07
8.77e-10,2.97438e-07
8.78e-10,-8.13543e-09
8.79e-10,-3.36225e-08
8.8e-10,1.1798e-10
8.81e-10,3.04516e-08
8.82e-10,2.74149e-07
8.83e-10,3.16071e-09
8.84e-10,-7.70805e-08
8.85e-10,-3.04516e-08
8.86e-10,2.25301e-07
8.87e-10,-1.34839e-10
8.88e-10,1.50389e-09
8.89e-10,-1.69939e-09
8.9e-10,1.73197e-09
8.91e-10,2.19546e-07
8.92e-10,-7.04958e-12
8.93e-10,1.955e-10
8.94e-10,-1.11023e-07
8.95e-10,2.74536e-08
8.96e-10,-2.76349e-08
8.97e-10,3.33913e-08
8.98e-10,3.25831e-11
8.99e-10,-5.49699e-10
9e-10,0
9.01e-10,1.955e-10
9.02e-10,-5.62802e-08
9.03e-10,0
9.04e-10,-1.955e-10
9.05e-10,3.25831e-11
9.06e-10,0
9.07e-10,-3.08245e-08
9.08e-10,-1.57738e-07
9.09e-10,1.56994e-07
9.1e-10,2.28083e-10
9.11e-10,-5.23354e-08
9.12e-10,-1.57665e-07
9.13e-10,1.5827e-07
9.14e-10,2.35163e-10
9.15e-10,-3.36123e-08
9.16e-10,-3.21934e-08
9.17e-10,4.23584e-10
9.18e-10,3.15346e-08
9.19e-10,-3.15346e-08
9.2e-10,-5.75855e-08
9.21e-10,-1.955e-10
9.22e-10,-3.59013e-08
9.23e-10,3.54472e-08
9.24e-10,4.23584e-10
9.25e-10,-3.58382e-08
9.26e-10,3.56427e-08
9.27e-10,-4.55603e-10
9.28e-10,-3.00518e-09
9.29e-10,-9.62056e-08
9.3e-10,-3.15851e-08
9.31e-10,5.63966e-13
9.32e-10,3.34939e-08
9.33e-10,-3.64197e-09
9.34e-10,-1.62353e-10
9.35e-10,-2.28083e-10
9.36e-10,-9.24314e-08
9.37e-10,-3.33016e-08
9.38e-10,3.50037e-09
9.39e-10,1.74184e-10
9.4e-10,-3.80488e-09
9.41e-10,3.9805e-10
9.42e-10,-1.955e-10
9.43e-10,4.68501e-11
9.44e-10,-3.38404e-08
9.45e-10,-2.74934e-10
9.46e-10,-1.05031e-07
9.47e-10,-7.04958e-12
9.48e-10,-2.28083e-10
9.49e-10,-2.53785e-12
9.5e-10,4.16179e-09
9.51e-10,0
9.52e-10,-1.43681e-09
9.53e-10,9.22939e-10
9.54e-10,-1.13273e-07
9.55e-10,-7.60055e-10
9.56e-10,4.01826e-10
9.57e-10,7.27439e-10
9.58e-10,-2.28083e-10
9.59e-10,0
9.6e-10,0
9.61e-10,2.28083e-10
9.62e-10,-1.14415e-07
9.63e-10,-3.25831e-11
9.64e-10,2.28083e-10
9.65e-10,-5.00084e-08
9.66e-10,-4.40865e-09
9.67e-10,4.44123e-09
9.68e-10,-1.955e-10
9.69e-10,1.18364e-09
9.7e-10,-7.60055e-10
9.71e-10,-1.32506e-07
9.72e-10,3.33842e-08
9.73e-10,-3.33842e-08
9.74e-10,3.34168e-08
9.75e-10,0
9.76e-10,0
9.77e-10,0
9.78e-10,0
9.79e-10,-3.36052e-08
9.8e-10,7.60055e-10
9.81e-10,-1.44671e-07
9.82e-10,0
9.83e-10,0
9.84e-10,0
9.85e-10,-7.04958e-12
9.86e-10,-2.18402e-10
9.87e-10,0
9.88e-10,0
9.89e-10,-3.52434e-10
9.9e-10,0
9.91e-10,-1.39962e-07
9.92e-10,2.28083e-10
9.93e-10,0
9.94e-10,-3.96327e-11
9.95e-10,6.23695e-08
9.96e-10,2.28083e-10
9.97e-10,-9.68142e-12
9.98e-10,-2.21034e-10
9.99e-10,-1.58357e-07
1e-09,-4.51173e-09
1.001e-09,0
1.002e-09,3.36193e-08
1.003e-09,-7.04958e-12
1.004e-09,7.04958e-12
1.005e-09,-3.36123e-08
1.006e-09,2.30715e-10
1.007e-09,-1.80747e-07
1.008e-09,1.12793e-08
1.009e-09,2.28083e-10
1.01e-09,4.95967e-10
1.011e-09,-8.00921e-08
1.012e-09,2.71178e-07
1.013e-09,-1.57977e-07
1.014e-09,-1.13201e-07
1.015e-09,-2.28083e-10
1.016e-09,-9.86986e-08
1.017e-09,-7.04958e-12
1.018e-09,-1.10756e-07
1.019e-09,1.10495e-07
1.02e-09,0
1.021e-09,0
1.022e-09,2.28083e-10
1.023e-09,-3.09557e-07
1.024e-09,4.56167e-10
1.025e-09,-2.28083e-10
1.026e-09,4.958e-10
1.027e-09,-2.28083e-10
1.028e-09,-2.60667e-10
1.029e-09,0
1.03e-09,0
1.031e-09,0
1.032e-09,7.77113e-09
1.033e-09,-2.44135e-07
1.034e-09,-2.85508e-09
1.035e-09,1.02867e-07
1.036e-09,-1.00012e-07
1.037e-09,-2.85508e-09
1.038e-09,1.03095e-07
1.039e-09,-2.27519e-10
1.04e-09,-3.68347e-07
1.041e-09,2.25452e-10
1.042e-09,2.63184e-12
1.043e-09,-7.04958e-12
1.044e-09,-2.30715e-10
1.045e-09,1.89647e-09
1.046e-09,-2.12192e-09
1.047e-09,0
1.048e-09,-3.12512e-07
1.049e-09,-4.59302e-10
1.05e-09,-2.28083e-10
1.051e-09,0
1.052e-09,0
1.053e-09,-2.28083e-10
1.054e-09,0
1.055e-09,0
1.056e-09,0
1.057e-09,1.75755e-09
1.058e-09,-3.82197e-07
1.059e-09,2.28083e-10
1.06e-09,2.28083e-10
1.061e-09,-1.21845e-07
1.062e-09,3.36123e-08
1.063e-09,2.28083e-10
1.064e-09,-3.34238e-08
1.065e-09,3.25831e-11
1.066e-09,-4.5282e-07
1.067e-09,2.28083e-10
1.068e-09,4.56167e-10
1.069e-09,1.62346e-09
1.07e-09,0
1.071e-09,0
1.072e-09,2.28083e-10
1.073e-09,0
1.074e-09,-5.89913e-07
1.075e-09,-2.07963e-09
1.076e-09,-2.28083e-10
1.077e-09,-2.28083e-10
1.078e-09,0
1.079e-09,2.28083e-10
1.08e-09,3.51275e-09
1.081e-09,-1.73742e-10
1.082e-09,-6.82878e-07
1.083e-09,0
1.084e-09,0
1.085e-09,-2.28083e-10
1.086e-09,2.28083e-10
1.087e-09,0
1.088e-09,7.04958e-12
1.089e-09,-1.98548e-09
1.09e-09,1.98548e-09
1.091e-09,-1.98548e-09
1.092e-09,0
1.093e-09,4.34065e-09
1.094e-09,0
1.095e-09,-2.28083e-10
1.096e-09,-3.60067e-08
1.097e-09,2.35133e-10
1.098e-09,-2.28083e-10
1.099e-09,-7.04958e-12
1.1e-09,-2.28083e-10
1.101e-09,-6.34462e-11
1.102e-09,-1.955e-10
1.103e-09,-2.28083e-10
1.104e-09,2.28083e-10
1.105e-09,0
1.106e-09,2.28083e-10
1.107e-09,-4.49117e-10
1.108e-09,4.56167e-10
1.109e-09,0
1.11e-09,-4.56167e-10
1.111e-09,0
1.112e-09,4.8703e-10
1.113e-09,3.25831e-11
1.114e-09,-2.28083e-10
1.115e-09,-2.60667e-10
1.116e-09,-9.71432e-12
1.117e-09,9.71432e-12
1.118e-09,-1.955e-10
1.119e-09,0
1.12e-09,2.28083e-10
1.121e-09,-4.56167e-10
1.122e-09,0
1.123e-09,-6.34462e-11
1.124e-09,2.28083e-10
1.125e-09,0
1.126e-09,8.45949e-11
1.127e-09,1.22413e-09
1.128e-09,0
1.129e-09,-2.28083e-10
1.13e-09,-1.47336e-09
1.131e-09,0
1.132e-09,-6.34462e-11
1.133e-09,6.34462e-11
1.134e-09,4.23584e-10
1.135e-09,1.955e-10
1.136e-09,-1.955e-10
1.137e-09,0
1.138e-09,0
1.139e-09,2.28083e-10
1.14e-09,0
1.141e-09,-1.955e-10
1.142e-09,-6.34462e-11
1.143e-09,0
1.144e-09,0
1.145e-09,0
1.146e-09,0
1.147e-09,0
1.148e-09,0
1.149e-09,-2.28083e-10
1.15e-09,4.56167e-10
1.151e-09,0
1.152e-09,0
1.153e-09,0
1.154e-09,-2.28083e-10
1.155e-09,0
1.156e-09,2.28083e-10
1.157e-09,-2.28083e-10
1.158e-09,2.28083e-10
1.159e-09,0
1.16e-09,0
1.161e-09,6.34462e-11
1.162e-09,-2.9153e-10
1.163e-09,0
1.164e-09,0
1.165e-09,2.9153e-10
1.166e-09,-5.19613e-10
1.167e-09,2.9153e-10
1.168e-09,-2.28083e-10
1.169e-09,2.71486e-07
1.17e-09,-2.71258e-07
1.171e-09,0
1.172e-09,2.71258e-07
1.173e-09,-2.71557e-07
1.174e-09,0
1.175e-09,0
1.176e-09,0
1.177e-09,0
1.178e-09,7.04958e-11
1.179e-09,2.28083e-10
1.18e-09,2.71258e-07
1.181e-09,-1.19843e-10
1.182e-09,1.19843e-10
1.183e-09,0
1.184e-09,-2.71486e-07
1.185e-09,-3.25831e-11
1.186e-09,-1.955e-10
1.187e-09,1.955e-10
1.188e-09,3.25831e-11
1.189e-09,-4.56167e-10
1.19e-09,2.71138e-07
1.191e-09,2.28083e-10
1.192e-09,2.28083e-10
1.193e-09,-4.56167e-10
1.194e-09,4.23584e-10
1.195e-09,-2.71373e-07
1.196e-09,0
1.197e-09,7.04958e-12
1.198e-09,2.21034e-10
1.199e-09,-2.9153e-10
1.2e-09,0
1.201e-09,2.28083e-10
1.202e-09,-4.56167e-10
1.203e-09,0
1.204e-09,0
1.205e-09,0
1.206e-09,2.28083e-10
1.207e-09,-3.36123e-08
1.208e-09,-2.28083e-10
1.209e-09,3.83174e-10
1.21e-09,0
1.211e-09,1.19843e-10
1.212e-09,-1.19843e-10
1.213e-09,2.28083e-10
1.214e-09,0
1.215e-09,1.955e-10
1.216e-09,-1.955e-10
1.217e-09,-2.28083e-10
1.218e-09,2.28083e-10
1.219e-09,2.28083e-10
1.22e-09,0
1.221e-09,1.955e-10
1.222e-09,0
1.223e-09,0
1.224e-09,2.28083e-10
1.225e-09,0
1.226e-09,-4.23584e-10
1.227e-09,-1.955e-10
1.228e-09,-3.08444e-08
1.229e-09,-1.6214e-10
1.23e-09,2.28083e-10
1.231e-09,-1.955e-10
1.232e-09,0
1.233e-09,7.04958e-12
1.234e-09,0
1.235e-09,0
1.236e-09,1.955e-10
1.237e-09,0
1.238e-09,0
1.239e-09,0
1.24e-09,-3.23081e-08
1.241e-09,0
1.242e-09,-2.28083e-10
1.243e-09,-7.04958e-12
1.244e-09,7.04958e-12
1.245e-09,-7.04958e-12
1.246e-09,2.28083e-10
1.247e-09,7.04958e-12
1.248e-09,1.2763e-09
1.249e-09,-3.96327e-11
1.25e-09,2.11487e-11
1.251e-09,-2.16649e-10
1.252e-09,2.11487e-11
1.253e-09,0
1.254e-09,-3.57822e-08
1.255e-09,1.74352e-10
1.256e-09,-1.62917e-10
1.257e-09,1.955e-10
1.258e-09,-1.955e-10
1.259e-09,0
1.26e-09,-2.28083e-10
1.261e-09,0
1.262e-09,0
1.263e-09,-3.24009e-08
1.264e-09,-2.28083e-10
1.265e-09,0
1.266e-09,2.28083e-10
1.267e-09,0
1.268e-09,0
1.269e-09,0
1.27e-09,-1.50367e-09
1.271e-09,1.50367e-09
1.272e-09,-2.94552e-08
1.273e-09,0
1.274e-09,0
1.275e-09,0
1.276e-09,0
1.277e-09,-2.28083e-10
1.278e-09,4.23584e-10
1.279e-09,-1.955e-10
1.28e-09,2.28083e-10
1.281e-09,-3.25831e-11
1.282e-09,3.25831e-11
1.283e-09,-2.28083e-10
1.284e-09,-3.36124e-08
1.285e-09,0
1.286e-09,0
1.287e-09,0
1.288e-09,0
1.289e-09,-2.28083e-10
1.29e-09,0
1.291e-09,0
1.292e-09,1.90339e-10
1.293e-09,-3.85839e-10
1.294e-09,1.90339e-10
1.295e-09,0
1.296e-09,0
1.297e-09,-3.02314e-08
1.298e-09,1.55091e-10
1.299e-09,0
1.3e-09,3.52479e-11
1.301e-09,0
1.302e-09,0
1.303e-09,0
1.304e-09,-3.01694e-08
1.305e-09,-3.05024e-08
1.306e-09,1.6919e-09
1.307e-09,0
1.308e-09,3.52479e-11
1.309e-09,-3.17231e-10
1.31e-09,0
1.311e-09,2.81983e-10
1.312e-09,-3.22962e-08
1.313e-09,0
1.314e-09,-2.81983e-10
1.315e-09,5.38997e-11
1.316e-09,0
1.317e-09,0
1.318e-09,-3.13971e-08
1.319e-09,0
1.32e-09,0
1.321e-09,2.35133e-10
1.322e-09,-3.36194e-08
1.323e-09,3.00805e-09
1.324e-09,1.955e-10
1.325e-09,-1.955e-10
1.326e-09,2.3605e-09
1.327e-09,0
1.328e-09,-2.3605e-09
1.329e-09,0
1.33e-09,-2.77997e-09
1.331e-09,4.96612e-09
1.332e-09,-3.36335e-08
1.333e-09,0
1.334e-09,0
1.335e-09,-3.29947e-08
1.336e-09,2.78287e-08
1.337e-09,-7.04958e-12
1.338e-09,-2.53078e-08
1.339e-09,0
1.34e-09,0
1.341e-09,1.55091e-10
1.342e-09,0
1.343e-09,0
1.344e-09,-3.22962e-08
1.345e-09,4.51173e-09
1.346e-09,0
1.347e-09,0
1.348e-09,0
1.349e-09,3.36123e-08
1.35e-09,-3.36123e-08
1.351e-09,0
1.352e-09,0
1.353e-09,-6.63457e-08
1.354e-09,-1.26892e-10
1.355e-09,0
1.356e-09,1.50367e-09
1.357e-09,0
1.358e-09,0
1.359e-09,0
1.36e-09,0
1.361e-09,-2.13984e-10
1.362e-09,-3.66578e-08
1.363e-09,0
1.364e-09,0
1.365e-09,-1.894e-08
1.366e-09,-2.84641e-08
1.367e-09,0
1.368e-09,2.28083e-10
1.369e-09,-2.28083e-10
1.37e-09,-3.52479e-11
1.371e-09,-1.38342e-08
1.372e-09,-2.49561e-08
1.373e-09,1.87849e-08
1.374e-09,-1.29239e-08
1.375e-09,-2.51903e-08
1.376e-09,1.89753e-08
1.377e-09,-1.90339e-10
1.378e-09,-1.894e-08
1.379e-09,0
1.38e-09,1.93585e-08
1.381e-09,-6.63922e-08
1.382e-09,0
1.383e-09,1.90339e-10
1.384e-09,-3.52479e-11
1.385e-09,-1.92836e-10
1.386e-09,0
1.387e-09,0
1.388e-09,-2.38889e-08
1.389e-09,-3.54812e-08
1.39e-09,1.90339e-10
1.391e-09,0
1.392e-09,-1.90339e-10
1.393e-09,0
1.394e-09,0
1.395e-09,0
1.396e-09,0
1.397e-09,-2.80897e-08
1.398e-09,-3.5594e-08
1.399e-09,4.18422e-10
1.4e-09,0
1.401e-09,-1.90339e-10
1.402e-09,0
1.403e-09,7.04958e-11
1.404e-09,-7.04958e-11
1.405e-09,-3.54072e-08
1.406e-09,0
1.407e-09,-2.90383e-08
1.408e-09,0
1.409e-09,0
1.41e-09,0
1.411e-09,0
1.412e-09,0
1.413e-09,0
1.414e-09,2.28083e-10
1.415e-09,-5.92619e-08
1.416e-09,-5.78732e-09
1.417e-09,0
1.418e-09,-2.28083e-10
1.419e-09,0
1.42e-09,6.0154e-09
1.421e-09,-5.78732e-09
1.422e-09,-2.90383e-08
1.423e-09,0
1.424e-09,7.04958e-11
1.425e-09,-3.43639e-08
1.426e-09,0
1.427e-09,0
1.428e-09,0
1.429e-09,0
1.43e-09,-6.34462e-11
1.431e-09,0
1.432e-09,-2.88109e-08
1.433e-09,-3.94988e-08
1.434e-09,0
1.435e-09,-2.11487e-11
1.436e-09,0
1.437e-09,2.49232e-10
1.438e-09,0
1.439e-09,0
1.44e-09,-2.28083e-10
1.441e-09,-2.78705e-08
1.442e-09,2.28083e-10
1.443e-09,-4.07325e-08
1.444e-09,0
1.445e-09,1.955e-10
1.446e-09,0
1.447e-09,0
1.448e-09,0
1.449e-09,0
1.45e-09,-2.88102e-08
1.451e-09,-2.28083e-10
1.452e-09,0
1.453e-09,2.28083e-10
1.454e-09,-1.955e-10
1.455e-09,-3.94001e-08
1.456e-09,0
1.457e-09,4.09542e-09
1.458e-09,8.50179e-09
1.459e-09,-1.28253e-08
1.46e-09,-2.65551e-08
1.461e-09,0
1.462e-09,-4.51173e-09
1.463e-09,0
1.464e-09,0
1.465e-09,0
1.466e-09,-3.96468e-08
1.467e-09,0
1.468e-09,-2.20426e-08
1.469e-09,6.26002e-09
1.47e-09,1.955e-10
1.471e-09,-6.26002e-09
1.472e-09,-1.32054e-10
1.473e-09,2.28083e-10
1.474e-09,-2.87077e-08
1.475e-09,0
1.476e-09,0
1.477e-09,-4.32774e-08
1.478e-09,-4.51173e-09
1.479e-09,4.51173e-09
1.48e-09,8.3326e-09
1.481e-09,0
1.482e-09,0
1.483e-09,-3.0838e-08
1.484e-09,-8.49724e-09
1.485e-09,0
1.486e-09,-3.37181e-08
1.487e-09,-1.08563e-08
1.488e-09,6.34462e-11
1.489e-09,1.08563e-08
1.49e-09,0
1.491e-09,0
1.492e-09,-2.88102e-08
1.493e-09,0
1.494e-09,0
1.495e-09,-4.36344e-08
1.496e-09,-6.34462e-11
1.497e-09,-2.28083e-10
1.498e-09,0
1.499e-09,0
1.5e-09,0
1.501e-09,-3.09864e-08
1.502e-09,2.28083e-10
1.503e-09,-1.64637e-10
1.504e-09,0
1.505e-09,-6.34462e-11
1.506e-09,-4.46027e-08
1.507e-09,0
1.508e-09,0
1.509e-09,0
1.51e-09,0
1.511e-09,0
1.512e-09,6.34462e-11
1.513e-09,-4.30771e-08
1.514e-09,6.34462e-11
1.515e-09,-4.80781e-08
1.516e-09,0
1.517e-09,0
1.518e-09,0
1.519e-09,0
1.52e-09,6.34462e-11
1.521e-09,0
1.522e-09,-3.13269e-08
1.523e-09,0
1.524e-09,0
1.525e-09,-3.30696e-08
1.526e-09,0
1.527e-09,-1.21323e-08
1.528e-09,0
1.529e-09,-1.6832e-08
1.53e-09,6.01611e-09
1.531e-09,-6.01611e-09
1.532e-09,0
1.533e-09,0
1.534e-09,-4.66723e-08
1.535e-09,0
1.536e-09,6.05326e-11
1.537e-09,0
1.538e-09,-2.88581e-08
1.539e-09,0
1.54e-09,7.4514e-09
1.541e-09,-6.05326e-11
1.542e-09,-5.0492e-08
1.543e-09,-7.71224e-09
1.544e-09,0
1.545e-09,0
1.546e-09,0
1.547e-09,0
1.548e-09,-3.13565e-08
1.549e-09,0
1.55e-09,-5.07429e-08
1.551e-09,0
1.552e-09,7.5219e-09
1.553e-09,0
1.554e-09,0
1.555e-09,7.04958e-11
1.556e-09,-7.04958e-11
1.557e-09,-3.36124e-08
1.558e-09,0
1.559e-09,-5.44509e-08
1.56e-09,-2.28083e-10
1.561e-09,0
1.562e-09,0
1.563e-09,2.28083e-10
1.564e-09,0
1.565e-09,0
1.566e-09,0
1.567e-09,7.04958e-11
1.568e-09,-8.4743e-08
1.569e-09,0
1.57e-09,0
1.571e-09,-7.04958e-11
1.572e-09,0
1.573e-09,-2.28083e-10
1.574e-09,0
1.575e-09,9.02346e-09
1.576e-09,-5.53155e-08
1.577e-09,-3.2353e-08
1.578e-09,2.28083e-10
1.579e-09,-2.28083e-10
1.58e-09,0
1.581e-09,0
1.582e-09,0
1.583e-09,-7.04958e-12
1.584e-09,0
1.585e-09,-5.95478e-08
1.586e-09,-3.19064e-08
1.587e-09,0
1.588e-09,0
1.589e-09,0
1.59e-09,7.04958e-11
1.591e-09,0
1.592e-09,-1.06026e-08
1.593e-09,0
1.594e-09,-5.83282e-08
1.595e-09,2.10712e-08
1.596e-09,1.0525e-08
1.597e-09,-3.04119e-08
1.598e-09,-1.40992e-11
1.599e-09,-2.10571e-08
1.6e-09,2.10571e-08
1.601e-09,-7.04958e-12
1.602e-09,-6.16486e-08
1.603e-09,0
1.604e-09,-3.0426e-08
1.605e-09,0
1.606e-09,0
1.607e-09,7.04958e-12
1.608e-09,1.40992e-11
1.609e-09,0
1.61e-09,-6.40595e-08
1.611e-09,2.68025e-08
1.612e-09,-3.33632e-08
1.613e-09,0
1.614e-09,-2.11487e-11
1.615e-09,2.11487e-11
1.616e-09,0
1.617e-09,-6.38692e-08
1.618e-09,0
1.619e-09,2.70704e-09
1.62e-09,0
1.621e-09,-3.63194e-08
1.622e-09,0
1.623e-09,0
1.624e-09,-1.40992e-11
1.625e-09,0
1.626e-09,0
1.627e-09,-6.52156e-08
1.628e-09,2.71409e-09
1.629e-09,-2.72114e-09
1.63e-09,-3.04189e-08
1.631e-09,0
1.632e-09,0
1.633e-09,-2.28083e-10
1.634e-09,0
1.635e-09,0
1.636e-09,0
1.637e-09,-6.81572e-08
1.638e-09,2.86918e-09
1.639e-09,-1.40992e-11
1.64e-09,-3.09265e-08
1.641e-09,-2.0255e-10
1.642e-09,7.04958e-12
1.643e-09,0
1.644e-09,2.42183e-10
1.645e-09,-7.13179e-08
1.646e-09,0
1.647e-09,3.25831e-11
1.648e-09,-2.88766e-09
1.649e-09,-1.955e-10
1.65e-09,3.05058e-09
1.651e-09,-3.75531e-08
1.652e-09,2.55336e-11
1.653e-09,7.04958e-12
1.654e-09,-1.54199e-08
1.655e-09,-7.04958e-12
1.656e-09,-7.24062e-08
1.657e-09,-2.95566e-09
1.658e-09,-3.60637e-08
1.659e-09,1.88451e-10
1.66e-09,0
1.661e-09,2.96271e-09
1.662e-09,0
1.663e-09,0
1.664e-09,-1.40992e-11
1.665e-09,0
1.666e-09,-1.12878e-07
1.667e-09,0
1.668e-09,0
1.669e-09,0
1.67e-09,0
1.671e-09,0
1.672e-09,0
1.673e-09,0
1.674e-09,0
1.675e-09,-8.09503e-08
1.676e-09,0
1.677e-09,0
1.678e-09,-3.78844e-08
1.679e-09,-3.44724e-09
1.68e-09,0
1.681e-09,0
1.682e-09,0
1.683e-09,2.35133e-10
1.684e-09,-8.25717e-08
1.685e-09,-2.28083e-10
1.686e-09,0
1.687e-09,-3.28556e-08
1.688e-09,-7.04958e-12
1.689e-09,0
1.69e-09,0
1.691e-09,0
1.692e-09,0
1.693e-09,0
1.694e-09,0
1.695e-09,-8.79012e-08
1.696e-09,0
1.697e-09,7.04958e-12
1.698e-09,-3.50716e-08
1.699e-09,0
1.7e-09,0
1.701e-09,0
1.702e-09,-9.34305e-08
1.703e-09,0
1.704e-09,0
1.705e-09,0
1.706e-09,2.28083e-10
1.707e-09,-3.79574e-08
1.708e-09,0
1.709e-09,5.33935e-08
1.71e-09,0
1.711e-09,-1.48647e-07
1.712e-09,0
1.713e-09,0
1.714e-09,0
1.715e-09,-3.47474e-08
1.716e-09,1.955e-10
1.717e-09,2.70704e-08
1.718e-09,6.34462e-11
1.719e-09,-2.71338e-08
1.72e-09,2.7103e-08
1.721e-09,-1.00729e-07
1.722e-09,-6.34462e-11
1.723e-09,-2.28083e-10
1.724e-09,0
1.725e-09,0
1.726e-09,0
1.727e-09,-3.22966e-08
1.728e-09,-1.09346e-07
1.729e-09,6.34462e-11
1.73e-09,-6.34462e-11
1.731e-09,1.955e-10
1.732e-09,2.53547e-08
1.733e-09,-2.53221e-08
1.734e-09,2.5308e-08
1.735e-09,-1.12775e-07
1.736e-09,0
1.737e-09,-2.80996e-08
1.738e-09,0
1.739e-09,0
1.74e-09,-3.49166e-08
1.741e-09,0
1.742e-09,2.28083e-10
1.743e-09,-1.24608e-07
1.744e-09,0
1.745e-09,-3.00382e-08
1.746e-09,0
1.747e-09,0
1.748e-09,0
1.749e-09,0
1.75e-09,0
1.751e-09,0
1.752e-09,0
1.753e-09,-1.53519e-07
1.754e-09,0
1.755e-09,0
1.756e-09,2.28083e-10
1.757e-09,-2.28083e-10
1.758e-09,0
1.759e-09,0
1.76e-09,-3.5403e-08
1.761e-09,-7.04958e-12
1.762e-09,0
1.763e-09,3.74801e-08
1.764e-09,-1.38028e-07
1.765e-09,-7.04958e-12
1.766e-09,-3.0856e-08
1.767e-09,-7.04958e-12
1.768e-09,-9.83666e-09
1.769e-09,-2.53689e-08
1.77e-09,4.45604e-08
1.771e-09,-2.67884e-09
1.772e-09,2.45076e-09
1.773e-09,0
1.774e-09,-1.54513e-07
1.775e-09,2.28083e-10
1.776e-09,0
1.777e-09,-2.48805e-08
1.778e-09,0
1.779e-09,0
1.78e-09,0
1.781e-09,0
1.782e-09,2.09599e-10
1.783e-09,-1.70624e-07
1.784e-09,1.955e-10
1.785e-09,-2.12006e-08
1.786e-09,-1.955e-10
1.787e-09,6.34462e-11
1.788e-09,1.955e-10
1.789e-09,0
1.79e-09,-7.04958e-11
1.791e-09,-3.20051e-09
1.792e-09,3.20051e-09
1.793e-09,-1.96951e-07
1.794e-09,0
1.795e-09,-1.86165e-07
1.796e-09,1.76712e-07
1.797e-09,-7.04958e-12
1.798e-09,-3.34855e-09
1.799e-09,3.34855e-09
1.8e-09,0
1.801e-09,-1.3679e-07
1.802e-09,-8.92476e-09
1.803e-09,-1.955e-10
1.804e-09,-2.84542e-07
1.805e-09,5.68478e-08
1.806e-09,0
1.807e-09,-5.44368e-08
1.808e-09,-2.30535e-07
1.809e-09,-1.40992e-11
1.81e-09,-5.68735e-08
1.811e-09,0
1.812e-09,5.84057e-08
1.813e-09,0
1.814e-09,0
1.815e-09,0
1.816e-09,0
1.817e-09,-2.28083e-10
1.818e-09,-3.37975e-07
1.819e-09,7.04958e-12
1.82e-09,0
1.821e-09,1.23181e-08
1.822e-09,-6.32372e-08
1.823e-09,-7.04958e-12
1.824e-09,-3.57663e-09
1.825e-09,-3.35377e-07
1.826e-09,6.90859e-10
1.827e-09,-5.03248e-07
1.828e-09,0
1.829e-09,1.29783e-08
1.83e-09,-4.7677e-07
1.831e-09,0
1.832e-09,0
1.833e-09,0
1.834e-09,0
1.835e-09,0
1.836e-09,0
1.837e-09,0
1.838e-09,1.10368e-07
1.839e-09,-8.73689e-07
1.84e-09,0
1.841e-09,0
1.842e-09,0
1.843e-09,-6.74363e-08
1.844e-09,0
1.845e-09,0
1.846e-09,0
1.847e-09,4.61324e-08
1.848e-09,0
1.849e-09,0
1.85e-09,0
1.851e-09,0
1.852e-09,-4.01826e-10
1.853e-09,4.01826e-10
1.854e-09,-1.19843e-10
1.855e-09,0
1.856e-09,7.20044e-08
1.857e-09,0
1.858e-09,-2.81983e-10
1.859e-09,4.70434e-10
1.86e-09,7.04958e-12
1.861e-09,-2.81983e-10
1.862e-09,7.68827e-08
1.863e-09,2.3891e-08
1.864e-09,7.91879e-08
1.865e-09,0
1.866e-09,4.01826e-10
1.867e-09,-1.19843e-10
1.868e-09,-7.91879e-08
1.869e-09,7.91879e-08
1.87e-09,-2.81983e-10
1.871e-09,0
1.872e-09,1.3894e-07
1.873e-09,0
1.874e-09,2.28083e-10
1.875e-09,0
1.876e-09,2.71373e-07
1.877e-09,0
1.878e-09,-2.70972e-07
1.879e-09,1.78672e-07
1.88e-09,2.71373e-07
1.881e-09,-2.71366e-07
1.882e-09,0
1.883e-09,0
1.884e-09,-7.04958e-12
1.885e-09,7.04958e-12
1.886e-09,-7.04958e-12
1.887e-09,2.20239e-07
1.888e-09,0
1.889e-09,3.83666e-08
1.89e-09,-3.83666e-08
1.891e-09,0
1.892e-09,0
1.893e-09,0
1.894e-09,7.04958e-12
1.895e-09,-2.28083e-10
1.896e-09,5.34039e-07
1.897e-09,0
1.898e-09,-2.71366e-07
1.899e-09,0
1.9e-09,2.71399e-07
1.901e-09,-2.71595e-07
1.902e-09,2.28083e-10
1.903e-09,-2.28083e-10
1.904e-09,4.78138e-08
1.905e-09,0
1.906e-09,0
1.907e-09,0
1.908e-09,2.44181e-07
1.909e-09,0
1.91e-09,-9.77776e-11
1.911e-09,0
1.912e-09,9.77776e-11
1.913e-09,0
1.914e-09,0
1.915e-09,2.28083e-10
1.916e-09,-2.28083e-10
1.917e-09,0
1.918e-09,1.23768e-08
1.919e-09,0
1.92e-09,0
1.921e-09,0
1.922e-09,0
1.923e-09,0
1.924e-09,0
1.925e-09,0
1.926e-09,0
1.927e-09,0
1.928e-09,-1.23768e-08
1.929e-09,0
1.93e-09,0
1.931e-09,0
1.932e-09,0
1.933e-09,-2.12192e-11
1.934e-09,2.12192e-11
1.935e-09,0
1.936e-09,-2.12192e-11
1.937e-09,2.12192e-11
1.938e-09,1.89112e-08
1.939e-09,0
1.94e-09,0
1.941e-09,0
1.942e-09,0
1.943e-09,0
1.944e-09,0
1.945e-09,0
1.946e-09,0
1.947e-09,0
1.948e-09,0
1.949e-09,-1.89112e-08
1.95e-09,1.89112e-08
1.951e-09,-1.89112e-08
1.952e-09,1.23768e-08
1.953e-09,0
1.954e-09,6.53439e-09
1.955e-09,0
1.956e-09,0
1.957e-09,0
1.958e-09,0
1.959e-09,0
1.96e-09,0
1.961e-09,0
1.962e-09,0
1.963e-09,-1.89324e-08
1.964e-09,1.24291e-08
1.965e-09,6.50331e-09
1.966e-09,0
1.967e-09,0
1.968e-09,0
1.969e-09,0
1.97e-09,0
1.971e-09,0
1.972e-09,0
1.973e-09,0
1.974e-09,0
1.975e-09,-6.50331e-09
1.976e-09,0
1.977e-09,6.50331e-09
1.978e-09,0
1.979e-09,0
1.98e-09,0
1.981e-09,0
1.982e-09,0
1.983e-09,-6.40556e-09
1.984e-09,0
1.985e-09,9.77494e-11
1.986e-09,0
1.987e-09,0
1.988e-09,6.30781e-09
1.989e-09,0
1.99e-09,0
1.991e-09,0
1.992e-09,0
1.993e-09,0
1.994e-09,0
1.995e-09,0
1.996e-09,0
1.997e-09,0
1.998e-09,0
1.999e-09,0
2e-09,0
2.001e-09,0
2.1e-09,0
