0,0
1e-12,-5.52768e-06
2e-12,1.35568e-07
3e-12,-1.21699e-06
4e-12,-3.12283e-07
5e-12,-6.59227e-07
6e-12,-2.99541e-07
7e-12,-4.98228e-07
8e-12,-1.24426e-06
9e-12,-1.34246e-06
1e-11,3.88677e-07
1.1e-11,-2.38333e-06
1.2e-11,-4.53523e-08
1.3e-11,-1.48394e-07
1.4e-11,6.80595e-07
1.5e-11,-1.75711e-06
1.6e-11,-5.2739e-07
1.7e-11,2.89405e-07
1.8e-11,-4.22439e-07
1.9e-11,-1.09335e-06
2e-11,-9.60826e-07
2.1e-11,-1.94128e-06
2.2e-11,-2.50979e-08
2.3e-11,-2.66974e-06
2.4e-11,-2.93383e-07
2.5e-11,-6.95201e-08
2.6e-11,5.33514e-07
2.7e-11,-1.89867e-06
2.8e-11,-8.37982e-07
2.9e-11,-8.86848e-07
3e-11,1.39916e-06
3.1e-11,-4.51171e-07
3.2e-11,-7.49027e-07
3.3e-11,-9.16037e-07
3.4e-11,5.69384e-07
3.5e-11,-7.5263e-07
3.6e-11,-4.12836e-07
3.7e-11,-9.72031e-07
3.8e-11,5.26191e-07
3.9e-11,-9.27581e-07
4e-11,-1.45072e-07
4.1e-11,-1.16685e-07
4.2e-11,-1.47492e-06
4.3e-11,3.53536e-07
4.4e-11,3.55154e-07
4.5e-11,-1.09122e-06
4.6e-11,-6.19573e-07
4.7e-11,-3.89553e-07
4.8e-11,4.36089e-08
4.9e-11,1.42321e-07
5e-11,3.83747e-07
5.1e-11,1.34813e-07
5.2e-11,-4.63083e-07
5.3e-11,-1.09987e-06
5.4e-11,-4.83811e-07
5.5e-11,5.86505e-07
5.6e-11,-8.29741e-08
5.7e-11,-5.8449e-08
5.8e-11,-4.21816e-07
5.9e-11,-9.86605e-07
6e-11,-1.06414e-06
6.1e-11,1.69839e-07
6.2e-11,-4.86159e-07
6.3e-11,-1.74966e-07
6.4e-11,-1.23929e-06
6.5e-11,-4.55732e-07
6.6e-11,-3.56561e-07
6.7e-11,-1.18995e-06
6.8e-11,-1.05127e-07
6.9e-11,-9.40549e-07
7e-11,-1.59128e-06
7.1e-11,-3.0042e-07
7.2e-11,6.74634e-07
7.3e-11,-6.44303e-07
7.4e-11,-9.43362e-08
7.5e-11,-4.41755e-07
7.6e-11,-5.53383e-07
7.7e-11,-8.1765e-07
7.8e-11,-7.49766e-07
7.9e-11,-6.08731e-07
8e-11,-1.01698e-06
8.1e-11,-1.50932e-06
8.2e-11,-5.73033e-07
8.3e-11,-8.70663e-07
8.4e-11,-9.65996e-07
8.5e-11,-3.81453e-07
8.6e-11,-2.03514e-06
8.7e-11,4.60498e-07
8.8e-11,-6.12657e-07
8.9e-11,-5.46074e-07
9e-11,-6.80589e-07
9.1e-11,-1.98773e-07
9.2e-11,-2.2863e-06
9.3e-11,-6.69078e-07
9.4e-11,-3.54059e-07
9.5e-11,-6.98737e-07
9.6e-11,-9.15692e-07
9.7e-11,-3.03371e-07
9.8e-11,-1.12614e-06
9.9e-11,-5.59469e-07
1e-10,-6.38593e-07
1.01e-10,-4.22716e-08
1.02e-10,-6.6448e-07
1.03e-10,-5.5e-07
1.04e-10,-7.75912e-07
1.05e-10,-2.73016e-07
1.06e-10,-9.36277e-07
1.07e-10,5.19488e-07
1.08e-10,-1.65588e-07
1.09e-10,-1.46251e-07
1.1e-10,-3.89254e-07
1.11e-10,8.83506e-08
1.12e-10,-1.46357e-06
1.13e-10,5.2785e-07
1.14e-10,-7.11123e-07
1.15e-10,-4.95342e-07
1.16e-10,-1.39535e-07
1.17e-10,-8.90317e-07
1.18e-10,-1.70108e-06
1.19e-10,-4.47098e-07
1.2e-10,-4.2269e-07
1.21e-10,-2.40226e-07
1.22e-10,1.62187e-07
1.23e-10,-1.3062e-06
1.24e-10,-5.78312e-07
1.25e-10,4.60495e-07
1.26e-10,-9.3291e-07
1.27e-10,-1.07632e-06
1.28e-10,1.56573e-07
1.29e-10,-1.75453e-06
1.3e-10,-9.24355e-07
1.31e-10,1.03652e-07
1.32e-10,-4.70114e-07
1.33e-10,-2.80188e-07
1.34e-10,-8.80043e-07
1.35e-10,-1.34902e-06
1.36e-10,-3.32013e-07
1.37e-10,-3.32437e-07
1.38e-10,-5.83053e-07
1.39e-10,3.21954e-07
1.4e-10,-2.12767e-06
1.41e-10,-1.99776e-08
1.42e-10,-1.70155e-06
1.43e-10,-2.62548e-09
1.44e-10,-6.08752e-07
1.45e-10,-5.90232e-07
1.46e-10,-5.41484e-07
1.47e-10,-1.62019e-06
1.48e-10,-4.72067e-07
1.49e-10,-7.55764e-07
1.5e-10,-7.83838e-07
1.51e-10,-1.28221e-06
1.52e-10,-7.41852e-07
1.53e-10,-1.62468e-06
1.54e-10,-6.63523e-07
1.55e-10,-1.35635e-06
1.56e-10,-6.02702e-07
1.57e-10,-7.82185e-07
1.58e-10,-1.46299e-06
1.59e-10,-2.39388e-07
1.6e-10,-1.04384e-06
1.61e-10,1.00141e-07
1.62e-10,-1.18762e-06
1.63e-10,-8.84669e-07
1.64e-10,-1.08125e-06
1.65e-10,-1.10673e-06
1.66e-10,-1.17977e-06
1.67e-10,-8.48822e-07
1.68e-10,-1.17489e-06
1.69e-10,-1.17056e-07
1.7e-10,-4.60592e-07
1.71e-10,-1.21624e-06
1.72e-10,3.91963e-07
1.73e-10,-8.96942e-07
1.74e-10,-6.61518e-07
1.75e-10,2.23886e-08
1.76e-10,-1.38688e-06
1.77e-10,-3.83643e-07
1.78e-10,-9.63177e-07
1.79e-10,-7.23441e-08
1.8e-10,-1.18243e-06
1.81e-10,-5.12007e-07
1.82e-10,-1.16571e-06
1.83e-10,-1.24973e-06
1.84e-10,-8.29587e-08
1.85e-10,-1.4694e-06
1.86e-10,-1.08542e-06
1.87e-10,-4.98814e-07
1.88e-10,-2.63907e-07
1.89e-10,-2.23267e-07
1.9e-10,-3.36824e-07
1.91e-10,-1.92603e-06
1.92e-10,-2.29756e-07
1.93e-10,-1.05688e-06
1.94e-10,-1.43622e-07
1.95e-10,-7.69865e-07
1.96e-10,-9.18954e-07
1.97e-10,-6.84262e-08
1.98e-10,-2.06352e-06
1.99e-10,-2.80838e-07
2e-10,-1.3804e-06
2.01e-10,-1.06093e-06
2.02e-10,-1.45731e-06
2.03e-10,7.78342e-07
2.04e-10,-1.63614e-06
2.05e-10,-4.38272e-07
2.06e-10,-1.28294e-06
2.07e-10,-1.91971e-06
2.08e-10,-6.80058e-08
2.09e-10,-1.24764e-06
2.1e-10,-9.90368e-07
2.11e-10,-1.28148e-06
2.12e-10,1.81908e-07
2.13e-10,-5.18093e-07
2.14e-10,-7.35306e-07
2.15e-10,-1.28476e-06
2.16e-10,-4.51922e-07
2.17e-10,-1.19449e-06
2.18e-10,-1.04597e-06
2.19e-10,-3.14896e-07
2.2e-10,-3.52122e-07
2.21e-10,-2.21525e-06
2.22e-10,-5.59382e-07
2.23e-10,-1.03512e-06
2.24e-10,-4.41161e-07
2.25e-10,-1.13061e-06
2.26e-10,-1.06642e-06
2.27e-10,2.56013e-07
2.28e-10,-1.45571e-06
2.29e-10,-1.03637e-06
2.3e-10,-5.91085e-07
2.31e-10,-1.01488e-06
2.32e-10,-1.87941e-07
2.33e-10,-9.46519e-07
2.34e-10,-1.53515e-06
2.35e-10,1.16578e-07
2.36e-10,-1.09263e-06
2.37e-10,-1.81888e-07
2.38e-10,-8.60695e-07
2.39e-10,-6.64436e-07
2.4e-10,-3.39577e-07
2.41e-10,-6.06403e-07
2.42e-10,-4.75309e-07
2.43e-10,-2.56204e-07
2.44e-10,-1.28174e-06
2.45e-10,8.86211e-09
2.46e-10,-6.47623e-07
2.47e-10,-1.49425e-06
2.48e-10,1.72659e-06
2.49e-10,-1.72481e-06
2.5e-10,2.67761e-07
2.51e-10,-1.09972e-06
2.52e-10,6.39738e-08
2.53e-10,5.93643e-07
2.54e-10,-2.12399e-07
2.55e-10,-9.05583e-07
2.56e-10,-8.02959e-07
2.57e-10,-6.04488e-08
2.58e-10,-5.28608e-07
2.59e-10,-3.33585e-07
2.6e-10,-8.5854e-08
2.61e-10,-9.7872e-07
2.62e-10,-2.32276e-07
2.63e-10,7.53569e-08
2.64e-10,2.86716e-07
2.65e-10,-5.15423e-07
2.66e-10,-3.41515e-08
2.67e-10,-2.60637e-07
2.68e-10,-4.6069e-07
2.69e-10,-1.05634e-06
2.7e-10,-5.18511e-07
2.71e-10,-5.92617e-07
2.72e-10,-8.1168e-07
2.73e-10,-7.53741e-07
2.74e-10,-3.35465e-07
2.75e-10,-2.07407e-07
2.76e-10,-2.75764e-07
2.77e-10,-2.08373e-07
2.78e-10,-5.71399e-07
2.79e-10,-2.43242e-06
2.8e-10,-5.31954e-07
2.81e-10,-1.53144e-07
2.82e-10,-9.40398e-07
2.83e-10,-1.22847e-06
2.84e-10,-3.58936e-07
2.85e-10,-2.42915e-07
2.86e-10,8.07554e-08
2.87e-10,-9.04458e-07
2.88e-10,-1.07117e-06
2.89e-10,-1.54609e-07
2.9e-10,-5.89864e-07
2.91e-10,1.58212e-07
2.92e-10,-2.44895e-06
2.93e-10,3.0778e-07
2.94e-10,-9.62076e-07
2.95e-10,-7.13771e-07
2.96e-10,-7.95724e-07
2.97e-10,4.84294e-07
2.98e-10,-9.85928e-07
2.99e-10,2.21744e-07
3e-10,5.02626e-08
3.01e-10,-5.9238e-07
3.02e-10,-7.05109e-07
3.03e-10,2.57095e-07
3.04e-10,-8.65066e-07
3.05e-10,8.62753e-08
3.06e-10,-6.13594e-07
3.07e-10,-4.38028e-08
3.08e-10,-7.81207e-07
3.09e-10,-4.35924e-07
3.1e-10,-1.02941e-07
3.11e-10,-2.08263e-07
3.12e-10,-3.88363e-07
3.13e-10,-7.89315e-10
3.14e-10,-3.18804e-07
3.15e-10,-1.0059e-06
3.16e-10,-4.77788e-07
3.17e-10,-8.10055e-09
3.18e-10,-9.37798e-07
3.19e-10,3.42513e-07
3.2e-10,-4.59985e-07
3.21e-10,-6.39874e-07
3.22e-10,-1.15312e-06
3.23e-10,-1.85072e-07
3.24e-10,-2.13626e-07
3.25e-10,-1.46185e-06
3.26e-10,-6.74401e-07
3.27e-10,1.39743e-07
3.28e-10,-8.24059e-07
3.29e-10,-7.71841e-08
3.3e-10,-5.27106e-07
3.31e-10,-5.15487e-07
3.32e-10,4.61886e-07
3.33e-10,-1.47134e-06
3.34e-10,6.77863e-08
3.35e-10,-5.5627e-07
3.36e-10,-8.97993e-07
3.37e-10,-4.46784e-07
3.38e-10,-4.97572e-07
3.39e-10,-2.78081e-07
3.4e-10,-7.23899e-07
3.41e-10,4.18584e-07
3.42e-10,3.74303e-07
3.43e-10,-3.84425e-07
3.44e-10,-2.23182e-07
3.45e-10,-2.31097e-08
3.46e-10,-1.26739e-07
3.47e-10,-1.09998e-06
3.48e-10,-2.90893e-07
3.49e-10,-2.05637e-07
3.5e-10,2.77351e-07
3.51e-10,-1.00695e-07
3.52e-10,-1.71621e-07
3.53e-10,1.13845e-07
3.54e-10,-5.98603e-07
3.55e-10,-5.73806e-07
3.56e-10,-2.12574e-07
3.57e-10,-6.34877e-07
3.58e-10,7.47022e-07
3.59e-10,1.45921e-07
3.6e-10,-1.5173e-06
3.61e-10,-3.40743e-07
3.62e-10,9.11052e-07
3.63e-10,-5.48885e-07
3.64e-10,-5.21747e-07
3.65e-10,2.25198e-08
3.66e-10,-8.66792e-07
3.67e-10,-4.47281e-07
3.68e-10,6.66755e-07
3.69e-10,-3.00171e-07
3.7e-10,-6.63434e-07
3.71e-10,-1.02388e-06
3.72e-10,-6.70722e-07
3.73e-10,1.22078e-07
3.74e-10,-5.16795e-07
3.75e-10,-3.32334e-07
3.76e-10,-2.41135e-07
3.77e-10,-4.06908e-07
3.78e-10,5.29633e-07
3.79e-10,-1.52022e-07
3.8e-10,-3.83173e-07
3.81e-10,-4.74489e-07
3.82e-10,1.40264e-07
3.83e-10,-3.10459e-07
3.84e-10,-4.73385e-07
3.85e-10,-4.58471e-07
3.86e-10,5.01851e-07
3.87e-10,-3.36223e-07
3.88e-10,-9.29635e-07
3.89e-10,-6.50947e-08
3.9e-10,2.91851e-07
3.91e-10,6.05751e-07
3.92e-10,-7.51483e-08
3.93e-10,-1.50575e-07
3.94e-10,-1.10825e-06
3.95e-10,-6.52286e-07
3.96e-10,9.31778e-08
3.97e-10,-1.69891e-07
3.98e-10,-9.17125e-07
3.99e-10,-2.37671e-07
4e-10,-2.11019e-07
4.01e-10,-2.86606e-07
4.02e-10,-1.4999e-07
4.03e-10,-5.31015e-07
4.04e-10,-3.95185e-07
4.05e-10,-8.12176e-07
4.06e-10,-6.53521e-07
4.07e-10,-3.72686e-07
4.08e-10,1.23011e-07
4.09e-10,-5.45124e-07
4.1e-10,-1.47658e-07
4.11e-10,-1.70264e-06
4.12e-10,-2.65796e-07
4.13e-10,-9.42832e-08
4.14e-10,-2.3776e-07
4.15e-10,-9.64039e-07
4.16e-10,2.36768e-07
4.17e-10,-1.19521e-08
4.18e-10,-5.05842e-07
4.19e-10,-6.43928e-07
4.2e-10,7.92185e-08
4.21e-10,-2.14244e-07
4.22e-10,2.13754e-08
4.23e-10,-8.6494e-07
4.24e-10,2.35981e-08
4.25e-10,-1.27917e-07
4.26e-10,1.22062e-07
4.27e-10,-2.21964e-06
4.28e-10,-3.57508e-08
4.29e-10,-2.02635e-07
4.3e-10,1.05426e-07
4.31e-10,-6.03528e-07
4.32e-10,-6.86286e-07
4.33e-10,-3.74073e-07
4.34e-10,-8.41906e-07
4.35e-10,-1.33464e-06
4.36e-10,-8.64164e-08
4.37e-10,-1.10841e-07
4.38e-10,-1.45641e-06
4.39e-10,-6.90055e-07
4.4e-10,-5.4003e-07
4.41e-10,-4.12662e-07
4.42e-10,-5.60868e-07
4.43e-10,-2.18495e-06
4.44e-10,-4.74485e-07
4.45e-10,-1.11474e-06
4.46e-10,-6.507e-08
4.47e-10,-1.64628e-07
4.48e-10,-7.27595e-07
4.49e-10,9.90777e-08
4.5e-10,-1.20618e-06
4.51e-10,-7.37217e-07
4.52e-10,-6.69608e-07
4.53e-10,-3.31477e-08
4.54e-10,-7.62679e-07
4.55e-10,-1.32036e-06
4.56e-10,-5.36242e-07
4.57e-10,7.66482e-07
4.58e-10,-3.69489e-07
4.59e-10,-4.08492e-07
4.6e-10,-6.53385e-07
4.61e-10,-6.71285e-07
4.62e-10,-5.37462e-09
4.63e-10,-9.17884e-07
4.64e-10,-1.42526e-07
4.65e-10,-7.88103e-07
4.66e-10,-5.95414e-07
4.67e-10,-1.38394e-07
4.68e-10,-5.72661e-08
4.69e-10,1.00558e-07
4.7e-10,-7.54503e-07
4.71e-10,-8.23699e-08
4.72e-10,2.41577e-07
4.73e-10,-1.2005e-06
4.74e-10,-8.01954e-07
4.75e-10,-2.61457e-07
4.76e-10,2.30956e-07
4.77e-10,-4.07895e-07
4.78e-10,-2.53545e-07
4.79e-10,-2.49214e-07
4.8e-10,-3.42845e-07
4.81e-10,-4.95676e-07
4.82e-10,-3.08404e-07
4.83e-10,-2.75158e-07
4.84e-10,-9.33445e-07
4.85e-10,2.2936e-07
4.86e-10,-1.34313e-06
4.87e-10,-2.11745e-07
4.88e-10,-2.43944e-07
4.89e-10,-6.64408e-08
4.9e-10,-5.86122e-07
4.91e-10,-5.67591e-07
4.92e-10,-5.69767e-07
4.93e-10,-3.12721e-07
4.94e-10,-9.10594e-08
4.95e-10,-2.53777e-07
4.96e-10,3.06756e-07
4.97e-10,5.25022e-07
4.98e-10,-8.38104e-07
4.99e-10,-3.3514e-07
5e-10,4.59558e-07
5.01e-10,-2.03135e-07
5.02e-10,2.75212e-07
5.03e-10,-6.74336e-07
5.04e-10,-9.11761e-07
5.05e-10,-4.3894e-07
5.06e-10,-7.20563e-08
5.07e-10,-3.68001e-07
5.08e-10,-1.5302e-07
5.09e-10,-5.98623e-08
5.1e-10,3.6089e-07
5.11e-10,1.34733e-07
5.12e-10,9.43556e-08
5.13e-10,1.27267e-07
5.14e-10,-6.15688e-07
5.15e-10,-4.37468e-07
5.16e-10,-7.79116e-08
5.17e-10,-4.6131e-07
5.18e-10,2.1003e-07
5.19e-10,5.26448e-07
5.2e-10,-2.26709e-07
5.21e-10,3.56185e-08
5.22e-10,-7.4967e-07
5.23e-10,3.60295e-07
5.24e-10,-4.24968e-07
5.25e-10,-1.6389e-07
5.26e-10,-2.46055e-07
5.27e-10,-1.66406e-07
5.28e-10,4.22618e-07
5.29e-10,-7.0526e-07
5.3e-10,-4.57019e-07
5.31e-10,-7.53077e-08
5.32e-10,-1.9428e-07
5.33e-10,-4.16809e-07
5.34e-10,2.49495e-07
5.35e-10,-5.08486e-07
5.36e-10,3.06132e-07
5.37e-10,-1.98073e-07
5.38e-10,2.65293e-07
5.39e-10,-1.59417e-06
5.4e-10,3.84523e-07
5.41e-10,-7.43787e-09
5.42e-10,-3.94417e-07
5.43e-10,-9.6504e-07
5.44e-10,3.34896e-07
5.45e-10,-9.66998e-08
5.46e-10,6.93235e-08
5.47e-10,-1.15551e-07
5.48e-10,-4.4019e-07
5.49e-10,-6.42625e-10
5.5e-10,-3.30835e-07
5.51e-10,-9.45057e-08
5.52e-10,-3.60493e-07
5.53e-10,2.11998e-07
5.54e-10,-7.4233e-07
5.55e-10,2.26186e-07
5.56e-10,5.79499e-08
5.57e-10,-3.05863e-07
5.58e-10,-5.26493e-07
5.59e-10,1.3247e-07
5.6e-10,-1.16269e-08
5.61e-10,-2.47472e-08
5.62e-10,-2.81147e-07
5.63e-10,1.80631e-07
5.64e-10,-6.83629e-07
5.65e-10,-8.6284e-08
5.66e-10,-1.18167e-06
5.67e-10,-6.44596e-07
5.68e-10,-2.56624e-08
5.69e-10,2.38699e-07
5.7e-10,-2.78956e-07
5.71e-10,-2.00189e-07
5.72e-10,-1.60069e-07
5.73e-10,-7.62084e-07
5.74e-10,-2.43495e-07
5.75e-10,1.69065e-07
5.76e-10,-9.0081e-07
5.77e-10,-2.2193e-07
5.78e-10,4.17019e-08
5.79e-10,-2.6778e-07
5.8e-10,-7.90154e-07
5.81e-10,4.97854e-08
5.82e-10,-2.08173e-07
5.83e-10,-6.97525e-07
5.84e-10,-3.89102e-07
5.85e-10,-2.34356e-07
5.86e-10,1.55602e-09
5.87e-10,-3.3691e-07
5.88e-10,-8.57214e-07
5.89e-10,-3.51308e-08
5.9e-10,-9.16548e-07
5.91e-10,-2.71236e-07
5.92e-10,1.39244e-07
5.93e-10,-3.67694e-07
5.94e-10,3.12258e-08
5.95e-10,-5.40078e-08
5.96e-10,-5.07833e-07
5.97e-10,-1.88561e-07
5.98e-10,3.98487e-07
5.99e-10,-4.5092e-07
6e-10,9.28919e-09
6.01e-10,-3.14497e-07
6.02e-10,-1.72168e-07
6.03e-10,1.22017e-07
6.04e-10,2.76853e-07
6.05e-10,3.0003e-09
6.06e-10,-1.64741e-07
6.07e-10,-2.67938e-07
6.08e-10,-8.56782e-07
6.09e-10,-1.92066e-07
6.1e-10,4.88375e-09
6.11e-10,-1.2618e-07
6.12e-10,1.73045e-07
6.13e-10,-1.32952e-06
6.14e-10,-3.92477e-07
6.15e-10,6.99248e-09
6.16e-10,-1.21495e-06
6.17e-10,7.55148e-08
6.18e-10,-5.92157e-07
6.19e-10,-4.61958e-08
6.2e-10,-5.94911e-07
6.21e-10,3.38467e-08
6.22e-10,-6.88982e-07
6.23e-10,-5.94703e-08
6.24e-10,-8.52469e-07
6.25e-10,-3.45228e-07
6.26e-10,-4.39541e-09
6.27e-10,-4.53154e-08
6.28e-10,-7.48195e-07
6.29e-10,-4.99724e-08
6.3e-10,-5.49748e-07
6.31e-10,-3.59572e-07
6.32e-10,-9.89511e-08
6.33e-10,-9.60782e-07
6.34e-10,2.67744e-07
6.35e-10,-3.47329e-07
6.36e-10,-5.98678e-07
6.37e-10,3.4371e-08
6.38e-10,-6.39404e-08
6.39e-10,-1.48584e-07
6.4e-10,-5.1132e-07
6.41e-10,-8.77251e-07
6.42e-10,-9.40834e-08
6.43e-10,3.901e-07
6.44e-10,-1.73523e-07
6.45e-10,-6.79024e-07
6.46e-10,8.36852e-07
6.47e-10,-4.77848e-07
6.48e-10,2.37911e-09
6.49e-10,-8.69188e-08
6.5e-10,3.55545e-07
6.51e-10,-5.20875e-07
6.52e-10,-1.654e-07
6.53e-10,3.1983e-07
6.54e-10,-3.67449e-08
6.55e-10,-4.96995e-08
6.56e-10,-3.33319e-08
6.57e-10,-5.53769e-08
6.58e-10,-9.02649e-08
6.59e-10,2.5687e-07
6.6e-10,-7.14626e-08
6.61e-10,2.79234e-07
6.62e-10,9.9367e-09
6.63e-10,-1.38417e-07
6.64e-10,-5.91702e-08
6.65e-10,3.08505e-08
6.66e-10,3.04857e-07
6.67e-10,-5.29754e-08
6.68e-10,-9.18233e-08
6.69e-10,-1.39085e-07
6.7e-10,-6.06292e-08
6.71e-10,2.09468e-07
6.72e-10,3.43321e-08
6.73e-10,-4.50003e-08
6.74e-10,4.87194e-08
6.75e-10,-8.84955e-08
6.76e-10,-1.38677e-07
6.77e-10,1.95501e-07
6.78e-10,-1.62754e-07
6.79e-10,-6.76905e-08
6.8e-10,1.7203e-07
6.81e-10,-1.20506e-07
6.82e-10,1.74414e-08
6.83e-10,-1.49383e-07
6.84e-10,3.16843e-08
6.85e-10,3.17769e-08
6.86e-10,2.96295e-08
6.87e-10,-2.50053e-07
6.88e-10,5.03037e-09
6.89e-10,-8.45768e-08
6.9e-10,4.63855e-08
6.91e-10,-6.10355e-08
6.92e-10,3.48553e-08
6.93e-10,-2.97577e-08
6.94e-10,-2.96082e-14
6.95e-10,-1.37088e-07
6.96e-10,-2.25928e-07
6.97e-10,7.73621e-10
6.98e-10,-6.30596e-08
6.99e-10,-4.38826e-08
7e-10,-5.481e-08
7.01e-10,7.04602e-08
7.02e-10,-2.12652e-07
7.03e-10,-5.97881e-08
7.04e-10,-1.4957e-09
7.05e-10,-1.8977e-07
7.06e-10,-2.3902e-08
7.07e-10,7.15541e-08
7.08e-10,-3.52706e-08
7.09e-10,-3.51078e-08
7.1e-10,-1.76408e-07
7.11e-10,6.79601e-08
7.12e-10,-1.28705e-07
7.13e-10,1.22388e-08
7.14e-10,3.18805e-08
7.15e-10,7.34056e-08
7.16e-10,-1.65791e-07
7.17e-10,-9.73021e-08
7.18e-10,-1.83966e-07
7.19e-10,3.96097e-09
7.2e-10,-2.54718e-08
7.21e-10,-1.60334e-07
7.22e-10,6.29001e-08
7.23e-10,-6.23818e-08
7.24e-10,-2.95622e-08
7.25e-10,4.253e-08
7.26e-10,-1.72456e-07
7.27e-10,1.90701e-09
7.28e-10,-1.48174e-07
7.29e-10,-3.4407e-08
7.3e-10,-1.52845e-07
7.31e-10,-5.54057e-08
7.32e-10,-5.47071e-08
7.33e-10,3.02122e-08
7.34e-10,-3.19439e-08
7.35e-10,-1.87511e-07
7.36e-10,-2.79086e-08
7.37e-10,-8.17744e-08
7.38e-10,1.1707e-07
7.39e-10,3.25488e-09
7.4e-10,-3.21086e-08
7.41e-10,-7.88728e-08
7.42e-10,-3.4549e-08
7.43e-10,-1.632e-07
7.44e-10,-3.33165e-08
7.45e-10,-1.03795e-07
7.46e-10,-6.16711e-08
7.47e-10,2.88083e-08
7.48e-10,-6.01051e-08
7.49e-10,-1.955e-10
7.5e-10,3.58708e-08
7.51e-10,-1.08272e-09
7.52e-10,-1.97716e-07
7.53e-10,9.71321e-08
7.54e-10,-1.70493e-07
7.55e-10,3.42025e-08
7.56e-10,-1.955e-10
7.57e-10,-6.24204e-08
7.58e-10,-2.98525e-08
7.59e-10,-2.66347e-07
7.6e-10,3.82637e-09
7.61e-10,-3.17777e-08
7.62e-10,-1.62325e-07
7.63e-10,2.99867e-08
7.64e-10,-1.2763e-09
7.65e-10,-2.98998e-08
7.66e-10,-3.43997e-08
7.67e-10,2.89808e-10
7.68e-10,1.17326e-09
7.69e-10,-2.42419e-07
7.7e-10,-1.08879e-07
7.71e-10,-2.25586e-09
7.72e-10,-5.775e-08
7.73e-10,2.11781e-09
7.74e-10,-6.33654e-08
7.75e-10,3.23048e-09
7.76e-10,2.46332e-08
7.77e-10,-3.07554e-07
7.78e-10,-2.73522e-08
7.79e-10,-4.41653e-08
7.8e-10,2.15039e-09
7.81e-10,-3.4452e-08
7.82e-10,-2.15958e-10
7.83e-10,-8.04245e-10
7.84e-10,-3.83438e-07
7.85e-10,3.29885e-08
7.86e-10,-2.99894e-08
7.87e-10,2.96653e-08
7.88e-10,-2.7532e-08
7.89e-10,-5.86631e-08
7.9e-10,-2.66295e-07
7.91e-10,2.98932e-08
7.92e-10,-4.7494e-07
7.93e-10,-6.23931e-08
7.94e-10,6.57126e-08
7.95e-10,-3.20294e-08
7.96e-10,3.12538e-08
7.97e-10,-3.32521e-08
7.98e-10,-6.07921e-08
7.99e-10,5.33579e-08
8e-10,-1.11481e-06
8.01e-10,4.68357e-08
8.02e-10,-1.69939e-09
8.03e-10,3.36123e-08
8.04e-10,-1.77552e-07
8.05e-10,-3.40604e-08
8.06e-10,1.2758e-09
8.07e-10,1.50389e-09
8.08e-10,-8.52721e-07
8.09e-10,2.84614e-08
8.1e-10,1.2758e-09
8.11e-10,-1.73489e-09
8.12e-10,3.36123e-08
8.13e-10,-5.18708e-07
8.14e-10,3.51162e-08
8.15e-10,-3.38404e-08
8.16e-10,-2.48444e-09
8.17e-10,3.36123e-08
8.18e-10,-7.26764e-08
8.19e-10,-6.01667e-08
8.2e-10,-5.87435e-07
8.21e-10,-2.95602e-08
8.22e-10,-9.35229e-09
8.23e-10,6.26511e-08
8.24e-10,-6.66992e-07
8.25e-10,-3.30861e-07
8.26e-10,-2.28872e-09
8.27e-10,3.30884e-08
8.28e-10,-9.68629e-07
8.29e-10,-4.07649e-08
8.3e-10,1.01191e-10
8.31e-10,6.50787e-10
8.32e-10,-3.29858e-08
8.33e-10,1.92517e-09
8.34e-10,3.30696e-10
8.35e-10,-6.49992e-07
8.36e-10,-9.7772e-10
8.37e-10,3.26648e-08
8.38e-10,0
8.39e-10,-3.43712e-08
8.4e-10,-3.25831e-11
8.41e-10,-1.08141e-08
8.42e-10,-4.57558e-10
8.43e-10,-3.11133e-08
8.44e-10,3.03683e-08
8.45e-10,-3.05315e-08
8.46e-10,-6.27977e-08
8.47e-10,2.92554e-08
8.48e-10,-6.21945e-08
8.49e-10,-3.00725e-08
8.5e-10,-3.57641e-10
8.51e-10,7.04958e-12
8.52e-10,-2.35133e-10
8.53e-10,4.56167e-10
8.54e-10,7.04958e-12
8.55e-10,2.28083e-10
8.56e-10,-1.70849e-09
8.57e-10,-2.28083e-10
8.58e-10,6.55271e-08
8.59e-10,-4.7882e-08
8.6e-10,2.11487e-11
8.61e-10,3.11283e-08
8.62e-10,-3.36194e-08
8.63e-10,-1.37019e-08
8.64e-10,0
8.65e-10,-2.96903e-08
8.66e-10,-4.56167e-10
8.67e-10,3.20191e-08
8.68e-10,-3.2543e-08
8.69e-10,-4.56167e-10
8.7e-10,-3.36123e-08
8.71e-10,3.25831e-11
8.72e-10,3.38333e-08
8.73e-10,-3.38333e-08
8.74e-10,-1.37922e-09
8.75e-10,-2.60667e-10
8.76e-10,4.56167e-10
8.77e-10,-1.50389e-09
8.78e-10,-2.28083e-10
8.79e-10,3.96327e-11
8.8e-10,2.28083e-10
8.81e-10,-2.28083e-10
8.82e-10,0
8.83e-10,-7.04958e-12
8.84e-10,-2.28083e-10
8.85e-10,7.04958e-12
8.86e-10,2.55336e-11
8.87e-10,2.28083e-10
8.88e-10,0
8.89e-10,7.04958e-12
8.9e-10,1.69939e-09
8.91e-10,3.25831e-11
8.92e-10,-2.28083e-10
8.93e-10,-4.56167e-10
8.94e-10,-1.2758e-09
8.95e-10,-2.28083e-10
8.96e-10,3.50591e-10
8.97e-10,4.04096e-11
8.98e-10,-4.23584e-10
8.99e-10,0
9e-10,0
9.01e-10,4.56167e-10
9.02e-10,0
9.03e-10,1.2758e-09
9.04e-10,-3.35797e-08
9.05e-10,-2.28083e-10
9.06e-10,2.28083e-10
9.07e-10,0
9.08e-10,-2.28083e-10
9.09e-10,1.955e-10
9.1e-10,-9.22547e-10
9.11e-10,-2.28083e-10
9.12e-10,-3.38078e-08
9.13e-10,-1.955e-10
9.14e-10,0
9.15e-10,-3.47926e-10
9.16e-10,-1.08241e-10
9.17e-10,-1.19843e-10
9.18e-10,-1.955e-10
9.19e-10,1.955e-10
9.2e-10,2.28083e-10
9.21e-10,4.23584e-10
9.22e-10,-6.65766e-10
9.23e-10,1.55091e-10
9.24e-10,-1.22508e-10
9.25e-10,2.81983e-10
9.26e-10,4.76169e-10
9.27e-10,-1.05744e-10
9.28e-10,-1.6919e-10
9.29e-10,0
9.3e-10,1.40992e-11
9.31e-10,-3.21003e-08
9.32e-10,-1.64637e-10
9.33e-10,-7.04958e-11
9.34e-10,2.25586e-10
9.35e-10,-3.79126e-11
9.36e-10,-1.55091e-10
9.37e-10,1.88451e-10
9.38e-10,-7.04958e-11
9.39e-10,7.04958e-11
9.4e-10,-2.28083e-10
9.41e-10,0
9.42e-10,2.28083e-10
9.43e-10,-4.56167e-10
9.44e-10,0
9.45e-10,2.28083e-10
9.46e-10,-5.19613e-10
9.47e-10,-1.40992e-11
9.48e-10,1.40992e-11
9.49e-10,1.8484e-11
9.5e-10,7.04958e-12
9.51e-10,0
9.52e-10,-3.25831e-11
9.53e-10,1.03079e-10
9.54e-10,-7.04958e-11
9.55e-10,3.79126e-11
9.56e-10,0
9.57e-10,0
9.58e-10,3.25831e-11
9.59e-10,2.28083e-10
9.6e-10,3.36123e-08
9.61e-10,-3.36123e-08
9.62e-10,3.36123e-08
9.63e-10,-3.25831e-11
9.64e-10,-3.36572e-08
9.65e-10,3.79126e-11
9.66e-10,0
9.67e-10,0
9.68e-10,2.35133e-10
9.69e-10,-1.08241e-10
9.7e-10,2.28083e-10
9.71e-10,-2.28083e-10
9.72e-10,0
9.73e-10,-1.19843e-10
9.74e-10,1.19843e-10
9.75e-10,-1.26892e-10
9.76e-10,3.47926e-10
9.77e-10,-3.47926e-10
9.78e-10,1.955e-10
9.79e-10,-6.77201e-10
9.8e-10,2.28083e-10
9.81e-10,-2.28083e-10
9.82e-10,-1.955e-10
9.83e-10,0
9.84e-10,4.56167e-10
9.85e-10,2.28083e-10
9.86e-10,1.12793e-10
9.87e-10,7.04958e-12
9.88e-10,-2.28083e-10
9.89e-10,3.06953e-11
9.9e-10,-2.21034e-10
9.91e-10,0
9.92e-10,0
9.93e-10,4.56167e-10
9.94e-10,0
9.95e-10,1.40992e-11
9.96e-10,-4.23584e-10
9.97e-10,1.955e-10
9.98e-10,0
9.99e-10,2.28083e-10
1e-09,0
1.001e-09,0
1.002e-09,-2.28083e-10
1.003e-09,-3.38404e-08
1.004e-09,-2.28083e-10
1.005e-09,3.38404e-08
1.006e-09,-3.38404e-08
1.007e-09,0
1.008e-09,2.28083e-10
1.009e-09,-2.28083e-10
1.01e-09,-2.28083e-10
1.011e-09,3.33842e-08
1.012e-09,0
1.013e-09,-3.33842e-08
1.014e-09,3.36123e-08
1.015e-09,0
1.016e-09,2.28083e-10
1.017e-09,-2.49232e-10
1.018e-09,0
1.019e-09,-3.38404e-08
1.02e-09,0
1.021e-09,0
1.022e-09,2.49232e-10
1.023e-09,-2.11487e-11
1.024e-09,0
1.025e-09,-4.56167e-10
1.026e-09,0
1.027e-09,2.49232e-10
1.028e-09,1.5277e-09
1.029e-09,0
1.03e-09,-3.36123e-08
1.031e-09,-2.28083e-10
1.032e-09,-3.25831e-11
1.033e-09,-7.3815e-10
1.034e-09,0
1.035e-09,2.81983e-10
1.036e-09,3.35584e-08
1.037e-09,-3.36123e-08
1.038e-09,2.81983e-10
1.039e-09,-4.23584e-10
1.04e-09,7.04958e-12
1.041e-09,-2.99908e-08
1.042e-09,-5.38997e-11
1.043e-09,0
1.044e-09,2.81983e-10
1.045e-09,0
1.046e-09,-1.50367e-09
1.047e-09,1.50367e-09
1.048e-09,-1.955e-10
1.049e-09,0
1.05e-09,-2.88102e-08
1.051e-09,1.955e-10
1.052e-09,3.25831e-11
1.053e-09,0
1.054e-09,1.955e-10
1.055e-09,-1.50438e-09
1.056e-09,1.72541e-09
1.057e-09,2.28083e-10
1.058e-09,-2.28083e-10
1.059e-09,-1.04821e-09
1.06e-09,-2.28083e-10
1.061e-09,2.28083e-10
1.062e-09,-2.28083e-10
1.063e-09,-2.28083e-10
1.064e-09,-2.88102e-08
1.065e-09,-3.25831e-11
1.066e-09,0
1.067e-09,0
1.068e-09,1.75508e-08
1.069e-09,1.7342e-08
1.07e-09,-1.7342e-08
1.071e-09,1.22169e-09
1.072e-09,-1.75182e-08
1.073e-09,0
1.074e-09,-3.0905e-08
1.075e-09,-2.55336e-11
1.076e-09,0
1.077e-09,3.50812e-08
1.078e-09,-3.48531e-08
1.079e-09,0
1.08e-09,2.28083e-10
1.081e-09,-2.35133e-10
1.082e-09,7.04958e-12
1.083e-09,1.75111e-08
1.084e-09,-3.0377e-08
1.085e-09,-1.75182e-08
1.086e-09,1.62965e-08
1.087e-09,-2.28083e-10
1.088e-09,-1.72901e-08
1.089e-09,1.75182e-08
1.09e-09,3.25831e-11
1.091e-09,-3.25831e-11
1.092e-09,-1.77463e-08
1.093e-09,0
1.094e-09,2.28083e-10
1.095e-09,-2.28083e-10
1.096e-09,1.955e-10
1.097e-09,-3.91001e-10
1.098e-09,1.955e-10
1.099e-09,0
1.1e-09,-2.52872e-08
1.101e-09,-2.28083e-10
1.102e-09,2.28083e-10
1.103e-09,3.25831e-11
1.104e-09,3.25831e-11
1.105e-09,-3.25831e-11
1.106e-09,0
1.107e-09,-1.76434e-09
1.108e-09,-4.23584e-10
1.109e-09,0
1.11e-09,-2.99599e-08
1.111e-09,3.25831e-11
1.112e-09,-2.60667e-10
1.113e-09,2.28083e-10
1.114e-09,-1.955e-10
1.115e-09,-1.40992e-11
1.116e-09,1.40992e-11
1.117e-09,-2.97732e-08
1.118e-09,4.56167e-10
1.119e-09,-4.42068e-10
1.12e-09,-2.42183e-10
1.121e-09,2.42183e-10
1.122e-09,-2.42183e-10
1.123e-09,4.23584e-10
1.124e-09,0
1.125e-09,-3.01073e-08
1.126e-09,-2.60667e-10
1.127e-09,2.42183e-10
1.128e-09,1.8484e-11
1.129e-09,-3.25831e-11
1.13e-09,-2.28083e-10
1.131e-09,4.8875e-10
1.132e-09,0
1.133e-09,0
1.134e-09,-3.33924e-08
1.135e-09,-1.50367e-09
1.136e-09,1.27559e-09
1.137e-09,0
1.138e-09,2.28083e-10
1.139e-09,2.28083e-10
1.14e-09,0
1.141e-09,-3.62923e-08
1.142e-09,2.49232e-10
1.143e-09,-2.28083e-10
1.144e-09,-7.04958e-12
1.145e-09,-2.42183e-10
1.146e-09,3.00805e-09
1.147e-09,-3.00805e-09
1.148e-09,-3.11277e-08
1.149e-09,5.30378e-09
1.15e-09,-6.57937e-09
1.151e-09,1.04751e-09
1.152e-09,2.77997e-09
1.153e-09,2.28083e-10
1.154e-09,-2.77997e-09
1.155e-09,4.56167e-10
1.156e-09,2.79407e-09
1.157e-09,2.28083e-10
1.158e-09,-3.25292e-08
1.159e-09,2.28083e-10
1.16e-09,-2.42183e-10
1.161e-09,-3.46422e-09
1.162e-09,3.46422e-09
1.163e-09,-2.28083e-10
1.164e-09,2.28083e-10
1.165e-09,-4.56167e-10
1.166e-09,-3.18267e-08
1.167e-09,4.23584e-10
1.168e-09,-1.955e-10
1.169e-09,0
1.17e-09,-2.28083e-10
1.171e-09,2.28083e-10
1.172e-09,-2.28083e-10
1.173e-09,2.28083e-10
1.174e-09,0
1.175e-09,2.28083e-10
1.176e-09,-3.05504e-08
1.177e-09,-2.28083e-10
1.178e-09,0
1.179e-09,0
1.18e-09,0
1.181e-09,2.35456e-09
1.182e-09,4.68501e-11
1.183e-09,0
1.184e-09,-3.04985e-08
1.185e-09,4.68501e-11
1.186e-09,0
1.187e-09,4.56167e-10
1.188e-09,-2.28083e-10
1.189e-09,0
1.19e-09,0
1.191e-09,-2.28083e-10
1.192e-09,-3.58682e-08
1.193e-09,2.28083e-10
1.194e-09,-2.28083e-10
1.195e-09,0
1.196e-09,-5.63684e-09
1.197e-09,1.955e-10
1.198e-09,5.86493e-09
1.199e-09,-5.86493e-09
1.2e-09,0
1.201e-09,0
1.202e-09,0
1.203e-09,-3.39909e-08
1.204e-09,0
1.205e-09,0
1.206e-09,0
1.207e-09,0
1.208e-09,5.8199e-09
1.209e-09,1.955e-10
1.21e-09,0
1.211e-09,-1.955e-10
1.212e-09,2.28083e-10
1.213e-09,-3.34169e-08
1.214e-09,-6.43899e-09
1.215e-09,6.43899e-09
1.216e-09,-4.23584e-10
1.217e-09,2.28083e-10
1.218e-09,-2.60667e-10
1.219e-09,0
1.22e-09,1.955e-10
1.221e-09,-1.955e-10
1.222e-09,2.28083e-10
1.223e-09,-3.36124e-08
1.224e-09,2.28083e-10
1.225e-09,-1.955e-10
1.226e-09,1.40992e-11
1.227e-09,1.955e-10
1.228e-09,2.28083e-10
1.229e-09,-3.25831e-11
1.23e-09,-4.37683e-10
1.231e-09,-7.57298e-09
1.232e-09,-3.25831e-11
1.233e-09,-3.65542e-08
1.234e-09,6.24137e-09
1.235e-09,-6.63237e-09
1.236e-09,2.28083e-10
1.237e-09,0
1.238e-09,0
1.239e-09,0
1.24e-09,0
1.241e-09,2.28083e-10
1.242e-09,0
1.243e-09,-3.84131e-08
1.244e-09,0
1.245e-09,0
1.246e-09,0
1.247e-09,0
1.248e-09,0
1.249e-09,-2.28083e-10
1.25e-09,-3.69161e-08
1.251e-09,2.28083e-10
1.252e-09,0
1.253e-09,-2.28083e-10
1.254e-09,-2.28083e-10
1.255e-09,2.28083e-10
1.256e-09,-4.56167e-10
1.257e-09,2.28083e-10
1.258e-09,-3.68647e-08
1.259e-09,0
1.26e-09,0
1.261e-09,2.28083e-10
1.262e-09,0
1.263e-09,0
1.264e-09,1.955e-10
1.265e-09,-1.955e-10
1.266e-09,-4.04293e-08
1.267e-09,1.955e-10
1.268e-09,0
1.269e-09,-2.28083e-10
1.27e-09,-1.955e-10
1.271e-09,0
1.272e-09,1.955e-10
1.273e-09,0
1.274e-09,0
1.275e-09,-3.84131e-08
1.276e-09,0
1.277e-09,0
1.278e-09,0
1.279e-09,0
1.28e-09,1.02969e-08
1.281e-09,2.28083e-10
1.282e-09,0
1.283e-09,0
1.284e-09,-1.0525e-08
1.285e-09,-3.86086e-08
1.286e-09,0
1.287e-09,0
1.288e-09,0
1.289e-09,0
1.29e-09,-2.28083e-10
1.291e-09,2.28083e-10
1.292e-09,-2.28083e-10
1.293e-09,-2.28083e-10
1.294e-09,-4.43746e-08
1.295e-09,0
1.296e-09,-2.28083e-10
1.297e-09,1.955e-10
1.298e-09,2.11487e-11
1.299e-09,0
1.3e-09,0
1.301e-09,-1.40992e-11
1.302e-09,-1.07205e-08
1.303e-09,0
1.304e-09,0
1.305e-09,-4.53922e-08
1.306e-09,0
1.307e-09,0
1.308e-09,0
1.309e-09,2.28083e-10
1.31e-09,0
1.311e-09,0
1.312e-09,0
1.313e-09,0
1.314e-09,0
1.315e-09,-4.14304e-08
1.316e-09,0
1.317e-09,0
1.318e-09,0
1.319e-09,-7.04958e-12
1.32e-09,0
1.321e-09,2.28083e-10
1.322e-09,-2.28083e-10
1.323e-09,0
1.324e-09,0
1.325e-09,2.28083e-10
1.326e-09,-4.68399e-08
1.327e-09,-1.35352e-08
1.328e-09,0
1.329e-09,0
1.33e-09,2.28083e-10
1.331e-09,1.35352e-08
1.332e-09,-2.28083e-10
1.333e-09,-1.35352e-08
1.334e-09,1.37633e-08
1.335e-09,-4.62311e-08
1.336e-09,0
1.337e-09,0
1.338e-09,-2.28083e-10
1.339e-09,-1.50367e-08
1.34e-09,2.28083e-10
1.341e-09,0
1.342e-09,0
1.343e-09,-4.80217e-08
1.344e-09,0
1.345e-09,0
1.346e-09,0
1.347e-09,0
1.348e-09,0
1.349e-09,0
1.35e-09,0
1.351e-09,-5.11588e-08
1.352e-09,1.80469e-08
1.353e-09,0
1.354e-09,-1.955e-10
1.355e-09,0
1.356e-09,1.955e-10
1.357e-09,0
1.358e-09,2.28083e-10
1.359e-09,-5.3018e-08
1.36e-09,0
1.361e-09,-2.28083e-10
1.362e-09,0
1.363e-09,-2.28083e-10
1.364e-09,4.56167e-10
1.365e-09,0
1.366e-09,-2.28083e-10
1.367e-09,-5.10319e-08
1.368e-09,2.28083e-10
1.369e-09,-4.56167e-10
1.37e-09,2.28083e-10
1.371e-09,0
1.372e-09,-2.28083e-10
1.373e-09,2.28083e-10
1.374e-09,-5.30315e-08
1.375e-09,-4.56167e-10
1.376e-09,0
1.377e-09,2.28083e-10
1.378e-09,0
1.379e-09,-2.88105e-08
1.38e-09,2.07751e-08
1.381e-09,0
1.382e-09,-5.54802e-08
1.383e-09,-2.28083e-10
1.384e-09,0
1.385e-09,0
1.386e-09,0
1.387e-09,0
1.388e-09,0
1.389e-09,0
1.39e-09,0
1.391e-09,-7.85111e-08
1.392e-09,2.40673e-08
1.393e-09,-2.40673e-08
1.394e-09,0
1.395e-09,2.40673e-08
1.396e-09,0
1.397e-09,0
1.398e-09,0
1.399e-09,-5.54333e-08
1.4e-09,0
1.401e-09,2.21034e-10
1.402e-09,-2.28083e-10
1.403e-09,2.28083e-10
1.404e-09,-2.28083e-10
1.405e-09,2.28083e-10
1.406e-09,0
1.407e-09,-6.35474e-08
1.408e-09,0
1.409e-09,2.28083e-10
1.41e-09,7.04958e-12
1.411e-09,0
1.412e-09,-2.64521e-08
1.413e-09,0
1.414e-09,3.09617e-08
1.415e-09,0
1.416e-09,-6.06193e-08
1.417e-09,0
1.418e-09,0
1.419e-09,-2.97633e-08
1.42e-09,0
1.421e-09,2.28083e-10
1.422e-09,-2.28083e-10
1.423e-09,2.28083e-10
1.424e-09,0
1.425e-09,0
1.426e-09,-6.11692e-08
1.427e-09,0
1.428e-09,0
1.429e-09,0
1.43e-09,7.04958e-12
1.431e-09,-2.28083e-10
1.432e-09,0
1.433e-09,0
1.434e-09,0
1.435e-09,-7.05663e-08
1.436e-09,0
1.437e-09,0
1.438e-09,-2.73177e-08
1.439e-09,2.63161e-09
1.44e-09,-2.63161e-09
1.441e-09,2.63161e-09
1.442e-09,0
1.443e-09,3.91745e-08
1.444e-09,0
1.445e-09,0
1.446e-09,-6.63859e-08
1.447e-09,-2.63161e-09
1.448e-09,2.63161e-09
1.449e-09,-4.01918e-08
1.45e-09,-3.22969e-08
1.451e-09,1.50438e-09
1.452e-09,0
1.453e-09,0
1.454e-09,-6.74363e-08
1.455e-09,0
1.456e-09,0
1.457e-09,0
1.458e-09,0
1.459e-09,0
1.46e-09,-3.07199e-08
1.461e-09,0
1.462e-09,-8.02594e-08
1.463e-09,0
1.464e-09,0
1.465e-09,0
1.466e-09,-7.04958e-12
1.467e-09,0
1.468e-09,0
1.469e-09,5.08979e-08
1.47e-09,-2.72255e-08
1.471e-09,3.00735e-09
1.472e-09,1.955e-10
1.473e-09,-7.42725e-08
1.474e-09,0
1.475e-09,7.04958e-12
1.476e-09,-7.04958e-12
1.477e-09,0
1.478e-09,0
1.479e-09,0
1.48e-09,-2.47602e-08
1.481e-09,7.04958e-12
1.482e-09,-7.77921e-08
1.483e-09,0
1.484e-09,0
1.485e-09,0
1.486e-09,-3.00805e-09
1.487e-09,3.00805e-09
1.488e-09,-3.00805e-09
1.489e-09,-2.38861e-08
1.49e-09,-7.02772e-08
1.491e-09,5.29353e-08
1.492e-09,0
1.493e-09,0
1.494e-09,0
1.495e-09,0
1.496e-09,0
1.497e-09,-2.52706e-08
1.498e-09,-7.56702e-08
1.499e-09,0
1.5e-09,0
1.501e-09,0
1.502e-09,-7.04958e-12
1.503e-09,7.04958e-12
1.504e-09,0
1.505e-09,0
1.506e-09,-2.88102e-08
1.507e-09,0
1.508e-09,-7.85675e-08
1.509e-09,0
1.51e-09,1.50367e-09
1.511e-09,-1.51072e-09
1.512e-09,7.04958e-12
1.513e-09,2.28083e-10
1.514e-09,-7.04958e-12
1.515e-09,-2.88109e-08
1.516e-09,0
1.517e-09,-2.28083e-10
1.518e-09,-7.55926e-08
1.519e-09,0
1.52e-09,0
1.521e-09,0
1.522e-09,0
1.523e-09,0
1.524e-09,-2.88102e-08
1.525e-09,-8.21981e-08
1.526e-09,0
1.527e-09,0
1.528e-09,0
1.529e-09,0
1.53e-09,0
1.531e-09,0
1.532e-09,0
1.533e-09,-2.86227e-08
1.534e-09,-8.58145e-08
1.535e-09,0
1.536e-09,0
1.537e-09,3.00805e-09
1.538e-09,-3.00805e-09
1.539e-09,0
1.54e-09,0
1.541e-09,0
1.542e-09,-8.69283e-08
1.543e-09,-2.48226e-08
1.544e-09,-2.28083e-10
1.545e-09,2.28083e-10
1.546e-09,0
1.547e-09,0
1.548e-09,-2.28083e-10
1.549e-09,2.28083e-10
1.55e-09,0
1.551e-09,-7.67699e-08
1.552e-09,-2.88102e-08
1.553e-09,0
1.554e-09,0
1.555e-09,-2.28083e-10
1.556e-09,0
1.557e-09,0
1.558e-09,0
1.559e-09,0
1.56e-09,-8.87471e-08
1.561e-09,0
1.562e-09,0
1.563e-09,-3.00805e-09
1.564e-09,3.00805e-09
1.565e-09,-2.78712e-08
1.566e-09,0
1.567e-09,0
1.568e-09,-7.98999e-08
1.569e-09,0
1.57e-09,0
1.571e-09,0
1.572e-09,0
1.573e-09,0
1.574e-09,-4.51173e-09
1.575e-09,0
1.576e-09,-1.12033e-07
1.577e-09,4.51173e-09
1.578e-09,-4.51173e-09
1.579e-09,0
1.58e-09,4.51173e-09
1.581e-09,0
1.582e-09,0
1.583e-09,0
1.584e-09,0
1.585e-09,-9.36741e-08
1.586e-09,0
1.587e-09,0
1.588e-09,0
1.589e-09,0
1.59e-09,0
1.591e-09,0
1.592e-09,0
1.593e-09,0
1.594e-09,-2.95624e-08
1.595e-09,0
1.596e-09,-7.74255e-08
1.597e-09,0
1.598e-09,0
1.599e-09,0
1.6e-09,0
1.601e-09,0
1.602e-09,-2.88102e-08
1.603e-09,0
1.604e-09,1.50156e-09
1.605e-09,0
1.606e-09,0
1.607e-09,-3.43575e-07
1.608e-09,0
1.609e-09,1.955e-10
1.61e-09,-3.11749e-08
1.611e-09,0
1.612e-09,0
1.613e-09,0
1.614e-09,1.19843e-10
1.615e-09,0
1.616e-09,1.955e-10
1.617e-09,-1.955e-10
1.618e-09,0
1.619e-09,0
1.62e-09,6.76759e-09
1.621e-09,-4.3943e-07
1.622e-09,0
1.623e-09,0
1.624e-09,1.7208e-08
1.625e-09,0
1.626e-09,0
1.627e-09,0
1.628e-09,-7.51978e-09
1.629e-09,0
1.63e-09,1.955e-10
1.631e-09,7.51978e-09
1.632e-09,-1.955e-10
1.633e-09,-6.18392e-07
1.634e-09,0
1.635e-09,1.955e-10
1.636e-09,0
1.637e-09,-6.14251e-07
1.638e-09,-1.955e-10
1.639e-09,0
1.64e-09,0
1.641e-09,-3.3274e-07
1.642e-09,-9.99206e-07
1.643e-09,0
1.644e-09,0
1.645e-09,0
1.646e-09,0
1.647e-09,-3.77011e-08
1.648e-09,3.77011e-08
1.649e-09,0
1.65e-09,-6.56351e-07
1.651e-09,6.14723e-09
1.652e-09,-3.42511e-08
1.653e-09,0
1.654e-09,-1.0807e-08
1.655e-09,0
1.656e-09,1.955e-10
1.657e-09,0
1.658e-09,1.0807e-08
1.659e-09,1.40992e-11
1.66e-09,7.51908e-09
1.661e-09,-2.91028e-08
1.662e-09,3.87163e-08
1.663e-09,-6.34462e-11
1.664e-09,0
1.665e-09,-4.53288e-08
1.666e-09,4.53288e-08
1.667e-09,-4.59614e-08
1.668e-09,0
1.669e-09,4.57659e-08
1.67e-09,0
1.671e-09,0
1.672e-09,-3.29798e-08
1.673e-09,1.40992e-11
1.674e-09,-1.40992e-11
1.675e-09,-4.53429e-08
1.676e-09,4.53429e-08
1.677e-09,0
1.678e-09,0
1.679e-09,0
1.68e-09,0
1.681e-09,0
1.682e-09,-2.88046e-08
1.683e-09,0
1.684e-09,0
1.685e-09,0
1.686e-09,0
1.687e-09,0
1.688e-09,0
1.689e-09,-3.3422e-08
1.69e-09,0
1.691e-09,0
1.692e-09,0
1.693e-09,-1.0525e-08
1.694e-09,1.0525e-08
1.695e-09,-1.0525e-08
1.696e-09,0
1.697e-09,1.0525e-08
1.698e-09,-3.11591e-08
1.699e-09,-1.955e-10
1.7e-09,1.955e-10
1.701e-09,0
1.702e-09,0
1.703e-09,-1.12723e-08
1.704e-09,-7.04958e-12
1.705e-09,-1.955e-10
1.706e-09,1.14678e-08
1.707e-09,0
1.708e-09,-2.88116e-08
1.709e-09,0
1.71e-09,-1.955e-10
1.711e-09,0
1.712e-09,0
1.713e-09,0
1.714e-09,0
1.715e-09,0
1.716e-09,0
1.717e-09,0
1.718e-09,-3.3415e-08
1.719e-09,0
1.72e-09,7.04958e-12
1.721e-09,0
1.722e-09,-7.04958e-12
1.723e-09,0
1.724e-09,7.04958e-12
1.725e-09,-7.04958e-12
1.726e-09,-3.22095e-08
1.727e-09,0
1.728e-09,0
1.729e-09,0
1.73e-09,0
1.731e-09,4.23584e-10
1.732e-09,-2.28083e-10
1.733e-09,2.28083e-10
1.734e-09,0
1.735e-09,-3.02004e-08
1.736e-09,0
1.737e-09,0
1.738e-09,0
1.739e-09,0
1.74e-09,0
1.741e-09,0
1.742e-09,-1.955e-10
1.743e-09,-1.31311e-09
1.744e-09,1.28053e-09
1.745e-09,-3.11662e-08
1.746e-09,-1.955e-10
1.747e-09,0
1.748e-09,0
1.749e-09,0
1.75e-09,2.28083e-10
1.751e-09,-2.28083e-10
1.752e-09,0
1.753e-09,-2.88046e-08
1.754e-09,-7.04958e-12
1.755e-09,0
1.756e-09,0
1.757e-09,0
1.758e-09,0
1.759e-09,-6.20363e-09
1.76e-09,0
1.761e-09,0
1.762e-09,-3.02638e-08
1.763e-09,0
1.764e-09,0
1.765e-09,0
1.766e-09,0
1.767e-09,0
1.768e-09,0
1.769e-09,4.23584e-10
1.77e-09,-2.28083e-10
1.771e-09,-3.31562e-08
1.772e-09,0
1.773e-09,-2.28083e-10
1.774e-09,2.28083e-10
1.775e-09,0
1.776e-09,0
1.777e-09,-4.56167e-10
1.778e-09,0
1.779e-09,4.56167e-10
1.78e-09,-2.28083e-10
1.781e-09,0
1.782e-09,-3.51801e-08
1.783e-09,0
1.784e-09,0
1.785e-09,0
1.786e-09,0
1.787e-09,0
1.788e-09,0
1.789e-09,0
1.79e-09,0
1.791e-09,0
1.792e-09,-3.14905e-08
1.793e-09,0
1.794e-09,0
1.795e-09,2.28083e-10
1.796e-09,2.28083e-10
1.797e-09,-2.28083e-10
1.798e-09,-2.28083e-10
1.799e-09,2.28083e-10
1.8e-09,1.95485e-08
1.801e-09,-5.27686e-08
1.802e-09,0
1.803e-09,0
1.804e-09,0
1.805e-09,0
1.806e-09,2.24036e-08
1.807e-09,-2.24036e-08
1.808e-09,0
1.809e-09,7.04958e-12
1.81e-09,-7.04958e-12
1.811e-09,2.28083e-10
1.812e-09,2.21755e-08
1.813e-09,-3.16315e-08
1.814e-09,0
1.815e-09,0
1.816e-09,-2.46665e-08
1.817e-09,0
1.818e-09,0
1.819e-09,0
1.82e-09,0
1.821e-09,0
1.822e-09,-3.03132e-08
1.823e-09,0
1.824e-09,0
1.825e-09,0
1.826e-09,0
1.827e-09,2.46594e-08
1.828e-09,0
1.829e-09,2.28083e-10
1.83e-09,-2.28083e-10
1.831e-09,2.28083e-10
1.832e-09,-3.1352e-08
1.833e-09,0
1.834e-09,0
1.835e-09,0
1.836e-09,0
1.837e-09,0
1.838e-09,0
1.839e-09,-2.28083e-10
1.84e-09,0
1.841e-09,-3.03766e-08
1.842e-09,0
1.843e-09,7.04958e-12
1.844e-09,0
1.845e-09,2.28083e-10
1.846e-09,0
1.847e-09,5.14619e-10
1.848e-09,0
1.849e-09,0
1.85e-09,0
1.851e-09,-2.80996e-08
1.852e-09,0
1.853e-09,0
1.854e-09,0
1.855e-09,0
1.856e-09,0
1.857e-09,0
1.858e-09,-2.89174e-08
1.859e-09,0
1.86e-09,5.63966e-11
1.861e-09,-3.33117e-08
1.862e-09,4.23584e-10
1.863e-09,3.26601e-08
1.864e-09,0
1.865e-09,-5.63966e-11
1.866e-09,-6.33968e-08
1.867e-09,0
1.868e-09,0
1.869e-09,0
1.87e-09,0
1.871e-09,0
1.872e-09,-2.28083e-10
1.873e-09,0
1.874e-09,0
1.875e-09,-2.31438e-08
1.876e-09,0
1.877e-09,0
1.878e-09,0
1.879e-09,0
1.88e-09,0
1.881e-09,0
1.882e-09,0
1.883e-09,-2.76907e-08
1.884e-09,0
1.885e-09,0
1.886e-09,0
1.887e-09,2.28083e-10
1.888e-09,-2.28083e-10
1.889e-09,4.23584e-10
1.89e-09,-1.955e-10
1.891e-09,0
1.892e-09,-2.44902e-08
1.893e-09,0
1.894e-09,0
1.895e-09,0
1.896e-09,-2.28083e-10
1.897e-09,2.28083e-10
1.898e-09,-2.28083e-10
1.899e-09,0
1.9e-09,0
1.901e-09,2.28083e-10
1.902e-09,-2.28083e-10
1.903e-09,-1.31052e-08
1.904e-09,0
1.905e-09,0
1.906e-09,4.54204e-08
1.907e-09,0
1.908e-09,2.28083e-10
1.909e-09,2.55195e-09
1.91e-09,-5.41126e-08
1.911e-09,5.41126e-08
1.912e-09,-1.27315e-08
1.913e-09,-5.09825e-08
1.914e-09,0
1.915e-09,5.09825e-08
1.916e-09,0
1.917e-09,0
1.918e-09,-5.09825e-08
1.919e-09,0
1.92e-09,0
1.921e-09,-1.20477e-08
1.922e-09,-2.28083e-10
1.923e-09,-2.40391e-09
1.924e-09,0
1.925e-09,2.28083e-10
1.926e-09,-2.28083e-10
1.927e-09,0
1.928e-09,0
1.929e-09,0
1.93e-09,5.02635e-09
1.931e-09,2.28083e-10
1.932e-09,-2.28083e-10
1.933e-09,2.28083e-10
1.934e-09,-2.28083e-10
1.935e-09,0
1.936e-09,0
1.937e-09,5.68478e-08
1.938e-09,-5.53251e-08
1.939e-09,0
1.94e-09,6.36154e-08
1.941e-09,0
1.942e-09,0
1.943e-09,0
1.944e-09,0
1.945e-09,0
1.946e-09,0
1.947e-09,-4.56742e-08
1.948e-09,7.09822e-08
1.949e-09,0
1.95e-09,-7.09822e-08
1.951e-09,0
1.952e-09,0
1.953e-09,-2.559e-09
1.954e-09,0
1.955e-09,7.12103e-08
1.956e-09,3.81523e-08
1.957e-09,0
1.958e-09,0
1.959e-09,0
1.96e-09,0
1.961e-09,0
1.962e-09,0
1.963e-09,-3.28228e-08
1.964e-09,0
1.965e-09,0
1.966e-09,0
1.967e-09,0
1.968e-09,0
1.969e-09,0
1.97e-09,-4.37074e-10
1.971e-09,0
1.972e-09,4.37074e-10
1.973e-09,6.38833e-08
1.974e-09,0
1.975e-09,0
1.976e-09,0
1.977e-09,8.70764e-08
1.978e-09,-2.28083e-10
1.979e-09,0
1.98e-09,0
1.981e-09,1.00774e-07
1.982e-09,0
1.983e-09,0
1.984e-09,2.28083e-10
1.985e-09,0
1.986e-09,-2.28083e-10
1.987e-09,2.28083e-10
1.988e-09,1.3672e-07
1.989e-09,-2.28083e-10
1.99e-09,0
1.991e-09,0
1.992e-09,0
1.993e-09,0
1.994e-09,0
1.995e-09,0
1.996e-09,0
1.997e-09,1.76345e-07
1.998e-09,0
1.999e-09,0
2e-09,0
2.001e-09,0
2.1e-09,0
