/gps/ang/type user
/gps/hist/type theta
/gps/hist/point 0.0000 0.04079179355665972
/gps/hist/point 0.0001 0.04109232248757814
/gps/hist/point 0.0002 0.040992146177271996
/gps/hist/point 0.0003 0.039028690495271676
/gps/hist/point 0.0004 0.03926911364000641
/gps/hist/point 0.0004 0.03814713896457766
/gps/hist/point 0.0005 0.03862798525404712
/gps/hist/point 0.0006 0.037706363199230646
/gps/hist/point 0.0007 0.037245552171822405
/gps/hist/point 0.0007 0.03462093284180157
/gps/hist/point 0.0008 0.03397980445584228
/gps/hist/point 0.0009 0.03363920500080141
/gps/hist/point 0.0010 0.03243708927712775
/gps/hist/point 0.0011 0.03277768873216862
/gps/hist/point 0.0011 0.030293316236576374
/gps/hist/point 0.0012 0.02836993107869851
/gps/hist/point 0.0013 0.027308062189453437
/gps/hist/point 0.0014 0.02790912005129027
/gps/hist/point 0.0015 0.02568520596249399
/gps/hist/point 0.0015 0.02388203237698349
/gps/hist/point 0.0016 0.02370171501843244
/gps/hist/point 0.0017 0.022038788267350538
/gps/hist/point 0.0018 0.021077095688411606
/gps/hist/point 0.0018 0.021137201474595288
/gps/hist/point 0.0019 0.01887321686167655
/gps/hist/point 0.0020 0.017651065875941657
/gps/hist/point 0.0021 0.01620852700753326
/gps/hist/point 0.0022 0.015727680718063793
/gps/hist/point 0.0022 0.014906234973553454
/gps/hist/point 0.0023 0.013203237698349095
/gps/hist/point 0.0024 0.011941016188491745
/gps/hist/point 0.0025 0.011440134636961051
/gps/hist/point 0.0026 0.010057701554736335
/gps/hist/point 0.0026 0.009176150024042314
/gps/hist/point 0.0027 0.00867526847251162
/gps/hist/point 0.0028 0.008775444782817759
/gps/hist/point 0.0029 0.007953999038307421
/gps/hist/point 0.0029 0.0063511780734092005
/gps/hist/point 0.0030 0.006110754928674467
/gps/hist/point 0.0031 0.005429556018592723
/gps/hist/point 0.0032 0.0052692739221029015
/gps/hist/point 0.0033 0.004447828177592563
/gps/hist/point 0.0033 0.004047122936368008
/gps/hist/point 0.0034 0.003706523481327136
/gps/hist/point 0.0035 0.0033859592883474917
/gps/hist/point 0.0036 0.003025324571245392
/gps/hist/point 0.0037 0.0024843724955922425
/gps/hist/point 0.0037 0.0024843724955922425
/gps/hist/point 0.0038 0.0023641609232248756
/gps/hist/point 0.0039 0.001983490944061548
/gps/hist/point 0.0040 0.0013623978201634877
/gps/hist/point 0.0040 0.0014826093925308544
/gps/hist/point 0.0041 0.0013623978201634877
/gps/hist/point 0.0042 0.0012221509857348934
/gps/hist/point 0.0043 0.0011420099374899824
/gps/hist/point 0.0044 0.0008014104824491104
/gps/hist/point 0.0044 0.0008615162686327937
/gps/hist/point 0.0045 0.0006611636480205161
/gps/hist/point 0.0046 0.0008214457445103382
/gps/hist/point 0.0047 0.0005409520756531496
/gps/hist/point 0.0048 0.0005409520756531496
/gps/hist/point 0.0048 0.00014024683442859432
/gps/hist/point 0.0049 0.0003606347171020997
/gps/hist/point 0.0050 0.00018031735855104984
/gps/hist/point 0.0051 0.0002604584067959609
/gps/hist/point 0.0051 0.00014024683442859432
/gps/hist/point 0.0052 0.0001001763103061388
/gps/hist/point 0.0053 4.007052412245552e-05
/gps/hist/point 0.0054 8.014104824491104e-05
/gps/hist/point 0.0055 0.0001001763103061388
/gps/hist/point 0.0055 8.014104824491104e-05
/gps/hist/point 0.0056 6.010578618368328e-05
/gps/hist/point 0.0057 2.003526206122776e-05
/gps/hist/point 0.0058 4.007052412245552e-05
/gps/hist/point 0.0059 4.007052412245552e-05
/gps/hist/point 0.0059 2.003526206122776e-05
/gps/hist/point 0.0060 0.0
/gps/hist/point 0.0061 4.007052412245552e-05
/gps/hist/point 0.0062 0.0
/gps/hist/point 0.0062 0.0
/gps/hist/point 0.0063 0.0
/gps/hist/point 0.0064 2.003526206122776e-05
/gps/hist/point 0.0065 2.003526206122776e-05
/gps/hist/point 0.0066 2.003526206122776e-05
/gps/hist/point 0.0066 0.0
/gps/hist/point 0.0067 0.0
/gps/hist/point 0.0068 0.0
/gps/hist/point 0.0069 0.0
/gps/hist/point 0.0070 0.0
/gps/hist/point 0.0070 0.0
/gps/hist/point 0.0071 0.0
/gps/hist/point 0.0072 0.0
/gps/hist/point 0.0073 0.0
/gps/hist/point 0.0073 0.0
/gps/hist/point 0.0074 0.0
/gps/hist/point 0.0075 0.0
/gps/hist/point 0.0076 0.0
/gps/hist/point 0.0077 0.0
/gps/hist/point 0.0077 0.0
/gps/hist/point 0.0078 0.0
