0,0
1e-12,-3.88098e-06
2e-12,1.95578e-06
3e-12,1.98374e-07
4e-12,-2.62218e-07
5e-12,-5.81098e-07
6e-12,-1.49902e-06
7e-12,5.54119e-07
8e-12,-2.01825e-07
9e-12,-1.17704e-06
1e-11,-3.80926e-07
1.1e-11,-1.36794e-06
1.2e-11,-1.23212e-06
1.3e-11,-9.38216e-07
1.4e-11,-5.93143e-07
1.5e-11,2.89401e-07
1.6e-11,-4.5228e-07
1.7e-11,-1.625e-06
1.8e-11,5.59648e-07
1.9e-11,-1.5815e-06
2e-11,-2.42516e-07
2.1e-11,-1.18485e-06
2.2e-11,7.4789e-07
2.3e-11,-1.10215e-06
2.4e-11,-2.84132e-06
2.5e-11,-9.28847e-08
2.6e-11,-1.3858e-06
2.7e-11,-7.65232e-07
2.8e-11,-9.12663e-07
2.9e-11,-2.56178e-07
3e-11,-2.55664e-07
3.1e-11,-4.50523e-07
3.2e-11,-8.29727e-07
3.3e-11,-1.91493e-06
3.4e-11,-1.77314e-06
3.5e-11,-1.64826e-07
3.6e-11,-4.18077e-08
3.7e-11,-7.10185e-07
3.8e-11,-1.31038e-08
3.9e-11,-2.17891e-07
4e-11,-1.78817e-06
4.1e-11,-8.01012e-07
4.2e-11,-6.31233e-07
4.3e-11,-2.42674e-06
4.4e-11,-1.23896e-07
4.5e-11,-8.81167e-07
4.6e-11,-1.7148e-06
4.7e-11,-8.52932e-07
4.8e-11,-2.17013e-07
4.9e-11,-1.98743e-06
5e-11,-2.4356e-07
5.1e-11,7.95827e-07
5.2e-11,-7.05301e-07
5.3e-11,-7.23501e-07
5.4e-11,-1.74615e-06
5.5e-11,-4.33638e-07
5.6e-11,-1.55933e-06
5.7e-11,-1.24898e-06
5.8e-11,-5.84591e-08
5.9e-11,4.40315e-07
6e-11,-9.28436e-07
6.1e-11,-7.70549e-07
6.2e-11,-4.86838e-07
6.3e-11,-5.48494e-07
6.4e-11,-1.30272e-06
6.5e-11,-7.35226e-07
6.6e-11,-3.76149e-07
6.7e-11,-1.20392e-06
6.8e-11,-1.09348e-06
6.9e-11,-2.59305e-07
7e-11,-5.82995e-07
7.1e-11,-1.78086e-07
7.2e-11,-1.14626e-06
7.3e-11,-1.70619e-07
7.4e-11,-7.84314e-07
7.5e-11,-5.72399e-07
7.6e-11,-5.79457e-07
7.7e-11,-5.70426e-07
7.8e-11,-1.19353e-06
7.9e-11,-3.12755e-07
8e-11,9.45932e-07
8.1e-11,-1.26772e-06
8.2e-11,-4.59289e-07
8.3e-11,-9.94107e-07
8.4e-11,-8.04728e-07
8.5e-11,-8.54192e-07
8.6e-11,-2.02833e-08
8.7e-11,-5.4536e-07
8.8e-11,-6.28516e-07
8.9e-11,-3.94985e-07
9e-11,-2.45142e-07
9.1e-11,-1.03559e-06
9.2e-11,1.77684e-07
9.3e-11,-1.69786e-06
9.4e-11,-7.2013e-07
9.5e-11,4.95921e-07
9.6e-11,-2.96837e-07
9.7e-11,-9.30898e-07
9.8e-11,-2.8918e-07
9.9e-11,-2.20153e-07
1e-10,-1.56069e-06
1.01e-10,3.89639e-07
1.02e-10,-2.98868e-07
1.03e-10,-1.50143e-06
1.04e-10,-1.91089e-06
1.05e-10,7.2769e-08
1.06e-10,-8.28337e-07
1.07e-10,-4.39288e-07
1.08e-10,2.13813e-07
1.09e-10,-9.55373e-07
1.1e-10,-1.40106e-06
1.11e-10,-1.75312e-07
1.12e-10,-2.0868e-07
1.13e-10,-1.66429e-06
1.14e-10,-9.28078e-07
1.15e-10,-5.43181e-07
1.16e-10,-4.78949e-07
1.17e-10,-4.36909e-07
1.18e-10,-6.94574e-08
1.19e-10,-7.63003e-07
1.2e-10,2.20741e-08
1.21e-10,-1.98838e-07
1.22e-10,-1.95782e-06
1.23e-10,6.66628e-07
1.24e-10,-5.56781e-07
1.25e-10,-2.9795e-07
1.26e-10,-6.5491e-07
1.27e-10,-5.31497e-07
1.28e-10,-5.81735e-07
1.29e-10,-4.16917e-07
1.3e-10,-1.58255e-07
1.31e-10,-1.16942e-06
1.32e-10,3.04431e-07
1.33e-10,-1.44186e-06
1.34e-10,-4.1406e-07
1.35e-10,-2.08118e-07
1.36e-10,-8.54238e-07
1.37e-10,-1.13564e-06
1.38e-10,-1.08018e-07
1.39e-10,-7.14784e-07
1.4e-10,-7.77751e-07
1.41e-10,5.16329e-07
1.42e-10,-2.62172e-07
1.43e-10,1.09505e-07
1.44e-10,-1.34057e-06
1.45e-10,-1.84108e-06
1.46e-10,-1.29369e-06
1.47e-10,-4.293e-07
1.48e-10,-1.78004e-07
1.49e-10,-1.96765e-07
1.5e-10,-2.14589e-07
1.51e-10,-6.7488e-07
1.52e-10,-9.67898e-07
1.53e-10,-9.96976e-07
1.54e-10,-4.4275e-07
1.55e-10,-1.09743e-06
1.56e-10,-1.80385e-06
1.57e-10,-1.79349e-07
1.58e-10,-1.58531e-08
1.59e-10,-8.60619e-07
1.6e-10,-9.90432e-08
1.61e-10,-6.42462e-07
1.62e-10,-1.10707e-06
1.63e-10,-6.70287e-08
1.64e-10,-6.01093e-07
1.65e-10,-2.91783e-06
1.66e-10,-9.1021e-07
1.67e-10,3.52969e-08
1.68e-10,-1.71557e-07
1.69e-10,-1.93343e-06
1.7e-10,-1.66471e-07
1.71e-10,-5.57704e-07
1.72e-10,-9.33502e-08
1.73e-10,-1.53111e-06
1.74e-10,-8.80487e-07
1.75e-10,8.1989e-07
1.76e-10,-1.93418e-06
1.77e-10,2.01944e-07
1.78e-10,-2.72545e-07
1.79e-10,1.24102e-07
1.8e-10,-3.91973e-07
1.81e-10,-1.80743e-07
1.82e-10,-1.42992e-06
1.83e-10,-4.63496e-07
1.84e-10,-9.5918e-07
1.85e-10,-1.46899e-06
1.86e-10,2.30778e-07
1.87e-10,-9.44908e-07
1.88e-10,3.74516e-07
1.89e-10,-7.50287e-07
1.9e-10,1.51025e-07
1.91e-10,-1.25554e-06
1.92e-10,-4.98356e-07
1.93e-10,-1.60673e-07
1.94e-10,-8.08499e-07
1.95e-10,-2.12853e-07
1.96e-10,-2.97821e-07
1.97e-10,-1.37786e-06
1.98e-10,-1.17009e-06
1.99e-10,-5.58085e-07
2e-10,-1.20918e-06
2.01e-10,-1.47046e-06
2.02e-10,5.29984e-07
2.03e-10,-8.87092e-07
2.04e-10,-1.39506e-07
2.05e-10,-5.1323e-07
2.06e-10,-1.10761e-06
2.07e-10,-1.20783e-06
2.08e-10,-1.64475e-06
2.09e-10,-5.38528e-08
2.1e-10,-1.30554e-06
2.11e-10,4.93993e-08
2.12e-10,1.33012e-07
2.13e-10,1.82515e-08
2.14e-10,3.65469e-08
2.15e-10,-2.37754e-07
2.16e-10,-4.6862e-07
2.17e-10,-5.42284e-07
2.18e-10,-1.47215e-07
2.19e-10,-6.75037e-07
2.2e-10,-3.66793e-06
2.21e-10,-3.76281e-07
2.22e-10,-1.53543e-06
2.23e-10,1.44416e-09
2.24e-10,1.67461e-07
2.25e-10,-2.0069e-07
2.26e-10,-6.26051e-07
2.27e-10,3.61652e-08
2.28e-10,-5.48046e-07
2.29e-10,-2.28996e-06
2.3e-10,-8.10404e-07
2.31e-10,-7.73665e-08
2.32e-10,-1.05935e-06
2.33e-10,-5.41965e-07
2.34e-10,-1.84994e-07
2.35e-10,-5.28099e-07
2.36e-10,-5.38365e-07
2.37e-10,-1.60011e-07
2.38e-10,3.82309e-07
2.39e-10,-2.03436e-06
2.4e-10,-1.65613e-07
2.41e-10,6.68469e-08
2.42e-10,-4.71053e-07
2.43e-10,-1.38609e-07
2.44e-10,-4.42805e-07
2.45e-10,-4.52659e-07
2.46e-10,-5.86932e-08
2.47e-10,-3.07879e-07
2.48e-10,-1.49264e-06
2.49e-10,-1.10285e-06
2.5e-10,-2.53534e-07
2.51e-10,-9.0369e-07
2.52e-10,-2.82601e-07
2.53e-10,-5.62928e-07
2.54e-10,2.36083e-08
2.55e-10,-5.34443e-07
2.56e-10,1.44231e-07
2.57e-10,3.81941e-08
2.58e-10,-2.69756e-07
2.59e-10,-2.9665e-07
2.6e-10,-5.3523e-07
2.61e-10,-1.09502e-06
2.62e-10,-5.3248e-07
2.63e-10,-5.10578e-07
2.64e-10,1.04007e-07
2.65e-10,-9.21144e-07
2.66e-10,-4.63469e-07
2.67e-10,-7.32659e-07
2.68e-10,-1.93431e-08
2.69e-10,-3.15484e-07
2.7e-10,2.16836e-07
2.71e-10,-2.12492e-06
2.72e-10,-3.96373e-07
2.73e-10,-6.53841e-07
2.74e-10,2.23842e-07
2.75e-10,-6.82018e-07
2.76e-10,-3.45811e-08
2.77e-10,-2.06391e-06
2.78e-10,-5.57106e-07
2.79e-10,-9.68247e-07
2.8e-10,5.88402e-08
2.81e-10,-3.91583e-07
2.82e-10,4.22415e-07
2.83e-10,-4.64055e-07
2.84e-10,-2.98647e-07
2.85e-10,-5.04447e-07
2.86e-10,-1.27479e-06
2.87e-10,-1.29192e-06
2.88e-10,-1.36496e-06
2.89e-10,-1.08181e-06
2.9e-10,-8.11125e-07
2.91e-10,-5.46939e-07
2.92e-10,3.03978e-09
2.93e-10,1.29702e-07
2.94e-10,2.06955e-07
2.95e-10,-1.07345e-06
2.96e-10,-6.59075e-07
2.97e-10,-1.02912e-06
2.98e-10,-5.61487e-07
2.99e-10,-2.56267e-07
3e-10,-1.64916e-06
3.01e-10,-4.37568e-07
3.02e-10,9.45635e-08
3.03e-10,-1.07079e-06
3.04e-10,-2.24702e-07
3.05e-10,-2.47279e-07
3.06e-10,7.47556e-08
3.07e-10,-1.84448e-07
3.08e-10,-3.98383e-07
3.09e-10,-7.79076e-07
3.1e-10,-1.5232e-06
3.11e-10,-5.41745e-08
3.12e-10,-9.58346e-07
3.13e-10,-6.53753e-07
3.14e-10,2.67931e-07
3.15e-10,-3.22095e-07
3.16e-10,-4.33683e-07
3.17e-10,-4.05112e-07
3.18e-10,-1.48152e-07
3.19e-10,-8.89102e-07
3.2e-10,-5.69937e-07
3.21e-10,-5.57541e-08
3.22e-10,-2.79442e-07
3.23e-10,-3.85258e-07
3.24e-10,-1.24256e-06
3.25e-10,-4.16945e-07
3.26e-10,-6.18644e-07
3.27e-10,-2.93957e-07
3.28e-10,-1.12926e-06
3.29e-10,-1.63059e-07
3.3e-10,5.76071e-09
3.31e-10,-1.78115e-07
3.32e-10,-2.24412e-06
3.33e-10,-3.00923e-07
3.34e-10,-5.3649e-07
3.35e-10,-2.24611e-06
3.36e-10,-1.97394e-07
3.37e-10,-6.08185e-08
3.38e-10,-2.62132e-07
3.39e-10,-7.88057e-07
3.4e-10,2.07307e-09
3.41e-10,-3.46992e-07
3.42e-10,-5.29994e-07
3.43e-10,-1.99151e-06
3.44e-10,-3.35626e-07
3.45e-10,1.2993e-07
3.46e-10,-6.03548e-07
3.47e-10,-8.8295e-08
3.48e-10,-1.30071e-06
3.49e-10,-9.52194e-07
3.5e-10,-1.01295e-06
3.51e-10,-8.32156e-07
3.52e-10,-2.63901e-07
3.53e-10,1.74455e-07
3.54e-10,-1.44096e-06
3.55e-10,1.90202e-07
3.56e-10,-5.89616e-07
3.57e-10,-4.49646e-07
3.58e-10,1.32503e-07
3.59e-10,-2.607e-06
3.6e-10,4.75933e-07
3.61e-10,-1.30168e-06
3.62e-10,-1.60031e-07
3.63e-10,-1.56677e-06
3.64e-10,2.11586e-07
3.65e-10,4.1592e-08
3.66e-10,-7.50882e-07
3.67e-10,-1.2658e-07
3.68e-10,-1.2343e-06
3.69e-10,1.44784e-07
3.7e-10,-2.23396e-07
3.71e-10,-7.30926e-07
3.72e-10,8.92878e-08
3.73e-10,-2.31961e-07
3.74e-10,-4.63881e-07
3.75e-10,-8.9297e-08
3.76e-10,-2.98061e-07
3.77e-10,-1.65439e-06
3.78e-10,-6.16699e-08
3.79e-10,-7.0041e-08
3.8e-10,-1.81426e-08
3.81e-10,-7.41463e-07
3.82e-10,-7.86153e-07
3.83e-10,2.80975e-07
3.84e-10,3.00227e-07
3.85e-10,-1.71422e-07
3.86e-10,-6.43439e-08
3.87e-10,-1.26159e-06
3.88e-10,-1.14203e-06
3.89e-10,-4.52624e-07
3.9e-10,-1.6192e-08
3.91e-10,2.27983e-08
3.92e-10,-2.42214e-07
3.93e-10,-1.2237e-06
3.94e-10,-8.48413e-07
3.95e-10,-2.31769e-07
3.96e-10,1.46109e-07
3.97e-10,-1.62565e-06
3.98e-10,-1.57405e-07
3.99e-10,-1.02146e-06
4e-10,1.50724e-06
4.01e-10,-1.08412e-06
4.02e-10,-3.21715e-07
4.03e-10,-1.89253e-07
4.04e-10,-5.63514e-07
4.05e-10,-1.3834e-06
4.06e-10,-1.19051e-06
4.07e-10,-2.6004e-07
4.08e-10,-2.91961e-07
4.09e-10,-2.95477e-07
4.1e-10,-5.96591e-07
4.11e-10,-1.07828e-07
4.12e-10,-4.41135e-07
4.13e-10,-2.45645e-07
4.14e-10,-1.44741e-06
4.15e-10,-3.33818e-07
4.16e-10,-5.71136e-07
4.17e-10,-2.16585e-07
4.18e-10,2.15066e-07
4.19e-10,8.96683e-08
4.2e-10,-1.25978e-06
4.21e-10,-2.23121e-06
4.22e-10,-7.04807e-07
4.23e-10,-1.02823e-06
4.24e-10,9.87559e-08
4.25e-10,-3.21183e-07
4.26e-10,1.63792e-07
4.27e-10,-2.86283e-07
4.28e-10,-3.28627e-07
4.29e-10,4.56418e-07
4.3e-10,-7.77003e-07
4.31e-10,-2.51731e-06
4.32e-10,-4.08031e-07
4.33e-10,-3.45072e-07
4.34e-10,-1.08253e-07
4.35e-10,-4.46249e-07
4.36e-10,-1.1621e-07
4.37e-10,-2.51019e-07
4.38e-10,-1.12535e-06
4.39e-10,-2.90835e-07
4.4e-10,-7.92734e-07
4.41e-10,2.37235e-07
4.42e-10,-1.47116e-06
4.43e-10,-1.95154e-07
4.44e-10,-3.23784e-07
4.45e-10,-2.96737e-07
4.46e-10,4.41989e-08
4.47e-10,-6.67713e-07
4.48e-10,-5.02684e-08
4.49e-10,-9.28804e-07
4.5e-10,-1.37678e-06
4.51e-10,-1.66315e-07
4.52e-10,-4.9912e-07
4.53e-10,-1.28088e-06
4.54e-10,-8.10157e-08
4.55e-10,-8.96138e-08
4.56e-10,-3.88756e-07
4.57e-10,-8.43581e-08
4.58e-10,-1.24367e-06
4.59e-10,-2.0076e-07
4.6e-10,5.05309e-08
4.61e-10,-2.49847e-06
4.62e-10,-2.62008e-07
4.63e-10,-4.38731e-08
4.64e-10,-5.53712e-07
4.65e-10,-6.10437e-07
4.66e-10,-3.66921e-07
4.67e-10,-4.02073e-07
4.68e-10,-1.33624e-06
4.69e-10,-1.09551e-07
4.7e-10,-1.1312e-06
4.71e-10,-7.11886e-07
4.72e-10,-1.05034e-06
4.73e-10,-7.92678e-08
4.74e-10,-8.05362e-07
4.75e-10,3.27696e-07
4.76e-10,1.32662e-07
4.77e-10,-1.22101e-06
4.78e-10,8.85288e-07
4.79e-10,-1.04253e-06
4.8e-10,6.75245e-07
4.81e-10,-2.95155e-06
4.82e-10,-2.10895e-07
4.83e-10,-5.17958e-08
4.84e-10,2.88669e-07
4.85e-10,-9.33398e-07
4.86e-10,1.55614e-07
4.87e-10,-1.42835e-06
4.88e-10,1.95393e-07
4.89e-10,-1.93776e-07
4.9e-10,-2.19568e-06
4.91e-10,2.09143e-07
4.92e-10,-9.33382e-07
4.93e-10,-6.9944e-07
4.94e-10,-6.06417e-07
4.95e-10,-2.33226e-07
4.96e-10,-1.99463e-07
4.97e-10,-7.3454e-08
4.98e-10,-4.67801e-07
4.99e-10,2.98382e-07
5e-10,1.0836e-07
5.01e-10,-4.25987e-07
5.02e-10,-1.71877e-06
5.03e-10,-2.12464e-06
5.04e-10,-1.10928e-06
5.05e-10,-1.21992e-06
5.06e-10,-3.00067e-08
5.07e-10,-4.30474e-07
5.08e-10,2.71015e-08
5.09e-10,4.6991e-08
5.1e-10,-1.00545e-06
5.11e-10,-4.06974e-08
5.12e-10,1.07078e-07
5.13e-10,-1.73507e-06
5.14e-10,3.7403e-09
5.15e-10,-1.38111e-06
5.16e-10,-3.87549e-07
5.17e-10,-3.60518e-07
5.18e-10,-1.18054e-06
5.19e-10,-2.43247e-07
5.2e-10,2.3155e-07
5.21e-10,2.21646e-08
5.22e-10,-1.09339e-06
5.23e-10,-9.68682e-08
5.24e-10,1.04551e-07
5.25e-10,3.37554e-07
5.26e-10,-8.31396e-07
5.27e-10,6.09201e-08
5.28e-10,-1.24267e-06
5.29e-10,-8.37177e-07
5.3e-10,-1.51952e-07
5.31e-10,7.20263e-07
5.32e-10,-9.09401e-07
5.33e-10,-1.75545e-07
5.34e-10,-6.13115e-07
5.35e-10,-5.20849e-08
5.36e-10,-7.32162e-08
5.37e-10,5.20232e-07
5.38e-10,-1.27982e-07
5.39e-10,-6.07716e-07
5.4e-10,1.04637e-06
5.41e-10,-5.25054e-07
5.42e-10,6.43957e-07
5.43e-10,-7.54669e-08
5.44e-10,-9.94815e-07
5.45e-10,3.60314e-07
5.46e-10,-2.66128e-07
5.47e-10,4.41762e-08
5.48e-10,-2.05466e-07
5.49e-10,-1.50648e-07
5.5e-10,-2.93627e-07
5.51e-10,-1.21622e-07
5.52e-10,5.34591e-07
5.53e-10,-2.19039e-07
5.54e-10,-3.18474e-08
5.55e-10,-1.17451e-06
5.56e-10,-1.44723e-07
5.57e-10,1.14797e-06
5.58e-10,1.75264e-07
5.59e-10,-7.79947e-08
5.6e-10,4.66893e-09
5.61e-10,3.28615e-07
5.62e-10,-1.30292e-07
5.63e-10,-1.19284e-07
5.64e-10,-2.2569e-08
5.65e-10,-1.28153e-06
5.66e-10,-1.60722e-07
5.67e-10,8.50813e-08
5.68e-10,6.9597e-07
5.69e-10,-7.15528e-07
5.7e-10,4.2885e-07
5.71e-10,-2.10287e-07
5.72e-10,2.61149e-07
5.73e-10,-2.04039e-06
5.74e-10,-1.21943e-06
5.75e-10,1.75565e-07
5.76e-10,-6.05096e-08
5.77e-10,-1.49213e-07
5.78e-10,6.04396e-08
5.79e-10,2.92439e-07
5.8e-10,-2.11732e-07
5.81e-10,9.43281e-08
5.82e-10,-6.9427e-07
5.83e-10,-6.1572e-07
5.84e-10,-4.10237e-07
5.85e-10,1.87e-07
5.86e-10,-4.23245e-08
5.87e-10,-2.13613e-08
5.88e-10,-2.27058e-07
5.89e-10,-2.22535e-08
5.9e-10,-1.17299e-07
5.91e-10,-5.62969e-08
5.92e-10,-1.96816e-07
5.93e-10,-1.31485e-07
5.94e-10,-9.96116e-07
5.95e-10,-6.67279e-07
5.96e-10,-9.21591e-10
5.97e-10,5.18708e-08
5.98e-10,-4.73576e-08
5.99e-10,-1.38381e-06
6e-10,-5.07873e-09
6.01e-10,-1.25971e-07
6.02e-10,-2.52286e-08
6.03e-10,-2.50546e-07
6.04e-10,-4.20046e-07
6.05e-10,-1.82391e-07
6.06e-10,-1.32721e-07
6.07e-10,4.41081e-08
6.08e-10,-7.46988e-07
6.09e-10,-1.22708e-06
6.1e-10,2.78586e-07
6.11e-10,-1.01638e-07
6.12e-10,-4.05291e-08
6.13e-10,-6.61391e-09
6.14e-10,-1.72101e-07
6.15e-10,-5.28034e-08
6.16e-10,1.67733e-07
6.17e-10,-9.93089e-08
6.18e-10,-1.40681e-06
6.19e-10,4.04862e-08
6.2e-10,-1.03472e-07
6.21e-10,2.94292e-07
6.22e-10,2.23486e-07
6.23e-10,2.7199e-07
6.24e-10,5.96747e-09
6.25e-10,8.398e-08
6.26e-10,-2.27124e-07
6.27e-10,-9.58525e-08
6.28e-10,9.47846e-08
6.29e-10,-4.88026e-08
6.3e-10,-1.7163e-07
6.31e-10,1.5441e-07
6.32e-10,-1.84871e-07
6.33e-10,-4.19952e-08
6.34e-10,5.10779e-07
6.35e-10,2.25706e-09
6.36e-10,-8.67279e-08
6.37e-10,2.77606e-07
6.38e-10,-4.01766e-07
6.39e-10,-4.75345e-08
6.4e-10,3.65709e-07
6.41e-10,1.56058e-07
6.42e-10,-4.32158e-08
6.43e-10,2.56305e-07
6.44e-10,2.25809e-07
6.45e-10,-1.13413e-07
6.46e-10,-6.08738e-07
6.47e-10,-8.75913e-08
6.48e-10,1.23617e-07
6.49e-10,-4.14795e-08
6.5e-10,2.73876e-09
6.51e-10,-1.59429e-07
6.52e-10,-8.53917e-08
6.53e-10,2.37887e-07
6.54e-10,-3.78637e-07
6.55e-10,-8.00867e-08
6.56e-10,1.35995e-07
6.57e-10,4.16599e-07
6.58e-10,-7.87819e-07
6.59e-10,9.86264e-08
6.6e-10,1.65489e-07
6.61e-10,2.40088e-09
6.62e-10,-1.40565e-07
6.63e-10,-8.2718e-08
6.64e-10,-8.65223e-08
6.65e-10,-1.51591e-07
6.66e-10,-9.19557e-08
6.67e-10,-9.1986e-08
6.68e-10,-2.17508e-08
6.69e-10,6.31497e-08
6.7e-10,-5.65632e-07
6.71e-10,1.97205e-08
6.72e-10,-6.80125e-08
6.73e-10,1.30448e-07
6.74e-10,-5.72968e-08
6.75e-10,3.81885e-07
6.76e-10,-8.86842e-08
6.77e-10,1.45609e-07
6.78e-10,8.23436e-08
6.79e-10,1.48788e-09
6.8e-10,-6.33492e-07
6.81e-10,7.21509e-08
6.82e-10,3.30816e-09
6.83e-10,-6.02946e-08
6.84e-10,1.58813e-09
6.85e-10,-1.29851e-07
6.86e-10,6.04536e-07
6.87e-10,-9.46784e-08
6.88e-10,-4.33526e-08
6.89e-10,-9.20767e-08
6.9e-10,-1.32519e-08
6.91e-10,1.18087e-07
6.92e-10,-1.14542e-07
6.93e-10,-4.20937e-08
6.94e-10,-1.44948e-08
6.95e-10,4.17378e-08
6.96e-10,-1.34156e-07
6.97e-10,-3.82972e-08
6.98e-10,-3.93477e-08
6.99e-10,2.20902e-07
7e-10,1.4148e-07
7.01e-10,-2.40088e-09
7.02e-10,-4.52823e-09
7.03e-10,-8.32707e-08
7.04e-10,-7.68042e-08
7.05e-10,-9.4848e-08
7.06e-10,-4.11527e-08
7.07e-10,3.58263e-07
7.08e-10,-1.26193e-07
7.09e-10,-1.85759e-07
7.1e-10,-4.34836e-08
7.11e-10,-1.56145e-08
7.12e-10,4.52423e-08
7.13e-10,1.04908e-08
7.14e-10,-1.57048e-07
7.15e-10,-2.31488e-08
7.16e-10,-3.92618e-09
7.17e-10,-9.52616e-08
7.18e-10,-5.52623e-08
7.19e-10,-6.832e-08
7.2e-10,-4.69671e-08
7.21e-10,-4.67052e-08
7.22e-10,9.19688e-10
7.23e-10,-5.15099e-08
7.24e-10,-7.77274e-08
7.25e-10,-2.50029e-09
7.26e-10,-3.71863e-08
7.27e-10,-2.39702e-09
7.28e-10,-1.02748e-07
7.29e-10,-3.98832e-08
7.3e-10,-5.5327e-10
7.31e-10,-1.01086e-07
7.32e-10,-3.26654e-08
7.33e-10,2.26411e-09
7.34e-10,-1.44049e-07
7.35e-10,1.85038e-09
7.36e-10,-6.79357e-08
7.37e-10,-8.67462e-08
7.38e-10,-3.54514e-08
7.39e-10,1.22259e-09
7.4e-10,3.30563e-09
7.41e-10,-2.67785e-09
7.42e-10,-1.2109e-07
7.43e-10,-4.3091e-08
7.44e-10,-5.48481e-08
7.45e-10,-9.45594e-08
7.46e-10,3.67947e-08
7.47e-10,5.2155e-09
7.48e-10,-4.79256e-08
7.49e-10,-8.98551e-08
7.5e-10,-4.4105e-08
7.51e-10,1.36769e-10
7.52e-10,-1.48294e-07
7.53e-10,-7.34284e-09
7.54e-10,-1.95017e-07
7.55e-10,0
7.56e-10,-9.47018e-09
7.57e-10,2.12734e-09
7.58e-10,4.78808e-08
7.59e-10,-3.9034e-08
7.6e-10,-1.72126e-07
7.61e-10,4.04338e-08
7.62e-10,-1.4118e-07
7.63e-10,4.60628e-08
7.64e-10,-5.8037e-08
7.65e-10,-1.39431e-07
7.66e-10,5.25567e-09
7.67e-10,-8.29777e-09
7.68e-10,-4.18968e-08
7.69e-10,-4.52823e-09
7.7e-10,-4.62351e-08
7.71e-10,7.20607e-09
7.72e-10,-9.9561e-08
7.73e-10,-2.40088e-09
7.74e-10,4.26086e-08
7.75e-10,-4.58937e-08
7.76e-10,-5.09656e-08
7.77e-10,4.94196e-09
7.78e-10,-4.56493e-08
7.79e-10,-9.33325e-08
7.8e-10,-7.47065e-08
7.81e-10,-2.80343e-08
7.82e-10,-4.3192e-08
7.83e-10,-1.02141e-08
7.84e-10,4.83512e-08
7.85e-10,-1.02691e-07
7.86e-10,-4.09517e-08
7.87e-10,3.73111e-08
7.88e-10,-4.3216e-08
7.89e-10,4.84875e-08
7.9e-10,-1.11166e-07
7.91e-10,-3.70469e-08
7.92e-10,4.63768e-08
7.93e-10,-8.86872e-08
7.94e-10,-3.64237e-08
7.95e-10,2.11487e-13
7.96e-10,-4.62234e-08
7.97e-10,-1.08572e-07
7.98e-10,-4.39146e-09
7.99e-10,-7.66314e-08
8e-10,3.64235e-08
8.01e-10,-5.01449e-08
8.02e-10,-4.66499e-09
8.03e-10,4.29388e-08
8.04e-10,2.54108e-09
8.05e-10,-7.72546e-08
8.06e-10,-2.67151e-09
8.07e-10,-1.15819e-07
8.08e-10,-4.54799e-08
8.09e-10,5.48639e-08
8.1e-10,-4.63768e-08
8.11e-10,7.31027e-09
8.12e-10,3.01469e-08
8.13e-10,-3.7076e-08
8.14e-10,-1.06552e-07
8.15e-10,-1.00514e-07
8.16e-10,3.61953e-08
8.17e-10,-6.65214e-09
8.18e-10,-4.3216e-08
8.19e-10,-3.41756e-08
8.2e-10,-4.88735e-08
8.21e-10,-2.26411e-09
8.22e-10,-4.21331e-08
8.23e-10,-6.96506e-08
8.24e-10,4.66499e-09
8.25e-10,-1.15941e-08
8.26e-10,-2.26411e-09
8.27e-10,-4.13733e-10
8.28e-10,1.98715e-09
8.29e-10,-4.66978e-10
8.3e-10,-2.54108e-09
8.31e-10,-6.46881e-08
8.32e-10,-5.35569e-09
8.33e-10,-2.40088e-09
8.34e-10,-9.62355e-08
8.35e-10,3.00805e-09
8.36e-10,-1.98715e-09
8.37e-10,-5.20627e-08
8.38e-10,1.95458e-09
8.39e-10,-6.57564e-08
8.4e-10,-4.3976e-08
8.41e-10,6.65557e-09
8.42e-10,-5.38501e-08
8.43e-10,2.26411e-09
8.44e-10,-4.54799e-08
8.45e-10,-4.40992e-08
8.46e-10,-1.67833e-07
8.47e-10,-2.26411e-09
8.48e-10,0
8.49e-10,-4.09519e-08
8.5e-10,-4.54799e-08
8.51e-10,-3.20309e-08
8.52e-10,-9.19322e-09
8.53e-10,4.32158e-08
8.54e-10,-6.39237e-08
8.55e-10,-4.60304e-08
8.56e-10,4.28485e-08
8.57e-10,-3.60092e-08
8.58e-10,2.67785e-09
8.59e-10,-2.26411e-09
8.6e-10,-4.80176e-09
8.61e-10,-3.09158e-09
8.62e-10,-7.21155e-08
8.63e-10,4.11449e-09
8.64e-10,-4.25469e-09
8.65e-10,-2.40088e-09
8.66e-10,4.52823e-09
8.67e-10,-9.19322e-09
8.68e-10,-3.3134e-08
8.69e-10,-4.94196e-09
8.7e-10,-8.47385e-08
8.71e-10,2.26411e-09
8.72e-10,-4.84313e-08
8.73e-10,4.13733e-10
8.74e-10,-5.47561e-08
8.75e-10,-2.40088e-09
8.76e-10,2.26411e-09
8.77e-10,-7.27486e-08
8.78e-10,2.40088e-09
8.79e-10,-5.04616e-09
8.8e-10,-4.05705e-08
8.81e-10,2.40088e-09
8.82e-10,-3.33757e-08
8.83e-10,-2.26411e-09
8.84e-10,2.26411e-09
8.85e-10,0
8.86e-10,3.00805e-09
8.87e-10,-7.4507e-08
8.88e-10,-4.09517e-08
8.89e-10,-4.80176e-09
8.9e-10,-2.44395e-10
8.91e-10,-8.2704e-08
8.92e-10,4.80176e-09
8.93e-10,0
8.94e-10,-7.34284e-09
8.95e-10,-9.56968e-08
8.96e-10,1.36769e-10
8.97e-10,1.36769e-10
8.98e-10,0
8.99e-10,4.94196e-09
9e-10,-6.92911e-09
9.01e-10,-6.07932e-08
9.02e-10,-1.85038e-09
9.03e-10,-2.67785e-09
9.04e-10,-7.94892e-08
9.05e-10,-2.67785e-09
9.06e-10,8.87622e-08
9.07e-10,-1.85038e-09
9.08e-10,6.92911e-09
9.09e-10,-3.79721e-08
9.1e-10,-4.56079e-09
9.11e-10,-7.58723e-09
9.12e-10,0
9.13e-10,-2.40088e-09
9.14e-10,1.36769e-10
9.15e-10,-7.81645e-08
9.16e-10,6.92911e-09
9.17e-10,6.79234e-09
9.18e-10,-6.92911e-09
9.19e-10,-3.12752e-08
9.2e-10,-9.61051e-08
9.21e-10,4.66499e-09
9.22e-10,-1.36769e-10
9.23e-10,-1.12566e-07
9.24e-10,0
9.25e-10,-2.26411e-09
9.26e-10,0
9.27e-10,1.36769e-10
9.28e-10,2.76964e-10
9.29e-10,-5.46812e-08
9.3e-10,-2.40088e-09
9.31e-10,0
9.32e-10,-1.27084e-07
9.33e-10,2.40088e-09
9.34e-10,2.40088e-09
9.35e-10,-4.66499e-09
9.36e-10,4.54799e-08
9.37e-10,-6.65398e-08
9.38e-10,4.34928e-08
9.39e-10,-4.84347e-08
9.4e-10,1.36769e-10
9.41e-10,-9.37703e-08
9.42e-10,4.66499e-09
9.43e-10,2.26411e-09
9.44e-10,-7.06588e-09
9.45e-10,-2.2326e-08
9.46e-10,0
9.47e-10,-4.64871e-09
9.48e-10,4.06564e-09
9.49e-10,-1.32698e-07
9.5e-10,-4.13733e-10
9.51e-10,0
9.52e-10,-2.26411e-09
9.53e-10,-5.51768e-08
9.54e-10,-2.67785e-09
9.55e-10,0
9.56e-10,-9.30514e-08
9.57e-10,2.26411e-09
9.58e-10,0
9.59e-10,2.26411e-09
9.6e-10,-2.40088e-09
9.61e-10,-2.36102e-08
9.62e-10,4.13733e-10
9.63e-10,2.26411e-09
9.64e-10,2.40088e-09
9.65e-10,-1.00597e-07
9.66e-10,-6.92911e-09
9.67e-10,-4.66499e-09
9.68e-10,2.26411e-09
9.69e-10,-2.12734e-09
9.7e-10,-9.39871e-09
9.71e-10,2.40088e-09
9.72e-10,-7.20607e-09
9.73e-10,-2.95138e-09
9.74e-10,4.13733e-10
9.75e-10,4.66499e-09
9.76e-10,-1.50971e-07
9.77e-10,5.07873e-09
9.78e-10,-2.12734e-09
9.79e-10,-5.2155e-09
9.8e-10,-6.12961e-08
9.81e-10,-2.26411e-09
9.82e-10,-4.52823e-09
9.83e-10,2.12734e-09
9.84e-10,-1.12501e-07
9.85e-10,-1.36769e-10
9.86e-10,2.26411e-09
9.87e-10,0
9.88e-10,-1.12664e-08
9.89e-10,-2.26411e-09
9.9e-10,2.12734e-09
9.91e-10,0
9.92e-10,2.40088e-09
9.93e-10,-1.60753e-07
9.94e-10,-7.20607e-09
9.95e-10,0
9.96e-10,-4.66499e-09
9.97e-10,-1.36769e-10
9.98e-10,4.80076e-09
9.99e-10,2.26411e-09
1e-09,-2.26411e-09
1.001e-09,4.52823e-09
1.002e-09,2.53765e-09
1.003e-09,-1.61235e-07
1.004e-09,2.40088e-09
1.005e-09,2.26411e-09
1.006e-09,1.33862e-07
1.007e-09,-3.34514e-08
1.008e-09,6.79234e-09
1.009e-09,-1.14573e-08
1.01e-09,-1.53319e-07
1.011e-09,-2.26411e-09
1.012e-09,-1.80912e-07
1.013e-09,2.40088e-09
1.014e-09,-7.20607e-09
1.015e-09,4.66499e-09
1.016e-09,-4.00756e-09
1.017e-09,-2.40088e-09
1.018e-09,0
1.019e-09,0
1.02e-09,4.66499e-09
1.021e-09,-1.99647e-07
1.022e-09,0
1.023e-09,0
1.024e-09,1.14016e-08
1.025e-09,-6.92911e-09
1.026e-09,0
1.027e-09,4.66499e-09
1.028e-09,6.92911e-09
1.029e-09,-2.39468e-07
1.03e-09,4.80176e-09
1.031e-09,0
1.032e-09,2.11095e-08
1.033e-09,-2.40088e-09
1.034e-09,-9.32999e-09
1.035e-09,1.36769e-10
1.036e-09,4.52823e-09
1.037e-09,-2.26411e-09
1.038e-09,-2.65211e-07
1.039e-09,2.40088e-09
1.04e-09,3.30835e-08
1.041e-09,2.26411e-09
1.042e-09,-7.06588e-09
1.043e-09,-2.40088e-09
1.044e-09,6.79234e-09
1.045e-09,-3.05065e-07
1.046e-09,-9.19322e-09
1.047e-09,2.73538e-10
1.048e-09,6.52728e-08
1.049e-09,-9.19322e-09
1.05e-09,-4.80176e-09
1.051e-09,2.40088e-09
1.052e-09,-3.81594e-07
1.053e-09,9.19322e-09
1.054e-09,4.39146e-09
1.055e-09,1.36769e-10
1.056e-09,0
1.057e-09,-1.36769e-10
1.058e-09,6.73309e-08
1.059e-09,2.26411e-09
1.06e-09,-5.23812e-07
1.061e-09,-2.26411e-09
1.062e-09,4.66499e-09
1.063e-09,-9.35789e-08
1.064e-09,2.26411e-09
1.065e-09,4.66499e-09
1.066e-09,9.52174e-08
1.067e-09,-2.26411e-09
1.068e-09,0
1.069e-09,4.66499e-09
1.07e-09,-5.80385e-07
1.071e-09,0
1.072e-09,2.12734e-09
1.073e-09,-2.26411e-09
1.074e-09,-2.26411e-09
1.075e-09,1.19177e-07
1.076e-09,-2.12734e-09
1.077e-09,-1.36769e-10
1.078e-09,-2.26411e-09
1.079e-09,-2.93615e-08
1.08e-09,2.70974e-08
1.081e-09,4.66499e-09
1.082e-09,-2.48333e-08
1.083e-09,-6.79234e-09
1.084e-09,1.45164e-07
1.085e-09,7.0693e-09
1.086e-09,2.26411e-09
1.087e-09,-2.67785e-09
1.088e-09,-1.35847e-08
1.089e-09,2.70176e-07
1.09e-09,2.40088e-09
1.091e-09,1.36769e-10
1.092e-09,1.86459e-07
1.093e-09,-2.40088e-09
1.094e-09,-4.66499e-09
1.095e-09,-2.40088e-09
1.096e-09,-4.52823e-09
1.097e-09,4.66499e-09
1.098e-09,4.39146e-09
1.099e-09,4.52823e-09
1.1e-09,-4.52823e-09
1.101e-09,-4.52823e-09
1.102e-09,-2.26411e-09
1.103e-09,0
1.104e-09,-2.26411e-09
1.105e-09,2.73948e-07
1.106e-09,2.60691e-07
1.107e-09,-4.52823e-09
1.108e-09,2.26411e-09
1.109e-09,2.26411e-09
1.11e-09,0
1.111e-09,-2.26411e-09
1.112e-09,4.52823e-09
1.113e-09,4.66499e-09
1.114e-09,-9.05645e-09
1.115e-09,1.36769e-10
1.116e-09,6.79234e-09
1.117e-09,2.39081e-07
1.118e-09,1.80087e-07
1.119e-09,2.02865e-09
1.12e-09,4.66499e-09
1.121e-09,-2.26411e-09
1.122e-09,-2.26411e-09
1.123e-09,-4.52823e-09
1.124e-09,-2.26411e-09
1.125e-09,-2.26411e-09
1.126e-09,0
1.127e-09,1.08283e-07
1.128e-09,-1.03754e-07
1.129e-09,0
1.13e-09,0
1.131e-09,1.15005e-07
1.132e-09,7.3016e-11
1.133e-09,-1.1055e-07
1.134e-09,1.1041e-07
1.135e-09,-6.79234e-09
1.136e-09,0
1.137e-09,-4.52823e-09
1.138e-09,-2.26411e-09
1.139e-09,-2.40088e-09
1.14e-09,0
1.141e-09,-2.26411e-09
1.142e-09,2.26411e-09
1.143e-09,1.36769e-10
1.144e-09,-2.26411e-09
1.145e-09,-2.26411e-09
1.146e-09,-1.33573e-10
1.147e-09,6.79234e-09
1.148e-09,-9.19322e-09
1.149e-09,4.52823e-09
1.15e-09,-2.26411e-09
1.151e-09,-2.26411e-09
1.152e-09,-2.26411e-09
1.153e-09,4.66499e-09
1.154e-09,1.36769e-10
1.155e-09,-4.66499e-09
1.156e-09,2.40088e-09
1.157e-09,-1.39965e-10
1.158e-09,-2.26411e-09
1.159e-09,4.52823e-09
1.16e-09,6.79234e-09
1.161e-09,-4.52503e-09
1.162e-09,-2.26411e-09
1.163e-09,-4.80496e-09
1.164e-09,2.26411e-09
1.165e-09,-4.52823e-09
1.166e-09,-2.26411e-09
1.167e-09,4.52823e-09
1.168e-09,-2.26411e-09
1.169e-09,-6.79234e-09
1.17e-09,-4.52823e-09
1.171e-09,0
1.172e-09,-2.26411e-09
1.173e-09,4.66499e-09
1.174e-09,-2.26411e-09
1.175e-09,-2.40088e-09
1.176e-09,2.13054e-09
1.177e-09,9.19002e-09
1.178e-09,-2.40088e-09
1.179e-09,2.53765e-09
1.18e-09,2.40408e-09
1.181e-09,-2.53765e-09
1.182e-09,6.92591e-09
1.183e-09,-4.66499e-09
1.184e-09,1.36769e-10
1.185e-09,2.26731e-09
1.186e-09,0
1.187e-09,2.26411e-09
1.188e-09,2.26411e-09
1.189e-09,-2.76964e-10
1.19e-09,-2.40088e-09
1.191e-09,0
1.192e-09,1.36769e-10
1.193e-09,-1.36769e-10
1.194e-09,-4.52823e-09
1.195e-09,2.26411e-09
1.196e-09,-2.12734e-09
1.197e-09,2.54108e-09
1.198e-09,-4.94196e-09
1.199e-09,-2.16542e-09
1.2e-09,2.16542e-09
1.201e-09,9.86941e-11
1.202e-09,4.52823e-09
1.203e-09,0
1.204e-09,2.16542e-09
1.205e-09,-2.26411e-09
1.206e-09,9.86941e-11
1.207e-09,2.26411e-09
1.208e-09,2.26411e-09
1.209e-09,2.26411e-09
1.21e-09,-6.79553e-09
1.211e-09,-4.33494e-08
1.212e-09,4.09517e-08
1.213e-09,-4.56167e-08
1.214e-09,4.66499e-09
1.215e-09,-6.79234e-09
1.216e-09,0
1.217e-09,-4.52823e-09
1.218e-09,2.26411e-09
1.219e-09,-2.26411e-09
1.22e-09,0
1.221e-09,-3.87038e-08
1.222e-09,2.26411e-09
1.223e-09,2.03475e-09
1.224e-09,-4.52823e-09
1.225e-09,-2.26411e-09
1.226e-09,2.26411e-09
1.227e-09,-2.26411e-09
1.228e-09,4.52823e-09
1.229e-09,-2.26411e-09
1.23e-09,-4.3216e-08
1.231e-09,0
1.232e-09,0
1.233e-09,0
1.234e-09,-2.26411e-09
1.235e-09,-7.53628e-09
1.236e-09,2.26411e-09
1.237e-09,2.26411e-09
1.238e-09,-1.13206e-08
1.239e-09,-3.6423e-08
1.24e-09,2.02865e-09
1.241e-09,-2.26411e-09
1.242e-09,2.36281e-09
1.243e-09,2.40088e-09
1.244e-09,-2.26411e-09
1.245e-09,-4.66499e-09
1.246e-09,-2.26411e-09
1.247e-09,2.26411e-09
1.248e-09,-9.86941e-11
1.249e-09,2.36281e-09
1.25e-09,-2.57028e-09
1.251e-09,0
1.252e-09,-4.31862e-08
1.253e-09,-2.26411e-09
1.254e-09,2.26411e-09
1.255e-09,-2.16542e-09
1.256e-09,2.26411e-09
1.257e-09,2.16542e-09
1.258e-09,-4.52823e-09
1.259e-09,-2.26411e-09
1.26e-09,2.26411e-09
1.261e-09,-4.29392e-08
1.262e-09,0
1.263e-09,2.26411e-09
1.264e-09,-2.26411e-09
1.265e-09,2.26411e-09
1.266e-09,0
1.267e-09,0
1.268e-09,0
1.269e-09,-2.26411e-09
1.27e-09,2.26411e-09
1.271e-09,-4.52823e-09
1.272e-09,2.26411e-09
1.273e-09,-4.73426e-08
1.274e-09,4.52823e-09
1.275e-09,0
1.276e-09,0
1.277e-09,0
1.278e-09,4.52823e-09
1.279e-09,-2.26411e-09
1.28e-09,0
1.281e-09,0
1.282e-09,0
1.283e-09,-4.11585e-08
1.284e-09,2.26411e-09
1.285e-09,-4.52823e-09
1.286e-09,0
1.287e-09,1.20398e-08
1.288e-09,0
1.289e-09,6.79234e-09
1.29e-09,-2.26411e-09
1.291e-09,-4.52823e-09
1.292e-09,-9.77565e-09
1.293e-09,-3.22111e-08
1.294e-09,-4.52823e-09
1.295e-09,4.52823e-09
1.296e-09,-6.79234e-09
1.297e-09,-6.75935e-09
1.298e-09,0
1.299e-09,4.49523e-09
1.3e-09,-4.52823e-09
1.301e-09,2.26411e-09
1.302e-09,-3.88488e-08
1.303e-09,2.36281e-09
1.304e-09,-1.80552e-08
1.305e-09,2.16542e-09
1.306e-09,-6.79234e-09
1.307e-09,2.26411e-09
1.308e-09,0
1.309e-09,-4.33605e-08
1.31e-09,-4.52823e-09
1.311e-09,2.26411e-09
1.312e-09,2.26411e-09
1.313e-09,2.26411e-09
1.314e-09,-4.52823e-09
1.315e-09,4.76369e-09
1.316e-09,-1.36769e-10
1.317e-09,-4.52823e-09
1.318e-09,-4.10889e-08
1.319e-09,4.52823e-09
1.32e-09,-2.36281e-09
1.321e-09,-2.26411e-09
1.322e-09,2.26411e-09
1.323e-09,-4.52823e-09
1.324e-09,6.92911e-09
1.325e-09,-2.40088e-09
1.326e-09,-4.77437e-08
1.327e-09,4.39146e-09
1.328e-09,-6.79234e-09
1.329e-09,0
1.33e-09,2.26411e-09
1.331e-09,7.06588e-09
1.332e-09,2.26411e-09
1.333e-09,1.80469e-08
1.334e-09,-2.0311e-08
1.335e-09,2.26411e-09
1.336e-09,-4.15749e-08
1.337e-09,1.42784e-08
1.338e-09,-4.66499e-09
1.339e-09,1.36769e-10
1.34e-09,2.26411e-09
1.341e-09,-2.26411e-09
1.342e-09,4.52823e-09
1.343e-09,-4.57532e-08
1.344e-09,2.26411e-09
1.345e-09,-2.34723e-08
1.346e-09,1.36769e-10
1.347e-09,6.79234e-09
1.348e-09,-6.79234e-09
1.349e-09,-2.26411e-09
1.35e-09,2.26411e-09
1.351e-09,7.35002e-09
1.352e-09,-3.65847e-08
1.353e-09,2.26411e-09
1.354e-09,0
1.355e-09,-4.52823e-09
1.356e-09,-2.10467e-08
1.357e-09,0
1.358e-09,-2.26411e-09
1.359e-09,6.79234e-09
1.36e-09,0
1.361e-09,-2.71068e-08
1.362e-09,2.26411e-09
1.363e-09,0
1.364e-09,-4.52823e-09
1.365e-09,4.52823e-09
1.366e-09,-4.52823e-09
1.367e-09,-2.26411e-09
1.368e-09,0
1.369e-09,0
1.37e-09,-2.26411e-09
1.371e-09,-4.56178e-08
1.372e-09,4.52823e-09
1.373e-09,-2.33212e-08
1.374e-09,2.26411e-09
1.375e-09,2.26411e-09
1.376e-09,-4.52823e-09
1.377e-09,2.33212e-08
1.378e-09,-2.26411e-09
1.379e-09,-4.11061e-08
1.38e-09,-2.10406e-08
1.381e-09,2.26411e-09
1.382e-09,-2.26411e-09
1.383e-09,2.26411e-09
1.384e-09,2.55688e-08
1.385e-09,2.26411e-09
1.386e-09,4.52823e-09
1.387e-09,0
1.388e-09,-4.56178e-08
1.389e-09,2.26411e-09
1.39e-09,-2.26411e-09
1.391e-09,0
1.392e-09,2.40088e-09
1.393e-09,0
1.394e-09,0
1.395e-09,-4.52823e-09
1.396e-09,-4.2261e-08
1.397e-09,0
1.398e-09,-2.26411e-09
1.399e-09,-2.26411e-09
1.4e-09,4.52823e-09
1.401e-09,-4.52823e-09
1.402e-09,0
1.403e-09,-2.26411e-09
1.404e-09,4.52823e-09
1.405e-09,-3.87022e-08
1.406e-09,4.52823e-09
1.407e-09,0
1.408e-09,-4.52823e-09
1.409e-09,4.52823e-09
1.41e-09,2.26411e-09
1.411e-09,0
1.412e-09,2.40088e-09
1.413e-09,2.26411e-09
1.414e-09,-8.18856e-08
1.415e-09,-6.92911e-09
1.416e-09,2.40088e-09
1.417e-09,2.26411e-09
1.418e-09,3.15986e-08
1.419e-09,0
1.42e-09,2.26411e-09
1.421e-09,-4.92002e-08
1.422e-09,0
1.423e-09,0
1.424e-09,2.26411e-09
1.425e-09,0
1.426e-09,2.26411e-09
1.427e-09,2.26411e-09
1.428e-09,-5.01448e-08
1.429e-09,0
1.43e-09,4.52823e-09
1.431e-09,-2.26411e-09
1.432e-09,2.26411e-09
1.433e-09,-2.26411e-09
1.434e-09,2.26411e-09
1.435e-09,-2.26411e-09
1.436e-09,-2.26411e-09
1.437e-09,-4.52823e-09
1.438e-09,-3.91393e-08
1.439e-09,-2.26411e-09
1.44e-09,-2.26411e-09
1.441e-09,2.26411e-09
1.442e-09,-2.26411e-09
1.443e-09,0
1.444e-09,0
1.445e-09,-4.90228e-08
1.446e-09,0
1.447e-09,0
1.448e-09,-2.26411e-09
1.449e-09,4.52823e-09
1.45e-09,2.26411e-09
1.451e-09,0
1.452e-09,-2.26411e-09
1.453e-09,2.26411e-09
1.454e-09,-4.52823e-09
1.455e-09,0
1.456e-09,-4.80217e-08
1.457e-09,-2.40088e-09
1.458e-09,-4.52823e-09
1.459e-09,2.26411e-09
1.46e-09,0
1.461e-09,0
1.462e-09,2.26411e-09
1.463e-09,-2.26411e-09
1.464e-09,-2.26411e-09
1.465e-09,1.13206e-08
1.466e-09,-4.35112e-08
1.467e-09,0
1.468e-09,-2.40088e-09
1.469e-09,1.36769e-10
1.47e-09,2.26411e-09
1.471e-09,-4.66499e-09
1.472e-09,2.26411e-09
1.473e-09,4.52823e-09
1.474e-09,-5.02788e-08
1.475e-09,0
1.476e-09,4.66499e-09
1.477e-09,2.40088e-09
1.478e-09,-2.53765e-09
1.479e-09,-2.26411e-09
1.48e-09,9.19322e-09
1.481e-09,-2.40088e-09
1.482e-09,4.52823e-09
1.483e-09,-5.24132e-08
1.484e-09,2.12734e-09
1.485e-09,-6.79234e-09
1.486e-09,4.52823e-09
1.487e-09,-2.12734e-09
1.488e-09,-2.40088e-09
1.489e-09,-2.26411e-09
1.49e-09,6.79234e-09
1.491e-09,-9.05645e-09
1.492e-09,4.52823e-09
1.493e-09,-4.57835e-08
1.494e-09,4.66499e-09
1.495e-09,4.66499e-09
1.496e-09,-2.26411e-09
1.497e-09,2.63069e-09
1.498e-09,0
1.499e-09,-4.66499e-09
1.5e-09,-2.26411e-09
1.501e-09,2.96082e-10
1.502e-09,2.40088e-09
1.503e-09,-4.83178e-08
1.504e-09,4.52823e-09
1.505e-09,-2.26411e-09
1.506e-09,-2.26411e-09
1.507e-09,-2.40088e-09
1.508e-09,0
1.509e-09,-2.26411e-09
1.51e-09,4.66499e-09
1.511e-09,-5.29534e-08
1.512e-09,4.52823e-09
1.513e-09,2.26411e-09
1.514e-09,2.26411e-09
1.515e-09,-2.26411e-09
1.516e-09,0
1.517e-09,-6.79234e-09
1.518e-09,0
1.519e-09,0
1.52e-09,-3.899e-08
1.521e-09,0
1.522e-09,-6.79234e-09
1.523e-09,9.19322e-09
1.524e-09,-2.12734e-09
1.525e-09,2.12734e-09
1.526e-09,-2.12734e-09
1.527e-09,2.26411e-09
1.528e-09,0
1.529e-09,-2.40088e-09
1.53e-09,-4.94586e-08
1.531e-09,-9.19322e-09
1.532e-09,4.66499e-09
1.533e-09,6.65557e-09
1.534e-09,-6.79234e-09
1.535e-09,7.06588e-09
1.536e-09,-2.40088e-09
1.537e-09,2.26411e-09
1.538e-09,-2.40088e-09
1.539e-09,0
1.54e-09,-5.25417e-08
1.541e-09,0
1.542e-09,-6.92911e-09
1.543e-09,0
1.544e-09,2.26411e-09
1.545e-09,0
1.546e-09,2.40088e-09
1.547e-09,-1.36769e-10
1.548e-09,-2.26411e-09
1.549e-09,4.66499e-09
1.55e-09,-3.25032e-08
1.551e-09,-6.92911e-09
1.552e-09,4.80176e-09
1.553e-09,-4.66499e-09
1.554e-09,2.26411e-09
1.555e-09,0
1.556e-09,0
1.557e-09,0
1.558e-09,1.36769e-10
1.559e-09,-2.40088e-09
1.56e-09,-4.51403e-08
1.561e-09,0
1.562e-09,0
1.563e-09,-6.26987e-08
1.564e-09,6.24252e-08
1.565e-09,-6.01611e-08
1.566e-09,0
1.567e-09,0
1.568e-09,-4.42631e-08
1.569e-09,0
1.57e-09,-2.26411e-09
1.571e-09,2.40088e-09
1.572e-09,2.26411e-09
1.573e-09,0
1.574e-09,0
1.575e-09,2.26411e-09
1.576e-09,0
1.577e-09,-4.66499e-09
1.578e-09,-4.44184e-08
1.579e-09,0
1.58e-09,6.84754e-09
1.581e-09,-2.26411e-09
1.582e-09,-2.40088e-09
1.583e-09,6.6259e-08
1.584e-09,6.98431e-09
1.585e-09,0
1.586e-09,-5.09402e-08
1.587e-09,-2.26411e-09
1.588e-09,2.26411e-09
1.589e-09,-2.26411e-09
1.59e-09,-4.66499e-09
1.591e-09,2.26411e-09
1.592e-09,1.36769e-10
1.593e-09,2.53765e-09
1.594e-09,2.26411e-09
1.595e-09,-4.09222e-08
1.596e-09,2.12734e-09
1.597e-09,-6.79234e-09
1.598e-09,-2.26411e-09
1.599e-09,0
1.6e-09,-2.26411e-09
1.601e-09,2.26411e-09
1.602e-09,-4.58342e-09
1.603e-09,-2.26411e-09
1.604e-09,-4.65613e-08
1.605e-09,-2.40088e-09
1.606e-09,-7.7543e-08
1.607e-09,8.20712e-08
1.608e-09,0
1.609e-09,-2.06553e-09
1.61e-09,0
1.611e-09,2.26411e-09
1.612e-09,0
1.613e-09,-8.22698e-08
1.614e-09,-4.86479e-08
1.615e-09,-2.26411e-09
1.616e-09,-6.79234e-09
1.617e-09,0
1.618e-09,2.26411e-09
1.619e-09,4.66499e-09
1.62e-09,4.52823e-09
1.621e-09,-4.52823e-09
1.622e-09,4.52823e-09
1.623e-09,-4.61689e-08
1.624e-09,0
1.625e-09,-1.36769e-10
1.626e-09,2.26411e-09
1.627e-09,-2.26411e-09
1.628e-09,2.40088e-09
1.629e-09,-6.92911e-09
1.63e-09,-2.26411e-09
1.631e-09,4.52823e-09
1.632e-09,-5.31339e-08
1.633e-09,9.19322e-09
1.634e-09,-4.52823e-09
1.635e-09,2.26411e-09
1.636e-09,-2.26411e-09
1.637e-09,-2.26411e-09
1.638e-09,4.52823e-09
1.639e-09,-4.78119e-08
1.64e-09,-4.52823e-09
1.641e-09,-2.26411e-09
1.642e-09,4.52823e-09
1.643e-09,-2.26411e-09
1.644e-09,0
1.645e-09,0
1.646e-09,-2.26411e-09
1.647e-09,0
1.648e-09,7.45305e-08
1.649e-09,-4.52823e-09
1.65e-09,0
1.651e-09,-2.26411e-09
1.652e-09,-2.26411e-09
1.653e-09,2.26411e-09
1.654e-09,4.52823e-09
1.655e-09,-4.52823e-09
1.656e-09,4.39146e-09
1.657e-09,-5.42771e-08
1.658e-09,2.26411e-09
1.659e-09,-4.52823e-09
1.66e-09,6.79234e-09
1.661e-09,-4.52823e-09
1.662e-09,2.26411e-09
1.663e-09,4.66499e-09
1.664e-09,-4.52823e-09
1.665e-09,-2.26411e-09
1.666e-09,2.26411e-09
1.667e-09,-4.55109e-08
1.668e-09,0
1.669e-09,-2.26411e-09
1.67e-09,-2.40088e-09
1.671e-09,2.26411e-09
1.672e-09,-4.52823e-09
1.673e-09,-2.26411e-09
1.674e-09,4.52823e-09
1.675e-09,-1.37114e-08
1.676e-09,-4.52823e-09
1.677e-09,4.52823e-09
1.678e-09,0
1.679e-09,4.66499e-09
1.68e-09,-2.26411e-09
1.681e-09,-1.36769e-10
1.682e-09,1.36769e-10
1.683e-09,0
1.684e-09,-4.71123e-08
1.685e-09,-2.26411e-09
1.686e-09,2.26411e-09
1.687e-09,0
1.688e-09,0
1.689e-09,-2.26411e-09
1.69e-09,0
1.691e-09,2.26411e-09
1.692e-09,4.52823e-09
1.693e-09,1.88929e-09
1.694e-09,0
1.695e-09,0
1.696e-09,0
1.697e-09,0
1.698e-09,0
1.699e-09,2.26411e-09
1.7e-09,-2.40088e-09
1.701e-09,-4.05522e-08
1.702e-09,-2.40088e-09
1.703e-09,-2.26411e-09
1.704e-09,-2.26411e-09
1.705e-09,2.40088e-09
1.706e-09,0
1.707e-09,2.26411e-09
1.708e-09,0
1.709e-09,2.26411e-09
1.71e-09,-3.25408e-08
1.711e-09,1.36769e-10
1.712e-09,-2.40088e-09
1.713e-09,2.40088e-09
1.714e-09,2.26411e-09
1.715e-09,2.26411e-09
1.716e-09,-1.15941e-08
1.717e-09,0
1.718e-09,1.61737e-07
1.719e-09,9.63092e-09
1.72e-09,0
1.721e-09,2.40088e-09
1.722e-09,4.52823e-09
1.723e-09,2.40088e-09
1.724e-09,-2.26411e-09
1.725e-09,2.26411e-09
1.726e-09,0
1.727e-09,2.17878e-08
1.728e-09,2.12734e-09
1.729e-09,-2.26411e-09
1.73e-09,1.36769e-10
1.731e-09,2.26411e-09
1.732e-09,-2.26411e-09
1.733e-09,0
1.734e-09,0
1.735e-09,1.17848e-09
1.736e-09,-1.36769e-10
1.737e-09,-1.99058e-09
1.738e-09,-2.26411e-09
1.739e-09,-2.26411e-09
1.74e-09,4.52823e-09
1.741e-09,0
1.742e-09,1.36769e-10
1.743e-09,3.91042e-08
1.744e-09,-2.26411e-09
1.745e-09,4.66499e-09
1.746e-09,-6.92911e-09
1.747e-09,0
1.748e-09,2.40088e-09
1.749e-09,-1.36769e-10
1.75e-09,4.52823e-09
1.751e-09,4.5787e-08
1.752e-09,-2.40088e-09
1.753e-09,0
1.754e-09,1.36769e-10
1.755e-09,-2.40088e-09
1.756e-09,2.40088e-09
1.757e-09,0
1.758e-09,-2.40088e-09
1.759e-09,-2.26411e-09
1.76e-09,2.26411e-09
1.761e-09,7.78455e-08
1.762e-09,2.26411e-09
1.763e-09,0
1.764e-09,-2.26411e-09
1.765e-09,2.26411e-09
1.766e-09,-2.26411e-09
1.767e-09,-4.52823e-09
1.768e-09,9.05645e-09
1.769e-09,-6.92911e-09
1.77e-09,1.01246e-07
1.771e-09,4.52823e-09
1.772e-09,-4.52823e-09
1.773e-09,2.26411e-09
1.774e-09,2.78565e-07
1.775e-09,-4.52823e-09
1.776e-09,2.26411e-09
1.777e-09,0
1.778e-09,2.26411e-09
1.779e-09,-2.26411e-09
1.78e-09,2.26411e-09
1.781e-09,1.47541e-07
1.782e-09,7.96602e-10
1.783e-09,0
1.784e-09,1.46751e-09
1.785e-09,-1.46751e-09
1.786e-09,0
1.787e-09,1.60428e-09
1.788e-09,-4.66499e-09
1.789e-09,-2.26411e-09
1.79e-09,1.69483e-07
1.791e-09,-4.66499e-09
1.792e-09,1.14568e-08
1.793e-09,-6.92854e-09
1.794e-09,0
1.795e-09,-2.26411e-09
1.796e-09,2.91823e-07
1.797e-09,0
1.798e-09,2.26411e-09
1.799e-09,0
1.8e-09,2.26411e-09
1.801e-09,1.36769e-10
1.802e-09,-4.52823e-09
1.803e-09,2.11105e-07
1.804e-09,-4.66499e-09
1.805e-09,0
1.806e-09,2.26411e-09
1.807e-09,-2.26411e-09
1.808e-09,4.52823e-09
1.809e-09,0
1.81e-09,2.97601e-07
1.811e-09,0
1.812e-09,0
1.813e-09,-2.26411e-09
1.814e-09,-4.52823e-09
1.815e-09,2.49973e-07
1.816e-09,-4.52823e-09
1.817e-09,2.40088e-09
1.818e-09,0
1.819e-09,1.8698e-07
1.82e-09,-2.40088e-09
1.821e-09,2.26411e-09
1.822e-09,2.40088e-09
1.823e-09,4.66499e-09
1.824e-09,-4.66499e-09
1.825e-09,-2.40088e-09
1.826e-09,9.19322e-09
1.827e-09,-2.12734e-09
1.828e-09,-4.66499e-09
1.829e-09,0
1.83e-09,-2.26411e-09
1.831e-09,6.79234e-09
1.832e-09,1.10702e-07
1.833e-09,-1.1523e-07
1.834e-09,6.79234e-09
1.835e-09,1.03703e-07
1.836e-09,2.33713e-09
1.837e-09,1.33573e-10
1.838e-09,-1.06174e-07
1.839e-09,-4.39146e-09
1.84e-09,1.08304e-07
1.841e-09,-4.66499e-09
1.842e-09,2.26092e-09
1.843e-09,0
1.844e-09,-2.26411e-09
1.845e-09,-2.26411e-09
1.846e-09,0
1.847e-09,-2.26411e-09
1.848e-09,0
1.849e-09,-1.36769e-10
1.85e-09,9.32999e-09
1.851e-09,-4.66499e-09
1.852e-09,-2.26411e-09
1.853e-09,2.26411e-09
1.854e-09,4.52823e-09
1.855e-09,-6.79234e-09
1.856e-09,2.26411e-09
1.857e-09,1.36769e-10
1.858e-09,-2.26411e-09
1.859e-09,0
1.86e-09,-2.26411e-09
1.861e-09,2.26411e-09
1.862e-09,-4.66499e-09
1.863e-09,2.40088e-09
1.864e-09,2.26411e-09
1.865e-09,2.26411e-09
1.866e-09,-2.40088e-09
1.867e-09,-6.79234e-09
1.868e-09,-1.36769e-10
1.869e-09,0
1.87e-09,0
1.871e-09,0
1.872e-09,4.52823e-09
1.873e-09,-4.52823e-09
1.874e-09,0
1.875e-09,0
1.876e-09,0
1.877e-09,2.26411e-09
1.878e-09,-4.52823e-09
1.879e-09,4.52823e-09
1.88e-09,-4.66499e-09
1.881e-09,2.26411e-09
1.882e-09,-2.26411e-09
1.883e-09,3.19581e-12
1.884e-09,-2.26731e-09
1.885e-09,2.26411e-09
1.886e-09,2.26731e-09
1.887e-09,-2.26411e-09
1.888e-09,6.79234e-09
1.889e-09,-6.79234e-09
1.89e-09,2.26411e-09
1.891e-09,-4.52823e-09
1.892e-09,2.26411e-09
1.893e-09,0
1.894e-09,2.26411e-09
1.895e-09,-2.12734e-09
1.896e-09,0
1.897e-09,2.26411e-09
1.898e-09,-2.26411e-09
1.899e-09,0
1.9e-09,2.26411e-09
1.901e-09,0
1.902e-09,0
1.903e-09,0
1.904e-09,0
1.905e-09,0
1.906e-09,0
1.907e-09,-2.40088e-09
1.908e-09,2.40088e-09
1.909e-09,0
1.91e-09,-2.26411e-09
1.911e-09,0
1.912e-09,-2.26411e-09
1.913e-09,2.26411e-09
1.914e-09,0
1.915e-09,-2.40088e-09
1.916e-09,-2.26411e-09
1.917e-09,0
1.918e-09,4.52823e-09
1.919e-09,-2.26411e-09
1.92e-09,2.26411e-09
1.921e-09,-4.52823e-09
1.922e-09,0
1.923e-09,-2.26411e-09
1.924e-09,2.26411e-09
1.925e-09,0
1.926e-09,0
1.927e-09,0
1.928e-09,2.40088e-09
1.929e-09,-2.26411e-09
1.93e-09,0
1.931e-09,0
1.932e-09,0
1.933e-09,-1.36769e-10
1.934e-09,2.40088e-09
1.935e-09,-2.26411e-09
1.936e-09,2.26411e-09
1.937e-09,-2.26411e-09
1.938e-09,-2.26411e-09
1.939e-09,0
1.94e-09,4.52823e-09
1.941e-09,-2.26411e-09
1.942e-09,0
1.943e-09,0
1.944e-09,-1.36769e-10
1.945e-09,2.40088e-09
1.946e-09,0
1.947e-09,-2.26411e-09
1.948e-09,0
1.949e-09,-1.36769e-10
1.95e-09,0
1.951e-09,0
1.952e-09,0
1.953e-09,-2.26411e-09
1.954e-09,4.52823e-09
1.955e-09,-2.26411e-09
1.956e-09,2.26411e-09
1.957e-09,-2.26411e-09
1.958e-09,0
1.959e-09,-2.26411e-09
1.96e-09,4.52823e-09
1.961e-09,0
1.962e-09,0
1.963e-09,2.26411e-09
1.964e-09,-4.52823e-09
1.965e-09,0
1.966e-09,2.26411e-09
1.967e-09,0
1.968e-09,-2.26411e-09
1.969e-09,0
1.97e-09,0
1.971e-09,0
1.972e-09,0
1.973e-09,0
1.974e-09,2.26411e-09
1.975e-09,-4.52823e-09
1.976e-09,2.26411e-09
1.977e-09,0
1.978e-09,0
1.979e-09,-2.26411e-09
1.98e-09,0
1.981e-09,2.26411e-09
1.982e-09,0
1.983e-09,0
1.984e-09,-2.26411e-09
1.985e-09,0
1.986e-09,2.26411e-09
1.987e-09,0
1.988e-09,0
1.989e-09,-2.26411e-09
1.99e-09,0
1.991e-09,2.26411e-09
1.992e-09,0
1.993e-09,0
1.994e-09,0
1.995e-09,-2.26411e-09
1.996e-09,-2.26411e-09
1.997e-09,0
1.998e-09,0
1.999e-09,4.52823e-09
2e-09,0
2.001e-09,-2.26411e-09
2.1e-09,0
