0,0
1e-12,-3.2533e-06
2e-12,-9.21293e-08
3e-12,4.0036e-07
4e-12,-9.55994e-07
5e-12,-8.06979e-07
6e-12,-4.91045e-08
7e-12,-1.89163e-07
8e-12,-1.65267e-06
9e-12,5.14297e-07
1e-11,-2.12499e-07
1.1e-11,-1.40146e-06
1.2e-11,-6.21721e-07
1.3e-11,-6.76771e-07
1.4e-11,-3.39231e-07
1.5e-11,2.12163e-07
1.6e-11,-2.71501e-07
1.7e-11,-9.27347e-07
1.8e-11,-9.00514e-07
1.9e-11,-8.29585e-07
2e-11,-1.58377e-07
2.1e-11,-5.02865e-07
2.2e-11,-2.41445e-07
2.3e-11,-1.67001e-06
2.4e-11,-5.17936e-07
2.5e-11,-7.28789e-07
2.6e-11,-1.93881e-06
2.7e-11,-2.0482e-06
2.8e-11,-5.36564e-07
2.9e-11,-3.42614e-07
3e-11,-5.66301e-07
3.1e-11,-9.59905e-07
3.2e-11,-1.33941e-06
3.3e-11,-1.73239e-06
3.4e-11,-1.4523e-06
3.5e-11,2.00469e-08
3.6e-11,-1.96731e-06
3.7e-11,-2.23074e-06
3.8e-11,-2.38088e-06
3.9e-11,-1.76305e-07
4e-11,-2.94102e-07
4.1e-11,-4.01876e-07
4.2e-11,-3.92618e-07
4.3e-11,-1.20536e-06
4.4e-11,-8.99893e-07
4.5e-11,-1.07259e-06
4.6e-11,-7.48689e-07
4.7e-11,-2.08499e-06
4.8e-11,1.46669e-07
4.9e-11,-2.45618e-06
5e-11,-8.67727e-07
5.1e-11,-1.72323e-07
5.2e-11,-9.23937e-07
5.3e-11,-6.35569e-07
5.4e-11,-1.20873e-06
5.5e-11,-7.56661e-07
5.6e-11,-1.90416e-06
5.7e-11,-8.17444e-07
5.8e-11,-4.94215e-07
5.9e-11,-2.78847e-06
6e-11,-5.90912e-07
6.1e-11,-2.23449e-06
6.2e-11,-2.10476e-06
6.3e-11,-1.47057e-07
6.4e-11,3.82258e-07
6.5e-11,1.90054e-08
6.6e-11,-4.97284e-07
6.7e-11,-4.02515e-07
6.8e-11,-7.70426e-07
6.9e-11,-8.96012e-07
7e-11,-1.6617e-06
7.1e-11,2.10796e-07
7.2e-11,-1.74467e-06
7.3e-11,2.37865e-07
7.4e-11,-4.70606e-07
7.5e-11,-1.16424e-06
7.6e-11,4.28267e-07
7.7e-11,-6.26445e-07
7.8e-11,-6.53443e-07
7.9e-11,4.61432e-08
8e-11,-1.25553e-06
8.1e-11,4.82482e-07
8.2e-11,-6.01813e-07
8.3e-11,-2.82665e-07
8.4e-11,4.17357e-07
8.5e-11,-8.14232e-07
8.6e-11,-4.15093e-07
8.7e-11,-5.84279e-07
8.8e-11,-8.1625e-07
8.9e-11,3.70415e-07
9e-11,-4.03936e-07
9.1e-11,-1.10912e-06
9.2e-11,2.59748e-07
9.3e-11,1.97602e-07
9.4e-11,-7.47918e-07
9.5e-11,-7.20707e-07
9.6e-11,-8.60626e-08
9.7e-11,-6.65689e-07
9.8e-11,3.91162e-07
9.9e-11,-1.10565e-06
1e-10,2.99133e-07
1.01e-10,-3.36028e-07
1.02e-10,8.16818e-08
1.03e-10,-4.8089e-07
1.04e-10,-8.05812e-07
1.05e-10,-3.56986e-07
1.06e-10,-2.25e-07
1.07e-10,-6.01307e-07
1.08e-10,-3.16892e-07
1.09e-10,-1.10786e-06
1.1e-10,6.34772e-07
1.11e-10,-6.5214e-07
1.12e-10,6.91719e-08
1.13e-10,-1.75935e-06
1.14e-10,2.76018e-07
1.15e-10,-5.91191e-07
1.16e-10,2.23331e-10
1.17e-10,-7.59598e-07
1.18e-10,-3.87132e-07
1.19e-10,4.08886e-07
1.2e-10,-2.3042e-07
1.21e-10,-1.55383e-06
1.22e-10,1.657e-07
1.23e-10,-1.35685e-07
1.24e-10,-4.63066e-07
1.25e-10,-6.27401e-07
1.26e-10,-4.9842e-07
1.27e-10,-5.71862e-07
1.28e-10,7.11768e-08
1.29e-10,-1.73227e-06
1.3e-10,-6.05444e-07
1.31e-10,-2.77889e-07
1.32e-10,-2.28173e-07
1.33e-10,-6.95084e-07
1.34e-10,-1.04458e-06
1.35e-10,-1.20972e-07
1.36e-10,-5.52141e-07
1.37e-10,-1.98585e-06
1.38e-10,-2.80393e-07
1.39e-10,1.38689e-06
1.4e-10,-2.14561e-06
1.41e-10,-5.10018e-07
1.42e-10,-1.8172e-06
1.43e-10,-1.43611e-07
1.44e-10,-1.06091e-06
1.45e-10,-4.09158e-07
1.46e-10,-9.61342e-07
1.47e-10,-4.46081e-07
1.48e-10,-1.59965e-06
1.49e-10,-5.80675e-07
1.5e-10,-1.46008e-06
1.51e-10,-3.68198e-07
1.52e-10,-2.06493e-07
1.53e-10,-1.31095e-06
1.54e-10,-2.03812e-06
1.55e-10,-3.34155e-07
1.56e-10,-2.51098e-07
1.57e-10,-2.34524e-06
1.58e-10,-6.46947e-07
1.59e-10,-2.1041e-07
1.6e-10,-4.54363e-07
1.61e-10,3.65545e-07
1.62e-10,-1.68947e-07
1.63e-10,-1.84904e-06
1.64e-10,-1.7427e-06
1.65e-10,-1.95862e-06
1.66e-10,-1.72676e-06
1.67e-10,-3.3363e-07
1.68e-10,-4.62015e-07
1.69e-10,-2.16122e-07
1.7e-10,-2.09179e-06
1.71e-10,-3.91306e-07
1.72e-10,-1.11517e-06
1.73e-10,-9.84627e-08
1.74e-10,-1.42574e-06
1.75e-10,-9.76315e-07
1.76e-10,-1.08547e-07
1.77e-10,-4.42388e-07
1.78e-10,-1.01264e-06
1.79e-10,-8.29899e-07
1.8e-10,-3.93608e-07
1.81e-10,-4.34152e-07
1.82e-10,-1.69976e-06
1.83e-10,-1.32955e-07
1.84e-10,2.14735e-07
1.85e-10,-1.3996e-06
1.86e-10,-1.5497e-06
1.87e-10,-1.83961e-07
1.88e-10,-4.72439e-07
1.89e-10,2.27476e-07
1.9e-10,-1.12271e-06
1.91e-10,9.84165e-08
1.92e-10,2.97267e-08
1.93e-10,-1.8097e-07
1.94e-10,-1.19466e-07
1.95e-10,-6.70506e-07
1.96e-10,-1.70038e-06
1.97e-10,-5.63382e-07
1.98e-10,2.64625e-08
1.99e-10,-1.83576e-07
2e-10,2.88691e-07
2.01e-10,-5.55239e-07
2.02e-10,-7.68998e-08
2.03e-10,-1.01984e-07
2.04e-10,-1.40391e-06
2.05e-10,-9.96595e-07
2.06e-10,5.17157e-08
2.07e-10,-3.66177e-07
2.08e-10,-1.73522e-07
2.09e-10,-3.09195e-07
2.1e-10,6.60818e-08
2.11e-10,-2.18697e-07
2.12e-10,-5.53507e-07
2.13e-10,-2.87602e-07
2.14e-10,-6.76687e-07
2.15e-10,2.33501e-08
2.16e-10,-7.07655e-08
2.17e-10,7.09617e-07
2.18e-10,-8.70017e-07
2.19e-10,1.06435e-08
2.2e-10,-1.4616e-07
2.21e-10,-4.63192e-07
2.22e-10,-7.57585e-07
2.23e-10,-5.82121e-07
2.24e-10,-7.60067e-07
2.25e-10,3.46058e-07
2.26e-10,-1.62999e-07
2.27e-10,-1.01806e-08
2.28e-10,-3.58128e-07
2.29e-10,-4.58326e-07
2.3e-10,4.85522e-07
2.31e-10,-1.54548e-06
2.32e-10,-6.42229e-07
2.33e-10,-1.0031e-07
2.34e-10,-7.72354e-07
2.35e-10,2.14151e-07
2.36e-10,2.38281e-07
2.37e-10,-1.11992e-06
2.38e-10,-4.11858e-07
2.39e-10,-1.57546e-06
2.4e-10,5.62335e-07
2.41e-10,-9.57445e-09
2.42e-10,-2.59373e-07
2.43e-10,-1.50074e-07
2.44e-10,-5.64045e-07
2.45e-10,-4.5119e-07
2.46e-10,-6.02371e-07
2.47e-10,-3.62926e-07
2.48e-10,-2.65477e-07
2.49e-10,-2.01641e-06
2.5e-10,-5.59701e-07
2.51e-10,5.15879e-07
2.52e-10,-6.39586e-07
2.53e-10,2.95032e-08
2.54e-10,-1.14767e-06
2.55e-10,2.06579e-08
2.56e-10,6.12003e-09
2.57e-10,-1.14009e-07
2.58e-10,-3.73994e-07
2.59e-10,-5.11676e-07
2.6e-10,-5.83028e-07
2.61e-10,-1.12432e-06
2.62e-10,-9.55495e-08
2.63e-10,7.33317e-09
2.64e-10,-2.16058e-07
2.65e-10,2.81204e-07
2.66e-10,-1.52349e-07
2.67e-10,-8.71531e-07
2.68e-10,-9.32482e-07
2.69e-10,-1.38733e-08
2.7e-10,-2.15912e-07
2.71e-10,-2.78035e-06
2.72e-10,-1.74508e-07
2.73e-10,-2.07278e-07
2.74e-10,-7.70751e-08
2.75e-10,-2.5461e-08
2.76e-10,-1.60766e-06
2.77e-10,-4.9197e-07
2.78e-10,-1.18393e-07
2.79e-10,-1.1613e-06
2.8e-10,-7.46796e-07
2.81e-10,-8.24208e-08
2.82e-10,-1.55163e-06
2.83e-10,-4.0314e-07
2.84e-10,2.60286e-07
2.85e-10,-1.12316e-07
2.86e-10,-2.65642e-06
2.87e-10,-2.12528e-07
2.88e-10,-1.43605e-06
2.89e-10,-4.15275e-07
2.9e-10,1.77215e-08
2.91e-10,-1.75422e-07
2.92e-10,-1.19151e-06
2.93e-10,-7.90576e-07
2.94e-10,-3.95966e-07
2.95e-10,-1.34839e-06
2.96e-10,-1.80895e-06
2.97e-10,-9.49729e-07
2.98e-10,-4.09738e-07
2.99e-10,-1.18166e-06
3e-10,-1.50683e-06
3.01e-10,5.87194e-08
3.02e-10,-7.05808e-07
3.03e-10,-2.61541e-07
3.04e-10,-4.6786e-07
3.05e-10,-2.86563e-07
3.06e-10,-1.98086e-07
3.07e-10,-1.10527e-06
3.08e-10,7.58274e-08
3.09e-10,-8.00362e-07
3.1e-10,-4.82975e-07
3.11e-10,4.42776e-09
3.12e-10,-1.86001e-06
3.13e-10,-9.0709e-07
3.14e-10,-7.08781e-08
3.15e-10,-4.87066e-07
3.16e-10,-1.93906e-07
3.17e-10,5.07524e-08
3.18e-10,-2.5903e-06
3.19e-10,-1.32657e-06
3.2e-10,-2.55425e-07
3.21e-10,1.45396e-08
3.22e-10,-6.03338e-07
3.23e-10,-1.16681e-07
3.24e-10,3.91823e-07
3.25e-10,-1.23339e-06
3.26e-10,1.02015e-07
3.27e-10,-3.0192e-07
3.28e-10,-3.4643e-07
3.29e-10,-5.85183e-07
3.3e-10,-1.01416e-06
3.31e-10,-3.16145e-07
3.32e-10,-2.68666e-07
3.33e-10,-2.0916e-07
3.34e-10,4.02941e-07
3.35e-10,-2.63214e-07
3.36e-10,-1.2158e-06
3.37e-10,-1.91722e-07
3.38e-10,-2.24199e-07
3.39e-10,-9.77262e-08
3.4e-10,-1.70859e-06
3.41e-10,1.7365e-07
3.42e-10,-1.3978e-06
3.43e-10,-1.80017e-07
3.44e-10,-4.05791e-07
3.45e-10,-1.51009e-06
3.46e-10,-1.88209e-07
3.47e-10,-3.65793e-07
3.48e-10,4.91888e-07
3.49e-10,-3.65879e-07
3.5e-10,-1.6863e-07
3.51e-10,-4.58715e-07
3.52e-10,1.52462e-09
3.53e-10,-2.36527e-07
3.54e-10,1.14185e-07
3.55e-10,3.91942e-07
3.56e-10,-2.88635e-07
3.57e-10,3.33957e-07
3.58e-10,-2.1043e-07
3.59e-10,1.43941e-07
3.6e-10,-7.54016e-10
3.61e-10,-4.86195e-07
3.62e-10,-3.27171e-09
3.63e-10,-1.96695e-07
3.64e-10,1.40647e-07
3.65e-10,2.21642e-08
3.66e-10,-3.10758e-07
3.67e-10,-2.12161e-07
3.68e-10,2.08116e-08
3.69e-10,-2.62262e-07
3.7e-10,3.00661e-07
3.71e-10,-7.78974e-07
3.72e-10,-2.07863e-07
3.73e-10,-7.89018e-09
3.74e-10,2.17145e-07
3.75e-10,-4.94422e-07
3.76e-10,-3.88378e-07
3.77e-10,5.35506e-09
3.78e-10,-5.97902e-07
3.79e-10,-6.28499e-07
3.8e-10,-3.86232e-07
3.81e-10,-1.17796e-08
3.82e-10,-4.71223e-07
3.83e-10,-1.03911e-06
3.84e-10,4.91487e-07
3.85e-10,-1.33077e-07
3.86e-10,-1.35223e-06
3.87e-10,-8.63281e-08
3.88e-10,-1.59674e-06
3.89e-10,-3.977e-07
3.9e-10,-2.68284e-07
3.91e-10,-2.45311e-07
3.92e-10,-9.18076e-07
3.93e-10,-1.19185e-06
3.94e-10,-3.22146e-08
3.95e-10,5.13612e-09
3.96e-10,-1.86796e-07
3.97e-10,-1.17145e-06
3.98e-10,-1.02731e-06
3.99e-10,-1.91349e-07
4e-10,-2.46322e-07
4.01e-10,-3.43802e-07
4.02e-10,-2.51075e-06
4.03e-10,-1.37542e-06
4.04e-10,5.17048e-08
4.05e-10,-3.58968e-07
4.06e-10,-2.88625e-07
4.07e-10,-1.49944e-07
4.08e-10,-2.77771e-06
4.09e-10,-4.5101e-07
4.1e-10,-1.55544e-07
4.11e-10,-1.57729e-07
4.12e-10,1.56241e-07
4.13e-10,-1.07514e-06
4.14e-10,-1.45493e-06
4.15e-10,-1.16965e-06
4.16e-10,-2.02901e-07
4.17e-10,-7.26585e-07
4.18e-10,9.82996e-07
4.19e-10,-9.87386e-07
4.2e-10,-2.58028e-06
4.21e-10,-2.51511e-07
4.22e-10,-4.10256e-07
4.23e-10,-2.1766e-07
4.24e-10,-2.22268e-06
4.25e-10,4.55492e-07
4.26e-10,-1.40878e-06
4.27e-10,1.42211e-07
4.28e-10,-1.80426e-07
4.29e-10,3.45643e-07
4.3e-10,-1.59175e-07
4.31e-10,-1.08957e-06
4.32e-10,-1.31674e-07
4.33e-10,1.56707e-07
4.34e-10,-4.65502e-08
4.35e-10,-3.99323e-07
4.36e-10,-1.41624e-06
4.37e-10,-3.58984e-08
4.38e-10,-4.47038e-07
4.39e-10,1.35044e-07
4.4e-10,2.47287e-08
4.41e-10,-4.95714e-08
4.42e-10,-5.40611e-09
4.43e-10,1.96307e-08
4.44e-10,-1.19774e-07
4.45e-10,-1.71475e-07
4.46e-10,3.1375e-07
4.47e-10,6.84747e-08
4.48e-10,-4.73996e-07
4.49e-10,6.37594e-08
4.5e-10,-1.16145e-07
4.51e-10,5.11828e-07
4.52e-10,2.22825e-07
4.53e-10,1.13354e-07
4.54e-10,1.58842e-07
4.55e-10,3.24513e-07
4.56e-10,-3.35203e-07
4.57e-10,4.93348e-07
4.58e-10,-1.70276e-07
4.59e-10,5.50638e-07
4.6e-10,-4.32144e-07
4.61e-10,-3.04904e-07
4.62e-10,4.66206e-07
4.63e-10,-2.51234e-07
4.64e-10,9.65374e-08
4.65e-10,5.70741e-07
4.66e-10,-2.54134e-07
4.67e-10,9.43888e-09
4.68e-10,1.97358e-07
4.69e-10,5.18373e-07
4.7e-10,-5.16794e-07
4.71e-10,5.32857e-07
4.72e-10,2.84651e-07
4.73e-10,-3.58935e-07
4.74e-10,5.40542e-07
4.75e-10,1.58112e-07
4.76e-10,4.87474e-07
4.77e-10,-1.06744e-07
4.78e-10,2.07632e-07
4.79e-10,-3.04264e-07
4.8e-10,-3.27824e-07
4.81e-10,4.67182e-07
4.82e-10,-7.67184e-07
4.83e-10,6.44889e-07
4.84e-10,2.727e-07
4.85e-10,-2.1127e-07
4.86e-10,6.49572e-07
4.87e-10,-2.03681e-07
4.88e-10,-1.98618e-07
4.89e-10,-1.63352e-07
4.9e-10,4.38903e-08
4.91e-10,5.01109e-08
4.92e-10,2.88553e-07
4.93e-10,4.46527e-07
4.94e-10,-3.49801e-07
4.95e-10,-2.77446e-07
4.96e-10,-3.44662e-07
4.97e-10,3.08639e-07
4.98e-10,3.56319e-07
4.99e-10,-1.28648e-06
5e-10,-4.93764e-08
5.01e-10,2.013e-07
5.02e-10,-1.06771e-07
5.03e-10,3.03908e-08
5.04e-10,2.35272e-07
5.05e-10,-1.10211e-06
5.06e-10,-7.89792e-08
5.07e-10,3.7394e-07
5.08e-10,6.49783e-08
5.09e-10,-2.20151e-07
5.1e-10,6.8197e-08
5.11e-10,-8.58064e-07
5.12e-10,-2.70593e-07
5.13e-10,-9.86536e-07
5.14e-10,7.71924e-08
5.15e-10,-3.38145e-07
5.16e-10,2.77567e-07
5.17e-10,-1.77666e-08
5.18e-10,-1.00549e-06
5.19e-10,-9.11495e-07
5.2e-10,4.54208e-08
5.21e-10,-9.29647e-08
5.22e-10,1.80339e-07
5.23e-10,-1.21119e-06
5.24e-10,-5.85545e-07
5.25e-10,-7.51322e-08
5.26e-10,1.2892e-07
5.27e-10,4.40552e-07
5.28e-10,-1.74261e-07
5.29e-10,-1.95346e-06
5.3e-10,4.34754e-07
5.31e-10,-1.94286e-07
5.32e-10,-6.92894e-08
5.33e-10,6.93119e-08
5.34e-10,-3.71004e-08
5.35e-10,-4.11554e-08
5.36e-10,-1.36769e-10
5.37e-10,2.65795e-07
5.38e-10,-1.29799e-06
5.39e-10,-4.5772e-07
5.4e-10,-1.05834e-06
5.41e-10,5.55734e-08
5.42e-10,6.90368e-07
5.43e-10,2.7534e-07
5.44e-10,-1.80621e-07
5.45e-10,2.62452e-07
5.46e-10,-9.24161e-07
5.47e-10,-1.54449e-08
5.48e-10,-7.75353e-08
5.49e-10,-1.76978e-07
5.5e-10,2.0816e-07
5.51e-10,-1.87018e-07
5.52e-10,-5.03228e-08
5.53e-10,7.111e-07
5.54e-10,7.09832e-08
5.55e-10,3.15809e-07
5.56e-10,-1.06494e-06
5.57e-10,-6.61505e-08
5.58e-10,3.50525e-08
5.59e-10,1.54469e-07
5.6e-10,-4.67082e-07
5.61e-10,-5.14358e-08
5.62e-10,6.02197e-08
5.63e-10,-2.5894e-07
5.64e-10,-1.25812e-08
5.65e-10,4.45929e-07
5.66e-10,4.15671e-07
5.67e-10,-1.10099e-06
5.68e-10,6.67918e-07
5.69e-10,-8.63072e-07
5.7e-10,6.09018e-07
5.71e-10,-1.23774e-06
5.72e-10,1.05428e-07
5.73e-10,-3.81878e-07
5.74e-10,2.08816e-07
5.75e-10,1.36078e-07
5.76e-10,-1.4734e-06
5.77e-10,1.66694e-07
5.78e-10,-6.72428e-08
5.79e-10,-7.44864e-07
5.8e-10,1.73574e-07
5.81e-10,1.33422e-07
5.82e-10,-2.13327e-06
5.83e-10,-1.42211e-07
5.84e-10,-4.2633e-08
5.85e-10,-1.12496e-06
5.86e-10,-1.80155e-07
5.87e-10,-1.47656e-06
5.88e-10,-4.46574e-08
5.89e-10,-1.0181e-07
5.9e-10,-2.66017e-07
5.91e-10,-8.42178e-07
5.92e-10,-1.48708e-06
5.93e-10,2.91896e-07
5.94e-10,2.68563e-08
5.95e-10,-9.3552e-08
5.96e-10,2.26069e-09
5.97e-10,-1.08323e-06
5.98e-10,-9.47952e-08
5.99e-10,-9.89913e-08
6e-10,-1.87033e-07
6.01e-10,-2.15345e-06
6.02e-10,-1.44484e-06
6.03e-10,1.93131e-07
6.04e-10,1.55629e-07
6.05e-10,1.81391e-07
6.06e-10,-1.27204e-06
6.07e-10,-8.9366e-08
6.08e-10,-9.15402e-08
6.09e-10,-1.48074e-06
6.1e-10,-3.91305e-08
6.11e-10,-1.04033e-06
6.12e-10,-1.25034e-07
6.13e-10,9.63171e-08
6.14e-10,2.9575e-07
6.15e-10,-1.35013e-07
6.16e-10,-9.77739e-08
6.17e-10,3.73928e-08
6.18e-10,1.09321e-08
6.19e-10,-5.07098e-08
6.2e-10,-8.59393e-08
6.21e-10,4.52823e-09
6.22e-10,-1.39398e-07
6.23e-10,-1.46022e-07
6.24e-10,2.1307e-07
6.25e-10,1.63056e-07
6.26e-10,-1.23743e-07
6.27e-10,-1.06593e-07
6.28e-10,-4.3216e-08
6.29e-10,3.73151e-07
6.3e-10,-1.14524e-07
6.31e-10,5.40823e-09
6.32e-10,-1.59361e-08
6.33e-10,-6.6623e-07
6.34e-10,4.32158e-08
6.35e-10,-1.42983e-07
6.36e-10,4.54799e-08
6.37e-10,-1.73401e-07
6.38e-10,4.18066e-07
6.39e-10,-8.2148e-08
6.4e-10,2.40088e-09
6.41e-10,-1.74589e-07
6.42e-10,-1.06655e-06
6.43e-10,-1.3752e-07
6.44e-10,-3.82739e-08
6.45e-10,-1.3115e-07
6.46e-10,-9.09603e-08
6.47e-10,1.96001e-07
6.48e-10,-9.17157e-08
6.49e-10,2.70774e-09
6.5e-10,-3.34533e-07
6.51e-10,-2.8731e-07
6.52e-10,-5.00182e-08
6.53e-10,-4.23018e-08
6.54e-10,-7.06888e-09
6.55e-10,-1.12011e-06
6.56e-10,2.66817e-07
6.57e-10,-1.03325e-07
6.58e-10,-4.36864e-08
6.59e-10,1.49732e-09
6.6e-10,-5.93357e-08
6.61e-10,-2.01569e-07
6.62e-10,-1.64777e-08
6.63e-10,1.98276e-08
6.64e-10,-1.22803e-07
6.65e-10,-8.40951e-07
6.66e-10,-1.19526e-07
6.67e-10,-7.36797e-08
6.68e-10,2.184e-07
6.69e-10,-8.95483e-08
6.7e-10,-2.75341e-07
6.71e-10,-3.41445e-08
6.72e-10,2.71117e-07
6.73e-10,-1.29067e-07
6.74e-10,-4.32141e-08
6.75e-10,-4.81034e-08
6.76e-10,-1.13118e-06
6.77e-10,2.5325e-07
6.78e-10,-5.79953e-08
6.79e-10,-3.36093e-08
6.8e-10,-2.85533e-07
6.81e-10,3.54878e-07
6.82e-10,-1.3732e-07
6.83e-10,2.22394e-09
6.84e-10,-2.6796e-07
6.85e-10,-4.33688e-08
6.86e-10,-1.42252e-07
6.87e-10,-1.06905e-08
6.88e-10,-6.75076e-08
6.89e-10,-5.09472e-07
6.9e-10,-2.51691e-08
6.91e-10,-3.86408e-09
6.92e-10,-8.26022e-08
6.93e-10,-5.87864e-09
6.94e-10,-3.81045e-08
6.95e-10,1.04383e-07
6.96e-10,1.72865e-08
6.97e-10,-2.67785e-09
6.98e-10,-2.45413e-09
6.99e-10,-4.18883e-07
7e-10,-4.38193e-08
7.01e-10,-6.6973e-07
7.02e-10,1.2267e-07
7.03e-10,-8.34371e-08
7.04e-10,7.20011e-08
7.05e-10,-4.4373e-08
7.06e-10,-7.95315e-08
7.07e-10,-2.98387e-09
7.08e-10,2.84262e-07
7.09e-10,-1.29925e-07
7.1e-10,-8.7777e-08
7.11e-10,-7.28685e-07
7.12e-10,-4.09519e-08
7.13e-10,-3.07703e-08
7.14e-10,-2.81461e-09
7.15e-10,-3.81109e-08
7.16e-10,-5.0537e-10
7.17e-10,-9.09919e-08
7.18e-10,-5.6727e-08
7.19e-10,-4.13458e-08
7.2e-10,3.03792e-07
7.21e-10,-3.98933e-07
7.22e-10,-3.98553e-08
7.23e-10,-5.339e-09
7.24e-10,-4.26607e-08
7.25e-10,-5.13588e-08
7.26e-10,1.46688e-07
7.27e-10,-5.94199e-08
7.28e-10,-3.30668e-08
7.29e-10,-1.01514e-07
7.3e-10,-4.76954e-08
7.31e-10,-7.97039e-08
7.32e-10,-3.00827e-09
7.33e-10,-4.0208e-08
7.34e-10,-4.94771e-08
7.35e-10,-8.72814e-09
7.36e-10,-1.81427e-07
7.37e-10,4.62234e-08
7.38e-10,-2.88631e-07
7.39e-10,-4.32158e-08
7.4e-10,-4.67906e-08
7.41e-10,4.41127e-08
7.42e-10,-3.82823e-08
7.43e-10,-9.03006e-08
7.44e-10,-3.92313e-08
7.45e-10,-4.52823e-09
7.46e-10,0
7.47e-10,-1.34142e-07
7.48e-10,0
7.49e-10,1.56529e-09
7.5e-10,-4.30607e-08
7.51e-10,-1.0378e-07
7.52e-10,4.47199e-08
7.53e-10,-2.4192e-09
7.54e-10,-1.92587e-09
7.55e-10,-1.45676e-07
7.56e-10,4.6984e-08
7.57e-10,-3.86878e-08
7.58e-10,-4.39682e-08
7.59e-10,-8.72243e-08
7.6e-10,-1.10037e-07
7.61e-10,-4.17119e-08
7.62e-10,4.83344e-08
7.63e-10,-5.14953e-08
7.64e-10,4.84873e-08
7.65e-10,-4.02826e-09
7.66e-10,6.0154e-09
7.67e-10,-9.00464e-08
7.68e-10,4.75743e-08
7.69e-10,-9.83176e-08
7.7e-10,-1.3351e-07
7.71e-10,4.13733e-10
7.72e-10,-4.58937e-08
7.73e-10,-2.26411e-09
7.74e-10,2.29668e-09
7.75e-10,-4.41127e-08
7.76e-10,4.46302e-10
7.77e-10,-9.47018e-09
7.78e-10,-3.50549e-08
7.79e-10,-3.84101e-08
7.8e-10,-2.54108e-09
7.81e-10,-3.81366e-08
7.82e-10,-5.47938e-08
7.83e-10,4.51145e-09
7.84e-10,-4.50664e-08
7.85e-10,-1.75862e-07
7.86e-10,-3.91701e-08
7.87e-10,-4.15591e-08
7.88e-10,4.52823e-09
7.89e-10,-7.34284e-09
7.9e-10,4.94196e-09
7.91e-10,-4.81578e-08
7.92e-10,4.80742e-08
7.93e-10,-5.41226e-08
7.94e-10,4.32158e-08
7.95e-10,-1.31257e-07
7.96e-10,7.25932e-09
7.97e-10,-3.61627e-08
7.98e-10,-7.20607e-09
7.99e-10,-4.50664e-08
8e-10,4.24721e-08
8.01e-10,9.54823e-09
8.02e-10,-6.203e-09
8.03e-10,-5.25409e-08
8.04e-10,-4.30793e-08
8.05e-10,-2.71599e-09
8.06e-10,4.51878e-10
8.07e-10,-3.41594e-08
8.08e-10,-5.27156e-08
8.09e-10,-4.56162e-08
8.1e-10,2.40088e-09
8.11e-10,-4.49008e-08
8.12e-10,1.20484e-10
8.13e-10,-4.07989e-08
8.14e-10,-2.26411e-09
8.15e-10,-1.36769e-10
8.16e-10,-7.39169e-09
8.17e-10,-2.64528e-09
8.18e-10,0
8.19e-10,-6.13341e-09
8.2e-10,1.88295e-09
8.21e-10,5.07873e-09
8.22e-10,-4.3079e-08
8.23e-10,-4.77766e-08
8.24e-10,-5.59666e-09
8.25e-10,9.57438e-09
8.26e-10,-4.17119e-08
8.27e-10,-1.09744e-08
8.28e-10,-4.16042e-08
8.29e-10,1.74275e-09
8.3e-10,2.26411e-09
8.31e-10,4.85305e-08
8.32e-10,-2.01972e-09
8.33e-10,-2.40088e-09
8.34e-10,-2.64528e-09
8.35e-10,3.81164e-10
8.36e-10,-2.26411e-09
8.37e-10,0
8.38e-10,-8.89882e-08
8.39e-10,-2.76921e-09
8.4e-10,3.86987e-08
8.41e-10,3.72444e-08
8.42e-10,-9.60695e-09
8.43e-10,-1.02029e-08
8.44e-10,5.4011e-09
8.45e-10,-2.21526e-09
8.46e-10,-4.71383e-09
8.47e-10,7.25148e-09
8.48e-10,-4.41942e-08
8.49e-10,3.68613e-08
8.5e-10,-5.57173e-07
8.51e-10,1.09722e-07
8.52e-10,-3.49762e-08
8.53e-10,-2.40088e-09
8.54e-10,-2.26411e-09
8.55e-10,-7.20607e-09
8.56e-10,4.28383e-09
8.57e-10,-4.4206e-09
8.58e-10,4.66499e-09
8.59e-10,-2.64528e-09
8.6e-10,-2.40088e-09
8.61e-10,-4.13733e-10
8.62e-10,1.84819e-07
8.63e-10,-9.32999e-09
8.64e-10,-3.85834e-08
8.65e-10,4.05705e-08
8.66e-10,4.94196e-09
8.67e-10,-4.56167e-08
8.68e-10,-7.76394e-07
8.69e-10,2.12734e-09
8.7e-10,3.81164e-10
8.71e-10,1.46922e-09
8.72e-10,-4.28021e-08
8.73e-10,-7.0693e-09
8.74e-10,-4.38803e-09
8.75e-10,-4.09517e-08
8.76e-10,-4.66499e-09
8.77e-10,4.9868e-08
8.78e-10,-4.80176e-09
8.79e-10,-9.33661e-07
8.8e-10,1.36769e-10
8.81e-10,2.26411e-09
8.82e-10,4.09517e-08
8.83e-10,-1.36769e-10
8.84e-10,-4.57569e-08
8.85e-10,7.20607e-09
8.86e-10,-5.07873e-09
8.87e-10,2.26411e-09
8.88e-10,2.67785e-09
8.89e-10,-1.0964e-06
8.9e-10,1.36769e-10
8.91e-10,-4.94196e-09
8.92e-10,2.76964e-10
8.93e-10,-4.7744e-08
8.94e-10,-1.36769e-10
8.95e-10,-2.67785e-09
8.96e-10,4.32158e-08
8.97e-10,-9.90325e-08
8.98e-10,0
8.99e-10,4.53432e-08
9e-10,-1.12121e-06
9.01e-10,-4.82945e-08
9.02e-10,2.40088e-09
9.03e-10,-4.38803e-09
9.04e-10,1.36769e-10
9.05e-10,-1.36769e-10
9.06e-10,0
9.07e-10,1.36769e-10
9.08e-10,0
9.09e-10,-4.39146e-09
9.1e-10,-2.53765e-09
9.11e-10,2.12734e-09
9.12e-10,-2.26411e-09
9.13e-10,-4.06782e-08
9.14e-10,-2.40088e-09
9.15e-10,-4.86771e-08
9.16e-10,4.86771e-08
9.17e-10,-2.26411e-09
9.18e-10,2.26411e-09
9.19e-10,1.98715e-09
9.2e-10,4.36295e-08
9.21e-10,1.98715e-09
9.22e-10,-4.66499e-09
9.23e-10,2.40088e-09
9.24e-10,-4.32158e-08
9.25e-10,4.09517e-08
9.26e-10,6.79234e-09
9.27e-10,3.62867e-08
9.28e-10,-7.94699e-08
9.29e-10,-4.66499e-09
9.3e-10,-4.26165e-08
9.31e-10,3.82413e-08
9.32e-10,-3.85182e-08
9.33e-10,-2.26411e-09
9.34e-10,-1.98715e-09
9.35e-10,-1.36769e-10
9.36e-10,-5.40454e-09
9.37e-10,-1.80153e-09
9.38e-10,-4.62586e-10
9.39e-10,2.26411e-09
9.4e-10,-1.36769e-10
9.41e-10,-4.20241e-09
9.42e-10,4.52823e-09
9.43e-10,2.53765e-09
9.44e-10,-4.66499e-09
9.45e-10,1.99058e-09
9.46e-10,2.40088e-09
9.47e-10,-4.66499e-09
9.48e-10,-1.36769e-10
9.49e-10,2.40088e-09
9.5e-10,-4.52823e-09
9.51e-10,2.76964e-10
9.52e-10,-4.99081e-09
9.53e-10,-4.13733e-10
9.54e-10,-6.92911e-09
9.55e-10,7.34284e-09
9.56e-10,2.40088e-09
9.57e-10,2.12734e-09
9.58e-10,-2.21526e-09
9.59e-10,4.39146e-09
9.6e-10,2.40088e-09
9.61e-10,-6.92911e-09
9.62e-10,-1.00695e-08
9.63e-10,-1.9383e-09
9.64e-10,-2.26411e-09
9.65e-10,-6.92911e-09
9.66e-10,2.26411e-09
9.67e-10,-7.34284e-09
9.68e-10,-4.62586e-10
9.69e-10,2.53765e-09
9.7e-10,4.05054e-08
9.71e-10,5.50501e-10
9.72e-10,-4.31832e-08
9.73e-10,-2.67785e-09
9.74e-10,-1.36769e-10
9.75e-10,-3.40226e-08
9.76e-10,-4.66499e-09
9.77e-10,1.36769e-10
9.78e-10,-1.18676e-08
9.79e-10,0
9.8e-10,-9.19322e-09
9.81e-10,-4.13733e-10
9.82e-10,0
9.83e-10,2.26411e-09
9.84e-10,1.36769e-10
9.85e-10,2.26411e-09
9.86e-10,2.40088e-09
9.87e-10,-2.40088e-09
9.88e-10,-4.7719e-08
9.89e-10,-4.66499e-09
9.9e-10,0
9.91e-10,-4.66499e-09
9.92e-10,2.26411e-09
9.93e-10,0
9.94e-10,-4.39146e-09
9.95e-10,-4.66499e-09
9.96e-10,9.47018e-09
9.97e-10,0
9.98e-10,1.98715e-09
9.99e-10,4.13733e-10
1e-09,-4.94196e-09
1.001e-09,-4.3522e-08
1.002e-09,2.40088e-09
1.003e-09,4.13733e-10
1.004e-09,-9.60695e-09
1.005e-09,9.05645e-09
1.006e-09,-2.40088e-09
1.007e-09,4.66499e-09
1.008e-09,-4.66499e-09
1.009e-09,-6.92911e-09
1.01e-09,2.40088e-09
1.011e-09,-2.73538e-10
1.012e-09,0
1.013e-09,-3.88248e-08
1.014e-09,0
1.015e-09,-4.97453e-09
1.016e-09,2.40088e-09
1.017e-09,-2.53765e-09
1.018e-09,-4.52823e-09
1.019e-09,-2.26411e-09
1.02e-09,4.66499e-09
1.021e-09,5.50501e-10
1.022e-09,-4.49223e-09
1.023e-09,2.12392e-09
1.024e-09,1.95458e-09
1.025e-09,2.57365e-09
1.026e-09,0
1.027e-09,-2.26411e-09
1.028e-09,-5.03894e-08
1.029e-09,0
1.03e-09,-6.92911e-09
1.031e-09,2.40088e-09
1.032e-09,-4.66499e-09
1.033e-09,2.40088e-09
1.034e-09,2.12734e-09
1.035e-09,-2.26411e-09
1.036e-09,-4.29399e-08
1.037e-09,0
1.038e-09,0
1.039e-09,-4.52823e-09
1.04e-09,4.52823e-09
1.041e-09,0
1.042e-09,2.67785e-09
1.043e-09,-4.94196e-09
1.044e-09,-1.36769e-10
1.045e-09,-5.20501e-08
1.046e-09,4.66499e-09
1.047e-09,4.39146e-09
1.048e-09,-4.08192e-09
1.049e-09,0
1.05e-09,-3.09533e-10
1.051e-09,-1.36769e-10
1.052e-09,-2.26411e-09
1.053e-09,0
1.054e-09,-4.52823e-09
1.055e-09,-4.34226e-08
1.056e-09,-2.26411e-09
1.057e-09,0
1.058e-09,4.52823e-09
1.059e-09,-6.92911e-09
1.06e-09,2.01972e-09
1.061e-09,-4.66499e-09
1.062e-09,4.52823e-09
1.063e-09,6.92911e-09
1.064e-09,1.36769e-10
1.065e-09,0
1.066e-09,-4.32336e-08
1.067e-09,-2.77933e-25
1.068e-09,-2.26411e-09
1.069e-09,2.40088e-09
1.07e-09,-6.92911e-09
1.071e-09,-2.40088e-09
1.072e-09,4.66499e-09
1.073e-09,-4.66499e-09
1.074e-09,1.13206e-08
1.075e-09,0
1.076e-09,-5.11537e-08
1.077e-09,2.26411e-09
1.078e-09,2.26411e-09
1.079e-09,-2.40088e-09
1.08e-09,1.36769e-10
1.081e-09,4.52823e-09
1.082e-09,2.40088e-09
1.083e-09,-2.26411e-09
1.084e-09,-4.51387e-08
1.085e-09,-2.26411e-09
1.086e-09,2.26411e-09
1.087e-09,-2.40088e-09
1.088e-09,2.26411e-09
1.089e-09,-4.06781e-08
1.09e-09,2.40088e-09
1.091e-09,-4.52823e-09
1.092e-09,-2.12734e-09
1.093e-09,2.26411e-09
1.094e-09,-2.40088e-09
1.095e-09,0
1.096e-09,0
1.097e-09,-7.39861e-09
1.098e-09,-4.10889e-08
1.099e-09,-2.26411e-09
1.1e-09,4.52823e-09
1.101e-09,-4.425e-08
1.102e-09,0
1.103e-09,0
1.104e-09,4.52823e-09
1.105e-09,0
1.106e-09,2.26411e-09
1.107e-09,2.40088e-09
1.108e-09,-2.26411e-09
1.109e-09,-5.46481e-08
1.11e-09,-4.0678e-08
1.111e-09,4.52823e-09
1.112e-09,-2.26411e-09
1.113e-09,2.26411e-09
1.114e-09,4.66499e-09
1.115e-09,-2.26411e-09
1.116e-09,-4.53434e-08
1.117e-09,2.26411e-09
1.118e-09,-2.26411e-09
1.119e-09,-2.40088e-09
1.12e-09,4.52823e-09
1.121e-09,0
1.122e-09,-3.82778e-08
1.123e-09,-6.73264e-09
1.124e-09,2.26411e-09
1.125e-09,-5.04779e-08
1.126e-09,4.52823e-09
1.127e-09,-2.12734e-09
1.128e-09,-5.29052e-08
1.129e-09,6.59587e-09
1.13e-09,-4.66499e-09
1.131e-09,-1.36769e-10
1.132e-09,4.66499e-09
1.133e-09,-5.68801e-08
1.134e-09,2.08907e-09
1.135e-09,2.43915e-09
1.136e-09,2.40088e-09
1.137e-09,-4.84004e-09
1.138e-09,-2.26411e-09
1.139e-09,2.12734e-09
1.14e-09,-8.71236e-08
1.141e-09,2.40088e-09
1.142e-09,0
1.143e-09,-4.52823e-09
1.144e-09,-4.66499e-09
1.145e-09,2.26411e-09
1.146e-09,4.66499e-09
1.147e-09,-4.78819e-08
1.148e-09,0
1.149e-09,0
1.15e-09,-4.67952e-08
1.151e-09,-1.36769e-10
1.152e-09,2.26411e-09
1.153e-09,-2.26411e-09
1.154e-09,-2.26411e-09
1.155e-09,0
1.156e-09,2.26411e-09
1.157e-09,-5.47863e-08
1.158e-09,-2.26411e-09
1.159e-09,2.40088e-09
1.16e-09,-3.93615e-08
1.161e-09,2.40088e-09
1.162e-09,-2.40088e-09
1.163e-09,2.40088e-09
1.164e-09,1.95458e-09
1.165e-09,-4.33537e-08
1.166e-09,-4.52823e-09
1.167e-09,1.19036e-08
1.168e-09,-6.92911e-09
1.169e-09,2.40088e-09
1.17e-09,0
1.171e-09,0
1.172e-09,-4.38854e-08
1.173e-09,2.26411e-09
1.174e-09,-4.43884e-08
1.175e-09,-6.92911e-09
1.176e-09,6.92911e-09
1.177e-09,1.92584e-08
1.178e-09,1.36769e-10
1.179e-09,-4.66499e-09
1.18e-09,-3.61497e-08
1.181e-09,-2.26411e-09
1.182e-09,-4.09498e-08
1.183e-09,-6.92911e-09
1.184e-09,4.66499e-09
1.185e-09,0
1.186e-09,0
1.187e-09,4.52823e-09
1.188e-09,-2.26411e-09
1.189e-09,-4.16449e-08
1.19e-09,-6.65557e-09
1.191e-09,-5.1026e-08
1.192e-09,0
1.193e-09,-2.12734e-09
1.194e-09,-2.73538e-10
1.195e-09,4.46302e-10
1.196e-09,1.95458e-09
1.197e-09,0
1.198e-09,2.26411e-09
1.199e-09,-4.52823e-09
1.2e-09,-6.23309e-08
1.201e-09,0
1.202e-09,-4.69361e-08
1.203e-09,0
1.204e-09,-1.57993e-08
1.205e-09,1.35352e-08
1.206e-09,-2.26411e-09
1.207e-09,7.48891e-09
1.208e-09,1.57993e-08
1.209e-09,4.52823e-09
1.21e-09,-1.79266e-08
1.211e-09,-3.55161e-08
1.212e-09,-4.24602e-08
1.213e-09,-5.29868e-09
1.214e-09,2.8978e-09
1.215e-09,-4.52823e-09
1.216e-09,9.05645e-09
1.217e-09,1.36769e-10
1.218e-09,-6.79234e-09
1.219e-09,-3.37489e-08
1.22e-09,-2.26411e-09
1.221e-09,-5.05553e-08
1.222e-09,0
1.223e-09,-7.06588e-09
1.224e-09,2.53765e-09
1.225e-09,0
1.226e-09,-2.40088e-09
1.227e-09,-3.52321e-08
1.228e-09,4.52823e-09
1.229e-09,-2.26411e-09
1.23e-09,-2.26411e-09
1.231e-09,6.79234e-09
1.232e-09,-5.3551e-08
1.233e-09,-2.26411e-09
1.234e-09,4.52823e-09
1.235e-09,-5.07006e-08
1.236e-09,0
1.237e-09,-3.53478e-08
1.238e-09,-1.36769e-10
1.239e-09,-1.36769e-10
1.24e-09,-2.12734e-09
1.241e-09,-4.81585e-08
1.242e-09,-4.80178e-08
1.243e-09,-6.92911e-09
1.244e-09,6.79234e-09
1.245e-09,2.40088e-09
1.246e-09,2.40088e-09
1.247e-09,-4.66499e-09
1.248e-09,4.66499e-09
1.249e-09,-6.17031e-08
1.25e-09,-2.12734e-09
1.251e-09,4.39146e-09
1.252e-09,4.80176e-09
1.253e-09,-4.88189e-08
1.254e-09,1.63959e-08
1.255e-09,-1.15941e-08
1.256e-09,-4.34864e-08
1.257e-09,1.36769e-10
1.258e-09,0
1.259e-09,-2.26411e-09
1.26e-09,0
1.261e-09,-1.36769e-10
1.262e-09,-4.65115e-08
1.263e-09,-4.66499e-09
1.264e-09,-5.05594e-08
1.265e-09,7.06588e-09
1.266e-09,0
1.267e-09,-2.40088e-09
1.268e-09,-2.40088e-09
1.269e-09,-2.26411e-09
1.27e-09,4.76879e-08
1.271e-09,-2.93015e-08
1.272e-09,-1.06638e-07
1.273e-09,0
1.274e-09,-1.69025e-08
1.275e-09,4.04523e-08
1.276e-09,-4.51173e-08
1.277e-09,2.26411e-09
1.278e-09,6.79234e-09
1.279e-09,6.42839e-08
1.28e-09,-6.84496e-08
1.281e-09,2.87252e-08
1.282e-09,-2.40088e-09
1.283e-09,-7.4346e-08
1.284e-09,2.40602e-08
1.285e-09,-4.27164e-08
1.286e-09,-2.26411e-09
1.287e-09,5.19096e-08
1.288e-09,-4.96455e-08
1.289e-09,-4.87796e-08
1.29e-09,4.52823e-09
1.291e-09,-5.28166e-08
1.292e-09,-1.36769e-10
1.293e-09,0
1.294e-09,4.66499e-09
1.295e-09,-4.52823e-09
1.296e-09,-4.52823e-09
1.297e-09,-3.40217e-08
1.298e-09,-4.39146e-09
1.299e-09,-1.36769e-10
1.3e-09,0
1.301e-09,0
1.302e-09,-6.15569e-08
1.303e-09,0
1.304e-09,0
1.305e-09,-4.52823e-09
1.306e-09,-3.38849e-08
1.307e-09,4.52823e-09
1.308e-09,0
1.309e-09,0
1.31e-09,-2.40088e-09
1.311e-09,1.36769e-10
1.312e-09,-1.36769e-10
1.313e-09,-5.39869e-08
1.314e-09,4.52823e-09
1.315e-09,2.12734e-09
1.316e-09,-4.06773e-08
1.317e-09,4.52823e-09
1.318e-09,-2.26411e-09
1.319e-09,0
1.32e-09,2.26411e-09
1.321e-09,-4.52823e-09
1.322e-09,2.26411e-09
1.323e-09,-9.98867e-08
1.324e-09,6.92911e-09
1.325e-09,0
1.326e-09,-6.79234e-09
1.327e-09,-4.52823e-09
1.328e-09,0
1.329e-09,2.26411e-09
1.33e-09,2.40088e-09
1.331e-09,-2.40088e-09
1.332e-09,-3.75448e-08
1.333e-09,-6.41183e-08
1.334e-09,0
1.335e-09,0
1.336e-09,0
1.337e-09,0
1.338e-09,2.26411e-09
1.339e-09,2.26411e-09
1.34e-09,-2.26411e-09
1.341e-09,-8.86249e-08
1.342e-09,-2.26411e-09
1.343e-09,2.40088e-09
1.344e-09,-4.80176e-09
1.345e-09,-2.12734e-09
1.346e-09,0
1.347e-09,0
1.348e-09,-4.85756e-08
1.349e-09,-5.06061e-08
1.35e-09,4.66499e-09
1.351e-09,-4.66499e-09
1.352e-09,2.26411e-09
1.353e-09,-2.26411e-09
1.354e-09,0
1.355e-09,-3.68653e-08
1.356e-09,2.26411e-09
1.357e-09,2.26411e-09
1.358e-09,-6.92168e-08
1.359e-09,2.26411e-09
1.36e-09,4.52823e-09
1.361e-09,-2.12734e-09
1.362e-09,-9.05645e-09
1.363e-09,2.26411e-09
1.364e-09,-8.93675e-08
1.365e-09,0
1.366e-09,4.52823e-09
1.367e-09,-2.40088e-09
1.368e-09,0
1.369e-09,0
1.37e-09,-2.12734e-09
1.371e-09,-1.36769e-10
1.372e-09,-1.12242e-07
1.373e-09,2.26411e-09
1.374e-09,-2.26411e-09
1.375e-09,-2.26411e-09
1.376e-09,-2.26411e-09
1.377e-09,2.26411e-09
1.378e-09,-2.26411e-09
1.379e-09,1.36769e-10
1.38e-09,-5.782e-08
1.381e-09,-3.54471e-08
1.382e-09,0
1.383e-09,2.26411e-09
1.384e-09,0
1.385e-09,-4.66499e-09
1.386e-09,0
1.387e-09,2.12734e-09
1.388e-09,-4.1575e-08
1.389e-09,0
1.39e-09,-6.79234e-09
1.391e-09,-4.39106e-08
1.392e-09,-6.79234e-09
1.393e-09,2.12734e-09
1.394e-09,-2.26411e-09
1.395e-09,0
1.396e-09,-6.83404e-08
1.397e-09,-6.92911e-09
1.398e-09,6.92911e-09
1.399e-09,-4.52823e-09
1.4e-09,-2.77933e-25
1.401e-09,-4.54144e-08
1.402e-09,6.92911e-09
1.403e-09,-4.52823e-09
1.404e-09,0
1.405e-09,-5.32084e-08
1.406e-09,2.26411e-09
1.407e-09,0
1.408e-09,-6.92973e-11
1.409e-09,0
1.41e-09,4.52823e-09
1.411e-09,-3.65591e-08
1.412e-09,0
1.413e-09,9.47381e-08
1.414e-09,-4.76751e-08
1.415e-09,0
1.416e-09,-2.26411e-09
1.417e-09,2.40088e-09
1.418e-09,2.12734e-09
1.419e-09,4.66499e-09
1.42e-09,-4.66499e-09
1.421e-09,-1.43734e-07
1.422e-09,9.02098e-08
1.423e-09,-1.80563e-07
1.424e-09,0
1.425e-09,-2.26411e-09
1.426e-09,4.66499e-09
1.427e-09,2.12734e-09
1.428e-09,-2.26411e-09
1.429e-09,1.36769e-10
1.43e-09,2.26411e-09
1.431e-09,2.26411e-09
1.432e-09,-2.26411e-09
1.433e-09,-8.80222e-08
1.434e-09,-4.52823e-09
1.435e-09,-1.36769e-10
1.436e-09,9.19322e-09
1.437e-09,-6.79234e-09
1.438e-09,-2.26411e-09
1.439e-09,-2.40088e-09
1.44e-09,6.92911e-09
1.441e-09,-2.40088e-09
1.442e-09,7.95827e-08
1.443e-09,-4.55109e-08
1.444e-09,4.66499e-09
1.445e-09,-2.26411e-09
1.446e-09,-2.26411e-09
1.447e-09,0
1.448e-09,2.40088e-09
1.449e-09,-1.16403e-07
1.45e-09,-4.41362e-08
1.451e-09,-8.87512e-08
1.452e-09,-4.66499e-09
1.453e-09,6.92911e-09
1.454e-09,-2.26411e-09
1.455e-09,-2.40088e-09
1.456e-09,4.52823e-09
1.457e-09,-4.52823e-09
1.458e-09,0
1.459e-09,2.26411e-09
1.46e-09,-1.98822e-08
1.461e-09,-2.26411e-09
1.462e-09,2.26411e-09
1.463e-09,0
1.464e-09,2.26411e-09
1.465e-09,0
1.466e-09,4.52823e-09
1.467e-09,-4.52823e-09
1.468e-09,-3.57849e-08
1.469e-09,3.8996e-08
1.47e-09,6.87263e-08
1.471e-09,0
1.472e-09,-6.79234e-09
1.473e-09,4.52823e-09
1.474e-09,-4.52823e-09
1.475e-09,-3.28005e-08
1.476e-09,-2.26411e-09
1.477e-09,-2.26411e-09
1.478e-09,1.36769e-10
1.479e-09,-2.40088e-09
1.48e-09,-8.19133e-08
1.481e-09,-2.26411e-09
1.482e-09,2.12734e-09
1.483e-09,0
1.484e-09,1.36769e-10
1.485e-09,-3.3133e-08
1.486e-09,-2.40088e-09
1.487e-09,1.36769e-10
1.488e-09,-4.34606e-08
1.489e-09,-7.98576e-08
1.49e-09,7.97208e-08
1.491e-09,0
1.492e-09,2.26411e-09
1.493e-09,-2.85085e-08
1.494e-09,2.40088e-09
1.495e-09,-2.40088e-09
1.496e-09,-3.84131e-08
1.497e-09,0
1.498e-09,1.36769e-10
1.499e-09,-2.26411e-09
1.5e-09,2.26411e-09
1.501e-09,-2.88668e-08
1.502e-09,1.36769e-10
1.503e-09,0
1.504e-09,2.26411e-09
1.505e-09,-3.5004e-08
1.506e-09,-2.40088e-09
1.507e-09,-2.12734e-09
1.508e-09,2.26411e-09
1.509e-09,-2.81631e-08
1.51e-09,2.12734e-09
1.511e-09,2.26411e-09
1.512e-09,-4.52823e-09
1.513e-09,0
1.514e-09,2.26411e-09
1.515e-09,-3.3925e-08
1.516e-09,2.26411e-09
1.517e-09,-2.43575e-08
1.518e-09,2.26411e-09
1.519e-09,-2.26411e-09
1.52e-09,-2.26411e-09
1.521e-09,-9.62561e-08
1.522e-09,2.26411e-09
1.523e-09,-4.68809e-08
1.524e-09,-4.52823e-09
1.525e-09,1.00921e-07
1.526e-09,-3.01704e-08
1.527e-09,0
1.528e-09,2.26411e-09
1.529e-09,4.52823e-09
1.53e-09,2.40088e-09
1.531e-09,0
1.532e-09,-1.46937e-08
1.533e-09,-1.36769e-10
1.534e-09,0
1.535e-09,-2.11346e-08
1.536e-09,0
1.537e-09,0
1.538e-09,0
1.539e-09,0
1.54e-09,6.00412e-10
1.541e-09,0
1.542e-09,-2.26411e-09
1.543e-09,0
1.544e-09,-1.60472e-08
1.545e-09,0
1.546e-09,0
1.547e-09,9.05645e-09
1.548e-09,-4.52823e-09
1.549e-09,-3.01257e-09
1.55e-09,2.26411e-09
1.551e-09,6.79234e-09
1.552e-09,-2.26411e-09
1.553e-09,0
1.554e-09,-1.35199e-08
1.555e-09,0
1.556e-09,2.26411e-09
1.557e-09,-2.26411e-09
1.558e-09,4.84529e-08
1.559e-09,-2.26411e-09
1.56e-09,6.79234e-09
1.561e-09,-2.26411e-09
1.562e-09,0
1.563e-09,0
1.564e-09,-1.12735e-08
1.565e-09,2.26411e-09
1.566e-09,6.8133e-08
1.567e-09,0
1.568e-09,-4.52823e-09
1.569e-09,4.52823e-09
1.57e-09,0
1.571e-09,-2.26411e-09
1.572e-09,0
1.573e-09,0
1.574e-09,4.80781e-09
1.575e-09,4.52823e-09
1.576e-09,1.49866e-07
1.577e-09,-4.52823e-09
1.578e-09,2.26411e-09
1.579e-09,0
1.58e-09,6.79234e-09
1.581e-09,0
1.582e-09,-4.52823e-09
1.583e-09,0
1.584e-09,-2.18537e-10
1.585e-09,-6.79234e-09
1.586e-09,2.71655e-07
1.587e-09,2.26411e-09
1.588e-09,2.26411e-09
1.589e-09,0
1.59e-09,-2.71655e-07
1.591e-09,2.7392e-07
1.592e-09,-6.00194e-07
1.593e-09,0
1.594e-09,2.26411e-09
1.595e-09,-2.26411e-09
1.596e-09,0
1.597e-09,-4.52823e-09
1.598e-09,0
1.599e-09,-2.26411e-09
1.6e-09,-7.33156e-10
1.601e-09,-2.26411e-09
1.602e-09,-2.26411e-09
1.603e-09,0
1.604e-09,-6.86481e-07
1.605e-09,-9.00501e-08
1.606e-09,9.23142e-08
1.607e-09,0
1.608e-09,-2.26411e-09
1.609e-09,2.40437e-08
1.61e-09,-2.26411e-09
1.611e-09,-1.04998e-06
1.612e-09,0
1.613e-09,0
1.614e-09,0
1.615e-09,0
1.616e-09,0
1.617e-09,4.04575e-08
1.618e-09,0
1.619e-09,1.64586e-07
1.62e-09,2.26411e-09
1.621e-09,-1.03764e-06
1.622e-09,-2.26411e-09
1.623e-09,2.26411e-09
1.624e-09,-3.98114e-08
1.625e-09,0
1.626e-09,2.26411e-09
1.627e-09,0
1.628e-09,7.9054e-08
1.629e-09,2.26411e-09
1.63e-09,-4.52823e-09
1.631e-09,2.26411e-09
1.632e-09,-1.12769e-06
1.633e-09,-6.79234e-09
1.634e-09,4.52823e-09
1.635e-09,0
1.636e-09,-2.26411e-09
1.637e-09,4.52823e-09
1.638e-09,9.9416e-08
1.639e-09,-1.36769e-10
1.64e-09,2.26411e-09
1.641e-09,-2.26411e-09
1.642e-09,2.26411e-09
1.643e-09,-2.26411e-09
1.644e-09,2.26411e-09
1.645e-09,-2.26411e-09
1.646e-09,6.79234e-09
1.647e-09,1.25707e-07
1.648e-09,0
1.649e-09,-4.52823e-09
1.65e-09,-2.26411e-09
1.651e-09,6.79234e-09
1.652e-09,0
1.653e-09,-2.26411e-09
1.654e-09,0
1.655e-09,1.89273e-07
1.656e-09,1.66257e-07
1.657e-09,-4.52823e-09
1.658e-09,-2.40088e-09
1.659e-09,0
1.66e-09,-2.26411e-09
1.661e-09,0
1.662e-09,0
1.663e-09,2.26411e-09
1.664e-09,0
1.665e-09,-2.26411e-09
1.666e-09,2.0855e-07
1.667e-09,2.26411e-09
1.668e-09,-2.26411e-09
1.669e-09,-6.79234e-09
1.67e-09,4.52823e-09
1.671e-09,-2.26411e-09
1.672e-09,-4.52823e-09
1.673e-09,4.52823e-09
1.674e-09,-2.26411e-09
1.675e-09,1.43944e-07
1.676e-09,2.82067e-07
1.677e-09,-4.52823e-09
1.678e-09,-2.26411e-09
1.679e-09,0
1.68e-09,2.26411e-09
1.681e-09,0
1.682e-09,0
1.683e-09,0
1.684e-09,-2.26411e-09
1.685e-09,3.38047e-07
1.686e-09,2.26411e-09
1.687e-09,0
1.688e-09,0
1.689e-09,2.26411e-09
1.69e-09,0
1.691e-09,0
1.692e-09,-2.26411e-09
1.693e-09,6.79234e-09
1.694e-09,-4.52823e-09
1.695e-09,2.67448e-08
1.696e-09,0
1.697e-09,0
1.698e-09,4.52823e-09
1.699e-09,0
1.7e-09,0
1.701e-09,2.26411e-09
1.702e-09,-2.26411e-09
1.703e-09,4.52823e-09
1.704e-09,-2.26411e-09
1.705e-09,-2.26411e-09
1.706e-09,2.26411e-09
1.707e-09,0
1.708e-09,2.26411e-09
1.709e-09,-4.52823e-09
1.71e-09,2.03791e-11
1.711e-09,2.26411e-09
1.712e-09,-2.26411e-09
1.713e-09,0
1.714e-09,2.26411e-09
1.715e-09,-2.26411e-09
1.716e-09,0
1.717e-09,1.36769e-10
1.718e-09,-4.52823e-09
1.719e-09,4.52823e-09
1.72e-09,4.52823e-09
1.721e-09,0
1.722e-09,0
1.723e-09,2.26411e-09
1.724e-09,-2.26411e-09
1.725e-09,2.26411e-09
1.726e-09,0
1.727e-09,-2.26411e-09
1.728e-09,4.52823e-09
1.729e-09,0
1.73e-09,-2.26411e-09
1.731e-09,0
1.732e-09,-2.40088e-09
1.733e-09,7.06588e-09
1.734e-09,-6.79234e-09
1.735e-09,-1.36769e-10
1.736e-09,2.26411e-09
1.737e-09,2.26411e-09
1.738e-09,-2.26411e-09
1.739e-09,-2.26411e-09
1.74e-09,2.26411e-09
1.741e-09,0
1.742e-09,0
1.743e-09,0
1.744e-09,-1.36769e-10
1.745e-09,-2.26411e-09
1.746e-09,0
1.747e-09,0
1.748e-09,5.26369e-11
1.749e-09,-2.7267e-09
1.75e-09,4.54451e-09
1.751e-09,-2.2804e-09
1.752e-09,-5.26369e-11
1.753e-09,2.26411e-09
1.754e-09,-2.26411e-09
1.755e-09,6.79234e-09
1.756e-09,-4.52823e-09
1.757e-09,4.52823e-09
1.758e-09,-2.21148e-09
1.759e-09,0
1.76e-09,0
1.761e-09,0
1.762e-09,2.31297e-09
1.763e-09,-5.26369e-11
1.764e-09,-4.52823e-09
1.765e-09,2.59029e-09
1.766e-09,0
1.767e-09,2.76964e-10
1.768e-09,-4.13733e-10
1.769e-09,1.36769e-10
1.77e-09,-4.66499e-09
1.771e-09,4.66499e-09
1.772e-09,-2.26411e-09
1.773e-09,-4.52823e-09
1.774e-09,0
1.775e-09,-5.26369e-11
1.776e-09,5.26369e-11
1.777e-09,0
1.778e-09,-2.40088e-09
1.779e-09,-2.31675e-09
1.78e-09,2.26411e-09
1.781e-09,2.31675e-09
1.782e-09,-5.26369e-11
1.783e-09,2.40088e-09
1.784e-09,-2.40088e-09
1.785e-09,2.26411e-09
1.786e-09,1.042e-10
1.787e-09,5.26369e-11
1.788e-09,2.26411e-09
1.789e-09,-2.40088e-09
1.79e-09,6.92911e-09
1.791e-09,-4.66499e-09
1.792e-09,1.36769e-10
1.793e-09,2.26411e-09
1.794e-09,-2.26411e-09
1.795e-09,-1.57436e-08
1.796e-09,2.26411e-09
1.797e-09,6.55039e-09
1.798e-09,2.12734e-09
1.799e-09,2.40088e-09
1.8e-09,0
1.801e-09,2.26411e-09
1.802e-09,2.26411e-09
1.803e-09,-6.38979e-08
1.804e-09,2.40088e-09
1.805e-09,0
1.806e-09,4.83432e-09
1.807e-09,-7.09843e-09
1.808e-09,1.57436e-08
1.809e-09,-1.34802e-08
1.81e-09,1.57443e-08
1.811e-09,-1.56068e-08
1.812e-09,1.10786e-08
1.813e-09,0
1.814e-09,-1.56534e-08
1.815e-09,1.11251e-08
1.816e-09,-4.44028e-08
1.817e-09,-7.30539e-09
1.818e-09,-2.26341e-09
1.819e-09,2.26411e-09
1.82e-09,1.10786e-08
1.821e-09,0
1.822e-09,-3.77393e-09
1.823e-09,2.26411e-09
1.824e-09,1.36769e-10
1.825e-09,-1.13522e-08
1.826e-09,1.13522e-08
1.827e-09,-2.40088e-09
1.828e-09,-8.81521e-09
1.829e-09,1.12161e-08
1.83e-09,-1.3396e-08
1.831e-09,-7.06588e-09
1.832e-09,-2.79984e-08
1.833e-09,1.36769e-10
1.834e-09,-4.52823e-09
1.835e-09,0
1.836e-09,0
1.837e-09,2.12734e-09
1.838e-09,6.61724e-09
1.839e-09,-6.48047e-09
1.84e-09,-6.92911e-09
1.841e-09,1.14573e-08
1.842e-09,-5.50836e-08
1.843e-09,2.53765e-09
1.844e-09,2.26411e-09
1.845e-09,-2.26411e-09
1.846e-09,0
1.847e-09,0
1.848e-09,-2.40088e-09
1.849e-09,2.40088e-09
1.85e-09,-1.56534e-08
1.851e-09,1.79175e-08
1.852e-09,0
1.853e-09,-2.40088e-09
1.854e-09,-4.22493e-08
1.855e-09,0
1.856e-09,-4.39146e-09
1.857e-09,2.12734e-09
1.858e-09,-2.40088e-09
1.859e-09,4.80176e-09
1.86e-09,2.26411e-09
1.861e-09,-2.26411e-09
1.862e-09,-5.17613e-08
1.863e-09,2.26411e-09
1.864e-09,0
1.865e-09,0
1.866e-09,-2.26411e-09
1.867e-09,0
1.868e-09,0
1.869e-09,0
1.87e-09,-2.26411e-09
1.871e-09,-4.92228e-08
1.872e-09,6.92911e-09
1.873e-09,0
1.874e-09,-2.26411e-09
1.875e-09,-2.40088e-09
1.876e-09,0
1.877e-09,0
1.878e-09,0
1.879e-09,2.26411e-09
1.88e-09,2.26411e-09
1.881e-09,-5.4361e-08
1.882e-09,0
1.883e-09,-2.26411e-09
1.884e-09,2.40088e-09
1.885e-09,0
1.886e-09,-2.26411e-09
1.887e-09,-4.52823e-09
1.888e-09,-2.26411e-09
1.889e-09,2.40088e-09
1.89e-09,-4.61564e-08
1.891e-09,-2.26411e-09
1.892e-09,0
1.893e-09,7.06588e-09
1.894e-09,2.26411e-09
1.895e-09,-4.66499e-09
1.896e-09,2.26411e-09
1.897e-09,-5.04186e-08
1.898e-09,2.26411e-09
1.899e-09,2.26411e-09
1.9e-09,-2.12734e-09
1.901e-09,0
1.902e-09,2.26411e-09
1.903e-09,-4.80176e-09
1.904e-09,2.40088e-09
1.905e-09,-4.23861e-08
1.906e-09,0
1.907e-09,2.26411e-09
1.908e-09,2.26411e-09
1.909e-09,0
1.91e-09,0
1.911e-09,-2.26411e-09
1.912e-09,2.26411e-09
1.913e-09,-2.26411e-09
1.914e-09,-4.81545e-08
1.915e-09,2.26411e-09
1.916e-09,4.52823e-09
1.917e-09,-9.05645e-09
1.918e-09,4.52823e-09
1.919e-09,-4.52823e-09
1.92e-09,9.19322e-09
1.921e-09,0
1.922e-09,-2.26411e-09
1.923e-09,-5.26827e-08
1.924e-09,2.26411e-09
1.925e-09,-2.26411e-09
1.926e-09,0
1.927e-09,0
1.928e-09,0
1.929e-09,-2.26411e-09
1.93e-09,0
1.931e-09,0
1.932e-09,0
1.933e-09,-3.98742e-08
1.934e-09,-1.13206e-08
1.935e-09,2.26411e-09
1.936e-09,0
1.937e-09,0
1.938e-09,2.26411e-09
1.939e-09,0
1.94e-09,0
1.941e-09,-4.81552e-08
1.942e-09,0
1.943e-09,-2.40088e-09
1.944e-09,2.26411e-09
1.945e-09,0
1.946e-09,0
1.947e-09,1.36769e-10
1.948e-09,2.40088e-09
1.949e-09,-4.36262e-08
1.95e-09,0
1.951e-09,-6.79234e-09
1.952e-09,2.26411e-09
1.953e-09,2.26411e-09
1.954e-09,-2.26411e-09
1.955e-09,2.26411e-09
1.956e-09,0
1.957e-09,-6.79234e-09
1.958e-09,4.52823e-09
1.959e-09,2.26411e-09
1.96e-09,-4.83695e-08
1.961e-09,2.26411e-09
1.962e-09,-4.66499e-09
1.963e-09,2.26411e-09
1.964e-09,-2.26411e-09
1.965e-09,4.66499e-09
1.966e-09,-2.26411e-09
1.967e-09,0
1.968e-09,-5.14859e-08
1.969e-09,2.40088e-09
1.97e-09,0
1.971e-09,-2.26411e-09
1.972e-09,-2.26411e-09
1.973e-09,-2.40088e-09
1.974e-09,0
1.975e-09,0
1.976e-09,0
1.977e-09,-5.28225e-08
1.978e-09,0
1.979e-09,0
1.98e-09,0
1.981e-09,2.26411e-09
1.982e-09,-2.26411e-09
1.983e-09,2.40088e-09
1.984e-09,2.26411e-09
1.985e-09,0
1.986e-09,0
1.987e-09,-4.52101e-08
1.988e-09,2.26411e-09
1.989e-09,4.52823e-09
1.99e-09,0
1.991e-09,-4.52823e-09
1.992e-09,-2.26411e-09
1.993e-09,0
1.994e-09,4.52823e-09
1.995e-09,-2.26411e-09
1.996e-09,-5.52234e-08
1.997e-09,4.66499e-09
1.998e-09,0
1.999e-09,-4.52823e-09
2e-09,2.26411e-09
2.001e-09,7.91378e-10
2.1e-09,0
