0,0
1e-12,-2.51749e-06
2e-12,-1.4809e-07
3e-12,9.42289e-08
4e-12,-1.38237e-06
5e-12,-8.3448e-09
6e-12,3.25446e-08
7e-12,4.9363e-07
8e-12,-2.01562e-06
9e-12,-2.00591e-07
1e-11,-1.38298e-06
1.1e-11,-5.88735e-07
1.2e-11,4.22526e-07
1.3e-11,-5.44584e-07
1.4e-11,-1.3602e-06
1.5e-11,3.05538e-07
1.6e-11,-2.11699e-06
1.7e-11,-5.95348e-07
1.8e-11,-6.41756e-07
1.9e-11,-5.55911e-07
2e-11,-4.71433e-07
2.1e-11,-1.75979e-08
2.2e-11,1.60879e-07
2.3e-11,-1.01023e-07
2.4e-11,-1.26639e-06
2.5e-11,-1.79975e-06
2.6e-11,1.07523e-06
2.7e-11,-2.13665e-06
2.8e-11,-1.29188e-07
2.9e-11,1.1074e-09
3e-11,-9.84734e-07
3.1e-11,-9.64131e-07
3.2e-11,-5.10519e-08
3.3e-11,-8.78958e-07
3.4e-11,-1.28467e-06
3.5e-11,-1.61581e-06
3.6e-11,1.18341e-07
3.7e-11,-1.13482e-06
3.8e-11,8.19626e-08
3.9e-11,-3.89908e-07
4e-11,-2.24811e-06
4.1e-11,-6.72914e-07
4.2e-11,-1.01998e-07
4.3e-11,-1.59926e-06
4.4e-11,-5.02254e-07
4.5e-11,-4.18341e-07
4.6e-11,-3.03845e-07
4.7e-11,1.03049e-07
4.8e-11,2.15308e-07
4.9e-11,-2.37267e-07
5e-11,-1.02966e-06
5.1e-11,-2.93262e-10
5.2e-11,-9.49236e-07
5.3e-11,-8.16063e-07
5.4e-11,-2.95598e-07
5.5e-11,6.55688e-08
5.6e-11,5.67478e-07
5.7e-11,-1.45234e-06
5.8e-11,2.14745e-07
5.9e-11,-9.85008e-07
6e-11,-1.79737e-06
6.1e-11,-1.29801e-06
6.2e-11,-1.95077e-07
6.3e-11,-2.10949e-07
6.4e-11,-5.26613e-07
6.5e-11,-5.36688e-07
6.6e-11,-4.13533e-07
6.7e-11,-1.73582e-06
6.8e-11,-1.50801e-07
6.9e-11,-2.94106e-07
7e-11,-4.4679e-08
7.1e-11,-7.41469e-07
7.2e-11,-1.78757e-06
7.3e-11,-1.47182e-06
7.4e-11,2.29772e-07
7.5e-11,-3.64286e-06
7.6e-11,1.64748e-07
7.7e-11,-2.36241e-07
7.8e-11,-6.55518e-07
7.9e-11,6.97866e-08
8e-11,-1.23754e-06
8.1e-11,1.72606e-07
8.2e-11,-3.64263e-07
8.3e-11,-1.51763e-06
8.4e-11,4.28666e-07
8.5e-11,-2.07529e-06
8.6e-11,-6.86682e-07
8.7e-11,-1.95885e-06
8.8e-11,-1.61423e-06
8.9e-11,-4.86421e-07
9e-11,-8.84227e-07
9.1e-11,-7.108e-07
9.2e-11,4.05387e-07
9.3e-11,-1.23216e-06
9.4e-11,-1.02935e-07
9.5e-11,-1.35294e-06
9.6e-11,-9.68014e-07
9.7e-11,-8.57489e-07
9.8e-11,-1.05857e-06
9.9e-11,-1.53081e-06
1e-10,-1.23302e-06
1.01e-10,5.81868e-07
1.02e-10,-5.27215e-07
1.03e-10,-1.48246e-07
1.04e-10,-2.83905e-07
1.05e-10,-7.08894e-07
1.06e-10,-1.27669e-06
1.07e-10,-5.14921e-07
1.08e-10,-2.27351e-07
1.09e-10,-7.2973e-07
1.1e-10,-3.96309e-07
1.11e-10,-4.66111e-07
1.12e-10,5.87426e-08
1.13e-10,-1.57709e-06
1.14e-10,3.54131e-07
1.15e-10,-5.97085e-07
1.16e-10,-2.41323e-07
1.17e-10,-4.55602e-07
1.18e-10,-5.81242e-07
1.19e-10,-6.42807e-07
1.2e-10,-1.23455e-06
1.21e-10,-2.82385e-07
1.22e-10,-1.37215e-06
1.23e-10,-5.23685e-07
1.24e-10,-8.92148e-08
1.25e-10,-1.81318e-06
1.26e-10,5.4107e-07
1.27e-10,-7.03898e-07
1.28e-10,-3.13666e-07
1.29e-10,-2.00481e-06
1.3e-10,-6.56662e-07
1.31e-10,2.13211e-07
1.32e-10,-4.98328e-07
1.33e-10,-1.50954e-06
1.34e-10,-6.01675e-07
1.35e-10,-4.37872e-07
1.36e-10,-5.97782e-07
1.37e-10,-7.63647e-07
1.38e-10,3.63025e-08
1.39e-10,-1.70423e-06
1.4e-10,1.04889e-06
1.41e-10,-2.326e-06
1.42e-10,-1.32184e-06
1.43e-10,-3.0583e-07
1.44e-10,-1.01177e-06
1.45e-10,-5.37791e-07
1.46e-10,-4.72924e-07
1.47e-10,5.41345e-07
1.48e-10,-3.60905e-07
1.49e-10,-2.77436e-06
1.5e-10,-8.55461e-07
1.51e-10,-5.91636e-07
1.52e-10,-1.76792e-06
1.53e-10,-4.55075e-07
1.54e-10,-6.35651e-07
1.55e-10,1.6553e-07
1.56e-10,-1.95156e-06
1.57e-10,3.13492e-07
1.58e-10,-2.16603e-06
1.59e-10,-4.46134e-07
1.6e-10,-6.1958e-08
1.61e-10,-8.60791e-07
1.62e-10,-1.01929e-08
1.63e-10,-3.92644e-07
1.64e-10,-1.44353e-07
1.65e-10,-6.0098e-07
1.66e-10,-1.56279e-06
1.67e-10,-1.55928e-07
1.68e-10,-2.87866e-06
1.69e-10,-4.39254e-07
1.7e-10,-9.32152e-07
1.71e-10,-4.56593e-07
1.72e-10,3.91357e-07
1.73e-10,-1.96045e-07
1.74e-10,-1.72595e-08
1.75e-10,-1.86813e-06
1.76e-10,-1.17155e-07
1.77e-10,-8.17069e-07
1.78e-10,-1.91126e-06
1.79e-10,-1.63145e-06
1.8e-10,-1.90996e-07
1.81e-10,-5.79456e-07
1.82e-10,-9.65072e-07
1.83e-10,-3.64745e-07
1.84e-10,-1.64553e-08
1.85e-10,-4.68207e-07
1.86e-10,-1.18006e-06
1.87e-10,-1.21624e-06
1.88e-10,-1.97724e-07
1.89e-10,-5.71918e-07
1.9e-10,-1.81562e-06
1.91e-10,-6.70043e-08
1.92e-10,-1.42062e-06
1.93e-10,-3.79061e-07
1.94e-10,-2.14246e-07
1.95e-10,-2.93611e-07
1.96e-10,-9.66199e-08
1.97e-10,-2.31118e-06
1.98e-10,-7.62555e-07
1.99e-10,-3.47082e-07
2e-10,-1.81611e-06
2.01e-10,-1.82722e-07
2.02e-10,-1.52529e-06
2.03e-10,9.78615e-08
2.04e-10,7.88602e-08
2.05e-10,-4.42127e-07
2.06e-10,-2.04941e-06
2.07e-10,-1.60727e-07
2.08e-10,1.17914e-07
2.09e-10,-5.88924e-07
2.1e-10,-3.52802e-07
2.11e-10,-1.96522e-07
2.12e-10,-1.34384e-06
2.13e-10,-1.0046e-06
2.14e-10,-4.64289e-07
2.15e-10,-1.85179e-07
2.16e-10,4.8157e-07
2.17e-10,-1.56239e-06
2.18e-10,-1.08426e-06
2.19e-10,-3.92809e-08
2.2e-10,-3.40561e-07
2.21e-10,1.88699e-07
2.22e-10,-1.49318e-06
2.23e-10,-2.00164e-06
2.24e-10,7.39424e-07
2.25e-10,-3.78562e-07
2.26e-10,-4.26841e-07
2.27e-10,-5.78022e-07
2.28e-10,-8.86793e-07
2.29e-10,-4.14175e-07
2.3e-10,-1.3586e-08
2.31e-10,-3.56251e-07
2.32e-10,2.9007e-07
2.33e-10,-8.65959e-07
2.34e-10,-5.3181e-07
2.35e-10,-2.92657e-07
2.36e-10,-3.76901e-07
2.37e-10,-2.72352e-07
2.38e-10,5.16554e-07
2.39e-10,-9.07307e-07
2.4e-10,-5.90855e-07
2.41e-10,-1.2865e-07
2.42e-10,4.84192e-07
2.43e-10,-8.13131e-08
2.44e-10,-8.09726e-07
2.45e-10,-5.44929e-08
2.46e-10,-3.30238e-07
2.47e-10,-5.07832e-08
2.48e-10,-1.3489e-06
2.49e-10,-2.79397e-07
2.5e-10,-5.64193e-07
2.51e-10,-3.10718e-07
2.52e-10,-1.88209e-07
2.53e-10,-7.35225e-07
2.54e-10,-9.19099e-07
2.55e-10,1.48285e-07
2.56e-10,-1.0364e-06
2.57e-10,3.04301e-09
2.58e-10,-1.63874e-06
2.59e-10,4.3428e-07
2.6e-10,1.85594e-07
2.61e-10,-5.40048e-07
2.62e-10,-2.58653e-07
2.63e-10,-1.82243e-07
2.64e-10,4.17456e-08
2.65e-10,-2.28301e-07
2.66e-10,-1.6545e-06
2.67e-10,-2.004e-06
2.68e-10,-9.27297e-07
2.69e-10,-1.22692e-08
2.7e-10,-2.23984e-07
2.71e-10,-3.48838e-07
2.72e-10,1.68314e-07
2.73e-10,8.72949e-09
2.74e-10,-1.1016e-07
2.75e-10,-1.70103e-06
2.76e-10,2.09965e-07
2.77e-10,-4.67181e-07
2.78e-10,-2.60102e-06
2.79e-10,-2.47884e-07
2.8e-10,9.0356e-07
2.81e-10,-1.26345e-06
2.82e-10,-1.07385e-07
2.83e-10,7.07624e-08
2.84e-10,-3.52881e-07
2.85e-10,-7.09512e-08
2.86e-10,-9.0479e-07
2.87e-10,-3.03822e-07
2.88e-10,3.13404e-07
2.89e-10,-6.46738e-07
2.9e-10,-1.58083e-06
2.91e-10,-6.58398e-07
2.92e-10,2.25857e-07
2.93e-10,-2.84553e-08
2.94e-10,4.28278e-07
2.95e-10,-8.18711e-07
2.96e-10,-5.17823e-07
2.97e-10,-1.50427e-07
2.98e-10,-1.44189e-07
2.99e-10,-2.42859e-07
3e-10,-8.38986e-07
3.01e-10,-5.90089e-07
3.02e-10,8.74396e-08
3.03e-10,-5.04538e-07
3.04e-10,-1.29446e-06
3.05e-10,-2.11878e-07
3.06e-10,-8.67465e-07
3.07e-10,-2.4713e-07
3.08e-10,-9.64636e-07
3.09e-10,-4.10185e-07
3.1e-10,-4.79105e-07
3.11e-10,-1.09551e-06
3.12e-10,2.31447e-08
3.13e-10,-2.02891e-06
3.14e-10,-7.24597e-07
3.15e-10,-1.30658e-06
3.16e-10,-2.75329e-08
3.17e-10,-2.12206e-07
3.18e-10,-2.86379e-07
3.19e-10,-4.07094e-07
3.2e-10,-4.50875e-07
3.21e-10,-2.2197e-07
3.22e-10,-1.60086e-06
3.23e-10,-1.47558e-06
3.24e-10,-1.53418e-07
3.25e-10,-3.79221e-06
3.26e-10,-6.99122e-07
3.27e-10,-4.10403e-08
3.28e-10,-1.36514e-06
3.29e-10,5.83778e-07
3.3e-10,-2.69327e-07
3.31e-10,-4.75633e-07
3.32e-10,1.69364e-07
3.33e-10,-1.04556e-06
3.34e-10,-7.07173e-07
3.35e-10,-9.43693e-07
3.36e-10,-1.3496e-06
3.37e-10,-2.12367e-07
3.38e-10,-5.93806e-07
3.39e-10,-1.84956e-07
3.4e-10,-1.71483e-06
3.41e-10,-3.36106e-07
3.42e-10,2.91313e-07
3.43e-10,-9.13128e-07
3.44e-10,4.67247e-07
3.45e-10,-3.33504e-07
3.46e-10,-5.33608e-07
3.47e-10,-6.61067e-07
3.48e-10,-7.34451e-07
3.49e-10,3.76109e-07
3.5e-10,-1.99485e-07
3.51e-10,-1.93399e-07
3.52e-10,-1.42527e-06
3.53e-10,-6.62167e-08
3.54e-10,-2.52551e-07
3.55e-10,1.58618e-07
3.56e-10,6.69226e-07
3.57e-10,-1.20895e-06
3.58e-10,-1.08296e-07
3.59e-10,-3.97667e-07
3.6e-10,-2.93772e-07
3.61e-10,-3.78973e-08
3.62e-10,-4.55394e-07
3.63e-10,-2.31068e-07
3.64e-10,-5.29833e-07
3.65e-10,5.93641e-08
3.66e-10,-5.44161e-07
3.67e-10,5.9546e-07
3.68e-10,-4.04044e-07
3.69e-10,2.29252e-07
3.7e-10,-2.66564e-07
3.71e-10,3.93871e-07
3.72e-10,-4.97351e-07
3.73e-10,1.78981e-07
3.74e-10,-4.17373e-07
3.75e-10,-4.70218e-08
3.76e-10,-3.582e-07
3.77e-10,-1.90363e-07
3.78e-10,2.14069e-07
3.79e-10,-2.09874e-07
3.8e-10,-1.721e-06
3.81e-10,-1.61846e-07
3.82e-10,6.31497e-07
3.83e-10,-1.14697e-08
3.84e-10,1.03366e-07
3.85e-10,-1.76028e-08
3.86e-10,-3.27633e-08
3.87e-10,3.28842e-09
3.88e-10,-6.57964e-07
3.89e-10,4.58453e-07
3.9e-10,-7.51392e-07
3.91e-10,-3.26583e-07
3.92e-10,-2.23537e-07
3.93e-10,1.7506e-08
3.94e-10,1.3513e-07
3.95e-10,-8.84144e-07
3.96e-10,-3.06406e-07
3.97e-10,3.70748e-07
3.98e-10,-1.46538e-07
3.99e-10,-1.23804e-06
4e-10,1.48541e-07
4.01e-10,-4.81939e-08
4.02e-10,-1.17655e-07
4.03e-10,5.51057e-07
4.04e-10,-1.13223e-06
4.05e-10,-4.47729e-07
4.06e-10,-5.88755e-07
4.07e-10,-2.63686e-07
4.08e-10,-3.71916e-07
4.09e-10,4.76576e-07
4.1e-10,-1.21175e-06
4.11e-10,8.06764e-08
4.12e-10,7.64578e-07
4.13e-10,-6.15563e-07
4.14e-10,3.52363e-07
4.15e-10,-2.44847e-07
4.16e-10,-6.61789e-07
4.17e-10,-6.38572e-07
4.18e-10,-4.99531e-08
4.19e-10,-3.05444e-07
4.2e-10,3.33228e-08
4.21e-10,-8.97984e-07
4.22e-10,-5.65979e-07
4.23e-10,-8.60087e-08
4.24e-10,-5.95227e-07
4.25e-10,-9.26003e-07
4.26e-10,-2.44856e-07
4.27e-10,-2.10884e-07
4.28e-10,3.31524e-07
4.29e-10,-1.16166e-06
4.3e-10,8.52005e-08
4.31e-10,-1.48587e-07
4.32e-10,-1.2544e-06
4.33e-10,-1.23493e-06
4.34e-10,-5.01443e-07
4.35e-10,1.65216e-07
4.36e-10,2.93866e-07
4.37e-10,-4.09541e-07
4.38e-10,-7.53107e-07
4.39e-10,-3.27338e-07
4.4e-10,6.85654e-08
4.41e-10,-6.82077e-07
4.42e-10,-4.9257e-07
4.43e-10,3.45792e-07
4.44e-10,-1.29016e-06
4.45e-10,-2.15019e-07
4.46e-10,-1.22289e-06
4.47e-10,-1.34499e-07
4.48e-10,-4.12699e-07
4.49e-10,-2.49225e-07
4.5e-10,-2.27459e-07
4.51e-10,5.03566e-08
4.52e-10,-2.38652e-07
4.53e-10,-1.12614e-06
4.54e-10,5.11873e-07
4.55e-10,-7.17697e-07
4.56e-10,-5.71433e-07
4.57e-10,-1.20818e-06
4.58e-10,-4.08941e-07
4.59e-10,-1.04974e-06
4.6e-10,-6.81462e-07
4.61e-10,-1.28438e-07
4.62e-10,3.38521e-08
4.63e-10,2.17985e-07
4.64e-10,-1.11737e-06
4.65e-10,-1.52127e-07
4.66e-10,-7.48065e-09
4.67e-10,-7.81478e-07
4.68e-10,-2.62627e-06
4.69e-10,3.55824e-07
4.7e-10,2.69498e-07
4.71e-10,-5.0143e-07
4.72e-10,-1.60944e-06
4.73e-10,-3.81401e-07
4.74e-10,-8.16691e-08
4.75e-10,-1.33272e-06
4.76e-10,2.70915e-08
4.77e-10,-1.42897e-06
4.78e-10,-1.37413e-06
4.79e-10,1.5788e-06
4.8e-10,-2.01314e-06
4.81e-10,-4.65039e-07
4.82e-10,-2.10673e-07
4.83e-10,-1.30694e-06
4.84e-10,-1.96595e-07
4.85e-10,2.51167e-07
4.86e-10,-5.9531e-07
4.87e-10,3.08764e-07
4.88e-10,-8.46256e-07
4.89e-10,-2.18889e-07
4.9e-10,-2.56116e-07
4.91e-10,3.16629e-07
4.92e-10,-2.5694e-07
4.93e-10,-6.78105e-07
4.94e-10,1.70827e-07
4.95e-10,-3.72135e-07
4.96e-10,-1.77617e-07
4.97e-10,1.15419e-06
4.98e-10,-2.88685e-07
4.99e-10,-1.49225e-07
5e-10,-8.09487e-07
5.01e-10,1.01825e-07
5.02e-10,1.46184e-07
5.03e-10,-4.03202e-07
5.04e-10,-1.80136e-07
5.05e-10,-8.09328e-08
5.06e-10,7.11018e-08
5.07e-10,3.26141e-07
5.08e-10,6.73891e-08
5.09e-10,-8.8599e-07
5.1e-10,-2.01463e-07
5.11e-10,-4.55483e-07
5.12e-10,4.83709e-07
5.13e-10,-4.60151e-07
5.14e-10,2.4021e-08
5.15e-10,-3.11552e-08
5.16e-10,-2.87693e-08
5.17e-10,-2.59688e-07
5.18e-10,-2.61771e-07
5.19e-10,-2.63797e-08
5.2e-10,-4.77013e-08
5.21e-10,-5.7907e-07
5.22e-10,-1.26671e-07
5.23e-10,2.38316e-08
5.24e-10,-5.25233e-08
5.25e-10,-1.04576e-07
5.26e-10,-2.10464e-07
5.27e-10,1.00415e-07
5.28e-10,-2.40064e-07
5.29e-10,5.23093e-07
5.3e-10,-1.10705e-07
5.31e-10,-1.36286e-07
5.32e-10,-4.85633e-08
5.33e-10,-4.74555e-07
5.34e-10,-1.04186e-07
5.35e-10,-1.97478e-07
5.36e-10,-8.96854e-08
5.37e-10,-1.0746e-06
5.38e-10,4.94239e-07
5.39e-10,-9.46467e-08
5.4e-10,-5.47386e-08
5.41e-10,-5.08878e-07
5.42e-10,-3.23656e-08
5.43e-10,-1.5852e-07
5.44e-10,-5.89952e-08
5.45e-10,-1.43372e-06
5.46e-10,2.44232e-07
5.47e-10,-7.99909e-08
5.48e-10,-9.96518e-08
5.49e-10,-5.66495e-07
5.5e-10,-6.36102e-07
5.51e-10,-9.0821e-08
5.52e-10,-1.56031e-07
5.53e-10,-1.08816e-06
5.54e-10,3.23697e-07
5.55e-10,-1.49678e-06
5.56e-10,-6.68408e-07
5.57e-10,4.20895e-07
5.58e-10,4.48264e-07
5.59e-10,-7.99828e-07
5.6e-10,-8.3042e-08
5.61e-10,-9.50178e-07
5.62e-10,-2.6761e-07
5.63e-10,-1.29834e-06
5.64e-10,-1.5653e-07
5.65e-10,2.59488e-07
5.66e-10,-1.23172e-07
5.67e-10,-1.88538e-06
5.68e-10,-1.09775e-06
5.69e-10,-1.46713e-07
5.7e-10,5.62485e-07
5.71e-10,-1.75711e-06
5.72e-10,7.05408e-07
5.73e-10,4.90369e-08
5.74e-10,-5.38852e-07
5.75e-10,-7.024e-07
5.76e-10,-5.73601e-07
5.77e-10,-1.33581e-06
5.78e-10,-1.11502e-06
5.79e-10,6.6741e-07
5.8e-10,-2.06457e-06
5.81e-10,-3.98764e-07
5.82e-10,-5.21859e-08
5.83e-10,7.30936e-07
5.84e-10,-5.31007e-08
5.85e-10,-5.35272e-08
5.86e-10,-4.78429e-08
5.87e-10,-4.73569e-08
5.88e-10,5.33353e-07
5.89e-10,-2.39402e-06
5.9e-10,-6.74601e-07
5.91e-10,-1.63834e-07
5.92e-10,4.03037e-07
5.93e-10,6.27295e-07
5.94e-10,-2.38497e-08
5.95e-10,-1.62008e-08
5.96e-10,3.30792e-07
5.97e-10,-7.32077e-09
5.98e-10,1.56446e-07
5.99e-10,-5.30136e-07
6e-10,-2.27186e-07
6.01e-10,-2.55954e-07
6.02e-10,1.19794e-07
6.03e-10,-7.89933e-08
6.04e-10,-5.52809e-07
6.05e-10,8.99212e-08
6.06e-10,-1.64634e-08
6.07e-10,1.18021e-07
6.08e-10,-1.89555e-07
6.09e-10,-8.64337e-08
6.1e-10,-1.38573e-07
6.11e-10,2.15103e-07
6.12e-10,-4.82144e-08
6.13e-10,-9.8998e-07
6.14e-10,-5.00385e-08
6.15e-10,1.77226e-07
6.16e-10,-1.30655e-07
6.17e-10,-4.73744e-08
6.18e-10,1.59178e-07
6.19e-10,-1.84754e-07
6.2e-10,7.03625e-08
6.21e-10,1.19148e-07
6.22e-10,-7.44205e-08
6.23e-10,-7.30766e-08
6.24e-10,-1.30515e-07
6.25e-10,2.90275e-07
6.26e-10,-5.08031e-07
6.27e-10,3.39854e-07
6.28e-10,-1.2254e-06
6.29e-10,-2.64089e-07
6.3e-10,-1.49028e-07
6.31e-10,-3.21448e-08
6.32e-10,-9.095e-08
6.33e-10,1.312e-10
6.34e-10,-1.46578e-07
6.35e-10,-1.0348e-07
6.36e-10,-6.47395e-08
6.37e-10,-9.09596e-08
6.38e-10,-1.57031e-07
6.39e-10,-4.34533e-08
6.4e-10,-7.77307e-09
6.41e-10,-1.47739e-08
6.42e-10,-9.94694e-07
6.43e-10,-9.8515e-08
6.44e-10,-1.87654e-07
6.45e-10,1.33451e-08
6.46e-10,-8.52389e-07
6.47e-10,4.61604e-08
6.48e-10,-8.63849e-08
6.49e-10,-1.43649e-07
6.5e-10,-1.72004e-07
6.51e-10,-2.90249e-07
6.52e-10,-1.26511e-06
6.53e-10,2.52859e-08
6.54e-10,-3.78844e-08
6.55e-10,-1.99195e-07
6.56e-10,-1.36769e-10
6.57e-10,-2.59314e-08
6.58e-10,-7.63568e-09
6.59e-10,-8.93518e-08
6.6e-10,-9.16243e-08
6.61e-10,-9.02051e-07
6.62e-10,-1.71264e-06
6.63e-10,-6.00764e-08
6.64e-10,-8.84307e-08
6.65e-10,-2.50336e-07
6.66e-10,7.95636e-08
6.67e-10,-3.45058e-08
6.68e-10,3.66211e-08
6.69e-10,-1.364e-07
6.7e-10,-9.21248e-08
6.71e-10,-3.52468e-08
6.72e-10,-5.0848e-08
6.73e-10,-3.90444e-07
6.74e-10,-5.27974e-07
6.75e-10,-8.16912e-08
6.76e-10,-9.81183e-08
6.77e-10,-4.3506e-08
6.78e-10,1.24879e-08
6.79e-10,-5.04287e-08
6.8e-10,-6.24034e-08
6.81e-10,9.17561e-08
6.82e-10,2.55434e-09
6.83e-10,-1.73803e-08
6.84e-10,1.90646e-07
6.85e-10,-2.23321e-07
6.86e-10,-3.55244e-07
6.87e-10,7.09124e-09
6.88e-10,-9.54782e-08
6.89e-10,1.05895e-07
6.9e-10,-4.16956e-08
6.91e-10,-1.32193e-07
6.92e-10,-4.5072e-08
6.93e-10,-1.18563e-07
6.94e-10,-8.65851e-08
6.95e-10,8.41675e-08
6.96e-10,-8.89332e-08
6.97e-10,3.61695e-07
6.98e-10,-8.30705e-08
6.99e-10,-8.75405e-08
7e-10,8.42647e-08
7.01e-10,-1.1901e-07
7.02e-10,-1.09497e-08
7.03e-10,-1.30676e-07
7.04e-10,4.32158e-08
7.05e-10,-1.36282e-07
7.06e-10,-8.70468e-08
7.07e-10,2.76964e-10
7.08e-10,-1.34654e-07
7.09e-10,-3.04594e-08
7.1e-10,1.0753e-07
7.11e-10,-1.14181e-07
7.12e-10,-4.30793e-08
7.13e-10,0
7.14e-10,2.63394e-07
7.15e-10,-5.10375e-08
7.16e-10,-8.35288e-08
7.17e-10,1.1342e-07
7.18e-10,-3.21949e-07
7.19e-10,-3.74192e-09
7.2e-10,-7.46532e-08
7.21e-10,4.3216e-08
7.22e-10,2.11516e-07
7.23e-10,-8.80497e-08
7.24e-10,-3.00735e-09
7.25e-10,2.25466e-07
7.26e-10,-1.35911e-07
7.27e-10,-4.51417e-08
7.28e-10,3.28431e-09
7.29e-10,-4.93785e-08
7.3e-10,-4.75343e-08
7.31e-10,2.40088e-09
7.32e-10,-9.24245e-08
7.33e-10,-4.17183e-08
7.34e-10,2.25361e-08
7.35e-10,3.26106e-07
7.36e-10,-4.39146e-09
7.37e-10,1.60275e-07
7.38e-10,-1.20468e-07
7.39e-10,-8.56342e-08
7.4e-10,-4.07188e-08
7.41e-10,2.24579e-09
7.42e-10,-5.07356e-08
7.43e-10,-4.57397e-08
7.44e-10,4.90612e-08
7.45e-10,3.92439e-08
7.46e-10,5.07873e-09
7.47e-10,-2.71929e-07
7.48e-10,-9.50018e-08
7.49e-10,2.26411e-09
7.5e-10,-1.64205e-08
7.51e-10,4.31871e-08
7.52e-10,-4.95217e-08
7.53e-10,-8.43157e-08
7.54e-10,-2.40088e-09
7.55e-10,-2.87058e-09
7.56e-10,-4.52823e-09
7.57e-10,-8.59811e-08
7.58e-10,-4.20421e-08
7.59e-10,-5.35033e-08
7.6e-10,-4.04012e-08
7.61e-10,1.27372e-07
7.62e-10,-9.13594e-08
7.63e-10,-1.36769e-10
7.64e-10,-5.3913e-08
7.65e-10,-2.73109e-09
7.66e-10,-4.53576e-08
7.67e-10,5.34265e-08
7.68e-10,-4.63606e-08
7.69e-10,-9.41454e-08
7.7e-10,-4.36185e-08
7.71e-10,9.28871e-08
7.72e-10,-4.22559e-08
7.73e-10,2.59432e-09
7.74e-10,-1.00159e-07
7.75e-10,-2.26411e-09
7.76e-10,-3.49195e-08
7.77e-10,-6.92911e-09
7.78e-10,9.74372e-09
7.79e-10,-9.43882e-08
7.8e-10,-8.28003e-08
7.81e-10,3.64269e-08
7.82e-10,-3.34319e-08
7.83e-10,1.11352e-07
7.84e-10,-1.36769e-10
7.85e-10,2.95711e-07
7.86e-10,-1.42122e-07
7.87e-10,6.92911e-09
7.88e-10,-4.52823e-09
7.89e-10,1.36769e-10
7.9e-10,-2.40088e-09
7.91e-10,-8.5855e-08
7.92e-10,2.26411e-09
7.93e-10,-4.10885e-08
7.94e-10,2.99885e-07
7.95e-10,-4.45352e-08
7.96e-10,-4.0538e-08
7.97e-10,1.90922e-07
7.98e-10,-4.90792e-08
7.99e-10,4.52823e-09
8e-10,3.73606e-09
8.01e-10,-2.1556e-07
8.02e-10,-1.36769e-10
8.03e-10,-2.12734e-09
8.04e-10,0
8.05e-10,-9.57662e-08
8.06e-10,-1.44568e-08
8.07e-10,-3.61021e-08
8.08e-10,7.34284e-09
8.09e-10,2.47179e-07
8.1e-10,-8.12008e-08
8.11e-10,3.6846e-08
8.12e-10,-4.77442e-08
8.13e-10,1.85038e-09
8.14e-10,4.49559e-09
8.15e-10,-5.04186e-08
8.16e-10,-2.40088e-09
8.17e-10,3.95364e-08
8.18e-10,2.22429e-07
8.19e-10,-3.45819e-08
8.2e-10,5.40894e-09
8.21e-10,-4.09519e-08
8.22e-10,2.26411e-09
8.23e-10,-6.79234e-09
8.24e-10,-1.27358e-08
8.25e-10,-4.37665e-08
8.26e-10,-9.36684e-08
8.27e-10,-3.63029e-08
8.28e-10,-9.32999e-09
8.29e-10,-4.66499e-09
8.3e-10,3.03882e-07
8.31e-10,-4.65131e-08
8.32e-10,-3.62867e-08
8.33e-10,-9.03995e-09
8.34e-10,-2.1035e-08
8.35e-10,-3.85508e-08
8.36e-10,1.97065e-09
8.37e-10,-4.16959e-08
8.38e-10,-4.19802e-09
8.39e-10,-1.01006e-07
8.4e-10,2.76964e-10
8.41e-10,-5.07873e-09
8.42e-10,-9.96884e-08
8.43e-10,4.93853e-09
8.44e-10,-4.80176e-09
8.45e-10,5.04219e-08
8.46e-10,-3.12415e-09
8.47e-10,-4.78524e-08
8.48e-10,-5.05587e-08
8.49e-10,3.33319e-08
8.5e-10,-4.09517e-08
8.51e-10,4.58611e-08
8.52e-10,-1.20698e-07
8.53e-10,-4.52823e-09
8.54e-10,4.80176e-09
8.55e-10,-1.30978e-07
8.56e-10,-2.40088e-09
8.57e-10,0
8.58e-10,-9.60695e-09
8.59e-10,2.67785e-09
8.6e-10,6.37861e-09
8.61e-10,-1.14248e-07
8.62e-10,-4.96102e-08
8.63e-10,-2.95481e-09
8.64e-10,-4.80176e-09
8.65e-10,-4.52823e-09
8.66e-10,-4.31053e-08
8.67e-10,-2.23154e-09
8.68e-10,-7.78914e-09
8.69e-10,-4.87032e-08
8.7e-10,9.60695e-09
8.71e-10,-2.43345e-09
8.72e-10,-1.85038e-09
8.73e-10,4.52823e-09
8.74e-10,-5.75961e-08
8.75e-10,2.26411e-09
8.76e-10,2.26411e-09
8.77e-10,-9.40095e-08
8.78e-10,6.51537e-09
8.79e-10,-4.26293e-08
8.8e-10,2.50508e-09
8.81e-10,-2.53765e-09
8.82e-10,-5.74651e-08
8.83e-10,2.40088e-09
8.84e-10,-7.20607e-09
8.85e-10,2.76964e-10
8.86e-10,-7.77273e-08
8.87e-10,-2.71041e-09
8.88e-10,2.84718e-09
8.89e-10,2.36831e-09
8.9e-10,-5.98818e-09
8.91e-10,-5.44551e-08
8.92e-10,5.68594e-08
8.93e-10,-4.59262e-08
8.94e-10,-9.25509e-08
8.95e-10,-4.96208e-08
8.96e-10,-7.03673e-09
8.97e-10,-3.86876e-08
8.98e-10,2.26411e-09
8.99e-10,1.6214e-10
9e-10,4.90939e-09
9.01e-10,-2.26073e-10
9.02e-10,2.42203e-09
9.03e-10,-8.45333e-08
9.04e-10,-4.52823e-09
9.05e-10,-2.40088e-09
9.06e-10,6.92911e-09
9.07e-10,4.10524e-08
9.08e-10,-9.54405e-08
9.09e-10,4.38803e-09
9.1e-10,-2.26411e-09
9.11e-10,7.6198e-09
9.12e-10,-7.81065e-08
9.13e-10,-4.10918e-08
9.14e-10,4.94196e-09
9.15e-10,-7.08623e-09
9.16e-10,1.57121e-10
9.17e-10,-5.54933e-08
9.18e-10,-4.76708e-07
9.19e-10,-2.29668e-09
9.2e-10,3.09533e-10
9.21e-10,2.23154e-09
9.22e-10,-2.64528e-09
9.23e-10,-1.50298e-07
9.24e-10,-2.76964e-10
9.25e-10,2.40088e-09
9.26e-10,-5.17995e-08
9.27e-10,-2.50851e-09
9.28e-10,0
9.29e-10,-2.40088e-09
9.3e-10,-5.77568e-07
9.31e-10,2.76964e-10
9.32e-10,1.36769e-10
9.33e-10,-4.66499e-09
9.34e-10,-2.43345e-09
9.35e-10,-4.18331e-08
9.36e-10,-4.06355e-08
9.37e-10,-2.56057e-07
9.38e-10,2.76964e-10
9.39e-10,-1.92786e-08
9.4e-10,9.15375e-09
9.41e-10,2.40088e-09
9.42e-10,4.90939e-09
9.43e-10,-1.36769e-10
9.44e-10,-7.45408e-07
9.45e-10,-9.32999e-09
9.46e-10,5.07873e-09
9.47e-10,-2.76964e-10
9.48e-10,-5.32312e-09
9.49e-10,-2.26411e-09
9.5e-10,0
9.51e-10,-4.90065e-07
9.52e-10,-5.58893e-08
9.53e-10,-1.36769e-10
9.54e-10,2.40088e-09
9.55e-10,-5.90016e-07
9.56e-10,2.26411e-09
9.57e-10,4.93853e-09
9.58e-10,-2.53765e-09
9.59e-10,4.52823e-09
9.6e-10,-5.67607e-08
9.61e-10,1.17309e-08
9.62e-10,-7.34284e-09
9.63e-10,2.54108e-09
9.64e-10,-2.40088e-09
9.65e-10,1.36769e-10
9.66e-10,-3.64269e-08
9.67e-10,-2.26411e-09
9.68e-10,-4.52823e-09
9.69e-10,-5.56659e-08
9.7e-10,6.79234e-09
9.71e-10,-9.73921e-08
9.72e-10,-2.40088e-09
9.73e-10,9.49912e-08
9.74e-10,-9.37986e-08
9.75e-10,1.65272e-09
9.76e-10,-9.05046e-08
9.77e-10,-7.20264e-09
9.78e-10,1.36769e-10
9.79e-10,0
9.8e-10,2.26411e-09
9.81e-10,5.07873e-09
9.82e-10,9.18666e-09
9.83e-10,-2.53765e-09
9.84e-10,-4.8433e-08
9.85e-10,-4.54579e-08
9.86e-10,2.67785e-09
9.87e-10,-7.06588e-09
9.88e-10,-2.26411e-09
9.89e-10,-2.40088e-09
9.9e-10,2.12392e-09
9.91e-10,-2.53765e-09
9.92e-10,-4.11449e-09
9.93e-10,-4.80176e-09
9.94e-10,-8.43007e-08
9.95e-10,2.76964e-10
9.96e-10,-3.93971e-09
9.97e-10,7.98795e-10
9.98e-10,-7.98795e-10
9.99e-10,-4.80176e-09
1e-09,-5.2155e-09
1.001e-09,7.20264e-09
1.002e-09,3.47664e-09
1.003e-09,-4.635e-08
1.004e-09,-9.74372e-09
1.005e-09,-4.80176e-09
1.006e-09,-4.52823e-09
1.007e-09,-3.40696e-08
1.008e-09,-6.92911e-09
1.009e-09,1.36769e-10
1.01e-09,-2.26411e-09
1.011e-09,-2.40088e-09
1.012e-09,-4.35535e-08
1.013e-09,7.20607e-09
1.014e-09,-9.05645e-09
1.015e-09,1.42719e-08
1.016e-09,-2.53765e-09
1.017e-09,0
1.018e-09,-7.20607e-09
1.019e-09,-9.10705e-08
1.02e-09,5.07873e-09
1.021e-09,1.36769e-10
1.022e-09,-4.80176e-09
1.023e-09,9.19322e-09
1.024e-09,-2.67785e-09
1.025e-09,-6.92911e-09
1.026e-09,2.40088e-09
1.027e-09,-4.66499e-09
1.028e-09,2.26411e-09
1.029e-09,-3.86789e-08
1.03e-09,-2.40088e-09
1.031e-09,-5.00461e-08
1.032e-09,4.52823e-09
1.033e-09,-9.19322e-09
1.034e-09,4.52823e-09
1.035e-09,0
1.036e-09,1.36769e-10
1.037e-09,-2.67785e-09
1.038e-09,4.13733e-10
1.039e-09,-3.4154e-08
1.04e-09,2.26411e-09
1.041e-09,-2.67785e-09
1.042e-09,2.26411e-09
1.043e-09,-4.15246e-08
1.044e-09,0
1.045e-09,5.07873e-09
1.046e-09,2.12734e-09
1.047e-09,-4.47114e-08
1.048e-09,-4.52823e-09
1.049e-09,2.26411e-09
1.05e-09,4.2227e-12
1.051e-09,-4.28053e-08
1.052e-09,-2.54108e-09
1.053e-09,4.66499e-09
1.054e-09,-2.39805e-09
1.055e-09,2.40088e-09
1.056e-09,-4.35974e-08
1.057e-09,-1.36769e-10
1.058e-09,0
1.059e-09,-4.52823e-09
1.06e-09,-2.69315e-10
1.061e-09,-1.81279e-07
1.062e-09,1.35802e-07
1.063e-09,3.51069e-09
1.064e-09,2.26411e-09
1.065e-09,2.40793e-09
1.066e-09,-4.67204e-09
1.067e-09,3.47664e-09
1.068e-09,1.36769e-10
1.069e-09,4.52823e-09
1.07e-09,-2.2349e-07
1.071e-09,-4.27463e-08
1.072e-09,-5.16023e-08
1.073e-09,7.04958e-12
1.074e-09,-6.93616e-09
1.075e-09,2.26411e-09
1.076e-09,4.80176e-09
1.077e-09,2.21233e-07
1.078e-09,-2.2078e-07
1.079e-09,3.80212e-09
1.08e-09,-3.91146e-08
1.081e-09,1.76027e-07
1.082e-09,1.40992e-10
1.083e-09,-1.66835e-08
1.084e-09,1.91878e-08
1.085e-09,-3.81164e-10
1.086e-09,0
1.087e-09,0
1.088e-09,-3.48743e-08
1.089e-09,0
1.09e-09,1.36769e-10
1.091e-09,-4.56162e-08
1.092e-09,-2.40088e-09
1.093e-09,-4.66499e-09
1.094e-09,-4.39146e-09
1.095e-09,4.52823e-09
1.096e-09,-4.52823e-09
1.097e-09,2.26411e-09
1.098e-09,-2.71256e-08
1.099e-09,6.92911e-09
1.1e-09,-4.52823e-09
1.101e-09,0
1.102e-09,-4.07719e-08
1.103e-09,-2.26411e-09
1.104e-09,0
1.105e-09,-2.40088e-09
1.106e-09,1.08622e-08
1.107e-09,0
1.108e-09,-4.66499e-09
1.109e-09,0
1.11e-09,-3.45548e-08
1.111e-09,-6.79234e-09
1.112e-09,-4.52823e-09
1.113e-09,0
1.114e-09,-1.22928e-08
1.115e-09,-2.40088e-09
1.116e-09,6.79234e-09
1.117e-09,-4.52823e-09
1.118e-09,-3.84131e-08
1.119e-09,2.26411e-09
1.12e-09,0
1.121e-09,2.26411e-09
1.122e-09,-2.26411e-09
1.123e-09,2.26411e-09
1.124e-09,1.94345e-08
1.125e-09,0
1.126e-09,0
1.127e-09,-2.40088e-09
1.128e-09,4.66499e-09
1.129e-09,-3.62395e-08
1.13e-09,-9.05645e-09
1.131e-09,4.52823e-09
1.132e-09,-1.36769e-10
1.133e-09,4.74753e-08
1.134e-09,-2.26411e-09
1.135e-09,-2.26411e-09
1.136e-09,2.26411e-09
1.137e-09,4.52823e-09
1.138e-09,-3.84131e-08
1.139e-09,-1.36769e-10
1.14e-09,2.26411e-09
1.141e-09,6.79234e-09
1.142e-09,-2.26411e-09
1.143e-09,0
1.144e-09,7.32044e-08
1.145e-09,0
1.146e-09,-4.52823e-09
1.147e-09,4.52823e-09
1.148e-09,-2.12734e-09
1.149e-09,-3.85499e-08
1.15e-09,0
1.151e-09,-1.36769e-10
1.152e-09,1.29451e-07
1.153e-09,-2.12734e-09
1.154e-09,-1.36769e-10
1.155e-09,2.40088e-09
1.156e-09,-1.36769e-10
1.157e-09,-4.39146e-09
1.158e-09,-4.37873e-08
1.159e-09,4.39146e-09
1.16e-09,-4.66499e-09
1.161e-09,1.80907e-07
1.162e-09,2.40088e-09
1.163e-09,2.26411e-09
1.164e-09,-2.26411e-09
1.165e-09,-3.6149e-08
1.166e-09,-2.26411e-09
1.167e-09,3.97628e-07
1.168e-09,2.26411e-09
1.169e-09,-2.40088e-09
1.17e-09,-2.26411e-09
1.171e-09,-2.40088e-09
1.172e-09,2.64705e-07
1.173e-09,-3.7277e-08
1.174e-09,0
1.175e-09,1.36769e-10
1.176e-09,-2.26411e-09
1.177e-09,4.66499e-09
1.178e-09,-2.26411e-09
1.179e-09,0
1.18e-09,-1.36769e-10
1.181e-09,-3.6149e-08
1.182e-09,2.40088e-09
1.183e-09,-6.92911e-09
1.184e-09,-2.26411e-09
1.185e-09,-4.66499e-09
1.186e-09,5.00294e-07
1.187e-09,-6.69364e-09
1.188e-09,0
1.189e-09,9.09453e-09
1.19e-09,-3.66766e-08
1.191e-09,-4.66499e-09
1.192e-09,2.12734e-09
1.193e-09,1.36769e-10
1.194e-09,2.61424e-07
1.195e-09,-4.52823e-09
1.196e-09,7.06588e-09
1.197e-09,0
1.198e-09,-4.94741e-09
1.199e-09,-4.42953e-09
1.2e-09,0
1.201e-09,3.22507e-07
1.202e-09,2.26411e-09
1.203e-09,2.40088e-09
1.204e-09,0
1.205e-09,6.66784e-08
1.206e-09,-9.86941e-11
1.207e-09,-4.30842e-08
1.208e-09,4.52823e-09
1.209e-09,9.86941e-11
1.21e-09,-2.49958e-09
1.211e-09,2.40088e-09
1.212e-09,4.52823e-09
1.213e-09,3.37418e-07
1.214e-09,-3.41985e-07
1.215e-09,0
1.216e-09,3.3972e-07
1.217e-09,-4.48828e-08
1.218e-09,-2.12734e-09
1.219e-09,-1.36769e-10
1.22e-09,2.26411e-09
1.221e-09,0
1.222e-09,-2.12734e-09
1.223e-09,-2.26411e-09
1.224e-09,4.66499e-09
1.225e-09,-4.39406e-08
1.226e-09,2.40088e-09
1.227e-09,4.52823e-09
1.228e-09,6.79234e-09
1.229e-09,-6.79234e-09
1.23e-09,-1.36769e-10
1.231e-09,0
1.232e-09,0
1.233e-09,0
1.234e-09,4.52823e-09
1.235e-09,-3.85499e-08
1.236e-09,-4.39146e-09
1.237e-09,-1.36769e-10
1.238e-09,4.66499e-09
1.239e-09,1.36769e-10
1.24e-09,-2.40088e-09
1.241e-09,-4.66499e-09
1.242e-09,0
1.243e-09,6.92911e-09
1.244e-09,0
1.245e-09,-4.53493e-08
1.246e-09,0
1.247e-09,2.40088e-09
1.248e-09,2.40088e-09
1.249e-09,4.52823e-09
1.25e-09,2.26411e-09
1.251e-09,-2.53765e-09
1.252e-09,-9.05645e-09
1.253e-09,-3.05011e-08
1.254e-09,2.26411e-09
1.255e-09,2.26411e-09
1.256e-09,-6.79234e-09
1.257e-09,-4.52823e-09
1.258e-09,2.26411e-09
1.259e-09,0
1.26e-09,-2.26411e-09
1.261e-09,-3.84131e-08
1.262e-09,-2.26411e-09
1.263e-09,2.26411e-09
1.264e-09,-2.26411e-09
1.265e-09,-2.26411e-09
1.266e-09,4.52823e-09
1.267e-09,0
1.268e-09,-4.52823e-09
1.269e-09,4.52823e-09
1.27e-09,-3.4295e-08
1.271e-09,-2.26411e-09
1.272e-09,-2.26411e-09
1.273e-09,6.79234e-09
1.274e-09,0
1.275e-09,-2.26411e-09
1.276e-09,1.13206e-08
1.277e-09,-9.05645e-09
1.278e-09,-3.3388e-08
1.279e-09,6.79234e-09
1.28e-09,0
1.281e-09,4.52823e-09
1.282e-09,-4.52823e-09
1.283e-09,0
1.284e-09,0
1.285e-09,-2.26411e-09
1.286e-09,-9.05645e-09
1.287e-09,-3.14881e-08
1.288e-09,-2.26411e-09
1.289e-09,-2.26411e-09
1.29e-09,4.52823e-09
1.291e-09,0
1.292e-09,2.26411e-09
1.293e-09,2.26411e-09
1.294e-09,0
1.295e-09,0
1.296e-09,2.26411e-09
1.297e-09,-3.68129e-08
1.298e-09,4.52823e-09
1.299e-09,-2.26411e-09
1.3e-09,0
1.301e-09,-4.52823e-09
1.302e-09,0
1.303e-09,-5.52687e-08
1.304e-09,-3.7828e-08
1.305e-09,0
1.306e-09,-2.26411e-09
1.307e-09,0
1.308e-09,0
1.309e-09,-2.26411e-09
1.31e-09,-2.26411e-09
1.311e-09,0
1.312e-09,-3.47109e-08
1.313e-09,-2.26411e-09
1.314e-09,-6.79234e-09
1.315e-09,2.26411e-09
1.316e-09,2.26411e-09
1.317e-09,-2.26411e-09
1.318e-09,0
1.319e-09,-2.26411e-09
1.32e-09,-2.26411e-09
1.321e-09,-2.89925e-08
1.322e-09,0
1.323e-09,-2.26411e-09
1.324e-09,0
1.325e-09,-4.52823e-09
1.326e-09,0
1.327e-09,6.92911e-09
1.328e-09,-3.74655e-08
1.329e-09,-4.52823e-09
1.33e-09,0
1.331e-09,4.52823e-09
1.332e-09,-2.26411e-09
1.333e-09,4.52823e-09
1.334e-09,0
1.335e-09,4.52823e-09
1.336e-09,0
1.337e-09,-3.08689e-08
1.338e-09,-4.52823e-09
1.339e-09,2.26411e-09
1.34e-09,-9.05645e-09
1.341e-09,-2.26411e-09
1.342e-09,2.26411e-09
1.343e-09,2.26411e-09
1.344e-09,-4.52823e-09
1.345e-09,-2.26411e-09
1.346e-09,2.26411e-09
1.347e-09,-2.85085e-08
1.348e-09,0
1.349e-09,-3.86557e-09
1.35e-09,6.63302e-09
1.351e-09,-8.89714e-09
1.352e-09,2.26411e-09
1.353e-09,-2.26411e-09
1.354e-09,0
1.355e-09,-2.64659e-08
1.356e-09,-4.52823e-09
1.357e-09,0
1.358e-09,2.12734e-09
1.359e-09,-2.96082e-10
1.36e-09,2.40088e-09
1.361e-09,0
1.362e-09,2.96082e-10
1.363e-09,0
1.364e-09,-4.66499e-09
1.365e-09,-2.81631e-08
1.366e-09,1.36769e-10
1.367e-09,2.26411e-09
1.368e-09,-2.40088e-09
1.369e-09,6.92911e-09
1.37e-09,-2.40088e-09
1.371e-09,-4.52823e-09
1.372e-09,4.52823e-09
1.373e-09,0
1.374e-09,-2.20934e-08
1.375e-09,2.26411e-09
1.376e-09,-9.62561e-08
1.377e-09,0
1.378e-09,0
1.379e-09,9.3992e-08
1.38e-09,-4.52823e-09
1.381e-09,-2.32413e-08
1.382e-09,4.52823e-09
1.383e-09,-6.79234e-09
1.384e-09,2.26411e-09
1.385e-09,0
1.386e-09,-4.52823e-09
1.387e-09,0
1.388e-09,0
1.389e-09,9.05645e-09
1.39e-09,0
1.391e-09,-2.11346e-08
1.392e-09,-4.52823e-09
1.393e-09,2.26411e-09
1.394e-09,2.26411e-09
1.395e-09,-4.52823e-09
1.396e-09,-2.26411e-09
1.397e-09,0
1.398e-09,0
1.399e-09,0
1.4e-09,-1.1519e-08
1.401e-09,0
1.402e-09,0
1.403e-09,0
1.404e-09,0
1.405e-09,-2.26411e-09
1.406e-09,2.26411e-09
1.407e-09,2.26411e-09
1.408e-09,-2.26411e-09
1.409e-09,2.26411e-09
1.41e-09,-1.5784e-08
1.411e-09,0
1.412e-09,2.26411e-09
1.413e-09,2.26411e-09
1.414e-09,-2.26411e-09
1.415e-09,0
1.416e-09,2.26411e-09
1.417e-09,-1.35376e-08
1.418e-09,4.52823e-09
1.419e-09,-4.52823e-09
1.42e-09,2.26411e-09
1.421e-09,0
1.422e-09,-2.26411e-09
1.423e-09,2.26411e-09
1.424e-09,0
1.425e-09,0
1.426e-09,2.5437e-09
1.427e-09,0
1.428e-09,0
1.429e-09,0
1.43e-09,2.26411e-09
1.431e-09,2.26411e-09
1.432e-09,-2.26411e-09
1.433e-09,-1.34153e-07
1.434e-09,1.33935e-07
1.435e-09,-1.62407e-07
1.436e-09,-6.79234e-09
1.437e-09,2.26411e-09
1.438e-09,0
1.439e-09,2.26411e-09
1.44e-09,-4.52823e-09
1.441e-09,2.26411e-09
1.442e-09,5.38468e-09
1.443e-09,0
1.444e-09,2.40088e-09
1.445e-09,0
1.446e-09,-2.40088e-09
1.447e-09,0
1.448e-09,-2.26411e-09
1.449e-09,4.52823e-09
1.45e-09,0
1.451e-09,1.36769e-10
1.452e-09,0
1.453e-09,7.29046e-09
1.454e-09,0
1.455e-09,-2.40088e-09
1.456e-09,-2.26411e-09
1.457e-09,0
1.458e-09,4.66499e-09
1.459e-09,-2.26411e-09
1.46e-09,2.12734e-09
1.461e-09,4.52823e-09
1.462e-09,1.82842e-08
1.463e-09,0
1.464e-09,-4.52823e-09
1.465e-09,2.26411e-09
1.466e-09,-6.79234e-09
1.467e-09,1.96432e-07
1.468e-09,2.26411e-09
1.469e-09,-4.52823e-09
1.47e-09,2.26411e-09
1.471e-09,-2.26411e-09
1.472e-09,4.04575e-08
1.473e-09,2.26411e-09
1.474e-09,0
1.475e-09,0
1.476e-09,0
1.477e-09,-4.52823e-09
1.478e-09,2.26411e-09
1.479e-09,-4.52823e-09
1.48e-09,6.8086e-08
1.481e-09,0
1.482e-09,0
1.483e-09,-2.26411e-09
1.484e-09,0
1.485e-09,2.26411e-09
1.486e-09,2.26411e-09
1.487e-09,-2.26411e-09
1.488e-09,0
1.489e-09,8.24237e-08
1.49e-09,-2.26411e-09
1.491e-09,-2.26411e-09
1.492e-09,2.26411e-09
1.493e-09,0
1.494e-09,4.52823e-09
1.495e-09,-4.52823e-09
1.496e-09,0
1.497e-09,4.52823e-09
1.498e-09,0
1.499e-09,3.20381e-07
1.5e-09,-2.26411e-09
1.501e-09,2.26411e-09
1.502e-09,2.26411e-09
1.503e-09,0
1.504e-09,-2.26411e-09
1.505e-09,4.52823e-09
1.506e-09,0
1.507e-09,0
1.508e-09,0
1.509e-09,1.46679e-07
1.51e-09,2.26411e-09
1.511e-09,-2.26411e-09
1.512e-09,0
1.513e-09,0
1.514e-09,2.26411e-09
1.515e-09,0
1.516e-09,-2.26411e-09
1.517e-09,2.01922e-07
1.518e-09,1.99494e-07
1.519e-09,-4.52823e-09
1.52e-09,0
1.521e-09,0
1.522e-09,0
1.523e-09,0
1.524e-09,2.26411e-09
1.525e-09,2.26411e-09
1.526e-09,0
1.527e-09,2.54665e-07
1.528e-09,0
1.529e-09,0
1.53e-09,0
1.531e-09,0
1.532e-09,-2.26411e-09
1.533e-09,0
1.534e-09,0
1.535e-09,3.1653e-07
1.536e-09,-2.26411e-09
1.537e-09,2.26411e-09
1.538e-09,2.26411e-09
1.539e-09,0
1.54e-09,2.26411e-09
1.541e-09,0
1.542e-09,-4.52823e-09
1.543e-09,1.71509e-07
1.544e-09,4.35707e-08
1.545e-09,0
1.546e-09,4.52823e-09
1.547e-09,-2.26411e-09
1.548e-09,2.26411e-09
1.549e-09,-2.26411e-09
1.55e-09,2.26411e-09
1.551e-09,4.52823e-09
1.552e-09,0
1.553e-09,-4.52823e-09
1.554e-09,-6.79234e-09
1.555e-09,2.26411e-09
1.556e-09,6.79234e-09
1.557e-09,0
1.558e-09,0
1.559e-09,0
1.56e-09,0
1.561e-09,-2.26411e-09
1.562e-09,-4.52823e-09
1.563e-09,4.52823e-09
1.564e-09,-2.24373e-09
1.565e-09,-2.26411e-09
1.566e-09,2.26411e-09
1.567e-09,4.52823e-09
1.568e-09,-2.26411e-09
1.569e-09,2.26411e-09
1.57e-09,2.26411e-09
1.571e-09,0
1.572e-09,0
1.573e-09,-4.52823e-09
1.574e-09,0
1.575e-09,0
1.576e-09,2.26411e-09
1.577e-09,-4.52823e-09
1.578e-09,2.26411e-09
1.579e-09,0
1.58e-09,-4.52823e-09
1.581e-09,2.26411e-09
1.582e-09,0
1.583e-09,-2.26411e-09
1.584e-09,2.26411e-09
1.585e-09,4.52823e-09
1.586e-09,-2.26411e-09
1.587e-09,-6.79234e-09
1.588e-09,-2.21148e-09
1.589e-09,6.79234e-09
1.59e-09,-6.79234e-09
1.591e-09,0
1.592e-09,0
1.593e-09,-2.26411e-09
1.594e-09,2.26411e-09
1.595e-09,-2.26411e-09
1.596e-09,4.52823e-09
1.597e-09,-2.26411e-09
1.598e-09,2.26411e-09
1.599e-09,0
1.6e-09,2.26411e-09
1.601e-09,-2.26411e-09
1.602e-09,0
1.603e-09,0
1.604e-09,6.79234e-09
1.605e-09,-2.26411e-09
1.606e-09,2.40088e-09
1.607e-09,-1.36769e-10
1.608e-09,-2.26411e-09
1.609e-09,2.40088e-09
1.61e-09,0
1.611e-09,0
1.612e-09,0
1.613e-09,0
1.614e-09,0
1.615e-09,2.26411e-09
1.616e-09,-2.26411e-09
1.617e-09,-4.52823e-09
1.618e-09,-1.36769e-10
1.619e-09,0
1.62e-09,-4.52823e-09
1.621e-09,0
1.622e-09,2.26411e-09
1.623e-09,2.26411e-09
1.624e-09,-2.26411e-09
1.625e-09,2.26411e-09
1.626e-09,2.26411e-09
1.627e-09,-2.26411e-09
1.628e-09,2.26411e-09
1.629e-09,0
1.63e-09,0
1.631e-09,2.26411e-09
1.632e-09,0
1.633e-09,0
1.634e-09,-2.26411e-09
1.635e-09,0
1.636e-09,4.66499e-09
1.637e-09,-2.26411e-09
1.638e-09,-2.26411e-09
1.639e-09,4.52823e-09
1.64e-09,-4.52823e-09
1.641e-09,2.26411e-09
1.642e-09,0
1.643e-09,-2.26411e-09
1.644e-09,2.40088e-09
1.645e-09,-1.36769e-10
1.646e-09,-4.66499e-09
1.647e-09,-2.26411e-09
1.648e-09,4.52823e-09
1.649e-09,0
1.65e-09,-2.26411e-09
1.651e-09,-4.52823e-09
1.652e-09,2.26411e-09
1.653e-09,0
1.654e-09,0
1.655e-09,4.66499e-09
1.656e-09,0
1.657e-09,2.26411e-09
1.658e-09,0
1.659e-09,-4.66499e-09
1.66e-09,-4.52823e-09
1.661e-09,0
1.662e-09,-2.26411e-09
1.663e-09,0
1.664e-09,0
1.665e-09,0
1.666e-09,0
1.667e-09,2.26411e-09
1.668e-09,2.26411e-09
1.669e-09,0
1.67e-09,-2.26411e-09
1.671e-09,4.52823e-09
1.672e-09,0
1.673e-09,0
1.674e-09,0
1.675e-09,0
1.676e-09,2.40088e-09
1.677e-09,-4.66499e-09
1.678e-09,6.92911e-09
1.679e-09,-6.92911e-09
1.68e-09,4.66499e-09
1.681e-09,-1.36769e-10
1.682e-09,2.40088e-09
1.683e-09,-2.26411e-09
1.684e-09,0
1.685e-09,2.26411e-09
1.686e-09,-2.26411e-09
1.687e-09,0
1.688e-09,0
1.689e-09,-2.40088e-09
1.69e-09,4.52823e-09
1.691e-09,0
1.692e-09,-4.52823e-09
1.693e-09,0
1.694e-09,0
1.695e-09,-2.26411e-09
1.696e-09,0
1.697e-09,0
1.698e-09,0
1.699e-09,-2.26411e-09
1.7e-09,2.26411e-09
1.701e-09,0
1.702e-09,4.52823e-09
1.703e-09,0
1.704e-09,0
1.705e-09,0
1.706e-09,-2.26411e-09
1.707e-09,-2.26411e-09
1.708e-09,4.52823e-09
1.709e-09,-2.26411e-09
1.71e-09,2.26411e-09
1.711e-09,0
1.712e-09,0
1.713e-09,0
1.714e-09,-2.26411e-09
1.715e-09,-2.26411e-09
1.716e-09,0
1.717e-09,0
1.718e-09,0
1.719e-09,0
1.72e-09,-2.26411e-09
1.721e-09,0
1.722e-09,2.26411e-09
1.723e-09,2.26411e-09
1.724e-09,-2.26411e-09
1.725e-09,-2.26411e-09
1.726e-09,2.26411e-09
1.727e-09,0
1.728e-09,0
1.729e-09,0
1.73e-09,0
1.731e-09,1.36769e-10
1.732e-09,0
1.733e-09,-2.40088e-09
1.734e-09,2.26411e-09
1.735e-09,2.26411e-09
1.736e-09,-2.26411e-09
1.737e-09,0
1.738e-09,2.40088e-09
1.739e-09,-4.66499e-09
1.74e-09,0
1.741e-09,0
1.742e-09,0
1.743e-09,2.26411e-09
1.744e-09,0
1.745e-09,0
1.746e-09,0
1.747e-09,0
1.748e-09,-2.26411e-09
1.749e-09,0
1.75e-09,0
1.751e-09,-2.26411e-09
1.752e-09,0
1.753e-09,4.52823e-09
1.754e-09,0
1.755e-09,-2.26411e-09
1.756e-09,0
1.757e-09,0
1.758e-09,0
1.759e-09,2.26411e-09
1.76e-09,0
1.761e-09,-4.52823e-09
1.762e-09,2.26411e-09
1.763e-09,0
1.764e-09,2.26411e-09
1.765e-09,0
1.766e-09,0
1.767e-09,0
1.768e-09,2.26411e-09
1.769e-09,-2.26411e-09
1.77e-09,0
1.771e-09,-2.26411e-09
1.772e-09,0
1.773e-09,2.26411e-09
1.774e-09,-4.52823e-09
1.775e-09,6.79234e-09
1.776e-09,0
1.777e-09,-2.26411e-09
1.778e-09,0
1.779e-09,0
1.78e-09,0
1.781e-09,2.26411e-09
1.782e-09,-2.26411e-09
1.783e-09,-2.26411e-09
1.784e-09,-2.26411e-09
1.785e-09,-2.26411e-09
1.786e-09,0
1.787e-09,2.26411e-09
1.788e-09,2.26411e-09
1.789e-09,0
1.79e-09,2.26411e-09
1.791e-09,0
1.792e-09,2.26411e-09
1.793e-09,-2.26411e-09
1.794e-09,0
1.795e-09,-6.79234e-09
1.796e-09,2.26411e-09
1.797e-09,0
1.798e-09,0
1.799e-09,4.52823e-09
1.8e-09,-2.26411e-09
1.801e-09,2.26411e-09
1.802e-09,-4.52823e-09
1.803e-09,6.79234e-09
1.804e-09,-2.26411e-09
1.805e-09,0
1.806e-09,0
1.807e-09,-2.26411e-09
1.808e-09,0
1.809e-09,0
1.81e-09,-2.26411e-09
1.811e-09,0
1.812e-09,0
1.813e-09,-2.26411e-09
1.814e-09,0
1.815e-09,4.52823e-09
1.816e-09,-2.26411e-09
1.817e-09,4.52823e-09
1.818e-09,0
1.819e-09,-2.26411e-09
1.82e-09,4.52823e-09
1.821e-09,-2.26411e-09
1.822e-09,0
1.823e-09,0
1.824e-09,0
1.825e-09,-4.52823e-09
1.826e-09,0
1.827e-09,0
1.828e-09,2.26411e-09
1.829e-09,0
1.83e-09,0
1.831e-09,0
1.832e-09,0
1.833e-09,0
1.834e-09,0
1.835e-09,0
1.836e-09,-2.26411e-09
1.837e-09,0
1.838e-09,0
1.839e-09,2.26411e-09
1.84e-09,0
1.841e-09,-2.26411e-09
1.842e-09,2.26411e-09
1.843e-09,2.26411e-09
1.844e-09,-2.26411e-09
1.845e-09,-2.26411e-09
1.846e-09,0
1.847e-09,-4.52823e-09
1.848e-09,4.52823e-09
1.849e-09,2.26411e-09
1.85e-09,0
1.851e-09,2.40088e-09
1.852e-09,-2.40088e-09
1.853e-09,2.26411e-09
1.854e-09,0
1.855e-09,0
1.856e-09,-4.52823e-09
1.857e-09,4.52823e-09
1.858e-09,-2.26411e-09
1.859e-09,2.26411e-09
1.86e-09,0
1.861e-09,0
1.862e-09,-2.26411e-09
1.863e-09,1.36769e-10
1.864e-09,2.26411e-09
1.865e-09,2.26411e-09
1.866e-09,0
1.867e-09,2.26411e-09
1.868e-09,0
1.869e-09,-2.26411e-09
1.87e-09,-1.36769e-10
1.871e-09,2.26411e-09
1.872e-09,0
1.873e-09,-2.26411e-09
1.874e-09,4.52823e-09
1.875e-09,-2.26411e-09
1.876e-09,-2.26411e-09
1.877e-09,-2.26411e-09
1.878e-09,1.36769e-10
1.879e-09,-4.66499e-09
1.88e-09,-2.26411e-09
1.881e-09,9.05645e-09
1.882e-09,-2.26411e-09
1.883e-09,4.52823e-09
1.884e-09,-2.26411e-09
1.885e-09,-4.52823e-09
1.886e-09,2.26411e-09
1.887e-09,2.26411e-09
1.888e-09,2.26411e-09
1.889e-09,-4.52823e-09
1.89e-09,-4.52823e-09
1.891e-09,4.52823e-09
1.892e-09,0
1.893e-09,2.26411e-09
1.894e-09,0
1.895e-09,-2.26411e-09
1.896e-09,4.52823e-09
1.897e-09,0
1.898e-09,0
1.899e-09,0
1.9e-09,0
1.901e-09,-4.52823e-09
1.902e-09,4.52823e-09
1.903e-09,-2.26411e-09
1.904e-09,-4.52823e-09
1.905e-09,4.52823e-09
1.906e-09,-2.26411e-09
1.907e-09,-2.26411e-09
1.908e-09,0
1.909e-09,2.26411e-09
1.91e-09,-2.26411e-09
1.911e-09,-2.26411e-09
1.912e-09,2.26411e-09
1.913e-09,0
1.914e-09,2.26411e-09
1.915e-09,-2.26411e-09
1.916e-09,-2.26411e-09
1.917e-09,2.26411e-09
1.918e-09,4.52823e-09
1.919e-09,0
1.92e-09,0
1.921e-09,-2.26411e-09
1.922e-09,0
1.923e-09,0
1.924e-09,0
1.925e-09,-4.52823e-09
1.926e-09,0
1.927e-09,2.26411e-09
1.928e-09,2.26411e-09
1.929e-09,-6.79234e-09
1.93e-09,2.26411e-09
1.931e-09,0
1.932e-09,-2.26411e-09
1.933e-09,-6.79234e-09
1.934e-09,9.05645e-09
1.935e-09,-4.52823e-09
1.936e-09,-2.26411e-09
1.937e-09,-2.26411e-09
1.938e-09,-2.26411e-09
1.939e-09,4.52823e-09
1.94e-09,2.26411e-09
1.941e-09,2.26411e-09
1.942e-09,6.79234e-09
1.943e-09,0
1.944e-09,0
1.945e-09,-4.52823e-09
1.946e-09,0
1.947e-09,-2.26411e-09
1.948e-09,2.26411e-09
1.949e-09,0
1.95e-09,2.26411e-09
1.951e-09,-2.26411e-09
1.952e-09,-4.52823e-09
1.953e-09,6.79234e-09
1.954e-09,0
1.955e-09,2.40088e-09
1.956e-09,-2.40088e-09
1.957e-09,0
1.958e-09,4.66499e-09
1.959e-09,0
1.96e-09,-2.40088e-09
1.961e-09,2.40088e-09
1.962e-09,-2.26411e-09
1.963e-09,-4.52823e-09
1.964e-09,2.26411e-09
1.965e-09,0
1.966e-09,-2.26411e-09
1.967e-09,0
1.968e-09,-1.36769e-10
1.969e-09,2.40088e-09
1.97e-09,2.12734e-09
1.971e-09,-4.52823e-09
1.972e-09,4.52823e-09
1.973e-09,0
1.974e-09,2.26411e-09
1.975e-09,-2.26411e-09
1.976e-09,2.26411e-09
1.977e-09,-4.52823e-09
1.978e-09,2.26411e-09
1.979e-09,0
1.98e-09,0
1.981e-09,0
1.982e-09,-2.26411e-09
1.983e-09,0
1.984e-09,2.26411e-09
1.985e-09,0
1.986e-09,0
1.987e-09,-2.26411e-09
1.988e-09,0
1.989e-09,0
1.99e-09,0
1.991e-09,-2.26411e-09
1.992e-09,0
1.993e-09,0
1.994e-09,0
1.995e-09,2.26411e-09
1.996e-09,0
1.997e-09,0
1.998e-09,0
1.999e-09,0
2e-09,0
2.001e-09,0
2.1e-09,0
