0,0
1e-12,1.20231e-08
2e-12,2.15602e-07
3e-12,-1.32796e-06
4e-12,-1.62507e-06
5e-12,-9.89743e-07
6e-12,6.5895e-08
7e-12,-5.42621e-07
8e-12,7.17506e-07
9e-12,3.66268e-07
1e-11,-2.68688e-06
1.1e-11,-1.36354e-07
1.2e-11,-5.37867e-08
1.3e-11,-5.86e-07
1.4e-11,5.49383e-08
1.5e-11,-2.27492e-08
1.6e-11,-2.15673e-06
1.7e-11,4.57527e-07
1.8e-11,-7.29349e-07
1.9e-11,-9.22387e-07
2e-11,2.64939e-08
2.1e-11,-6.83496e-07
2.2e-11,-7.11652e-07
2.3e-11,-2.11794e-06
2.4e-11,-7.50356e-07
2.5e-11,1.41241e-06
2.6e-11,-1.60041e-06
2.7e-11,5.70806e-07
2.8e-11,-1.01941e-06
2.9e-11,6.33579e-07
3e-11,-1.7422e-06
3.1e-11,4.70489e-08
3.2e-11,-4.32876e-07
3.3e-11,-1.09684e-06
3.4e-11,2.28225e-07
3.5e-11,1.22916e-08
3.6e-11,-1.21005e-06
3.7e-11,-6.87501e-07
3.8e-11,-4.83509e-07
3.9e-11,-8.44064e-07
4e-11,8.08613e-08
4.1e-11,-2.54802e-06
4.2e-11,3.29382e-07
4.3e-11,-8.1333e-07
4.4e-11,7.876e-07
4.5e-11,-1.88439e-06
4.6e-11,1.80733e-07
4.7e-11,-1.34996e-06
4.8e-11,-8.12341e-07
4.9e-11,-9.29642e-07
5e-11,-5.75986e-07
5.1e-11,-6.83686e-07
5.2e-11,-1.5381e-06
5.3e-11,-1.22899e-06
5.4e-11,-2.85173e-07
5.5e-11,-8.49833e-07
5.6e-11,-8.05283e-07
5.7e-11,-1.3917e-06
5.8e-11,-7.52982e-07
5.9e-11,-2.40243e-07
6e-11,-1.10511e-06
6.1e-11,-3.72445e-07
6.2e-11,-7.7196e-07
6.3e-11,-3.57179e-07
6.4e-11,-2.90039e-07
6.5e-11,-1.19281e-06
6.6e-11,-8.24628e-07
6.7e-11,1.355e-07
6.8e-11,-3.51178e-07
6.9e-11,-2.68244e-06
7e-11,-5.87118e-07
7.1e-11,-4.13588e-07
7.2e-11,-1.79702e-07
7.3e-11,-3.92896e-08
7.4e-11,-4.37056e-07
7.5e-11,-4.1264e-07
7.6e-11,-9.43711e-07
7.7e-11,-1.2907e-06
7.8e-11,-1.70767e-06
7.9e-11,-7.17917e-07
8e-11,-1.24172e-06
8.1e-11,-5.73603e-07
8.2e-11,-4.45796e-07
8.3e-11,-6.04924e-09
8.4e-11,-1.16219e-07
8.5e-11,-6.76005e-07
8.6e-11,-8.2821e-07
8.7e-11,-9.66611e-07
8.8e-11,-9.73455e-08
8.9e-11,-6.61202e-07
9e-11,-1.13284e-07
9.1e-11,-2.89238e-07
9.2e-11,-1.17831e-06
9.3e-11,-1.58711e-06
9.4e-11,-2.0992e-07
9.5e-11,-1.19473e-06
9.6e-11,-9.15388e-07
9.7e-11,-2.05421e-07
9.8e-11,-3.66404e-07
9.9e-11,-5.16197e-07
1e-10,-5.23363e-07
1.01e-10,7.06156e-08
1.02e-10,-8.52977e-07
1.03e-10,-8.78903e-07
1.04e-10,-3.19994e-07
1.05e-10,-7.47778e-07
1.06e-10,1.8296e-07
1.07e-10,-1.75018e-06
1.08e-10,-6.51714e-07
1.09e-10,-8.4131e-07
1.1e-10,-1.10136e-07
1.11e-10,-6.57199e-07
1.12e-10,-1.01541e-06
1.13e-10,-1.11433e-06
1.14e-10,-1.70695e-07
1.15e-10,-2.25455e-07
1.16e-10,1.59004e-07
1.17e-10,-2.00327e-06
1.18e-10,-1.43128e-06
1.19e-10,-6.65921e-07
1.2e-10,-3.23665e-07
1.21e-10,-2.20601e-07
1.22e-10,-1.91677e-07
1.23e-10,-1.27311e-06
1.24e-10,-8.34343e-07
1.25e-10,-1.26236e-07
1.26e-10,-2.4089e-07
1.27e-10,-1.53178e-06
1.28e-10,-7.22912e-07
1.29e-10,-1.6004e-06
1.3e-10,-4.90985e-07
1.31e-10,-2.3744e-07
1.32e-10,-6.08444e-07
1.33e-10,-3.84966e-07
1.34e-10,-3.64319e-07
1.35e-10,-1.43849e-06
1.36e-10,1.41414e-07
1.37e-10,-8.96017e-07
1.38e-10,-3.81802e-08
1.39e-10,-1.69154e-06
1.4e-10,-2.84514e-08
1.41e-10,-3.47726e-07
1.42e-10,-2.243e-06
1.43e-10,-2.04529e-07
1.44e-10,-2.68047e-07
1.45e-10,-1.16917e-06
1.46e-10,-6.38854e-07
1.47e-10,-2.76164e-07
1.48e-10,2.20327e-08
1.49e-10,-1.58317e-06
1.5e-10,-2.74757e-09
1.51e-10,-8.06075e-07
1.52e-10,-3.84045e-07
1.53e-10,-7.41875e-07
1.54e-10,-6.48931e-07
1.55e-10,-1.90458e-06
1.56e-10,-1.65763e-07
1.57e-10,6.26974e-07
1.58e-10,-5.58838e-07
1.59e-10,-1.49651e-06
1.6e-10,-1.01654e-06
1.61e-10,-5.76312e-07
1.62e-10,-1.69397e-07
1.63e-10,-3.78058e-07
1.64e-10,-1.77848e-06
1.65e-10,-1.51971e-06
1.66e-10,3.79176e-08
1.67e-10,-1.13456e-06
1.68e-10,-4.4855e-08
1.69e-10,-1.70129e-07
1.7e-10,-3.04881e-06
1.71e-10,2.76472e-07
1.72e-10,-3.01785e-07
1.73e-10,-6.02267e-07
1.74e-10,-2.05932e-07
1.75e-10,-2.45766e-06
1.76e-10,-6.2904e-07
1.77e-10,-3.13499e-08
1.78e-10,-7.67529e-07
1.79e-10,-1.55964e-06
1.8e-10,-1.22384e-07
1.81e-10,-6.37247e-07
1.82e-10,-3.94156e-07
1.83e-10,-3.99341e-07
1.84e-10,-4.65524e-07
1.85e-10,-1.27521e-06
1.86e-10,-1.33206e-07
1.87e-10,-1.58158e-06
1.88e-10,-1.13805e-06
1.89e-10,-9.76212e-07
1.9e-10,-4.39341e-07
1.91e-10,-1.04661e-06
1.92e-10,6.90242e-07
1.93e-10,-5.36096e-07
1.94e-10,-7.67445e-07
1.95e-10,-1.94818e-06
1.96e-10,-1.70009e-06
1.97e-10,-1.80064e-07
1.98e-10,9.28594e-08
1.99e-10,2.73322e-08
2e-10,-3.52405e-07
2.01e-10,-1.91955e-07
2.02e-10,-1.24819e-06
2.03e-10,-5.75556e-09
2.04e-10,-4.7255e-07
2.05e-10,-3.19797e-07
2.06e-10,-8.97863e-07
2.07e-10,-1.33399e-07
2.08e-10,-7.52535e-07
2.09e-10,-1.03303e-06
2.1e-10,-3.49195e-07
2.11e-10,-3.06233e-07
2.12e-10,-6.77466e-07
2.13e-10,-1.5968e-06
2.14e-10,1.46187e-07
2.15e-10,-3.29648e-07
2.16e-10,-9.2568e-08
2.17e-10,4.5321e-07
2.18e-10,-8.51287e-07
2.19e-10,-5.37072e-07
2.2e-10,-1.77072e-06
2.21e-10,-7.04263e-07
2.22e-10,-1.59707e-07
2.23e-10,-8.95946e-07
2.24e-10,-5.99768e-07
2.25e-10,-7.68368e-07
2.26e-10,2.75049e-08
2.27e-10,-7.54503e-07
2.28e-10,-9.70217e-07
2.29e-10,-9.29862e-07
2.3e-10,-3.23025e-09
2.31e-10,-5.25433e-07
2.32e-10,-3.88888e-07
2.33e-10,-1.53942e-06
2.34e-10,-3.94192e-07
2.35e-10,-2.19267e-07
2.36e-10,-4.8251e-08
2.37e-10,-2.87248e-07
2.38e-10,-1.11776e-06
2.39e-10,-1.16717e-06
2.4e-10,-2.17303e-07
2.41e-10,-1.4263e-06
2.42e-10,-1.20937e-07
2.43e-10,-4.86684e-07
2.44e-10,1.3058e-07
2.45e-10,-6.23611e-07
2.46e-10,-6.33784e-07
2.47e-10,-6.75192e-07
2.48e-10,-3.89573e-07
2.49e-10,-1.38145e-06
2.5e-10,-6.43588e-07
2.51e-10,-1.75421e-06
2.52e-10,-1.07414e-07
2.53e-10,-3.80323e-07
2.54e-10,-2.21674e-07
2.55e-10,-6.61694e-07
2.56e-10,-2.53957e-07
2.57e-10,-9.57558e-07
2.58e-10,-4.77476e-07
2.59e-10,-1.59152e-06
2.6e-10,-6.19758e-07
2.61e-10,-1.44204e-06
2.62e-10,-2.34374e-08
2.63e-10,-7.70301e-07
2.64e-10,-4.85335e-07
2.65e-10,-5.55538e-07
2.66e-10,-1.04433e-07
2.67e-10,-1.82697e-07
2.68e-10,-2.6044e-07
2.69e-10,-1.50305e-06
2.7e-10,-9.88478e-07
2.71e-10,2.12031e-07
2.72e-10,-7.5154e-08
2.73e-10,-2.36726e-06
2.74e-10,-5.95101e-07
2.75e-10,-3.02505e-07
2.76e-10,-1.81621e-07
2.77e-10,-1.44194e-07
2.78e-10,-2.45776e-07
2.79e-10,-1.0856e-06
2.8e-10,-2.98733e-07
2.81e-10,-6.85163e-08
2.82e-10,-2.65538e-06
2.83e-10,-2.2789e-07
2.84e-10,-9.64948e-07
2.85e-10,-3.63881e-07
2.86e-10,-9.95746e-08
2.87e-10,1.89291e-07
2.88e-10,-5.02029e-07
2.89e-10,1.04635e-07
2.9e-10,-1.56432e-07
2.91e-10,-1.70006e-07
2.92e-10,-1.52481e-06
2.93e-10,-1.90488e-06
2.94e-10,-6.65252e-08
2.95e-10,-3.08162e-07
2.96e-10,-8.09674e-08
2.97e-10,3.09806e-07
2.98e-10,-6.01745e-08
2.99e-10,-1.23105e-06
3e-10,-1.48456e-07
3.01e-10,-5.63182e-07
3.02e-10,-2.39975e-07
3.03e-10,-9.27931e-07
3.04e-10,-3.60578e-07
3.05e-10,-1.5074e-07
3.06e-10,-4.01464e-07
3.07e-10,-3.99892e-07
3.08e-10,2.82407e-07
3.09e-10,1.63436e-07
3.1e-10,-1.2847e-06
3.11e-10,-1.09508e-06
3.12e-10,-5.32609e-07
3.13e-10,-3.73425e-09
3.14e-10,2.22027e-07
3.15e-10,-1.5604e-06
3.16e-10,-3.94724e-07
3.17e-10,4.20548e-08
3.18e-10,-7.91394e-07
3.19e-10,-8.3733e-07
3.2e-10,-2.53963e-07
3.21e-10,-2.75858e-07
3.22e-10,-5.64955e-07
3.23e-10,-9.26935e-07
3.24e-10,2.42529e-07
3.25e-10,-1.4865e-06
3.26e-10,-3.74218e-07
3.27e-10,-9.637e-07
3.28e-10,-6.00737e-07
3.29e-10,-2.5307e-07
3.3e-10,6.51882e-08
3.31e-10,-1.4011e-06
3.32e-10,-5.20773e-07
3.33e-10,-1.7827e-07
3.34e-10,-3.06936e-07
3.35e-10,-2.65241e-07
3.36e-10,-3.70069e-07
3.37e-10,7.62766e-08
3.38e-10,-1.63353e-06
3.39e-10,-2.17628e-07
3.4e-10,-2.13832e-06
3.41e-10,-9.49681e-07
3.42e-10,-1.16701e-06
3.43e-10,-1.80725e-07
3.44e-10,3.0031e-07
3.45e-10,-6.07272e-07
3.46e-10,-9.39124e-07
3.47e-10,-3.85957e-07
3.48e-10,-7.78513e-08
3.49e-10,-1.16777e-06
3.5e-10,-2.03173e-07
3.51e-10,-9.37585e-09
3.52e-10,-1.24269e-06
3.53e-10,-4.33661e-08
3.54e-10,-1.30893e-06
3.55e-10,-1.72999e-06
3.56e-10,-5.45171e-07
3.57e-10,2.90725e-08
3.58e-10,-4.95597e-07
3.59e-10,-3.23058e-07
3.6e-10,-4.33884e-07
3.61e-10,-2.09139e-07
3.62e-10,-3.86522e-07
3.63e-10,-1.47088e-06
3.64e-10,3.73638e-08
3.65e-10,-9.98071e-07
3.66e-10,2.31619e-09
3.67e-10,-4.99974e-07
3.68e-10,-1.31108e-06
3.69e-10,-1.0816e-06
3.7e-10,1.22083e-07
3.71e-10,1.22334e-07
3.72e-10,-6.30432e-08
3.73e-10,-1.25607e-06
3.74e-10,1.06954e-07
3.75e-10,-5.60683e-07
3.76e-10,1.85092e-07
3.77e-10,-1.45673e-06
3.78e-10,-4.96296e-07
3.79e-10,-4.61384e-07
3.8e-10,-3.5838e-07
3.81e-10,-1.7906e-07
3.82e-10,-3.08223e-07
3.83e-10,-2.42156e-07
3.84e-10,3.00813e-10
3.85e-10,-1.32179e-07
3.86e-10,-9.21499e-07
3.87e-10,-7.96493e-07
3.88e-10,1.60531e-07
3.89e-10,-2.17478e-07
3.9e-10,6.89602e-08
3.91e-10,-1.2882e-06
3.92e-10,-1.83308e-07
3.93e-10,-3.47674e-08
3.94e-10,-2.80814e-07
3.95e-10,9.82156e-08
3.96e-10,-4.32228e-08
3.97e-10,-4.54074e-07
3.98e-10,4.48446e-08
3.99e-10,-1.1262e-06
4e-10,-7.09142e-08
4.01e-10,-1.54322e-06
4.02e-10,-2.53418e-07
4.03e-10,-2.88464e-08
4.04e-10,-8.93741e-08
4.05e-10,-4.03455e-08
4.06e-10,-2.69071e-07
4.07e-10,-6.27266e-08
4.08e-10,-1.47972e-07
4.09e-10,-1.33942e-09
4.1e-10,9.47027e-08
4.11e-10,-1.27751e-06
4.12e-10,-5.70487e-08
4.13e-10,-1.26351e-07
4.14e-10,1.29212e-08
4.15e-10,-1.27203e-06
4.16e-10,-2.25326e-08
4.17e-10,-2.65239e-07
4.18e-10,3.77081e-07
4.19e-10,-1.6061e-07
4.2e-10,-6.49369e-08
4.21e-10,-1.2498e-06
4.22e-10,5.1765e-10
4.23e-10,-1.55068e-06
4.24e-10,1.78665e-09
4.25e-10,-1.1581e-06
4.26e-10,-6.65453e-08
4.27e-10,-8.93176e-08
4.28e-10,-3.74416e-07
4.29e-10,2.29802e-07
4.3e-10,-1.47226e-06
4.31e-10,-7.2824e-08
4.32e-10,-1.57555e-06
4.33e-10,6.43476e-07
4.34e-10,4.86049e-08
4.35e-10,5.2652e-08
4.36e-10,-3.09437e-07
4.37e-10,-9.96193e-07
4.38e-10,-5.26897e-07
4.39e-10,-1.29176e-07
4.4e-10,-4.05776e-07
4.41e-10,1.524e-07
4.42e-10,-2.76401e-07
4.43e-10,7.00404e-08
4.44e-10,2.83034e-07
4.45e-10,-2.55848e-07
4.46e-10,-2.35139e-08
4.47e-10,-3.2839e-08
4.48e-10,-2.27267e-07
4.49e-10,-1.84676e-07
4.5e-10,-8.80717e-07
4.51e-10,-6.6276e-07
4.52e-10,-1.77515e-07
4.53e-10,1.40275e-07
4.54e-10,-2.69364e-07
4.55e-10,4.17587e-07
4.56e-10,-4.88039e-07
4.57e-10,-3.59365e-07
4.58e-10,-1.10944e-06
4.59e-10,3.32005e-07
4.6e-10,6.36547e-08
4.61e-10,-8.29782e-07
4.62e-10,-4.00246e-07
4.63e-10,-4.62333e-07
4.64e-10,-4.46655e-07
4.65e-10,-7.64937e-07
4.66e-10,3.57817e-07
4.67e-10,3.06503e-07
4.68e-10,7.62347e-08
4.69e-10,-8.00479e-07
4.7e-10,-5.50852e-07
4.71e-10,-2.03942e-07
4.72e-10,-6.01369e-07
4.73e-10,1.8847e-07
4.74e-10,-7.1545e-07
4.75e-10,-5.63188e-07
4.76e-10,-1.96023e-07
4.77e-10,-1.18709e-06
4.78e-10,6.908e-07
4.79e-10,-5.73499e-08
4.8e-10,6.06244e-07
4.81e-10,-9.92542e-07
4.82e-10,-8.41865e-08
4.83e-10,-1.41055e-07
4.84e-10,-1.32241e-06
4.85e-10,5.93698e-07
4.86e-10,-4.41244e-07
4.87e-10,-1.43118e-07
4.88e-10,-2.83648e-07
4.89e-10,2.57963e-08
4.9e-10,-1.55157e-07
4.91e-10,-2.4113e-07
4.92e-10,-6.39077e-08
4.93e-10,2.13164e-07
4.94e-10,-1.30847e-06
4.95e-10,5.49559e-07
4.96e-10,-1.22212e-07
4.97e-10,-4.08149e-07
4.98e-10,2.67099e-08
4.99e-10,-2.70891e-07
5e-10,-1.08424e-07
5.01e-10,2.69371e-07
5.02e-10,-1.41819e-07
5.03e-10,4.6587e-07
5.04e-10,-4.82621e-07
5.05e-10,-2.25776e-07
5.06e-10,-5.27054e-07
5.07e-10,-2.79185e-07
5.08e-10,-1.00552e-07
5.09e-10,-4.40767e-07
5.1e-10,-3.064e-07
5.11e-10,9.95789e-08
5.12e-10,-1.29484e-06
5.13e-10,2.38403e-08
5.14e-10,-3.37042e-08
5.15e-10,-5.14265e-07
5.16e-10,8.43337e-07
5.17e-10,-1.34297e-06
5.18e-10,6.80451e-07
5.19e-10,-8.84953e-07
5.2e-10,4.69148e-07
5.21e-10,-8.96662e-07
5.22e-10,-1.26767e-06
5.23e-10,-2.7835e-07
5.24e-10,-1.45028e-07
5.25e-10,-3.39987e-07
5.26e-10,1.5268e-07
5.27e-10,-1.18802e-06
5.28e-10,-1.19597e-07
5.29e-10,8.88217e-07
5.3e-10,-1.50026e-06
5.31e-10,-1.24985e-06
5.32e-10,-8.65174e-08
5.33e-10,-1.09356e-06
5.34e-10,2.40277e-07
5.35e-10,2.30265e-08
5.36e-10,-6.06407e-07
5.37e-10,-8.47189e-07
5.38e-10,-1.94479e-07
5.39e-10,-1.17228e-06
5.4e-10,-1.04597e-06
5.41e-10,-8.41062e-07
5.42e-10,-2.65986e-08
5.43e-10,-1.86131e-07
5.44e-10,-1.3541e-07
5.45e-10,-1.30886e-07
5.46e-10,1.75836e-07
5.47e-10,-1.99536e-07
5.48e-10,1.36889e-07
5.49e-10,2.93978e-07
5.5e-10,9.08469e-08
5.51e-10,-1.8012e-07
5.52e-10,-4.39245e-07
5.53e-10,1.93968e-07
5.54e-10,-2.20936e-08
5.55e-10,-1.21258e-07
5.56e-10,-6.75936e-07
5.57e-10,-7.34231e-08
5.58e-10,-1.7247e-08
5.59e-10,-2.09633e-09
5.6e-10,-1.99169e-07
5.61e-10,2.92545e-07
5.62e-10,-5.58518e-07
5.63e-10,-1.15507e-07
5.64e-10,-6.95448e-08
5.65e-10,2.42579e-07
5.66e-10,2.3785e-08
5.67e-10,2.43908e-07
5.68e-10,-1.54417e-07
5.69e-10,-6.40993e-07
5.7e-10,-1.7082e-07
5.71e-10,-2.16238e-07
5.72e-10,-1.26394e-08
5.73e-10,-7.93324e-08
5.74e-10,9.47083e-08
5.75e-10,-5.08911e-08
5.76e-10,3.37558e-08
5.77e-10,5.04529e-07
5.78e-10,-5.60501e-07
5.79e-10,1.56717e-07
5.8e-10,-1.04483e-07
5.81e-10,1.85997e-07
5.82e-10,-8.35701e-07
5.83e-10,1.29922e-07
5.84e-10,1.59235e-07
5.85e-10,-1.83169e-08
5.86e-10,5.79926e-07
5.87e-10,-7.97101e-07
5.88e-10,-3.7962e-07
5.89e-10,-1.72857e-07
5.9e-10,1.69338e-10
5.91e-10,-1.29698e-07
5.92e-10,5.51841e-07
5.93e-10,3.23887e-08
5.94e-10,-1.36884e-07
5.95e-10,-1.70316e-07
5.96e-10,-3.10535e-07
5.97e-10,-2.07018e-09
5.98e-10,-3.91225e-07
5.99e-10,-1.41052e-07
6e-10,4.56167e-08
6.01e-10,2.62283e-07
6.02e-10,-1.82364e-07
6.03e-10,1.01681e-07
6.04e-10,-8.68221e-07
6.05e-10,-2.754e-07
6.06e-10,-1.68599e-07
6.07e-10,-1.79196e-07
6.08e-10,-2.02694e-07
6.09e-10,-9.99627e-07
6.1e-10,5.12764e-07
6.11e-10,-1.85533e-07
6.12e-10,-4.19952e-08
6.13e-10,-1.77552e-07
6.14e-10,-3.31097e-07
6.15e-10,-1.09927e-06
6.16e-10,3.36432e-07
6.17e-10,-1.06451e-07
6.18e-10,-7.68819e-07
6.19e-10,-1.46746e-07
6.2e-10,-4.13888e-08
6.21e-10,-1.28812e-07
6.22e-10,-1.2893e-06
6.23e-10,6.33011e-07
6.24e-10,-1.86821e-07
6.25e-10,-1.52716e-07
6.26e-10,3.49926e-07
6.27e-10,-1.35006e-07
6.28e-10,-1.09589e-06
6.29e-10,-4.09649e-08
6.3e-10,-8.2844e-08
6.31e-10,-8.28307e-08
6.32e-10,-2.78934e-07
6.33e-10,-5.81147e-07
6.34e-10,3.40032e-07
6.35e-10,-9.41981e-08
6.36e-10,-5.64493e-07
6.37e-10,-9.6663e-08
6.38e-10,-1.37441e-07
6.39e-10,-4.58937e-08
6.4e-10,-8.73584e-08
6.41e-10,-2.26641e-08
6.42e-10,-4.59604e-07
6.43e-10,2.18334e-07
6.44e-10,-6.0818e-08
6.45e-10,-1.05702e-07
6.46e-10,-1.26946e-07
6.47e-10,-1.51469e-06
6.48e-10,-9.88465e-08
6.49e-10,-9.09729e-08
6.5e-10,-4.82532e-08
6.51e-10,1.808e-07
6.52e-10,-4.3646e-08
6.53e-10,-3.11951e-07
6.54e-10,-6.11769e-08
6.55e-10,-8.71266e-08
6.56e-10,-7.68448e-08
6.57e-10,-9.0869e-07
6.58e-10,-1.34229e-07
6.59e-10,-9.62883e-08
6.6e-10,-4.13733e-10
6.61e-10,-4.64702e-08
6.62e-10,-4.84416e-08
6.63e-10,-3.67083e-08
6.64e-10,-4.66499e-09
6.65e-10,-2.83346e-07
6.66e-10,2.76964e-10
6.67e-10,-1.38348e-06
6.68e-10,-1.58548e-07
6.69e-10,-9.17771e-08
6.7e-10,-2.00044e-07
6.71e-10,-3.36485e-08
6.72e-10,-1.33996e-07
6.73e-10,-1.68228e-07
6.74e-10,-4.33526e-08
6.75e-10,-3.53743e-08
6.76e-10,-6.15151e-08
6.77e-10,-1.5041e-09
6.78e-10,-4.82775e-09
6.79e-10,-3.49932e-07
6.8e-10,-1.72709e-07
6.81e-10,-8.76058e-09
6.82e-10,-8.78723e-08
6.83e-10,-8.45893e-08
6.84e-10,-2.87017e-09
6.85e-10,-9.15247e-08
6.86e-10,-1.3305e-07
6.87e-10,-7.28412e-09
6.88e-10,-3.98367e-08
6.89e-10,-7.17983e-08
6.9e-10,6.07173e-10
6.91e-10,-7.33828e-08
6.92e-10,4.27606e-09
6.93e-10,2.55463e-07
6.94e-10,-4.07437e-08
6.95e-10,-2.34216e-09
6.96e-10,-4.56169e-08
6.97e-10,-1.21253e-09
6.98e-10,-4.69756e-08
6.99e-10,-3.5234e-08
7e-10,-2.14171e-08
7.01e-10,-8.19769e-08
7.02e-10,-5.93956e-07
7.03e-10,-1.18592e-07
7.04e-10,-4.38216e-08
7.05e-10,-8.64318e-08
7.06e-10,-1.36885e-08
7.07e-10,-7.88969e-08
7.08e-10,-4.35548e-08
7.09e-10,2.4333e-09
7.1e-10,-2.57007e-09
7.11e-10,-7.13041e-08
7.12e-10,-4.87015e-08
7.13e-10,4.33234e-08
7.14e-10,-7.82777e-07
7.15e-10,-8.24311e-08
7.16e-10,3.08433e-07
7.17e-10,-5.02977e-08
7.18e-10,-3.99909e-08
7.19e-10,-8.64318e-08
7.2e-10,1.5338e-07
7.21e-10,-4.29583e-08
7.22e-10,-2.70961e-07
7.23e-10,-4.56169e-08
7.24e-10,4.5972e-08
7.25e-10,-1.37746e-07
7.26e-10,-9.15626e-07
7.27e-10,-5.07894e-09
7.28e-10,-4.66146e-08
7.29e-10,-7.8498e-08
7.3e-10,4.95711e-08
7.31e-10,1.06344e-07
7.32e-10,2.28724e-07
7.33e-10,-3.85131e-09
7.34e-10,-6.29711e-07
7.35e-10,5.77003e-07
7.36e-10,-7.11844e-07
7.37e-10,-3.86629e-08
7.38e-10,-6.784e-08
7.39e-10,4.15751e-08
7.4e-10,-4.01385e-08
7.41e-10,1.45473e-07
7.42e-10,4.25822e-07
7.43e-10,-4.12203e-08
7.44e-10,-3.80372e-08
7.45e-10,-3.00805e-09
7.46e-10,9.80039e-09
7.47e-10,-4.67906e-08
7.48e-10,-9.12907e-08
7.49e-10,-2.23944e-09
7.5e-10,-2.85479e-09
7.51e-10,-3.80775e-08
7.52e-10,-4.7744e-08
7.53e-10,-4.5755e-08
7.54e-10,-5.13921e-08
7.55e-10,-4.19779e-08
7.56e-10,-4.98683e-08
7.57e-10,-9.23267e-08
7.58e-10,-1.28796e-09
7.59e-10,-3.5973e-08
7.6e-10,-8.89695e-08
7.61e-10,4.07748e-08
7.62e-10,-2.23154e-09
7.63e-10,-4.37989e-08
7.64e-10,-7.57993e-09
7.65e-10,4.05782e-09
7.66e-10,4.36295e-08
7.67e-10,-1.85038e-09
7.68e-10,-9.58823e-08
7.69e-10,-9.2232e-08
7.7e-10,8.08678e-09
7.71e-10,-8.67081e-08
7.72e-10,6.56232e-09
7.73e-10,1.65694e-09
7.74e-10,-2.96717e-09
7.75e-10,-4.32243e-08
7.76e-10,-5.25458e-08
7.77e-10,-3.45156e-08
7.78e-10,-2.67785e-09
7.79e-10,-8.80203e-10
7.8e-10,0
7.81e-10,4.34928e-08
7.82e-10,-4.33526e-08
7.83e-10,-4.8765e-08
7.84e-10,-4.41127e-08
7.85e-10,-4.32158e-08
7.86e-10,4.17119e-08
7.87e-10,1.36769e-10
7.88e-10,-4.08149e-08
7.89e-10,-4.5753e-08
7.9e-10,1.47224e-08
7.91e-10,-2.67442e-09
7.92e-10,-2.12734e-09
7.93e-10,-9.11573e-08
7.94e-10,-4.89102e-08
7.95e-10,-8.94233e-08
7.96e-10,-4.8158e-08
7.97e-10,4.35056e-08
7.98e-10,-1.96647e-09
7.99e-10,-8.97811e-08
8e-10,1.36769e-10
8.01e-10,-2.81461e-09
8.02e-10,2.71041e-09
8.03e-10,-2.40088e-09
8.04e-10,-3.94477e-08
8.05e-10,-4.53434e-08
8.06e-10,-5.1113e-09
8.07e-10,-4.15751e-08
8.08e-10,4.17119e-08
8.09e-10,-3.94477e-08
8.1e-10,-4.84964e-08
8.11e-10,-3.59051e-08
8.12e-10,-4.94196e-09
8.13e-10,-1.36769e-10
8.14e-10,9.19322e-09
8.15e-10,-1.98715e-09
8.16e-10,-5.22448e-08
8.17e-10,-2.40088e-09
8.18e-10,7.2352e-09
8.19e-10,-7.51216e-09
8.2e-10,-2.12734e-09
8.21e-10,-4.06747e-08
8.22e-10,-4.39598e-08
8.23e-10,-4.54474e-08
8.24e-10,7.53628e-09
8.25e-10,4.32158e-08
8.26e-10,2.53765e-09
8.27e-10,-8.20564e-08
8.28e-10,3.0931e-08
8.29e-10,-4.33526e-08
8.3e-10,-4.47199e-08
8.31e-10,-4.06749e-08
8.32e-10,-4.54794e-08
8.33e-10,-7.34284e-09
8.34e-10,-4.32158e-08
8.35e-10,5.07873e-09
8.36e-10,1.98715e-09
8.37e-10,1.36769e-10
8.38e-10,-5.07873e-09
8.39e-10,2.77933e-25
8.4e-10,-4.09517e-08
8.41e-10,-7.06588e-09
8.42e-10,0
8.43e-10,1.36769e-10
8.44e-10,2.12734e-09
8.45e-10,3.38858e-08
8.46e-10,-4.09517e-08
8.47e-10,-6.92911e-09
8.48e-10,4.66499e-09
8.49e-10,0
8.5e-10,-5.04508e-08
8.51e-10,-2.76964e-10
8.52e-10,-8.47909e-08
8.53e-10,1.36769e-10
8.54e-10,-2.40088e-09
8.55e-10,2.67785e-09
8.56e-10,-2.40088e-09
8.57e-10,2.40088e-09
8.58e-10,-2.26411e-09
8.59e-10,-2.40088e-09
8.6e-10,-4.80176e-09
8.61e-10,-2.26411e-09
8.62e-10,-4.46302e-10
8.63e-10,-4.54799e-08
8.64e-10,-2.40088e-09
8.65e-10,4.54799e-08
8.66e-10,-4.28021e-08
8.67e-10,-2.76964e-10
8.68e-10,2.43345e-09
8.69e-10,-1.69338e-10
8.7e-10,-4.3216e-08
8.71e-10,4.46302e-10
8.72e-10,-4.46302e-10
8.73e-10,0
8.74e-10,-2.26411e-09
8.75e-10,4.28021e-08
8.76e-10,-2.26411e-09
8.77e-10,-9.15663e-08
8.78e-10,-4.80176e-09
8.79e-10,2.26411e-09
8.8e-10,-4.80519e-09
8.81e-10,-4.56167e-08
8.82e-10,3.81697e-08
8.83e-10,-4.54799e-08
8.84e-10,1.98715e-09
8.85e-10,2.76964e-10
8.86e-10,2.76964e-10
8.87e-10,4.66499e-09
8.88e-10,-2.81461e-09
8.89e-10,-2.26411e-09
8.9e-10,2.53765e-09
8.91e-10,-2.81461e-09
8.92e-10,-2.26411e-09
8.93e-10,2.40088e-09
8.94e-10,0
8.95e-10,-2.40088e-09
8.96e-10,-2.67785e-09
8.97e-10,-4.11449e-09
8.98e-10,-4.13733e-10
8.99e-10,-4.17119e-08
9e-10,-4.57534e-08
9.01e-10,-4.66499e-09
9.02e-10,4.80176e-09
9.03e-10,2.26411e-09
9.04e-10,-4.52823e-09
9.05e-10,-5.07873e-09
9.06e-10,-2.40088e-09
9.07e-10,-2.12734e-09
9.08e-10,-4.80176e-09
9.09e-10,4.80176e-09
9.1e-10,2.26411e-09
9.11e-10,-1.98715e-09
9.12e-10,-7.06588e-09
9.13e-10,-4.13733e-10
9.14e-10,2.26411e-09
9.15e-10,2.26411e-09
9.16e-10,1.36769e-10
9.17e-10,4.66499e-09
9.18e-10,-2.40088e-09
9.19e-10,1.36769e-10
9.2e-10,4.66499e-09
9.21e-10,-4.66499e-09
9.22e-10,-1.36769e-10
9.23e-10,-7.47961e-09
9.24e-10,9.46676e-09
9.25e-10,-6.92911e-09
9.26e-10,2.76964e-10
9.27e-10,-6.90696e-10
9.28e-10,-9.32999e-09
9.29e-10,4.80176e-09
9.3e-10,-2.71041e-09
9.31e-10,-1.95458e-09
9.32e-10,-2.26411e-09
9.33e-10,4.66499e-09
9.34e-10,2.40088e-09
9.35e-10,-4.81543e-08
9.36e-10,4.94196e-09
9.37e-10,1.85038e-09
9.38e-10,5.50501e-10
9.39e-10,-7.06588e-09
9.4e-10,-4.46302e-10
9.41e-10,4.66499e-09
9.42e-10,-6.79234e-09
9.43e-10,2.26411e-09
9.44e-10,4.52823e-09
9.45e-10,3.09533e-10
9.46e-10,-7.23864e-09
9.47e-10,-4.94196e-09
9.48e-10,2.57365e-09
9.49e-10,2.53765e-09
9.5e-10,-2.26411e-09
9.51e-10,2.26411e-09
9.52e-10,-2.71041e-09
9.53e-10,-2.53765e-09
9.54e-10,-4.52823e-09
9.55e-10,9.60695e-09
9.56e-10,-4.66499e-09
9.57e-10,2.26411e-09
9.58e-10,-2.81804e-09
9.59e-10,-4.80176e-09
9.6e-10,6.79234e-09
9.61e-10,0
9.62e-10,-1.36769e-10
9.63e-10,2.53765e-09
9.64e-10,4.52823e-09
9.65e-10,2.53765e-09
9.66e-10,-4.80176e-09
9.67e-10,4.66499e-09
9.68e-10,2.73538e-10
9.69e-10,-2.26411e-09
9.7e-10,-2.40088e-09
9.71e-10,4.94196e-09
9.72e-10,-9.88392e-09
9.73e-10,9.60695e-09
9.74e-10,7.34284e-09
9.75e-10,-7.20607e-09
9.76e-10,1.71361e-09
9.77e-10,-6.79234e-09
9.78e-10,2.26411e-09
9.79e-10,2.67785e-09
9.8e-10,-2.40088e-09
9.81e-10,-2.73538e-10
9.82e-10,2.73538e-10
9.83e-10,1.98715e-09
9.84e-10,-4.66499e-09
9.85e-10,-4.25126e-09
9.86e-10,-4.13733e-10
9.87e-10,7.06588e-09
9.88e-10,-4.80176e-09
9.89e-10,2.40088e-09
9.9e-10,-4.38803e-09
9.91e-10,-7.47961e-09
9.92e-10,1.15941e-08
9.93e-10,-9.19322e-09
9.94e-10,7.20264e-09
9.95e-10,-7.06588e-09
9.96e-10,0
9.97e-10,-4.80176e-09
9.98e-10,2.40088e-09
9.99e-10,-2.12734e-09
1e-09,-2.53765e-09
1.001e-09,-4.66499e-09
1.002e-09,0
1.003e-09,-4.66499e-09
1.004e-09,4.66499e-09
1.005e-09,2.12734e-09
1.006e-09,-2.26411e-09
1.007e-09,4.80176e-09
1.008e-09,-1.36769e-10
1.009e-09,-1.36769e-10
1.01e-09,2.40088e-09
1.011e-09,-2.26411e-09
1.012e-09,-1.36769e-10
1.013e-09,2.26411e-09
1.014e-09,4.80176e-09
1.015e-09,0
1.016e-09,-2.26411e-09
1.017e-09,-1.36769e-10
1.018e-09,-4.66499e-09
1.019e-09,-2.40088e-09
1.02e-09,-2.26411e-09
1.021e-09,0
1.022e-09,-2.40088e-09
1.023e-09,-2.40088e-09
1.024e-09,-5.07873e-09
1.025e-09,5.07873e-09
1.026e-09,-2.67785e-09
1.027e-09,-4.25126e-09
1.028e-09,-2.67785e-09
1.029e-09,-4.66499e-09
1.03e-09,2.26411e-09
1.031e-09,2.53765e-09
1.032e-09,7.34284e-09
1.033e-09,-2.40088e-09
1.034e-09,-2.67785e-09
1.035e-09,-1.36769e-10
1.036e-09,-4.80176e-09
1.037e-09,2.53765e-09
1.038e-09,2.12734e-09
1.039e-09,4.66499e-09
1.04e-09,2.26411e-09
1.041e-09,-4.52823e-09
1.042e-09,4.52823e-09
1.043e-09,-6.65557e-09
1.044e-09,-9.32999e-09
1.045e-09,-2.26411e-09
1.046e-09,2.40088e-09
1.047e-09,-2.77933e-25
1.048e-09,-1.36769e-10
1.049e-09,0
1.05e-09,-2.12734e-09
1.051e-09,0
1.052e-09,-6.79234e-09
1.053e-09,2.12734e-09
1.054e-09,-2.26411e-09
1.055e-09,4.66499e-09
1.056e-09,-1.36769e-10
1.057e-09,2.26411e-09
1.058e-09,-2.26411e-09
1.059e-09,2.40088e-09
1.06e-09,2.12734e-09
1.061e-09,2.26411e-09
1.062e-09,-2.26411e-09
1.063e-09,-4.25469e-09
1.064e-09,9.19322e-09
1.065e-09,0
1.066e-09,2.26411e-09
1.067e-09,-2.40088e-09
1.068e-09,-1.36769e-10
1.069e-09,-6.79234e-09
1.07e-09,0
1.071e-09,0
1.072e-09,-1.36769e-10
1.073e-09,-2.26411e-09
1.074e-09,2.40088e-09
1.075e-09,-2.26411e-09
1.076e-09,-1.36769e-10
1.077e-09,0
1.078e-09,2.26411e-09
1.079e-09,0
1.08e-09,-2.26411e-09
1.081e-09,-2.26411e-09
1.082e-09,0
1.083e-09,2.26411e-09
1.084e-09,-1.36769e-10
1.085e-09,1.36769e-10
1.086e-09,2.12734e-09
1.087e-09,-4.39146e-09
1.088e-09,2.26411e-09
1.089e-09,2.26411e-09
1.09e-09,-2.26411e-09
1.091e-09,-7.06588e-09
1.092e-09,2.26411e-09
1.093e-09,2.26411e-09
1.094e-09,1.36769e-10
1.095e-09,-4.52823e-09
1.096e-09,2.26411e-09
1.097e-09,0
1.098e-09,-9.05645e-09
1.099e-09,4.52823e-09
1.1e-09,2.53765e-09
1.101e-09,-2.40088e-09
1.102e-09,-2.40088e-09
1.103e-09,0
1.104e-09,4.52823e-09
1.105e-09,-4.39146e-09
1.106e-09,0
1.107e-09,-2.26411e-09
1.108e-09,0
1.109e-09,-4.66499e-09
1.11e-09,-2.40088e-09
1.111e-09,7.20264e-09
1.112e-09,-1.36769e-10
1.113e-09,4.80176e-09
1.114e-09,2.12734e-09
1.115e-09,-2.26411e-09
1.116e-09,2.40088e-09
1.117e-09,2.40088e-09
1.118e-09,-2.40088e-09
1.119e-09,-9.46676e-09
1.12e-09,4.52823e-09
1.121e-09,-6.92911e-09
1.122e-09,6.92911e-09
1.123e-09,-4.52823e-09
1.124e-09,0
1.125e-09,-2.26411e-09
1.126e-09,-2.26411e-09
1.127e-09,0
1.128e-09,2.26411e-09
1.129e-09,-2.26411e-09
1.13e-09,-2.26411e-09
1.131e-09,2.26411e-09
1.132e-09,-4.52823e-09
1.133e-09,4.66499e-09
1.134e-09,-2.40088e-09
1.135e-09,-6.92911e-09
1.136e-09,4.39146e-09
1.137e-09,1.36769e-10
1.138e-09,0
1.139e-09,-1.36769e-10
1.14e-09,0
1.141e-09,6.79234e-09
1.142e-09,-6.79234e-09
1.143e-09,4.66499e-09
1.144e-09,-2.40088e-09
1.145e-09,7.06588e-09
1.146e-09,-6.92911e-09
1.147e-09,-1.36769e-10
1.148e-09,-4.66499e-09
1.149e-09,2.26411e-09
1.15e-09,4.80176e-09
1.151e-09,-4.66499e-09
1.152e-09,2.26411e-09
1.153e-09,1.36769e-10
1.154e-09,-2.67442e-09
1.155e-09,4.80176e-09
1.156e-09,-2.26411e-09
1.157e-09,-2.26411e-09
1.158e-09,-2.40088e-09
1.159e-09,0
1.16e-09,2.40088e-09
1.161e-09,-4.52823e-09
1.162e-09,-4.13733e-10
1.163e-09,2.67785e-09
1.164e-09,-2.40088e-09
1.165e-09,2.12392e-09
1.166e-09,2.12734e-09
1.167e-09,-1.36769e-10
1.168e-09,-2.26411e-09
1.169e-09,4.66499e-09
1.17e-09,0
1.171e-09,-2.26411e-09
1.172e-09,-2.26411e-09
1.173e-09,6.79234e-09
1.174e-09,-2.26411e-09
1.175e-09,2.26411e-09
1.176e-09,-2.26411e-09
1.177e-09,-2.40088e-09
1.178e-09,-2.26411e-09
1.179e-09,0
1.18e-09,-4.08149e-08
1.181e-09,-1.36769e-10
1.182e-09,-2.12734e-09
1.183e-09,6.79234e-09
1.184e-09,4.08149e-08
1.185e-09,-2.12734e-09
1.186e-09,-5.01449e-08
1.187e-09,4.33526e-08
1.188e-09,-4.78808e-08
1.189e-09,0
1.19e-09,9.05645e-09
1.191e-09,-2.26411e-09
1.192e-09,-2.26411e-09
1.193e-09,-2.26411e-09
1.194e-09,2.26411e-09
1.195e-09,0
1.196e-09,0
1.197e-09,0
1.198e-09,0
1.199e-09,0
1.2e-09,-4.54714e-08
1.201e-09,0
1.202e-09,0
1.203e-09,-2.26411e-09
1.204e-09,2.26411e-09
1.205e-09,-2.26411e-09
1.206e-09,2.26411e-09
1.207e-09,-4.52823e-09
1.208e-09,0
1.209e-09,-2.40088e-09
1.21e-09,2.26411e-09
1.211e-09,0
1.212e-09,0
1.213e-09,-4.52823e-09
1.214e-09,-2.26411e-09
1.215e-09,-4.11211e-08
1.216e-09,-2.26411e-09
1.217e-09,-2.26411e-09
1.218e-09,4.52823e-09
1.219e-09,0
1.22e-09,-4.52823e-09
1.221e-09,0
1.222e-09,-2.26411e-09
1.223e-09,4.66499e-09
1.224e-09,-4.51173e-09
1.225e-09,-4.52823e-09
1.226e-09,2.26411e-09
1.227e-09,4.51173e-09
1.228e-09,-4.3353e-08
1.229e-09,2.90231e-10
1.23e-09,1.97388e-09
1.231e-09,2.90231e-10
1.232e-09,-2.55434e-09
1.233e-09,-2.26411e-09
1.234e-09,1.14573e-08
1.235e-09,-1.36769e-10
1.236e-09,0
1.237e-09,-6.92911e-09
1.238e-09,-2.26411e-09
1.239e-09,4.66499e-09
1.24e-09,-6.92911e-09
1.241e-09,1.36769e-10
1.242e-09,-2.40088e-09
1.243e-09,4.52823e-09
1.244e-09,-4.14299e-08
1.245e-09,-6.79234e-09
1.246e-09,2.26411e-09
1.247e-09,-4.66499e-09
1.248e-09,2.40088e-09
1.249e-09,0
1.25e-09,0
1.251e-09,0
1.252e-09,0
1.253e-09,-4.53401e-08
1.254e-09,2.26411e-09
1.255e-09,1.36769e-10
1.256e-09,2.26411e-09
1.257e-09,0
1.258e-09,-6.92911e-09
1.259e-09,-2.26411e-09
1.26e-09,2.26411e-09
1.261e-09,-2.12734e-09
1.262e-09,-2.26411e-09
1.263e-09,-1.36769e-10
1.264e-09,0
1.265e-09,0
1.266e-09,-4.2054e-08
1.267e-09,-2.26411e-09
1.268e-09,4.52823e-09
1.269e-09,-2.26411e-09
1.27e-09,2.26411e-09
1.271e-09,-4.52823e-09
1.272e-09,2.26411e-09
1.273e-09,0
1.274e-09,2.26411e-09
1.275e-09,2.26411e-09
1.276e-09,-4.79508e-08
1.277e-09,1.36769e-10
1.278e-09,2.26411e-09
1.279e-09,-2.40088e-09
1.28e-09,1.36769e-10
1.281e-09,4.39146e-09
1.282e-09,1.36769e-10
1.283e-09,-4.74033e-08
1.284e-09,0
1.285e-09,-9.05645e-09
1.286e-09,4.52823e-09
1.287e-09,2.26411e-09
1.288e-09,0
1.289e-09,4.52823e-09
1.29e-09,-4.52823e-09
1.291e-09,0
1.292e-09,0
1.293e-09,-4.56171e-08
1.294e-09,-2.26411e-09
1.295e-09,6.79234e-09
1.296e-09,2.26411e-09
1.297e-09,2.26411e-09
1.298e-09,0
1.299e-09,0
1.3e-09,-2.26411e-09
1.301e-09,-4.86327e-08
1.302e-09,2.26411e-09
1.303e-09,-2.26411e-09
1.304e-09,-2.26411e-09
1.305e-09,-4.52823e-09
1.306e-09,4.66499e-09
1.307e-09,0
1.308e-09,4.52823e-09
1.309e-09,-2.26411e-09
1.31e-09,-2.26411e-09
1.311e-09,2.26411e-09
1.312e-09,-4.56164e-08
1.313e-09,-2.26411e-09
1.314e-09,2.26411e-09
1.315e-09,-2.26411e-09
1.316e-09,-6.92911e-09
1.317e-09,2.26411e-09
1.318e-09,2.26411e-09
1.319e-09,-2.12734e-09
1.32e-09,-4.57532e-08
1.321e-09,0
1.322e-09,2.40088e-09
1.323e-09,-2.26411e-09
1.324e-09,-2.12734e-09
1.325e-09,-4.80176e-09
1.326e-09,-1.63982e-08
1.327e-09,2.12734e-09
1.328e-09,1.13206e-08
1.329e-09,-4.76075e-08
1.33e-09,0
1.331e-09,2.26411e-09
1.332e-09,-2.26411e-09
1.333e-09,-4.52823e-09
1.334e-09,2.26411e-09
1.335e-09,2.26411e-09
1.336e-09,-4.56164e-08
1.337e-09,2.26411e-09
1.338e-09,-2.26411e-09
1.339e-09,0
1.34e-09,4.66499e-09
1.341e-09,-2.26411e-09
1.342e-09,-4.52823e-09
1.343e-09,1.65432e-08
1.344e-09,0
1.345e-09,2.26411e-09
1.346e-09,-2.26411e-09
1.347e-09,-3.88269e-08
1.348e-09,0
1.349e-09,-4.52823e-09
1.35e-09,2.26411e-09
1.351e-09,0
1.352e-09,2.26411e-09
1.353e-09,-2.26411e-09
1.354e-09,4.52823e-09
1.355e-09,0
1.356e-09,-6.92057e-08
1.357e-09,-4.52823e-09
1.358e-09,2.26411e-09
1.359e-09,0
1.36e-09,-1.36769e-10
1.361e-09,1.36769e-10
1.362e-09,-4.52823e-09
1.363e-09,0
1.364e-09,4.52823e-09
1.365e-09,-4.52823e-09
1.366e-09,-4.12264e-08
1.367e-09,2.26411e-09
1.368e-09,-2.12734e-09
1.369e-09,-2.40088e-09
1.37e-09,0
1.371e-09,4.52823e-09
1.372e-09,0
1.373e-09,2.73538e-10
1.374e-09,-6.92911e-09
1.375e-09,-2.26411e-09
1.376e-09,-5.46495e-08
1.377e-09,-2.40088e-09
1.378e-09,9.32999e-09
1.379e-09,-2.40088e-09
1.38e-09,4.52823e-09
1.381e-09,-4.52823e-09
1.382e-09,4.52823e-09
1.383e-09,2.26411e-09
1.384e-09,-4.80187e-08
1.385e-09,-2.26411e-09
1.386e-09,-4.39146e-09
1.387e-09,0
1.388e-09,-4.52823e-09
1.389e-09,2.26411e-09
1.39e-09,2.26411e-09
1.391e-09,6.79234e-09
1.392e-09,-9.19322e-09
1.393e-09,0
1.394e-09,0
1.395e-09,0
1.396e-09,-4.21242e-08
1.397e-09,2.12734e-09
1.398e-09,0
1.399e-09,-4.39146e-09
1.4e-09,-4.52823e-09
1.401e-09,-1.36769e-10
1.402e-09,4.52823e-09
1.403e-09,0
1.404e-09,2.26411e-09
1.405e-09,-2.26411e-09
1.406e-09,-5.22374e-08
1.407e-09,-4.52823e-09
1.408e-09,2.26411e-09
1.409e-09,-2.26411e-09
1.41e-09,-4.52823e-09
1.411e-09,4.52823e-09
1.412e-09,-2.26411e-09
1.413e-09,-2.26411e-09
1.414e-09,6.79234e-09
1.415e-09,-2.26411e-09
1.416e-09,-4.52823e-09
1.417e-09,-4.34947e-08
1.418e-09,2.26411e-09
1.419e-09,2.26411e-09
1.42e-09,2.78164e-08
1.421e-09,-2.26411e-09
1.422e-09,-2.78164e-08
1.423e-09,-2.26411e-09
1.424e-09,0
1.425e-09,-2.26411e-09
1.426e-09,0
1.427e-09,-4.69361e-08
1.428e-09,0
1.429e-09,0
1.43e-09,2.26411e-09
1.431e-09,-1.77769e-09
1.432e-09,2.26411e-09
1.433e-09,0
1.434e-09,-2.26411e-09
1.435e-09,0
1.436e-09,-4.83671e-08
1.437e-09,-6.41512e-09
1.438e-09,0
1.439e-09,0
1.44e-09,2.26411e-09
1.441e-09,2.26411e-09
1.442e-09,0
1.443e-09,-4.52823e-09
1.444e-09,2.40088e-09
1.445e-09,-1.36769e-10
1.446e-09,-5.17874e-08
1.447e-09,2.40088e-09
1.448e-09,0
1.449e-09,3.29469e-08
1.45e-09,1.36769e-10
1.451e-09,0
1.452e-09,2.26411e-09
1.453e-09,-3.08196e-08
1.454e-09,-2.26411e-09
1.455e-09,-5.02788e-08
1.456e-09,2.26411e-09
1.457e-09,0
1.458e-09,-2.40088e-09
1.459e-09,4.66499e-09
1.46e-09,-4.66499e-09
1.461e-09,0
1.462e-09,-2.26411e-09
1.463e-09,0
1.464e-09,-5.46443e-08
1.465e-09,0
1.466e-09,-2.40088e-09
1.467e-09,4.66499e-09
1.468e-09,-2.40088e-09
1.469e-09,2.26411e-09
1.47e-09,0
1.471e-09,9.19322e-09
1.472e-09,-4.52823e-09
1.473e-09,2.12734e-09
1.474e-09,-5.02788e-08
1.475e-09,4.66499e-09
1.476e-09,-4.66499e-09
1.477e-09,0
1.478e-09,0
1.479e-09,-2.26411e-09
1.48e-09,2.26411e-09
1.481e-09,0
1.482e-09,-2.26411e-09
1.483e-09,0
1.484e-09,-5.02788e-08
1.485e-09,-6.79234e-09
1.486e-09,2.26411e-09
1.487e-09,0
1.488e-09,4.52823e-09
1.489e-09,4.52823e-09
1.49e-09,0
1.491e-09,-4.52823e-09
1.492e-09,2.26411e-09
1.493e-09,-4.80217e-08
1.494e-09,-6.79234e-09
1.495e-09,3.83579e-08
1.496e-09,-2.26411e-09
1.497e-09,0
1.498e-09,-4.52823e-09
1.499e-09,0
1.5e-09,0
1.501e-09,-4.34864e-08
1.502e-09,-4.73814e-08
1.503e-09,0
1.504e-09,0
1.505e-09,-2.26411e-09
1.506e-09,4.52823e-09
1.507e-09,0
1.508e-09,-4.52823e-09
1.509e-09,-4.97207e-08
1.51e-09,1.69895e-09
1.511e-09,-2.26411e-09
1.512e-09,2.26411e-09
1.513e-09,1.36769e-10
1.514e-09,-1.36769e-10
1.515e-09,2.26411e-09
1.516e-09,-2.26411e-09
1.517e-09,0
1.518e-09,-4.60243e-08
1.519e-09,-2.26411e-09
1.52e-09,2.26411e-09
1.521e-09,-2.26411e-09
1.522e-09,-2.26411e-09
1.523e-09,0
1.524e-09,0
1.525e-09,2.26411e-09
1.526e-09,0
1.527e-09,-5.92928e-08
1.528e-09,0
1.529e-09,0
1.53e-09,-2.26411e-09
1.531e-09,2.26411e-09
1.532e-09,2.26411e-09
1.533e-09,-2.26411e-09
1.534e-09,0
1.535e-09,4.52823e-09
1.536e-09,-5.17227e-08
1.537e-09,-2.26411e-09
1.538e-09,-4.52823e-09
1.539e-09,4.52823e-09
1.54e-09,-2.26411e-09
1.541e-09,0
1.542e-09,-2.26411e-09
1.543e-09,2.26411e-09
1.544e-09,-2.26411e-09
1.545e-09,-4.80135e-08
1.546e-09,0
1.547e-09,2.26411e-09
1.548e-09,0
1.549e-09,-2.26411e-09
1.55e-09,2.26411e-09
1.551e-09,0
1.552e-09,2.26411e-09
1.553e-09,0
1.554e-09,-2.26411e-09
1.555e-09,-6.41183e-08
1.556e-09,0
1.557e-09,-2.26411e-09
1.558e-09,4.52823e-09
1.559e-09,-4.52823e-09
1.56e-09,2.26411e-09
1.561e-09,4.52823e-09
1.562e-09,-2.26411e-09
1.563e-09,-2.26411e-09
1.564e-09,-4.75412e-08
1.565e-09,2.26411e-09
1.566e-09,-4.52823e-09
1.567e-09,0
1.568e-09,0
1.569e-09,2.26411e-09
1.57e-09,2.26411e-09
1.571e-09,0
1.572e-09,0
1.573e-09,-5.07429e-08
1.574e-09,0
1.575e-09,-2.26411e-09
1.576e-09,2.26411e-09
1.577e-09,0
1.578e-09,-2.26411e-09
1.579e-09,2.26411e-09
1.58e-09,-2.26411e-09
1.581e-09,2.26411e-09
1.582e-09,-6.68159e-08
1.583e-09,-2.26411e-09
1.584e-09,0
1.585e-09,-2.26411e-09
1.586e-09,2.26411e-09
1.587e-09,2.26411e-09
1.588e-09,0
1.589e-09,2.26411e-09
1.59e-09,0
1.591e-09,-5.09473e-08
1.592e-09,0
1.593e-09,0
1.594e-09,-2.26411e-09
1.595e-09,-2.26411e-09
1.596e-09,2.26411e-09
1.597e-09,0
1.598e-09,0
1.599e-09,-6.66878e-08
1.6e-09,0
1.601e-09,0
1.602e-09,-2.26411e-09
1.603e-09,2.26411e-09
1.604e-09,0
1.605e-09,2.26411e-09
1.606e-09,0
1.607e-09,-4.86268e-08
1.608e-09,-2.26411e-09
1.609e-09,2.26411e-09
1.61e-09,4.52823e-09
1.611e-09,-2.26411e-09
1.612e-09,-2.26411e-09
1.613e-09,-4.52823e-09
1.614e-09,2.26411e-09
1.615e-09,-4.86409e-08
1.616e-09,-4.52823e-09
1.617e-09,2.26411e-09
1.618e-09,0
1.619e-09,-2.26411e-09
1.62e-09,-6.79234e-09
1.621e-09,0
1.622e-09,0
1.623e-09,-7.30054e-08
1.624e-09,0
1.625e-09,0
1.626e-09,0
1.627e-09,0
1.628e-09,-2.26411e-09
1.629e-09,4.52823e-09
1.63e-09,-4.52823e-09
1.631e-09,-2.26411e-09
1.632e-09,2.26411e-09
1.633e-09,-4.63486e-08
1.634e-09,0
1.635e-09,6.79234e-09
1.636e-09,-2.26411e-09
1.637e-09,-2.26411e-09
1.638e-09,2.26411e-09
1.639e-09,2.26411e-09
1.64e-09,-2.26411e-09
1.641e-09,-4.76751e-08
1.642e-09,2.26411e-09
1.643e-09,-2.12734e-09
1.644e-09,0
1.645e-09,-2.26411e-09
1.646e-09,0
1.647e-09,-2.26411e-09
1.648e-09,2.12734e-09
1.649e-09,-2.26411e-09
1.65e-09,-8.3561e-08
1.651e-09,0
1.652e-09,2.26411e-09
1.653e-09,1.36769e-10
1.654e-09,-1.36769e-10
1.655e-09,2.40088e-09
1.656e-09,-1.36769e-10
1.657e-09,-2.12734e-09
1.658e-09,0
1.659e-09,-4.74848e-08
1.66e-09,0
1.661e-09,2.26411e-09
1.662e-09,2.26411e-09
1.663e-09,2.26411e-09
1.664e-09,-4.66499e-09
1.665e-09,0
1.666e-09,-2.26411e-09
1.667e-09,0
1.668e-09,-4.55109e-08
1.669e-09,1.16403e-07
1.67e-09,-1.20931e-07
1.671e-09,1.20931e-07
1.672e-09,-4.52823e-09
1.673e-09,2.26411e-09
1.674e-09,-2.26411e-09
1.675e-09,2.26411e-09
1.676e-09,-6.06334e-08
1.677e-09,0
1.678e-09,-2.26411e-09
1.679e-09,0
1.68e-09,2.26411e-09
1.681e-09,0
1.682e-09,0
1.683e-09,-4.71123e-08
1.684e-09,0
1.685e-09,0
1.686e-09,0
1.687e-09,2.26411e-09
1.688e-09,-2.26411e-09
1.689e-09,-2.26411e-09
1.69e-09,0
1.691e-09,-4.11895e-08
1.692e-09,2.26411e-09
1.693e-09,0
1.694e-09,-4.52823e-09
1.695e-09,2.26411e-09
1.696e-09,0
1.697e-09,0
1.698e-09,-2.26411e-09
1.699e-09,-2.26411e-09
1.7e-09,-8.205e-08
1.701e-09,2.26411e-09
1.702e-09,-2.26411e-09
1.703e-09,2.26411e-09
1.704e-09,0
1.705e-09,-2.26411e-09
1.706e-09,2.26411e-09
1.707e-09,-2.26411e-09
1.708e-09,2.26411e-09
1.709e-09,0
1.71e-09,-2.26411e-09
1.711e-09,-4.34606e-08
1.712e-09,6.79234e-09
1.713e-09,-2.26411e-09
1.714e-09,-2.26411e-09
1.715e-09,0
1.716e-09,0
1.717e-09,0
1.718e-09,-2.26411e-09
1.719e-09,2.26411e-09
1.72e-09,-3.84131e-08
1.721e-09,2.26411e-09
1.722e-09,-2.26411e-09
1.723e-09,-2.26411e-09
1.724e-09,2.26411e-09
1.725e-09,-2.26411e-09
1.726e-09,0
1.727e-09,-2.26411e-09
1.728e-09,-2.26411e-09
1.729e-09,4.52823e-09
1.73e-09,-3.48672e-08
1.731e-09,0
1.732e-09,2.26411e-09
1.733e-09,-4.52823e-09
1.734e-09,2.26411e-09
1.735e-09,-2.26411e-09
1.736e-09,2.26411e-09
1.737e-09,-3.16608e-08
1.738e-09,-2.26411e-09
1.739e-09,0
1.74e-09,0
1.741e-09,2.40088e-09
1.742e-09,-2.26411e-09
1.743e-09,2.26411e-09
1.744e-09,-2.26411e-09
1.745e-09,-4.46168e-08
1.746e-09,4.52823e-09
1.747e-09,0
1.748e-09,0
1.749e-09,0
1.75e-09,-4.66499e-09
1.751e-09,0
1.752e-09,-7.90138e-09
1.753e-09,2.40088e-09
1.754e-09,-2.40088e-09
1.755e-09,-2.26411e-09
1.756e-09,0
1.757e-09,0
1.758e-09,0
1.759e-09,2.26411e-09
1.76e-09,-2.26411e-09
1.761e-09,2.40088e-09
1.762e-09,-2.40088e-09
1.763e-09,0
1.764e-09,7.37181e-10
1.765e-09,0
1.766e-09,-2.40088e-09
1.767e-09,0
1.768e-09,2.26411e-09
1.769e-09,2.26411e-09
1.77e-09,0
1.771e-09,-2.26411e-09
1.772e-09,2.26411e-09
1.773e-09,-7.48454e-10
1.774e-09,2.26411e-09
1.775e-09,0
1.776e-09,0
1.777e-09,2.40088e-09
1.778e-09,-2.40088e-09
1.779e-09,2.26411e-09
1.78e-09,0
1.781e-09,0
1.782e-09,3.93965e-08
1.783e-09,2.26411e-09
1.784e-09,2.40088e-09
1.785e-09,-2.40088e-09
1.786e-09,-2.26411e-09
1.787e-09,2.26411e-09
1.788e-09,0
1.789e-09,2.26411e-09
1.79e-09,-2.26411e-09
1.791e-09,0
1.792e-09,7.03971e-08
1.793e-09,4.52823e-09
1.794e-09,0
1.795e-09,4.52823e-09
1.796e-09,-2.26411e-09
1.797e-09,-2.26411e-09
1.798e-09,-2.26411e-09
1.799e-09,-4.75584e-07
1.8e-09,-2.26411e-09
1.801e-09,0
1.802e-09,7.94828e-08
1.803e-09,-2.26411e-09
1.804e-09,2.26411e-09
1.805e-09,4.52823e-09
1.806e-09,-2.26411e-09
1.807e-09,-2.26411e-09
1.808e-09,0
1.809e-09,2.26411e-09
1.81e-09,2.26411e-09
1.811e-09,-2.26411e-09
1.812e-09,0
1.813e-09,-6.79234e-09
1.814e-09,4.52823e-09
1.815e-09,1.82548e-07
1.816e-09,-2.26411e-09
1.817e-09,0
1.818e-09,0
1.819e-09,-2.26411e-09
1.82e-09,0
1.821e-09,0
1.822e-09,2.26411e-09
1.823e-09,-7.76531e-07
1.824e-09,0
1.825e-09,2.40088e-09
1.826e-09,-2.40088e-09
1.827e-09,2.40088e-09
1.828e-09,8.99133e-08
1.829e-09,0
1.83e-09,-2.26411e-09
1.831e-09,-1.04998e-06
1.832e-09,0
1.833e-09,2.26411e-09
1.834e-09,-4.52823e-09
1.835e-09,2.26411e-09
1.836e-09,2.26411e-09
1.837e-09,0
1.838e-09,2.26411e-09
1.839e-09,0
1.84e-09,2.26411e-09
1.841e-09,-2.26411e-09
1.842e-09,-1.03764e-06
1.843e-09,-6.79234e-09
1.844e-09,4.52823e-09
1.845e-09,0
1.846e-09,2.26411e-09
1.847e-09,-2.26411e-09
1.848e-09,4.52823e-09
1.849e-09,-2.26411e-09
1.85e-09,-1.0501e-06
1.851e-09,0
1.852e-09,-1.10609e-07
1.853e-09,0
1.854e-09,-2.26411e-09
1.855e-09,-2.26411e-09
1.856e-09,3.52014e-09
1.857e-09,2.26411e-09
1.858e-09,5.53631e-09
1.859e-09,0
1.86e-09,-2.26411e-09
1.861e-09,0
1.862e-09,0
1.863e-09,-2.26411e-09
1.864e-09,2.26411e-09
1.865e-09,-3.2722e-09
1.866e-09,-1.25602e-09
1.867e-09,4.52823e-09
1.868e-09,-2.26411e-09
1.869e-09,4.52823e-09
1.87e-09,-4.52823e-09
1.871e-09,6.79234e-09
1.872e-09,0
1.873e-09,0
1.874e-09,-2.26411e-09
1.875e-09,0
1.876e-09,4.52823e-09
1.877e-09,0
1.878e-09,-2.26411e-09
1.879e-09,2.26411e-09
1.88e-09,0
1.881e-09,2.26411e-09
1.882e-09,0
1.883e-09,0
1.884e-09,0
1.885e-09,0
1.886e-09,0
1.887e-09,-2.26411e-09
1.888e-09,2.26411e-09
1.889e-09,0
1.89e-09,-2.26411e-09
1.891e-09,0
1.892e-09,-2.26411e-09
1.893e-09,2.26411e-09
1.894e-09,2.26411e-09
1.895e-09,0
1.896e-09,2.26411e-09
1.897e-09,-4.52823e-09
1.898e-09,-4.52823e-09
1.899e-09,0
1.9e-09,2.26411e-09
1.901e-09,2.26411e-09
1.902e-09,-6.79234e-09
1.903e-09,2.26411e-09
1.904e-09,-2.26411e-09
1.905e-09,0
1.906e-09,2.26411e-09
1.907e-09,2.26411e-09
1.908e-09,2.26411e-09
1.909e-09,-2.26411e-09
1.91e-09,0
1.911e-09,2.26411e-09
1.912e-09,2.40088e-09
1.913e-09,0
1.914e-09,-2.26411e-09
1.915e-09,2.26411e-09
1.916e-09,-4.52823e-09
1.917e-09,2.26411e-09
1.918e-09,-2.26411e-09
1.919e-09,-4.52823e-09
1.92e-09,4.52823e-09
1.921e-09,0
1.922e-09,-1.36769e-10
1.923e-09,0
1.924e-09,2.26411e-09
1.925e-09,2.26411e-09
1.926e-09,1.36769e-10
1.927e-09,2.26411e-09
1.928e-09,0
1.929e-09,-2.26411e-09
1.93e-09,-2.40088e-09
1.931e-09,2.26411e-09
1.932e-09,-2.26411e-09
1.933e-09,2.40088e-09
1.934e-09,-1.36769e-10
1.935e-09,0
1.936e-09,0
1.937e-09,0
1.938e-09,4.66499e-09
1.939e-09,-2.26411e-09
1.94e-09,-2.26411e-09
1.941e-09,-1.36769e-10
1.942e-09,2.26411e-09
1.943e-09,-2.26411e-09
1.944e-09,0
1.945e-09,2.26411e-09
1.946e-09,-2.26411e-09
1.947e-09,0
1.948e-09,0
1.949e-09,2.26411e-09
1.95e-09,-2.26411e-09
1.951e-09,0
1.952e-09,-2.26411e-09
1.953e-09,0
1.954e-09,2.26411e-09
1.955e-09,-4.52823e-09
1.956e-09,0
1.957e-09,2.26411e-09
1.958e-09,0
1.959e-09,0
1.96e-09,0
1.961e-09,0
1.962e-09,0
1.963e-09,-4.52823e-09
1.964e-09,0
1.965e-09,2.26411e-09
1.966e-09,2.26411e-09
1.967e-09,2.26411e-09
1.968e-09,0
1.969e-09,0
1.97e-09,0
1.971e-09,0
1.972e-09,0
1.973e-09,0
1.974e-09,-2.26411e-09
1.975e-09,-2.26411e-09
1.976e-09,2.26411e-09
1.977e-09,4.66499e-09
1.978e-09,-2.40088e-09
1.979e-09,0
1.98e-09,0
1.981e-09,-2.26411e-09
1.982e-09,2.26411e-09
1.983e-09,4.66499e-09
1.984e-09,0
1.985e-09,-4.52823e-09
1.986e-09,0
1.987e-09,1.36769e-10
1.988e-09,-2.40088e-09
1.989e-09,2.26411e-09
1.99e-09,-2.26411e-09
1.991e-09,0
1.992e-09,0
1.993e-09,0
1.994e-09,0
1.995e-09,2.40088e-09
1.996e-09,-2.40088e-09
1.997e-09,0
1.998e-09,2.40088e-09
1.999e-09,-4.80176e-09
2e-09,2.26411e-09
2.001e-09,0
2.1e-09,0
