0,0
1e-12,-1.56743e-06
2e-12,-8.4136e-08
3e-12,-1.53485e-06
4e-12,-1.0411e-06
5e-12,-2.51552e-07
6e-12,-7.53966e-07
7e-12,-2.22121e-07
8e-12,7.16343e-07
9e-12,-2.45162e-06
1e-11,3.85534e-07
1.1e-11,-6.26174e-07
1.2e-11,-2.57808e-08
1.3e-11,-1.09667e-06
1.4e-11,-1.38541e-06
1.5e-11,9.63278e-07
1.6e-11,-1.49788e-06
1.7e-11,-1.19662e-06
1.8e-11,-2.2208e-06
1.9e-11,1.17763e-06
2e-11,-1.02554e-06
2.1e-11,1.76408e-07
2.2e-11,-1.65552e-06
2.3e-11,7.80543e-07
2.4e-11,-4.82933e-08
2.5e-11,-1.83228e-06
2.6e-11,-1.71091e-06
2.7e-11,-1.18646e-06
2.8e-11,-5.65655e-07
2.9e-11,7.91344e-07
3e-11,-2.16272e-06
3.1e-11,-3.60759e-07
3.2e-11,-4.71754e-07
3.3e-11,-5.92189e-07
3.4e-11,-8.79132e-09
3.5e-11,-3.61398e-06
3.6e-11,5.5696e-07
3.7e-11,-1.80258e-06
3.8e-11,-1.17192e-06
3.9e-11,-1.7144e-06
4e-11,8.51572e-07
4.1e-11,-1.52539e-06
4.2e-11,-2.1252e-06
4.3e-11,-1.56547e-06
4.4e-11,-1.15874e-06
4.5e-11,-9.53244e-08
4.6e-11,-2.99071e-07
4.7e-11,-1.12624e-06
4.8e-11,-4.7211e-08
4.9e-11,2.40014e-07
5e-11,-1.09885e-06
5.1e-11,-5.16255e-07
5.2e-11,-1.49544e-06
5.3e-11,-2.00151e-06
5.4e-11,-1.92429e-07
5.5e-11,-3.13872e-07
5.6e-11,-4.3905e-07
5.7e-11,-1.3213e-06
5.8e-11,-5.2826e-07
5.9e-11,-2.21018e-07
6e-11,-1.00624e-06
6.1e-11,-1.2112e-07
6.2e-11,-1.69224e-06
6.3e-11,-2.03539e-06
6.4e-11,-8.03301e-07
6.5e-11,-1.02889e-06
6.6e-11,-1.10834e-06
6.7e-11,-8.32506e-07
6.8e-11,-5.10483e-08
6.9e-11,-1.36051e-07
7e-11,-9.22878e-07
7.1e-11,-2.02589e-06
7.2e-11,-1.44393e-06
7.3e-11,-2.52541e-07
7.4e-11,-3.72977e-07
7.5e-11,-5.32368e-07
7.6e-11,-1.13183e-06
7.7e-11,-4.83884e-07
7.8e-11,-4.35623e-07
7.9e-11,-7.15607e-07
8e-11,-2.02963e-06
8.1e-11,-7.88018e-08
8.2e-11,-9.33968e-07
8.3e-11,-3.88904e-08
8.4e-11,-1.53869e-07
8.5e-11,-5.37971e-07
8.6e-11,-1.11405e-06
8.7e-11,-1.67827e-06
8.8e-11,-6.65564e-07
8.9e-11,-1.94717e-06
9e-11,-4.5044e-07
9.1e-11,-4.57445e-07
9.2e-11,1.22755e-07
9.3e-11,-3.939e-08
9.4e-11,-2.15799e-07
9.5e-11,-5.57873e-07
9.6e-11,-2.71522e-07
9.7e-11,-2.28823e-06
9.8e-11,-9.6699e-07
9.9e-11,-6.67217e-07
1e-10,-3.49109e-07
1.01e-10,3.96235e-07
1.02e-10,-5.26508e-07
1.03e-10,-3.45644e-07
1.04e-10,-8.59076e-07
1.05e-10,-7.56349e-07
1.06e-10,-5.08568e-07
1.07e-10,-1.8659e-06
1.08e-10,-7.18562e-07
1.09e-10,-3.99177e-07
1.1e-10,-1.07152e-06
1.11e-10,-2.20866e-07
1.12e-10,-1.02084e-07
1.13e-10,-4.99586e-07
1.14e-10,-1.10015e-06
1.15e-10,-1.43171e-06
1.16e-10,-2.62944e-07
1.17e-10,-8.50104e-07
1.18e-10,-1.72465e-06
1.19e-10,-4.27312e-07
1.2e-10,3.59414e-07
1.21e-10,-1.00612e-06
1.22e-10,-1.41023e-06
1.23e-10,-1.78351e-07
1.24e-10,-1.27383e-06
1.25e-10,-4.92491e-07
1.26e-10,-1.09713e-07
1.27e-10,-1.95252e-06
1.28e-10,-1.5158e-06
1.29e-10,1.39092e-07
1.3e-10,-8.30428e-07
1.31e-10,-1.29847e-06
1.32e-10,-7.24011e-07
1.33e-10,-1.44778e-06
1.34e-10,-5.74177e-07
1.35e-10,-1.8231e-07
1.36e-10,-9.42453e-07
1.37e-10,-1.5735e-06
1.38e-10,-8.6061e-07
1.39e-10,-7.25192e-07
1.4e-10,-2.1245e-07
1.41e-10,-6.44713e-07
1.42e-10,-1.64873e-06
1.43e-10,-1.96706e-06
1.44e-10,-8.42497e-07
1.45e-10,-7.79393e-07
1.46e-10,-5.43363e-07
1.47e-10,-1.16905e-07
1.48e-10,-2.209e-07
1.49e-10,-2.5027e-06
1.5e-10,-1.59437e-06
1.51e-10,-1.22301e-06
1.52e-10,-5.58023e-07
1.53e-10,7.00516e-08
1.54e-10,-4.18385e-07
1.55e-10,-5.59224e-07
1.56e-10,-1.09772e-06
1.57e-10,-1.58356e-06
1.58e-10,-1.19507e-06
1.59e-10,-6.99021e-07
1.6e-10,-9.60383e-08
1.61e-10,-8.54161e-07
1.62e-10,4.56249e-08
1.63e-10,-9.10025e-07
1.64e-10,-3.98592e-07
1.65e-10,-1.29173e-06
1.66e-10,-1.05739e-07
1.67e-10,-4.17675e-07
1.68e-10,-1.35252e-06
1.69e-10,-7.09714e-07
1.7e-10,-4.63573e-07
1.71e-10,-3.10858e-07
1.72e-10,-6.05557e-07
1.73e-10,-5.69192e-08
1.74e-10,-1.30932e-06
1.75e-10,-4.33657e-07
1.76e-10,-1.44375e-07
1.77e-10,-2.51401e-06
1.78e-10,-7.66282e-07
1.79e-10,-7.76395e-07
1.8e-10,-7.93285e-07
1.81e-10,-2.2779e-07
1.82e-10,-1.1129e-06
1.83e-10,-3.87634e-07
1.84e-10,-1.98541e-07
1.85e-10,-1.75192e-08
1.86e-10,-7.91506e-07
1.87e-10,-5.59129e-07
1.88e-10,-3.4378e-06
1.89e-10,-6.22664e-07
1.9e-10,-2.33765e-06
1.91e-10,4.84816e-07
1.92e-10,-7.49304e-09
1.93e-10,-8.69659e-07
1.94e-10,-9.00414e-08
1.95e-10,-5.77114e-08
1.96e-10,-2.2746e-06
1.97e-10,-2.09357e-06
1.98e-10,-4.93603e-07
1.99e-10,-2.1741e-07
2e-10,-1.1523e-07
2.01e-10,-2.47852e-08
2.02e-10,-6.36655e-07
2.03e-10,-8.49402e-07
2.04e-10,-2.33483e-07
2.05e-10,1.14175e-07
2.06e-10,-6.1757e-07
2.07e-10,-2.30414e-07
2.08e-10,-2.12313e-06
2.09e-10,-4.16433e-07
2.1e-10,-7.00385e-08
2.11e-10,-1.00537e-06
2.12e-10,-2.47263e-07
2.13e-10,-3.59748e-07
2.14e-10,-1.33902e-06
2.15e-10,1.79949e-07
2.16e-10,-1.53668e-06
2.17e-10,-7.37368e-07
2.18e-10,-1.26032e-07
2.19e-10,-1.39199e-06
2.2e-10,-6.87891e-07
2.21e-10,-2.24297e-07
2.22e-10,-5.98877e-07
2.23e-10,-1.37567e-06
2.24e-10,1.14066e-07
2.25e-10,-2.9247e-06
2.26e-10,-6.57486e-08
2.27e-10,5.46992e-07
2.28e-10,-2.81535e-07
2.29e-10,-6.4197e-07
2.3e-10,-3.74911e-08
2.31e-10,-5.13455e-07
2.32e-10,-9.19254e-07
2.33e-10,-3.26603e-07
2.34e-10,-1.66109e-06
2.35e-10,-3.59372e-07
2.36e-10,-9.36155e-07
2.37e-10,-4.85599e-08
2.38e-10,-2.02782e-07
2.39e-10,-3.65688e-07
2.4e-10,-9.14061e-07
2.41e-10,3.61964e-07
2.42e-10,-8.43313e-07
2.43e-10,-1.71565e-07
2.44e-10,-7.44994e-07
2.45e-10,-1.01395e-06
2.46e-10,-2.62934e-06
2.47e-10,-3.66182e-07
2.48e-10,-1.17728e-07
2.49e-10,-3.40686e-07
2.5e-10,-8.37134e-07
2.51e-10,-4.96485e-07
2.52e-10,-4.17105e-07
2.53e-10,-3.87646e-07
2.54e-10,-1.40215e-06
2.55e-10,-2.32227e-06
2.56e-10,-1.87574e-07
2.57e-10,-3.66739e-07
2.58e-10,-2.40203e-07
2.59e-10,-2.77939e-07
2.6e-10,-8.05688e-07
2.61e-10,-1.34208e-06
2.62e-10,-4.54045e-07
2.63e-10,1.61198e-07
2.64e-10,-1.72519e-06
2.65e-10,-2.40215e-06
2.66e-10,-7.87292e-07
2.67e-10,2.1182e-07
2.68e-10,-4.09288e-07
2.69e-10,5.05125e-07
2.7e-10,-9.60649e-07
2.71e-10,-5.11828e-07
2.72e-10,-2.08203e-07
2.73e-10,-1.26551e-06
2.74e-10,-6.9473e-07
2.75e-10,-1.74541e-06
2.76e-10,-5.7689e-07
2.77e-10,-3.67713e-07
2.78e-10,-2.15602e-07
2.79e-10,-5.50418e-07
2.8e-10,-7.61616e-08
2.81e-10,-1.24809e-06
2.82e-10,-4.45987e-07
2.83e-10,3.84653e-08
2.84e-10,-8.80808e-07
2.85e-10,-1.13e-06
2.86e-10,1.38088e-06
2.87e-10,-1.84583e-06
2.88e-10,-1.55678e-06
2.89e-10,-3.65301e-07
2.9e-10,-1.67833e-07
2.91e-10,-3.77905e-07
2.92e-10,-5.03881e-07
2.93e-10,-3.91304e-07
2.94e-10,-1.35054e-07
2.95e-10,-3.07223e-07
2.96e-10,-6.90161e-08
2.97e-10,-1.388e-06
2.98e-10,-1.209e-06
2.99e-10,-8.41421e-08
3e-10,-1.67425e-06
3.01e-10,-1.2664e-06
3.02e-10,4.17171e-07
3.03e-10,6.69533e-07
3.04e-10,-1.70499e-07
3.05e-10,8.83254e-08
3.06e-10,-8.31298e-07
3.07e-10,-4.4323e-07
3.08e-10,-1.33138e-06
3.09e-10,-1.47422e-06
3.1e-10,-4.65558e-07
3.11e-10,-2.569e-07
3.12e-10,-2.06649e-06
3.13e-10,-4.27626e-07
3.14e-10,9.30042e-07
3.15e-10,-4.27683e-07
3.16e-10,-1.50283e-06
3.17e-10,-3.54576e-07
3.18e-10,-8.41876e-07
3.19e-10,-2.30636e-06
3.2e-10,-8.46295e-10
3.21e-10,-2.59527e-07
3.22e-10,-3.16407e-06
3.23e-10,-9.80805e-07
3.24e-10,2.81477e-07
3.25e-10,-1.98531e-07
3.26e-10,1.81363e-07
3.27e-10,-1.7551e-07
3.28e-10,-4.23905e-07
3.29e-10,-1.30722e-06
3.3e-10,-1.13793e-06
3.31e-10,-1.59952e-07
3.32e-10,-1.50114e-06
3.33e-10,-2.18496e-06
3.34e-10,6.67151e-07
3.35e-10,-1.62179e-07
3.36e-10,-2.97511e-08
3.37e-10,-1.41015e-06
3.38e-10,7.40268e-08
3.39e-10,-7.84564e-07
3.4e-10,3.26067e-07
3.41e-10,-1.14834e-06
3.42e-10,-8.58754e-08
3.43e-10,-2.06095e-06
3.44e-10,-7.37931e-08
3.45e-10,-3.61629e-07
3.46e-10,-4.42038e-07
3.47e-10,-3.2905e-07
3.48e-10,-2.66181e-07
3.49e-10,-7.47066e-07
3.5e-10,-1.41832e-06
3.51e-10,-1.59477e-07
3.52e-10,-2.44309e-07
3.53e-10,2.24583e-07
3.54e-10,-3.35706e-07
3.55e-10,-2.24102e-07
3.56e-10,2.49688e-07
3.57e-10,-2.65822e-07
3.58e-10,-1.10831e-06
3.59e-10,-1.32151e-07
3.6e-10,-4.49648e-07
3.61e-10,-6.28253e-08
3.62e-10,-6.88685e-07
3.63e-10,5.14469e-08
3.64e-10,-8.62361e-08
3.65e-10,-9.86499e-08
3.66e-10,-1.9387e-07
3.67e-10,5.64544e-07
3.68e-10,-6.00765e-09
3.69e-10,-3.37721e-07
3.7e-10,6.89646e-08
3.71e-10,-7.62564e-07
3.72e-10,-3.7521e-07
3.73e-10,7.53151e-08
3.74e-10,-6.23418e-07
3.75e-10,-4.64889e-08
3.76e-10,-2.54194e-07
3.77e-10,-4.20039e-07
3.78e-10,2.07457e-07
3.79e-10,1.63912e-07
3.8e-10,-9.68612e-10
3.81e-10,-1.16453e-06
3.82e-10,-6.63333e-07
3.83e-10,-5.95851e-07
3.84e-10,-1.11954e-06
3.85e-10,1.05691e-07
3.86e-10,3.3487e-07
3.87e-10,-6.87245e-07
3.88e-10,1.85875e-07
3.89e-10,-1.30852e-07
3.9e-10,-2.70281e-09
3.91e-10,-8.73624e-07
3.92e-10,-1.6089e-06
3.93e-10,-4.09449e-08
3.94e-10,-1.19846e-07
3.95e-10,1.29725e-07
3.96e-10,-7.33183e-07
3.97e-10,-8.41533e-07
3.98e-10,-3.50349e-07
3.99e-10,-2.2887e-08
4e-10,-9.92408e-07
4.01e-10,-8.31436e-08
4.02e-10,-6.23339e-07
4.03e-10,-8.41326e-07
4.04e-10,-1.33944e-07
4.05e-10,-8.69094e-07
4.06e-10,-5.10742e-08
4.07e-10,-4.80423e-07
4.08e-10,-2.70535e-06
4.09e-10,-2.201e-07
4.1e-10,-2.47199e-07
4.11e-10,1.58066e-07
4.12e-10,-2.83291e-07
4.13e-10,-1.0399e-06
4.14e-10,2.70654e-09
4.15e-10,-3.13677e-07
4.16e-10,-1.04019e-07
4.17e-10,-2.60696e-07
4.18e-10,-1.65992e-06
4.19e-10,-2.16921e-06
4.2e-10,-5.83685e-07
4.21e-10,-2.75622e-07
4.22e-10,9.32581e-07
4.23e-10,-1.65743e-06
4.24e-10,-1.35822e-06
4.25e-10,-1.56859e-07
4.26e-10,-8.5267e-08
4.27e-10,3.71533e-08
4.28e-10,-9.21937e-07
4.29e-10,-2.75619e-06
4.3e-10,-7.99478e-07
4.31e-10,-1.00065e-06
4.32e-10,-3.19362e-08
4.33e-10,-1.28982e-07
4.34e-10,-3.37999e-07
4.35e-10,-6.38429e-08
4.36e-10,-5.24892e-08
4.37e-10,2.94936e-07
4.38e-10,2.07231e-07
4.39e-10,2.39148e-07
4.4e-10,-4.57511e-08
4.41e-10,-2.61144e-07
4.42e-10,-5.72055e-07
4.43e-10,-4.76411e-07
4.44e-10,2.63978e-07
4.45e-10,-3.77408e-07
4.46e-10,-3.21779e-07
4.47e-10,-5.51307e-08
4.48e-10,1.75791e-07
4.49e-10,-1.53994e-07
4.5e-10,-3.55361e-07
4.51e-10,-1.856e-08
4.52e-10,-1.68155e-07
4.53e-10,3.31502e-07
4.54e-10,-1.08659e-06
4.55e-10,-1.88621e-07
4.56e-10,2.16513e-07
4.57e-10,-5.42882e-07
4.58e-10,-2.02418e-07
4.59e-10,-1.4473e-07
4.6e-10,1.74266e-07
4.61e-10,-1.41378e-07
4.62e-10,-6.50663e-09
4.63e-10,-1.39112e-06
4.64e-10,4.38018e-07
4.65e-10,-1.08702e-07
4.66e-10,2.7588e-07
4.67e-10,2.33162e-07
4.68e-10,-1.65178e-07
4.69e-10,-9.39442e-07
4.7e-10,3.88593e-07
4.71e-10,-1.08955e-07
4.72e-10,-2.84993e-08
4.73e-10,-1.39236e-08
4.74e-10,-3.92133e-07
4.75e-10,-1.44756e-07
4.76e-10,1.73302e-07
4.77e-10,-8.56326e-07
4.78e-10,6.00842e-07
4.79e-10,-2.70511e-07
4.8e-10,-3.00468e-07
4.81e-10,-1.31996e-07
4.82e-10,6.65835e-08
4.83e-10,1.36443e-07
4.84e-10,-3.34174e-08
4.85e-10,1.20707e-08
4.86e-10,2.26166e-07
4.87e-10,-1.22696e-07
4.88e-10,2.02326e-08
4.89e-10,4.58965e-07
4.9e-10,2.58104e-08
4.91e-10,4.20602e-07
4.92e-10,-2.42572e-07
4.93e-10,8.55661e-07
4.94e-10,-4.82947e-07
4.95e-10,1.09863e-08
4.96e-10,-1.96711e-07
4.97e-10,-1.17064e-07
4.98e-10,6.61312e-07
4.99e-10,3.87595e-08
5e-10,2.03766e-07
5.01e-10,4.20142e-07
5.02e-10,-2.01397e-07
5.03e-10,-1.07218e-07
5.04e-10,7.08915e-07
5.05e-10,2.23752e-07
5.06e-10,9.64376e-08
5.07e-10,-1.093e-07
5.08e-10,-1.97256e-08
5.09e-10,-9.99409e-08
5.1e-10,3.31808e-07
5.11e-10,1.84743e-07
5.12e-10,-9.46786e-08
5.13e-10,7.97848e-08
5.14e-10,2.45522e-07
5.15e-10,3.95631e-07
5.16e-10,1.80329e-07
5.17e-10,5.49453e-07
5.18e-10,6.28757e-07
5.19e-10,-9.33107e-08
5.2e-10,1.6773e-07
5.21e-10,8.91791e-08
5.22e-10,1.48501e-07
5.23e-10,-6.06811e-08
5.24e-10,-4.88308e-08
5.25e-10,1.38785e-07
5.26e-10,3.15362e-07
5.27e-10,1.34066e-08
5.28e-10,6.69549e-07
5.29e-10,-6.59549e-09
5.3e-10,4.21508e-07
5.31e-10,-1.87468e-07
5.32e-10,-6.11807e-07
5.33e-10,5.26619e-07
5.34e-10,1.64497e-07
5.35e-10,3.27768e-08
5.36e-10,2.47719e-07
5.37e-10,2.08946e-07
5.38e-10,7.01128e-07
5.39e-10,2.72445e-07
5.4e-10,3.59347e-07
5.41e-10,-3.73564e-07
5.42e-10,5.34282e-07
5.43e-10,-4.53165e-08
5.44e-10,-2.11605e-07
5.45e-10,3.83268e-07
5.46e-10,-2.31338e-08
5.47e-10,9.33696e-07
5.48e-10,-1.24978e-06
5.49e-10,-2.9891e-07
5.5e-10,5.29399e-07
5.51e-10,2.35177e-07
5.52e-10,-2.12483e-07
5.53e-10,-7.62578e-08
5.54e-10,3.58648e-07
5.55e-10,7.825e-08
5.56e-10,5.13456e-07
5.57e-10,-9.59046e-07
5.58e-10,-3.53646e-07
5.59e-10,-1.14647e-07
5.6e-10,-3.16223e-07
5.61e-10,1.53242e-08
5.62e-10,3.62686e-07
5.63e-10,4.23734e-07
5.64e-10,-2.58421e-08
5.65e-10,-6.63291e-07
5.66e-10,-1.35786e-07
5.67e-10,3.44956e-07
5.68e-10,-1.50079e-07
5.69e-10,-3.64386e-07
5.7e-10,-4.99267e-08
5.71e-10,2.69534e-07
5.72e-10,-6.52497e-07
5.73e-10,-1.67996e-07
5.74e-10,-1.30811e-06
5.75e-10,6.52752e-08
5.76e-10,3.96166e-07
5.77e-10,-1.08246e-07
5.78e-10,-1.89934e-07
5.79e-10,1.79997e-07
5.8e-10,4.9923e-08
5.81e-10,-3.75176e-07
5.82e-10,7.05219e-08
5.83e-10,-4.42154e-07
5.84e-10,-1.02833e-07
5.85e-10,2.32627e-07
5.86e-10,-8.5916e-07
5.87e-10,2.53765e-09
5.88e-10,-1.36222e-07
5.89e-10,-4.57261e-07
5.9e-10,-2.65844e-07
5.91e-10,-1.32672e-08
5.92e-10,-8.91099e-08
5.93e-10,3.41829e-08
5.94e-10,-4.79261e-07
5.95e-10,-4.58937e-08
5.96e-10,-1.38133e-09
5.97e-10,-1.11672e-07
5.98e-10,-4.21893e-07
5.99e-10,-1.35616e-07
6e-10,-2.92013e-08
6.01e-10,4.2734e-07
6.02e-10,-3.61688e-07
6.03e-10,-1.06159e-07
6.04e-10,3.42213e-07
6.05e-10,7.87649e-11
6.06e-10,-1.60997e-06
6.07e-10,-7.10917e-08
6.08e-10,-6.47069e-08
6.09e-10,-2.92851e-08
6.1e-10,-9.2288e-08
6.11e-10,-4.82614e-07
6.12e-10,2.81046e-09
6.13e-10,9.69202e-08
6.14e-10,-1.29246e-07
6.15e-10,2.83224e-07
6.16e-10,8.81149e-09
6.17e-10,-1.13776e-07
6.18e-10,-1.96861e-06
6.19e-10,-6.58739e-08
6.2e-10,-3.02391e-08
6.21e-10,-1.10571e-08
6.22e-10,-1.05128e-07
6.23e-10,-2.74495e-07
6.24e-10,-4.34973e-07
6.25e-10,-7.82604e-08
6.26e-10,1.09391e-07
6.27e-10,-3.37948e-08
6.28e-10,1.41597e-07
6.29e-10,2.89363e-07
6.3e-10,-4.63074e-08
6.31e-10,-2.37737e-07
6.32e-10,1.45612e-07
6.33e-10,-8.17389e-08
6.34e-10,5.96205e-08
6.35e-10,-2.84688e-07
6.36e-10,-1.04231e-07
6.37e-10,-1.05448e-07
6.38e-10,-2.30739e-07
6.39e-10,-4.3575e-08
6.4e-10,-4.92563e-08
6.41e-10,4.15144e-07
6.42e-10,-8.45534e-08
6.43e-10,-3.78191e-08
6.44e-10,-8.12837e-08
6.45e-10,-1.82591e-07
6.46e-10,-5.7495e-08
6.47e-10,-5.1534e-08
6.48e-10,5.20314e-08
6.49e-10,-9.01501e-08
6.5e-10,-4.45038e-08
6.51e-10,-1.34112e-07
6.52e-10,-9.9995e-08
6.53e-10,-2.26395e-08
6.54e-10,-8.41269e-08
6.55e-10,-2.44395e-10
6.56e-10,1.45548e-07
6.57e-10,3.8723e-07
6.58e-10,-9.12418e-08
6.59e-10,6.58141e-10
6.6e-10,-4.48708e-08
6.61e-10,-9.55559e-08
6.62e-10,-5.59299e-08
6.63e-10,-8.89672e-08
6.64e-10,2.63307e-07
6.65e-10,-5.21263e-08
6.66e-10,-4.47317e-08
6.67e-10,1.41542e-07
6.68e-10,-4.37943e-08
6.69e-10,-8.59435e-08
6.7e-10,-1.23454e-07
6.71e-10,-8.51983e-08
6.72e-10,-3.87038e-08
6.73e-10,-1.50126e-07
6.74e-10,-1.79622e-07
6.75e-10,2.19855e-07
6.76e-10,-4.38342e-09
6.77e-10,7.95903e-08
6.78e-10,-1.76719e-07
6.79e-10,-6.297e-08
6.8e-10,6.06123e-10
6.81e-10,1.62472e-09
6.82e-10,-5.99206e-09
6.83e-10,-8.86464e-08
6.84e-10,2.86688e-07
6.85e-10,9.98014e-08
6.86e-10,-1.7534e-07
6.87e-10,-7.56491e-08
6.88e-10,-1.40167e-07
6.89e-10,2.66334e-08
6.9e-10,-5.2959e-08
6.91e-10,3.3476e-07
6.92e-10,-7.8759e-08
6.93e-10,2.52458e-09
6.94e-10,-5.74199e-08
6.95e-10,-1.30041e-07
6.96e-10,-8.65676e-08
6.97e-10,2.1966e-07
6.98e-10,-3.98062e-08
6.99e-10,-5.07961e-08
7e-10,1.24782e-08
7.01e-10,-4.93556e-08
7.02e-10,-5.9745e-08
7.03e-10,-9.3342e-08
7.04e-10,-5.15242e-08
7.05e-10,-8.72719e-08
7.06e-10,3.82479e-07
7.07e-10,5.01606e-08
7.08e-10,1.60942e-10
7.09e-10,-9.12735e-08
7.1e-10,-1.01458e-07
7.11e-10,-1.25272e-07
7.12e-10,-7.78192e-07
7.13e-10,-1.01031e-07
7.14e-10,-7.23218e-08
7.15e-10,-9.59608e-08
7.16e-10,4.54799e-08
7.17e-10,-9.61531e-08
7.18e-10,-7.66714e-08
7.19e-10,-4.54959e-08
7.2e-10,2.02756e-07
7.21e-10,-1.2503e-06
7.22e-10,-4.49965e-08
7.23e-10,-4.89159e-08
7.24e-10,1.55814e-07
7.25e-10,-1.296e-07
7.26e-10,-4.6515e-08
7.27e-10,-1.32661e-07
7.28e-10,-2.98568e-08
7.29e-10,-8.18436e-08
7.3e-10,-9.36466e-08
7.31e-10,1.28438e-07
7.32e-10,-5.94533e-08
7.33e-10,2.60551e-09
7.34e-10,-4.14626e-08
7.35e-10,6.18517e-09
7.36e-10,-7.72388e-08
7.37e-10,-1.14573e-06
7.38e-10,1.15767e-09
7.39e-10,-7.45339e-08
7.4e-10,1.12946e-08
7.41e-10,-1.0012e-07
7.42e-10,-5.91768e-08
7.43e-10,1.03509e-08
7.44e-10,-9.79927e-08
7.45e-10,-5.66005e-08
7.46e-10,-1.11628e-07
7.47e-10,-5.47406e-08
7.48e-10,-4.21642e-08
7.49e-10,-2.26411e-09
7.5e-10,-8.50125e-08
7.51e-10,-8.25357e-09
7.52e-10,-3.59743e-08
7.53e-10,-8.80341e-08
7.54e-10,-3.27368e-08
7.55e-10,3.63709e-09
7.56e-10,4.32158e-08
7.57e-10,-5.41957e-08
7.58e-10,-1.41706e-08
7.59e-10,-8.5288e-08
7.6e-10,-1.85059e-09
7.61e-10,-9.06832e-08
7.62e-10,-2.92118e-08
7.63e-10,-1.38089e-07
7.64e-10,-9.39927e-08
7.65e-10,7.43942e-10
7.66e-10,-5.19098e-08
7.67e-10,-2.53765e-09
7.68e-10,-4.11209e-08
7.69e-10,-2.26411e-09
7.7e-10,-1.9091e-09
7.71e-10,-3.9124e-08
7.72e-10,3.34154e-08
7.73e-10,-5.08107e-08
7.74e-10,-9.09601e-08
7.75e-10,-1.6919e-10
7.76e-10,5.75556e-09
7.77e-10,-1.32689e-07
7.78e-10,-3.59775e-08
7.79e-10,-4.66499e-09
7.8e-10,3.60685e-09
7.81e-10,-9.56253e-08
7.82e-10,3.96533e-08
7.83e-10,-7.78066e-08
7.84e-10,-4.41369e-08
7.85e-10,-2.44952e-09
7.86e-10,1.15579e-09
7.87e-10,-4.77442e-08
7.88e-10,-8.9228e-08
7.89e-10,9.87441e-10
7.9e-10,-4.78808e-08
7.91e-10,-4.31159e-08
7.92e-10,-4.65376e-08
7.93e-10,4.32158e-08
7.94e-10,-3.47806e-08
7.95e-10,-5.01444e-08
7.96e-10,-2.31275e-09
7.97e-10,1.40273e-08
7.98e-10,-3.86871e-08
7.99e-10,3.34051e-08
8e-10,-8.56154e-08
8.01e-10,-3.71522e-08
8.02e-10,-1.04713e-07
8.03e-10,3.56313e-08
8.04e-10,-8.1678e-08
8.05e-10,8.98053e-09
8.06e-10,-1.59096e-08
8.07e-10,7.50621e-08
8.08e-10,3.37886e-09
8.09e-10,-8.91712e-08
8.1e-10,-4.16804e-08
8.11e-10,-9.69019e-08
8.12e-10,4.0538e-08
8.13e-10,1.22848e-08
8.14e-10,-2.12734e-09
8.15e-10,-2.75699e-08
8.16e-10,-9.19568e-08
8.17e-10,1.47328e-07
8.18e-10,-1.32494e-07
8.19e-10,-5.55438e-07
8.2e-10,4.66499e-09
8.21e-10,2.08009e-08
8.22e-10,-6.63279e-08
8.23e-10,-4.32153e-08
8.24e-10,1.36769e-10
8.25e-10,-4.54799e-08
8.26e-10,-4.19122e-08
8.27e-10,2.30292e-07
8.28e-10,-2.26411e-09
8.29e-10,-7.65237e-09
8.3e-10,-7.73914e-08
8.31e-10,1.44487e-09
8.32e-10,-9.88392e-09
8.33e-10,1.85038e-09
8.34e-10,-4.7897e-08
8.35e-10,4.52823e-09
8.36e-10,-5.07484e-08
8.37e-10,-7.76531e-07
8.38e-10,-4.99919e-08
8.39e-10,9.4539e-09
8.4e-10,-4.05249e-08
8.41e-10,-5.09501e-09
8.42e-10,8.96038e-08
8.43e-10,-4.3216e-08
8.44e-10,4.94196e-09
8.45e-10,0
8.46e-10,-1.10178e-06
8.47e-10,-8.61547e-08
8.48e-10,-7.34284e-09
8.49e-10,-3.85402e-08
8.5e-10,-9.60695e-09
8.51e-10,1.09941e-08
8.52e-10,-1.12711e-08
8.53e-10,-4.55091e-08
8.54e-10,4.58937e-08
8.55e-10,-4.25126e-09
8.56e-10,-3.73968e-08
8.57e-10,2.82042e-08
8.58e-10,-4.54799e-08
8.59e-10,-1.09174e-06
8.6e-10,4.32158e-08
8.61e-10,-5.35526e-08
8.62e-10,-6.55075e-08
8.63e-10,-2.67785e-09
8.64e-10,-3.20847e-09
8.65e-10,4.34928e-08
8.66e-10,-1.52145e-07
8.67e-10,-4.23191e-08
8.68e-10,-1.12556e-06
8.69e-10,-3.2569e-11
8.7e-10,1.36769e-10
8.71e-10,4.52823e-09
8.72e-10,-5.2155e-09
8.73e-10,-6.22474e-08
8.74e-10,-4.32158e-08
8.75e-10,2.40088e-09
8.76e-10,-4.93813e-08
8.77e-10,-4.53936e-09
8.78e-10,-7.71016e-08
8.79e-10,8.55637e-08
8.8e-10,-1.39777e-07
8.81e-10,1.42041e-07
8.82e-10,-9.93433e-08
8.83e-10,-9.84748e-08
8.84e-10,1.88295e-09
8.85e-10,2.26411e-09
8.86e-10,-1.42663e-09
8.87e-10,-1.34142e-07
8.88e-10,2.12734e-09
8.89e-10,4.7744e-08
8.9e-10,-9.90599e-08
8.91e-10,6.65557e-09
8.92e-10,3.81164e-10
8.93e-10,-2.53765e-09
8.94e-10,1.69338e-10
8.95e-10,-5.09698e-08
8.96e-10,-4.65866e-08
8.97e-10,-4.763e-08
8.98e-10,-4.94196e-09
8.99e-10,-1.63959e-08
9e-10,2.40088e-09
9.01e-10,-2.26411e-09
9.02e-10,4.80176e-09
9.03e-10,-5.32365e-08
9.04e-10,4.56079e-09
9.05e-10,-3.51529e-08
9.06e-10,-4.7391e-08
9.07e-10,-5.8037e-08
9.08e-10,-2.26411e-09
9.09e-10,-4.66499e-09
9.1e-10,-4.77262e-09
9.11e-10,2.44395e-10
9.12e-10,2.67785e-09
9.13e-10,-5.32312e-09
9.14e-10,-5.14337e-08
9.15e-10,-4.13528e-08
9.16e-10,-4.66499e-09
9.17e-10,7.06588e-09
9.18e-10,-4.84444e-08
9.19e-10,-2.53765e-09
9.2e-10,7.03811e-09
9.21e-10,-4.9794e-08
9.22e-10,-2.67304e-09
9.23e-10,7.58723e-09
9.24e-10,-1.04841e-07
9.25e-10,2.61271e-09
9.26e-10,-2.47594e-09
9.27e-10,1.85038e-09
9.28e-10,-5.51009e-08
9.29e-10,5.78761e-09
9.3e-10,9.71115e-09
9.31e-10,-4.52823e-09
9.32e-10,1.88295e-09
9.33e-10,-5.32966e-08
9.34e-10,2.26411e-09
9.35e-10,-4.73509e-08
9.36e-10,-4.90939e-09
9.37e-10,-4.80793e-08
9.38e-10,5.45549e-08
9.39e-10,6.92911e-09
9.4e-10,-5.54854e-08
9.41e-10,-5.17932e-10
9.42e-10,-2.26411e-09
9.43e-10,5.04616e-09
9.44e-10,-3.88269e-08
9.45e-10,-4.52823e-09
9.46e-10,5.07873e-09
9.47e-10,-4.66518e-08
9.48e-10,4.52823e-09
9.49e-10,-1.49301e-08
9.5e-10,4.66499e-09
9.51e-10,-5.27389e-08
9.52e-10,-4.13733e-10
9.53e-10,-5.02808e-08
9.54e-10,-4.44003e-08
9.55e-10,2.12734e-09
9.56e-10,-4.8009e-08
9.57e-10,-1.99058e-09
9.58e-10,5.17397e-08
9.59e-10,7.06588e-09
9.6e-10,-6.2287e-08
9.61e-10,-5.76196e-08
9.62e-10,-2.54108e-09
9.63e-10,-2.40088e-09
9.64e-10,7.34284e-09
9.65e-10,-5.20134e-08
9.66e-10,2.40088e-09
9.67e-10,-6.79234e-09
9.68e-10,-9.69932e-08
9.69e-10,5.74317e-08
9.7e-10,-6.44976e-08
9.71e-10,0
9.72e-10,2.40088e-09
9.73e-10,-5.0144e-08
9.74e-10,0
9.75e-10,4.52823e-09
9.76e-10,0
9.77e-10,-2.12734e-09
9.78e-10,-1.0028e-07
9.79e-10,-1.15941e-08
9.8e-10,7.06588e-09
9.81e-10,-7.06588e-09
9.82e-10,-5.14309e-08
9.83e-10,-2.40088e-09
9.84e-10,4.66499e-09
9.85e-10,-6.79234e-09
9.86e-10,2.12734e-09
9.87e-10,0
9.88e-10,0
9.89e-10,-5.79e-08
9.9e-10,-5.46481e-08
9.91e-10,-3.84202e-08
9.92e-10,2.26411e-09
9.93e-10,-2.40088e-09
9.94e-10,-2.26411e-09
9.95e-10,-2.26411e-09
9.96e-10,-2.81461e-09
9.97e-10,-4.11977e-08
9.98e-10,-4.30793e-08
9.99e-10,-6.43755e-08
1e-09,0
1.001e-09,-2.26411e-09
1.002e-09,-6.92911e-09
1.003e-09,4.52823e-09
1.004e-09,-2.26411e-09
1.005e-09,-1.36769e-10
1.006e-09,4.52823e-09
1.007e-09,-1.02543e-07
1.008e-09,0
1.009e-09,-4.78805e-08
1.01e-09,4.66499e-09
1.011e-09,-1.36769e-10
1.012e-09,-6.92911e-09
1.013e-09,4.66499e-09
1.014e-09,2.40088e-09
1.015e-09,-4.66499e-09
1.016e-09,-6.79438e-08
1.017e-09,-6.20833e-08
1.018e-09,-6.79234e-09
1.019e-09,-5.32302e-08
1.02e-09,2.26411e-09
1.021e-09,2.80033e-08
1.022e-09,-4.52823e-09
1.023e-09,-6.98895e-08
1.024e-09,2.26411e-09
1.025e-09,-4.01191e-08
1.026e-09,-2.40088e-09
1.027e-09,-5.73489e-08
1.028e-09,6.65557e-09
1.029e-09,2.73538e-10
1.03e-09,-7.63443e-08
1.031e-09,-2.40088e-09
1.032e-09,2.22231e-08
1.033e-09,-2.66146e-08
1.034e-09,-4.52823e-09
1.035e-09,-2.21455e-08
1.036e-09,-7.2774e-08
1.037e-09,-7.47961e-09
1.038e-09,-2.26411e-09
1.039e-09,2.40088e-09
1.04e-09,-6.33157e-08
1.041e-09,2.12734e-09
1.042e-09,6.79234e-09
1.043e-09,-9.19322e-09
1.044e-09,-9.13724e-08
1.045e-09,-8.91968e-09
1.046e-09,-1.36769e-10
1.047e-09,-2.26411e-09
1.048e-09,-7.66682e-08
1.049e-09,4.37525e-08
1.05e-09,4.66499e-09
1.051e-09,0
1.052e-09,-2.26896e-08
1.053e-09,3.2476e-10
1.054e-09,-3.8557e-08
1.055e-09,-6.65557e-09
1.056e-09,-6.15689e-10
1.057e-09,1.36769e-10
1.058e-09,-3.63374e-08
1.059e-09,-5.71791e-08
1.06e-09,-5.13175e-08
1.061e-09,-2.40088e-09
1.062e-09,-9.53537e-09
1.063e-09,-8.58216e-08
1.064e-09,7.5448e-09
1.065e-09,-2.26411e-09
1.066e-09,-4.7892e-10
1.067e-09,-7.23345e-08
1.068e-09,-1.36769e-10
1.069e-09,-4.97987e-08
1.07e-09,-7.5448e-09
1.071e-09,2.26411e-09
1.072e-09,-3.78385e-08
1.073e-09,-4.52823e-09
1.074e-09,2.45205e-09
1.075e-09,-7.88389e-08
1.076e-09,1.87942e-10
1.077e-09,-1.79884e-09
1.078e-09,-4.01262e-08
1.079e-09,2.26411e-09
1.08e-09,2.26411e-09
1.081e-09,-3.4295e-08
1.082e-09,4.72322e-10
1.083e-09,-5.96265e-08
1.084e-09,-2.12734e-09
1.085e-09,-6.09091e-10
1.086e-09,0
1.087e-09,-4.52823e-09
1.088e-09,-4.93176e-08
1.089e-09,-2.26411e-09
1.09e-09,-1.37382e-07
1.091e-09,0
1.092e-09,0
1.093e-09,2.26411e-09
1.094e-09,-4.52823e-09
1.095e-09,2.26411e-09
1.096e-09,2.26411e-09
1.097e-09,-3.37451e-08
1.098e-09,-4.88524e-08
1.099e-09,-2.26411e-09
1.1e-09,-8.43035e-08
1.101e-09,1.36769e-10
1.102e-09,-4.66499e-09
1.103e-09,6.1658e-08
1.104e-09,-1.20171e-07
1.105e-09,0
1.106e-09,7.73186e-08
1.107e-09,-5.52264e-08
1.108e-09,2.26411e-09
1.109e-09,-2.26411e-09
1.11e-09,0
1.111e-09,-6.28212e-08
1.112e-09,-6.24182e-08
1.113e-09,2.26411e-09
1.114e-09,-5.25604e-08
1.115e-09,-5.10389e-08
1.116e-09,0
1.117e-09,0
1.118e-09,-1.44384e-07
1.119e-09,0
1.12e-09,6.72279e-08
1.121e-09,4.52823e-09
1.122e-09,2.26411e-09
1.123e-09,1.13231e-08
1.124e-09,-1.0285e-07
1.125e-09,-6.87334e-08
1.126e-09,2.26411e-09
1.127e-09,2.26411e-09
1.128e-09,2.40088e-09
1.129e-09,6.64693e-08
1.13e-09,-7.08607e-08
1.131e-09,-3.65291e-08
1.132e-09,-8.88799e-08
1.133e-09,-2.40088e-09
1.134e-09,4.52823e-09
1.135e-09,2.26411e-09
1.136e-09,-4.52823e-09
1.137e-09,0
1.138e-09,-2.26411e-09
1.139e-09,-4.39318e-08
1.14e-09,-5.58244e-08
1.141e-09,6.92911e-09
1.142e-09,-5.82261e-08
1.143e-09,-1.76912e-07
1.144e-09,4.52823e-09
1.145e-09,-5.33834e-08
1.146e-09,0
1.147e-09,0
1.148e-09,-6.79234e-09
1.149e-09,-3.3133e-08
1.15e-09,-1.00597e-07
1.151e-09,-4.83871e-08
1.152e-09,-6.79234e-09
1.153e-09,-2.40088e-09
1.154e-09,0
1.155e-09,2.26411e-09
1.156e-09,0
1.157e-09,4.91979e-08
1.158e-09,-6.79234e-09
1.159e-09,-2.43777e-07
1.16e-09,2.29481e-07
1.161e-09,-4.85668e-08
1.162e-09,-4.66499e-09
1.163e-09,5.55867e-25
1.164e-09,2.26411e-09
1.165e-09,-2.26411e-09
1.166e-09,-5.74849e-08
1.167e-09,-1.20328e-07
1.168e-09,2.12734e-09
1.169e-09,-9.38287e-08
1.17e-09,4.52823e-09
1.171e-09,-1.87849e-08
1.172e-09,0
1.173e-09,7.4643e-09
1.174e-09,2.26411e-09
1.175e-09,-2.26411e-09
1.176e-09,-1.02696e-07
1.177e-09,-2.82783e-07
1.178e-09,-9.69281e-08
1.179e-09,1.01456e-07
1.18e-09,-5.54167e-08
1.181e-09,-9.17279e-08
1.182e-09,3.88657e-08
1.183e-09,0
1.184e-09,0
1.185e-09,2.28006e-07
1.186e-09,-1.08377e-07
1.187e-09,0
1.188e-09,-6.21503e-08
1.189e-09,-2.77904e-07
1.19e-09,-1.22455e-07
1.191e-09,-2.40088e-09
1.192e-09,1.2712e-07
1.193e-09,-5.69145e-08
1.194e-09,-4.5354e-08
1.195e-09,-1.57464e-07
1.196e-09,-2.53765e-09
1.197e-09,-2.26411e-09
1.198e-09,-5.2614e-08
1.199e-09,-4.66499e-09
1.2e-09,2.26411e-09
1.201e-09,2.26411e-09
1.202e-09,-1.81532e-07
1.203e-09,-1.06775e-07
1.204e-09,-1.87338e-08
1.205e-09,6.10602e-08
1.206e-09,2.40088e-09
1.207e-09,-2.40088e-09
1.208e-09,-5.57058e-08
1.209e-09,-7.06588e-09
1.21e-09,1.36769e-10
1.211e-09,-1.91148e-07
1.212e-09,-1.09176e-07
1.213e-09,-4.66499e-09
1.214e-09,-6.84274e-09
1.215e-09,-4.52823e-09
1.216e-09,1.08891e-07
1.217e-09,-4.52823e-09
1.218e-09,-1.65237e-07
1.219e-09,2.40088e-09
1.22e-09,-6.04377e-08
1.221e-09,-2.1565e-07
1.222e-09,2.26411e-09
1.223e-09,-5.0288e-07
1.224e-09,-8.65596e-09
1.225e-09,0
1.226e-09,2.26411e-09
1.227e-09,-5.03647e-08
1.228e-09,-1.27556e-07
1.229e-09,1.36769e-10
1.23e-09,-3.51788e-07
1.231e-09,-1.12664e-08
1.232e-09,-1.36769e-10
1.233e-09,2.40088e-09
1.234e-09,2.40088e-09
1.235e-09,4.52823e-09
1.236e-09,-4.66499e-09
1.237e-09,-1.15491e-07
1.238e-09,2.40088e-09
1.239e-09,-1.10641e-06
1.24e-09,2.41115e-09
1.241e-09,-2.26411e-09
1.242e-09,2.26411e-09
1.243e-09,-2.26411e-09
1.244e-09,0
1.245e-09,-5.33317e-08
1.246e-09,3.75825e-08
1.247e-09,-1.66206e-07
1.248e-09,0
1.249e-09,4.52823e-09
1.25e-09,-4.66499e-09
1.251e-09,-1.9987e-07
1.252e-09,-2.39397e-07
1.253e-09,0
1.254e-09,1.36769e-10
1.255e-09,-5.31052e-08
1.256e-09,-6.69398e-08
1.257e-09,6.92911e-09
1.258e-09,-4.80176e-09
1.259e-09,4.66499e-09
1.26e-09,7.0383e-08
1.261e-09,-7.0383e-08
1.262e-09,-2.26411e-09
1.263e-09,-5.59525e-08
1.264e-09,4.66499e-09
1.265e-09,2.48056e-08
1.266e-09,9.57735e-09
1.267e-09,-8.22897e-08
1.268e-09,8.45327e-08
1.269e-09,-2.32051e-09
1.27e-09,-6.78439e-08
1.271e-09,0
1.272e-09,-7.99974e-08
1.273e-09,-6.94623e-09
1.274e-09,2.26411e-09
1.275e-09,2.01554e-08
1.276e-09,-5.82746e-08
1.277e-09,8.93274e-08
1.278e-09,-7.40135e-08
1.279e-09,-8.70435e-08
1.28e-09,8.68069e-08
1.281e-09,2.53765e-09
1.282e-09,-1.36769e-10
1.283e-09,2.09097e-08
1.284e-09,-3.16256e-08
1.285e-09,-5.82589e-08
1.286e-09,2.70974e-08
1.287e-09,-2.92616e-08
1.288e-09,-4.01191e-08
1.289e-09,-4.66499e-09
1.29e-09,2.40088e-09
1.291e-09,-1.36769e-10
1.292e-09,3.9554e-08
1.293e-09,2.26411e-09
1.294e-09,-5.29582e-08
1.295e-09,4.52823e-09
1.296e-09,-7.00704e-08
1.297e-09,-7.06588e-09
1.298e-09,0
1.299e-09,0
1.3e-09,4.54881e-08
1.301e-09,1.36769e-10
1.302e-09,2.43058e-07
1.303e-09,-6.04513e-08
1.304e-09,-5.15113e-08
1.305e-09,2.26411e-09
1.306e-09,0
1.307e-09,-9.19322e-09
1.308e-09,6.38821e-08
1.309e-09,4.33669e-09
1.31e-09,0
1.311e-09,-3.84272e-08
1.312e-09,1.36769e-10
1.313e-09,-6.92911e-09
1.314e-09,-2.40088e-09
1.315e-09,-5.13511e-08
1.316e-09,-1.36769e-10
1.317e-09,0
1.318e-09,1.1285e-07
1.319e-09,-7.92262e-08
1.32e-09,2.14849e-09
1.321e-09,2.40088e-09
1.322e-09,-4.66499e-09
1.323e-09,4.66499e-09
1.324e-09,-1.57918e-10
1.325e-09,-2.36281e-09
1.326e-09,-6.00582e-08
1.327e-09,1.47442e-07
1.328e-09,-9.80249e-08
1.329e-09,2.40088e-09
1.33e-09,0
1.331e-09,-2.40088e-09
1.332e-09,0
1.333e-09,2.40088e-09
1.334e-09,2.65747e-07
1.335e-09,-3.26677e-08
1.336e-09,-2.26411e-09
1.337e-09,1.98377e-07
1.338e-09,-6.28552e-08
1.339e-09,0
1.34e-09,2.26411e-09
1.341e-09,1.36769e-10
1.342e-09,-2.02865e-09
1.343e-09,-9.86941e-11
1.344e-09,-4.66499e-09
1.345e-09,-9.06505e-08
1.346e-09,-5.98833e-08
1.347e-09,2.17094e-07
1.348e-09,-4.52823e-09
1.349e-09,4.52823e-09
1.35e-09,-2.26411e-09
1.351e-09,0
1.352e-09,-4.52823e-09
1.353e-09,3.13101e-07
1.354e-09,-9.60692e-08
1.355e-09,-6.45483e-08
1.356e-09,-1.36769e-10
1.357e-09,-4.52823e-09
1.358e-09,0
1.359e-09,-4.52823e-09
1.36e-09,2.57755e-07
1.361e-09,-2.26411e-09
1.362e-09,-1.11512e-08
1.363e-09,-2.26411e-09
1.364e-09,2.40088e-09
1.365e-09,-6.23912e-08
1.366e-09,-1.36769e-10
1.367e-09,-2.94713e-08
1.368e-09,2.42389e-07
1.369e-09,-2.40088e-09
1.37e-09,-2.26411e-09
1.371e-09,0
1.372e-09,4.66499e-09
1.373e-09,-1.06682e-07
1.374e-09,0
1.375e-09,2.26411e-09
1.376e-09,-1.7791e-07
1.377e-09,1.0972e-07
1.378e-09,-1.75509e-07
1.379e-09,2.26411e-09
1.38e-09,4.52823e-09
1.381e-09,-3.59286e-08
1.382e-09,0
1.383e-09,0
1.384e-09,-2.32787e-09
1.385e-09,2.40088e-09
1.386e-09,-2.40088e-09
1.387e-09,-4.52823e-09
1.388e-09,-6.2561e-08
1.389e-09,0
1.39e-09,-1.04756e-07
1.391e-09,0
1.392e-09,2.26411e-09
1.393e-09,-4.52823e-09
1.394e-09,-4.66499e-09
1.395e-09,2.1911e-09
1.396e-09,4.69994e-09
1.397e-09,0
1.398e-09,-1.76761e-07
1.399e-09,0
1.4e-09,2.16542e-09
1.401e-09,2.26411e-09
1.402e-09,-2.16542e-09
1.403e-09,-9.86941e-11
1.404e-09,0
1.405e-09,-2.26411e-09
1.406e-09,-1.32988e-07
1.407e-09,-6.145e-08
1.408e-09,-2.56781e-11
1.409e-09,2.28979e-09
1.41e-09,3.80748e-11
1.411e-09,-6.37529e-11
1.412e-09,-4.59078e-08
1.413e-09,4.31442e-08
1.414e-09,-1.16748e-07
1.415e-09,2.26411e-09
1.416e-09,0
1.417e-09,-6.69551e-08
1.418e-09,0
1.419e-09,-2.26411e-09
1.42e-09,7.29188e-09
1.421e-09,2.40088e-09
1.422e-09,-2.26411e-09
1.423e-09,2.26411e-09
1.424e-09,-1.32617e-07
1.425e-09,2.26411e-09
1.426e-09,-7.04688e-08
1.427e-09,-4.52823e-09
1.428e-09,0
1.429e-09,2.26411e-09
1.43e-09,2.26411e-09
1.431e-09,-9.05645e-09
1.432e-09,-1.37719e-07
1.433e-09,-2.23843e-09
1.434e-09,-6.63718e-08
1.435e-09,-3.96828e-07
1.436e-09,-2.26411e-09
1.437e-09,-2.26411e-09
1.438e-09,2.26411e-09
1.439e-09,-4.58348e-08
1.44e-09,2.26411e-09
1.441e-09,-1.84972e-07
1.442e-09,-6.74985e-08
1.443e-09,3.26395e-09
1.444e-09,6.79234e-09
1.445e-09,-2.26411e-09
1.446e-09,0
1.447e-09,2.26411e-09
1.448e-09,-2.26411e-09
1.449e-09,2.26411e-09
1.45e-09,0
1.451e-09,2.33713e-09
1.452e-09,-7.62565e-08
1.453e-09,-7.95653e-07
1.454e-09,0
1.455e-09,2.26411e-09
1.456e-09,2.33713e-09
1.457e-09,-7.3016e-11
1.458e-09,0
1.459e-09,-2.84425e-08
1.46e-09,-4.21071e-08
1.461e-09,-4.0374e-07
1.462e-09,0
1.463e-09,7.3016e-11
1.464e-09,4.21071e-08
1.465e-09,-7.49512e-07
1.466e-09,-2.33713e-09
1.467e-09,4.21071e-08
1.468e-09,-7.27068e-08
1.469e-09,0
1.47e-09,0
1.471e-09,-2.41222e-07
1.472e-09,1.9987e-07
1.473e-09,-1.9987e-07
1.474e-09,-2.26411e-09
1.475e-09,-8.10572e-08
1.476e-09,4.52823e-09
1.477e-09,-9.05645e-09
1.478e-09,9.05645e-09
1.479e-09,0
1.48e-09,4.22975e-11
1.481e-09,-3.17437e-07
1.482e-09,2.11487e-11
1.483e-09,2.39345e-07
1.484e-09,2.22182e-09
1.485e-09,-2.39397e-07
1.486e-09,-2.26411e-09
1.487e-09,-2.16995e-09
1.488e-09,-2.11487e-11
1.489e-09,2.28526e-09
1.49e-09,-8.35939e-08
1.491e-09,0
1.492e-09,-2.26411e-09
1.493e-09,0
1.494e-09,5.41408e-08
1.495e-09,2.24296e-09
1.496e-09,2.37132e-07
1.497e-09,2.26411e-09
1.498e-09,0
1.499e-09,-2.39397e-07
1.5e-09,4.54937e-09
1.501e-09,-8.14983e-08
1.502e-09,0
1.503e-09,2.24296e-09
1.504e-09,0
1.505e-09,-2.26411e-09
1.506e-09,2.28526e-09
1.507e-09,0
1.508e-09,-2.11487e-11
1.509e-09,-8.16987e-08
1.51e-09,2.11487e-11
1.511e-09,4.52823e-09
1.512e-09,-6.81349e-09
1.513e-09,6.79234e-09
1.514e-09,-2.24296e-09
1.515e-09,-2.11487e-11
1.516e-09,-4.52823e-09
1.517e-09,-7.078e-08
1.518e-09,-6.79234e-09
1.519e-09,4.52823e-09
1.52e-09,0
1.521e-09,-6.79234e-09
1.522e-09,-2.26411e-09
1.523e-09,4.52823e-09
1.524e-09,-7.5421e-08
1.525e-09,-4.68332e-09
1.526e-09,-2.26411e-09
1.527e-09,0
1.528e-09,-2.26411e-09
1.529e-09,6.79234e-09
1.53e-09,-6.36236e-08
1.531e-09,5.90954e-08
1.532e-09,-8.41637e-08
1.533e-09,-4.52823e-09
1.534e-09,0
1.535e-09,0
1.536e-09,2.26411e-09
1.537e-09,-6.36236e-08
1.538e-09,-2.26411e-09
1.539e-09,4.52823e-09
1.54e-09,-9.23471e-08
1.541e-09,0
1.542e-09,0
1.543e-09,-6.79234e-09
1.544e-09,0
1.545e-09,2.26411e-09
1.546e-09,7.20408e-08
1.547e-09,0
1.548e-09,-8.9411e-08
1.549e-09,2.26411e-09
1.55e-09,4.52823e-09
1.551e-09,-7.4312e-08
1.552e-09,6.97838e-08
1.553e-09,-6.75197e-08
1.554e-09,-4.52823e-09
1.555e-09,0
1.556e-09,0
1.557e-09,-9.29827e-08
1.558e-09,-2.26411e-09
1.559e-09,2.26411e-09
1.56e-09,-2.26411e-09
1.561e-09,2.26411e-09
1.562e-09,0
1.563e-09,0
1.564e-09,-2.26411e-09
1.565e-09,2.26411e-09
1.566e-09,-1.0805e-07
1.567e-09,0
1.568e-09,0
1.569e-09,0
1.57e-09,-4.52823e-09
1.571e-09,0
1.572e-09,-2.26411e-09
1.573e-09,2.26411e-09
1.574e-09,0
1.575e-09,-9.58461e-08
1.576e-09,2.26411e-09
1.577e-09,0
1.578e-09,0
1.579e-09,0
1.58e-09,0
1.581e-09,-4.52823e-09
1.582e-09,2.26411e-09
1.583e-09,-2.26411e-09
1.584e-09,-9.95646e-08
1.585e-09,2.26411e-09
1.586e-09,-2.26411e-09
1.587e-09,-4.52823e-09
1.588e-09,0
1.589e-09,-2.26411e-09
1.59e-09,4.02869e-09
1.591e-09,7.29188e-09
1.592e-09,-1.21225e-07
1.593e-09,2.26411e-09
1.594e-09,-2.26411e-09
1.595e-09,4.99537e-10
1.596e-09,-5.02776e-09
1.597e-09,4.66499e-09
1.598e-09,-4.66499e-09
1.599e-09,0
1.6e-09,2.90042e-09
1.601e-09,2.1241e-09
1.602e-09,-1.1001e-07
1.603e-09,2.26411e-09
1.604e-09,2.26411e-09
1.605e-09,-4.52823e-09
1.606e-09,4.52823e-09
1.607e-09,4.52823e-09
1.608e-09,-4.52823e-09
1.609e-09,-1.36769e-10
1.61e-09,-2.26411e-09
1.611e-09,-1.23989e-07
1.612e-09,0
1.613e-09,6.79234e-09
1.614e-09,0
1.615e-09,3.08983e-10
1.616e-09,2.26411e-09
1.617e-09,-2.26411e-09
1.618e-09,-2.26411e-09
1.619e-09,-2.26411e-09
1.62e-09,-1.36509e-07
1.621e-09,4.52823e-09
1.622e-09,4.52823e-09
1.623e-09,-2.50169e-09
1.624e-09,0
1.625e-09,-4.52823e-09
1.626e-09,-2.26411e-09
1.627e-09,0
1.628e-09,-2.26411e-09
1.629e-09,0
1.63e-09,-1.25095e-07
1.631e-09,-2.26411e-09
1.632e-09,0
1.633e-09,2.26411e-09
1.634e-09,-6.79234e-09
1.635e-09,5.05687e-10
1.636e-09,-5.05687e-10
1.637e-09,0
1.638e-09,0
1.639e-09,4.52823e-09
1.64e-09,-1.43572e-07
1.641e-09,-2.26411e-09
1.642e-09,-2.26411e-09
1.643e-09,-2.26411e-09
1.644e-09,2.20891e-09
1.645e-09,0
1.646e-09,4.52823e-09
1.647e-09,-1.59859e-07
1.648e-09,5.99454e-09
1.649e-09,7.97801e-10
1.65e-09,-4.52823e-09
1.651e-09,1.46631e-09
1.652e-09,4.52823e-09
1.653e-09,0
1.654e-09,3.06191e-09
1.655e-09,-1.50919e-07
1.656e-09,0
1.657e-09,-1.38877e-09
1.658e-09,1.38877e-09
1.659e-09,2.26411e-09
1.66e-09,-6.79234e-09
1.661e-09,6.79234e-09
1.662e-09,-4.52823e-09
1.663e-09,-1.38877e-09
1.664e-09,-1.82803e-07
1.665e-09,0
1.666e-09,4.52823e-09
1.667e-09,-2.26411e-09
1.668e-09,-4.52823e-09
1.669e-09,0
1.67e-09,1.73526e-08
1.671e-09,-3.88671e-09
1.672e-09,2.26411e-09
1.673e-09,-2.03827e-07
1.674e-09,2.26411e-09
1.675e-09,0
1.676e-09,-2.26411e-09
1.677e-09,1.98213e-09
1.678e-09,-2.26411e-09
1.679e-09,4.52823e-09
1.68e-09,-2.26411e-09
1.681e-09,-2.26411e-09
1.682e-09,-1.82109e-07
1.683e-09,4.52823e-09
1.684e-09,-2.26411e-09
1.685e-09,2.26411e-09
1.686e-09,-6.79234e-09
1.687e-09,0
1.688e-09,6.79234e-09
1.689e-09,-2.26411e-09
1.69e-09,-6.79234e-09
1.691e-09,-2.21645e-07
1.692e-09,4.52823e-09
1.693e-09,-2.26411e-09
1.694e-09,0
1.695e-09,2.26411e-09
1.696e-09,-2.26411e-09
1.697e-09,-6.79234e-09
1.698e-09,2.26411e-09
1.699e-09,-2.39662e-07
1.7e-09,0
1.701e-09,-2.26411e-09
1.702e-09,4.52823e-09
1.703e-09,-2.26411e-09
1.704e-09,0
1.705e-09,4.52823e-09
1.706e-09,-2.26411e-09
1.707e-09,0
1.708e-09,0
1.709e-09,-2.75053e-07
1.71e-09,2.26411e-09
1.711e-09,0
1.712e-09,-2.26411e-09
1.713e-09,2.26411e-09
1.714e-09,0
1.715e-09,4.52823e-09
1.716e-09,-9.05645e-09
1.717e-09,-2.96011e-07
1.718e-09,-1.13074e-07
1.719e-09,0
1.72e-09,-2.26411e-09
1.721e-09,6.79234e-09
1.722e-09,-3.11006e-09
1.723e-09,1.11656e-07
1.724e-09,-1.17602e-07
1.725e-09,-3.11886e-07
1.726e-09,0
1.727e-09,-2.26411e-09
1.728e-09,8.78617e-09
1.729e-09,0
1.73e-09,-2.26411e-09
1.731e-09,-6.52206e-09
1.732e-09,6.52206e-09
1.733e-09,-2.26411e-09
1.734e-09,-2.26411e-09
1.735e-09,4.52823e-09
1.736e-09,-3.26163e-07
1.737e-09,-2.26411e-09
1.738e-09,2.26411e-09
1.739e-09,0
1.74e-09,2.26411e-09
1.741e-09,-4.21099e-09
1.742e-09,2.26411e-09
1.743e-09,-4.52823e-09
1.744e-09,-2.26411e-09
1.745e-09,4.52823e-09
1.746e-09,-3.13396e-07
1.747e-09,-2.26411e-09
1.748e-09,-2.26411e-09
1.749e-09,2.25001e-09
1.75e-09,0
1.751e-09,-2.26411e-09
1.752e-09,0
1.753e-09,1.40992e-11
1.754e-09,0
1.755e-09,0
1.756e-09,-1.40992e-11
1.757e-09,2.27821e-09
1.758e-09,-4.52823e-09
1.759e-09,-4.52823e-09
1.76e-09,0
1.761e-09,-1.35892e-08
1.762e-09,2.26411e-09
1.763e-09,-4.52823e-09
1.764e-09,2.26411e-09
1.765e-09,0
1.766e-09,2.26411e-09
1.767e-09,2.26411e-09
1.768e-09,-4.52823e-09
1.769e-09,-2.26411e-09
1.77e-09,-4.52823e-09
1.771e-09,9.05645e-09
1.772e-09,-2.26411e-09
1.773e-09,-2.26411e-09
1.774e-09,0
1.775e-09,-2.26411e-09
1.776e-09,2.26315e-08
1.777e-09,-2.26315e-08
1.778e-09,4.52823e-09
1.779e-09,-4.52823e-09
1.78e-09,-2.26411e-09
1.781e-09,4.52823e-09
1.782e-09,0
1.783e-09,2.26411e-09
1.784e-09,-4.52823e-09
1.785e-09,2.03674e-08
1.786e-09,-4.52823e-09
1.787e-09,-1.58392e-08
1.788e-09,-4.52823e-09
1.789e-09,2.26411e-09
1.79e-09,0
1.791e-09,-4.52823e-09
1.792e-09,1.81033e-08
1.793e-09,4.52823e-09
1.794e-09,-2.03674e-08
1.795e-09,0
1.796e-09,4.52823e-09
1.797e-09,-4.52823e-09
1.798e-09,4.52823e-09
1.799e-09,-2.26411e-09
1.8e-09,0
1.801e-09,1.81033e-08
1.802e-09,-2.03674e-08
1.803e-09,0
1.804e-09,2.26411e-09
1.805e-09,0
1.806e-09,4.52823e-09
1.807e-09,-4.52823e-09
1.808e-09,2.26411e-09
1.809e-09,2.26411e-09
1.81e-09,-6.79234e-09
1.811e-09,0
1.812e-09,2.26411e-09
1.813e-09,-4.52823e-09
1.814e-09,2.26411e-09
1.815e-09,2.26411e-09
1.816e-09,0
1.817e-09,-2.26411e-09
1.818e-09,4.52823e-09
1.819e-09,-2.26411e-09
1.82e-09,0
1.821e-09,0
1.822e-09,0
1.823e-09,2.26411e-09
1.824e-09,0
1.825e-09,0
1.826e-09,-2.26411e-09
1.827e-09,2.26411e-09
1.828e-09,-2.26411e-09
1.829e-09,6.79234e-09
1.83e-09,0
1.831e-09,0
1.832e-09,0
1.833e-09,-4.52823e-09
1.834e-09,0
1.835e-09,0
1.836e-09,2.26411e-09
1.837e-09,2.26411e-09
1.838e-09,-4.52823e-09
1.839e-09,0
1.84e-09,2.26411e-09
1.841e-09,0
1.842e-09,0
1.843e-09,0
1.844e-09,2.26411e-09
1.845e-09,4.52823e-09
1.846e-09,-4.52823e-09
1.847e-09,2.26411e-09
1.848e-09,-4.52823e-09
1.849e-09,4.52823e-09
1.85e-09,-6.79234e-09
1.851e-09,-2.26411e-09
1.852e-09,0
1.853e-09,0
1.854e-09,0
1.855e-09,-2.26411e-09
1.856e-09,2.26411e-09
1.857e-09,-2.26411e-09
1.858e-09,2.26411e-09
1.859e-09,-4.52823e-09
1.86e-09,4.52823e-09
1.861e-09,-4.52823e-09
1.862e-09,2.26411e-09
1.863e-09,-2.26411e-09
1.864e-09,0
1.865e-09,6.79234e-09
1.866e-09,-2.26411e-09
1.867e-09,0
1.868e-09,2.26411e-09
1.869e-09,-2.26411e-09
1.87e-09,-2.12734e-09
1.871e-09,0
1.872e-09,0
1.873e-09,2.26411e-09
1.874e-09,0
1.875e-09,0
1.876e-09,0
1.877e-09,0
1.878e-09,0
1.879e-09,0
1.88e-09,0
1.881e-09,2.26411e-09
1.882e-09,0
1.883e-09,2.26411e-09
1.884e-09,-2.26411e-09
1.885e-09,2.26411e-09
1.886e-09,0
1.887e-09,0
1.888e-09,2.26411e-09
1.889e-09,-2.26411e-09
1.89e-09,4.52823e-09
1.891e-09,0
1.892e-09,-2.26411e-09
1.893e-09,0
1.894e-09,2.26411e-09
1.895e-09,-2.26411e-09
1.896e-09,2.26411e-09
1.897e-09,-2.26411e-09
1.898e-09,0
1.899e-09,0
1.9e-09,-2.40088e-09
1.901e-09,-2.26411e-09
1.902e-09,4.52823e-09
1.903e-09,0
1.904e-09,0
1.905e-09,-2.26411e-09
1.906e-09,-2.26411e-09
1.907e-09,2.26411e-09
1.908e-09,-2.26411e-09
1.909e-09,4.52823e-09
1.91e-09,0
1.911e-09,0
1.912e-09,0
1.913e-09,-2.26411e-09
1.914e-09,4.52823e-09
1.915e-09,-4.52823e-09
1.916e-09,2.26411e-09
1.917e-09,0
1.918e-09,-6.79234e-09
1.919e-09,4.52823e-09
1.92e-09,2.26411e-09
1.921e-09,0
1.922e-09,0
1.923e-09,-2.26411e-09
1.924e-09,-2.26411e-09
1.925e-09,2.26411e-09
1.926e-09,4.52823e-09
1.927e-09,-2.26411e-09
1.928e-09,-2.26411e-09
1.929e-09,4.52823e-09
1.93e-09,-2.26411e-09
1.931e-09,6.79234e-09
1.932e-09,-2.26411e-09
1.933e-09,0
1.934e-09,2.26411e-09
1.935e-09,-4.52823e-09
1.936e-09,0
1.937e-09,0
1.938e-09,0
1.939e-09,0
1.94e-09,4.52823e-09
1.941e-09,-2.26411e-09
1.942e-09,2.26411e-09
1.943e-09,-2.26411e-09
1.944e-09,-4.52823e-09
1.945e-09,4.52823e-09
1.946e-09,-2.26411e-09
1.947e-09,2.26411e-09
1.948e-09,0
1.949e-09,0
1.95e-09,-2.26411e-09
1.951e-09,0
1.952e-09,2.26411e-09
1.953e-09,0
1.954e-09,0
1.955e-09,2.26411e-09
1.956e-09,0
1.957e-09,0
1.958e-09,-7.04958e-12
1.959e-09,-4.53527e-09
1.96e-09,-2.25706e-09
1.961e-09,4.53527e-09
1.962e-09,2.26411e-09
1.963e-09,2.26411e-09
1.964e-09,2.26411e-09
1.965e-09,-2.26411e-09
1.966e-09,2.25001e-09
1.967e-09,-4.52823e-09
1.968e-09,-4.52823e-09
1.969e-09,-6.65557e-09
1.97e-09,-2.26411e-09
1.971e-09,2.26411e-09
1.972e-09,0
1.973e-09,-2.26411e-09
1.974e-09,0
1.975e-09,-4.52823e-09
1.976e-09,2.26411e-09
1.977e-09,-2.26411e-09
1.978e-09,0
1.979e-09,-2.26411e-09
1.98e-09,2.26411e-09
1.981e-09,4.52823e-09
1.982e-09,-2.26411e-09
1.983e-09,0
1.984e-09,-4.52823e-09
1.985e-09,2.26411e-09
1.986e-09,-4.66499e-09
1.987e-09,2.26411e-09
1.988e-09,-1.36769e-10
1.989e-09,-2.12734e-09
1.99e-09,2.26411e-09
1.991e-09,2.26411e-09
1.992e-09,0
1.993e-09,-2.40088e-09
1.994e-09,6.92911e-09
1.995e-09,0
1.996e-09,-2.26411e-09
1.997e-09,2.27821e-09
1.998e-09,0
1.999e-09,-1.40992e-11
2e-09,-2.26411e-09
2.001e-09,2.26411e-09
2.1e-09,0
