0,0
1e-12,-3.61021e-06
2e-12,-4.2747e-07
3e-12,-4.20309e-07
4e-12,-2.48391e-07
5e-12,4.48021e-07
6e-12,-2.88477e-07
7e-12,-2.1272e-06
8e-12,2.82547e-07
9e-12,-3.32517e-06
1e-11,-1.31469e-07
1.1e-11,-1.45846e-07
1.2e-11,-9.71094e-07
1.3e-11,-6.32178e-07
1.4e-11,-5.77574e-07
1.5e-11,-1.03701e-06
1.6e-11,-8.57106e-07
1.7e-11,-9.97987e-07
1.8e-11,-8.64739e-07
1.9e-11,-1.21501e-06
2e-11,-1.39349e-07
2.1e-11,4.05614e-07
2.2e-11,-3.7241e-06
2.3e-11,-1.51969e-06
2.4e-11,1.02296e-06
2.5e-11,-5.65522e-07
2.6e-11,-3.74248e-07
2.7e-11,-1.81439e-06
2.8e-11,2.32795e-07
2.9e-11,-1.21533e-06
3e-11,-1.18157e-06
3.1e-11,-2.79541e-06
3.2e-11,7.89345e-08
3.3e-11,-1.95104e-06
3.4e-11,-1.32478e-06
3.5e-11,-8.15111e-07
3.6e-11,-8.08671e-07
3.7e-11,-1.02356e-06
3.8e-11,-4.48815e-07
3.9e-11,-4.40598e-07
4e-11,-2.50227e-07
4.1e-11,-8.85921e-07
4.2e-11,-2.40046e-06
4.3e-11,-1.65328e-06
4.4e-11,-6.37245e-07
4.5e-11,-3.23373e-07
4.6e-11,-2.70924e-06
4.7e-11,-2.92032e-07
4.8e-11,-4.04459e-07
4.9e-11,-6.20034e-07
5e-11,-1.61287e-07
5.1e-11,-1.50549e-06
5.2e-11,-1.51562e-06
5.3e-11,-1.22122e-06
5.4e-11,-1.19478e-06
5.5e-11,-9.16098e-07
5.6e-11,-5.54044e-07
5.7e-11,-1.4866e-06
5.8e-11,3.78241e-07
5.9e-11,-1.61045e-07
6e-11,-7.46008e-07
6.1e-11,-3.47087e-07
6.2e-11,-5.3818e-07
6.3e-11,-3.57514e-06
6.4e-11,1.39176e-07
6.5e-11,-1.36519e-06
6.6e-11,-1.45922e-06
6.7e-11,-1.30599e-07
6.8e-11,-1.59844e-06
6.9e-11,-3.18532e-07
7e-11,-1.1821e-06
7.1e-11,-9.89106e-07
7.2e-11,-1.23077e-06
7.3e-11,-2.23109e-06
7.4e-11,-2.26084e-07
7.5e-11,-8.3083e-07
7.6e-11,-7.29645e-07
7.7e-11,-1.13474e-06
7.8e-11,-1.43247e-06
7.9e-11,-1.41776e-06
8e-11,-3.30563e-07
8.1e-11,-5.31679e-07
8.2e-11,-1.4732e-06
8.3e-11,-1.96646e-06
8.4e-11,-1.49297e-06
8.5e-11,-8.46694e-07
8.6e-11,-6.74054e-07
8.7e-11,7.63378e-08
8.8e-11,-3.58939e-07
8.9e-11,-1.43818e-06
9e-11,-1.03217e-06
9.1e-11,-2.02664e-07
9.2e-11,-8.62427e-07
9.3e-11,-2.5801e-06
9.4e-11,-1.40166e-06
9.5e-11,-2.33374e-07
9.6e-11,-4.24366e-07
9.7e-11,-8.81402e-08
9.8e-11,-1.64667e-06
9.9e-11,-2.69117e-07
1e-10,-3.814e-07
1.01e-10,-1.39281e-06
1.02e-10,-1.9522e-06
1.03e-10,-2.3444e-06
1.04e-10,-5.20125e-07
1.05e-10,-2.1429e-07
1.06e-10,-2.00517e-07
1.07e-10,-1.99367e-06
1.08e-10,-7.57487e-07
1.09e-10,5.03096e-08
1.1e-10,-4.77116e-07
1.11e-10,-4.30262e-07
1.12e-10,-1.41162e-06
1.13e-10,-3.06366e-07
1.14e-10,-8.68143e-07
1.15e-10,-1.64089e-06
1.16e-10,-1.0794e-06
1.17e-10,9.48631e-08
1.18e-10,-1.80531e-06
1.19e-10,3.70386e-07
1.2e-10,-1.23997e-07
1.21e-10,-1.3962e-06
1.22e-10,-7.26503e-07
1.23e-10,-1.13125e-06
1.24e-10,-4.63252e-07
1.25e-10,-5.07036e-07
1.26e-10,-6.30355e-07
1.27e-10,3.91154e-07
1.28e-10,-1.57369e-06
1.29e-10,-1.61742e-06
1.3e-10,-2.61967e-07
1.31e-10,-1.27154e-06
1.32e-10,-9.26925e-07
1.33e-10,-5.28528e-07
1.34e-10,-3.02243e-07
1.35e-10,-3.59168e-07
1.36e-10,2.29148e-07
1.37e-10,-1.39457e-06
1.38e-10,-1.08021e-06
1.39e-10,-9.16432e-07
1.4e-10,3.11409e-09
1.41e-10,-1.01257e-06
1.42e-10,-7.93352e-07
1.43e-10,-6.70765e-07
1.44e-10,-7.27699e-07
1.45e-10,-2.03107e-07
1.46e-10,1.69819e-07
1.47e-10,-1.51674e-06
1.48e-10,-8.91299e-07
1.49e-10,-4.88643e-07
1.5e-10,-3.36999e-07
1.51e-10,-1.44296e-06
1.52e-10,-6.52758e-07
1.53e-10,-1.47477e-06
1.54e-10,-1.64911e-07
1.55e-10,3.07559e-08
1.56e-10,-9.79494e-07
1.57e-10,-3.25213e-07
1.58e-10,5.44189e-08
1.59e-10,-2.59086e-07
1.6e-10,-6.559e-08
1.61e-10,-5.21494e-07
1.62e-10,-9.21875e-07
1.63e-10,-1.2121e-06
1.64e-10,-8.28443e-07
1.65e-10,-1.595e-06
1.66e-10,-6.1564e-07
1.67e-10,-3.72978e-08
1.68e-10,-6.90443e-07
1.69e-10,-2.18063e-07
1.7e-10,-5.87141e-07
1.71e-10,-5.38433e-07
1.72e-10,-1.06061e-06
1.73e-10,-1.90979e-06
1.74e-10,7.16627e-07
1.75e-10,-1.63777e-06
1.76e-10,-1.13946e-06
1.77e-10,-4.01292e-07
1.78e-10,-1.87679e-07
1.79e-10,-3.73099e-07
1.8e-10,-4.66525e-07
1.81e-10,-1.45434e-07
1.82e-10,-1.5198e-07
1.83e-10,-4.03154e-07
1.84e-10,-1.56367e-06
1.85e-10,-2.4507e-06
1.86e-10,-8.89198e-07
1.87e-10,1.462e-08
1.88e-10,-8.85814e-07
1.89e-10,2.22566e-07
1.9e-10,-7.64252e-07
1.91e-10,-1.50808e-06
1.92e-10,6.39264e-07
1.93e-10,-7.41303e-07
1.94e-10,-9.44962e-07
1.95e-10,3.6847e-07
1.96e-10,-2.20203e-06
1.97e-10,-8.11948e-07
1.98e-10,-7.14739e-07
1.99e-10,-7.19104e-07
2e-10,1.8625e-08
2.01e-10,7.27624e-08
2.02e-10,-4.92543e-07
2.03e-10,-2.42142e-07
2.04e-10,-1.12225e-06
2.05e-10,-5.37794e-07
2.06e-10,-1.45367e-06
2.07e-10,1.48743e-07
2.08e-10,-4.25705e-07
2.09e-10,-1.20587e-06
2.1e-10,1.96916e-07
2.11e-10,4.68028e-07
2.12e-10,-3.11181e-07
2.13e-10,-4.79529e-07
2.14e-10,-1.93861e-07
2.15e-10,-9.6367e-07
2.16e-10,-3.56229e-07
2.17e-10,3.22007e-07
2.18e-10,-2.42289e-06
2.19e-10,-1.55248e-06
2.2e-10,8.44039e-08
2.21e-10,-1.08641e-07
2.22e-10,-7.25263e-07
2.23e-10,-3.01937e-07
2.24e-10,-5.12556e-08
2.25e-10,-9.9193e-07
2.26e-10,-5.22827e-07
2.27e-10,-1.53809e-06
2.28e-10,-1.5454e-06
2.29e-10,-4.96256e-07
2.3e-10,-1.45007e-06
2.31e-10,1.90265e-07
2.32e-10,-2.34649e-07
2.33e-10,-5.15999e-07
2.34e-10,-3.77536e-07
2.35e-10,-1.17864e-06
2.36e-10,-1.24447e-06
2.37e-10,-3.05832e-07
2.38e-10,-4.43771e-07
2.39e-10,-9.49972e-07
2.4e-10,5.17662e-07
2.41e-10,5.29285e-08
2.42e-10,-2.94646e-07
2.43e-10,3.91077e-08
2.44e-10,-1.20502e-06
2.45e-10,-1.99096e-07
2.46e-10,-9.30319e-07
2.47e-10,-9.75036e-07
2.48e-10,-5.54038e-07
2.49e-10,-7.98802e-08
2.5e-10,1.71551e-07
2.51e-10,-4.06061e-07
2.52e-10,2.57996e-08
2.53e-10,-5.32921e-07
2.54e-10,-5.52545e-07
2.55e-10,-2.85273e-07
2.56e-10,-1.37042e-06
2.57e-10,-8.98175e-07
2.58e-10,-4.25843e-07
2.59e-10,-1.12358e-06
2.6e-10,-6.50201e-07
2.61e-10,2.84331e-07
2.62e-10,-6.01281e-07
2.63e-10,-5.10129e-07
2.64e-10,1.49329e-07
2.65e-10,-8.4992e-07
2.66e-10,1.04017e-06
2.67e-10,-1.27872e-06
2.68e-10,-6.16907e-07
2.69e-10,-5.34431e-07
2.7e-10,-7.78207e-07
2.71e-10,-1.43905e-07
2.72e-10,-1.73949e-07
2.73e-10,-2.14409e-06
2.74e-10,-1.70063e-07
2.75e-10,-4.08771e-07
2.76e-10,-1.94472e-06
2.77e-10,3.25202e-07
2.78e-10,-2.43466e-07
2.79e-10,-8.28296e-07
2.8e-10,-1.45802e-07
2.81e-10,4.10542e-07
2.82e-10,-1.19994e-06
2.83e-10,-6.78031e-07
2.84e-10,-1.31806e-06
2.85e-10,-2.73442e-07
2.86e-10,-1.5981e-06
2.87e-10,-1.46476e-06
2.88e-10,-3.04656e-08
2.89e-10,2.30491e-08
2.9e-10,-2.14388e-07
2.91e-10,-6.56507e-07
2.92e-10,-2.91559e-08
2.93e-10,-1.12477e-06
2.94e-10,-1.4042e-06
2.95e-10,-1.19475e-06
2.96e-10,-7.11105e-07
2.97e-10,-8.40969e-08
2.98e-10,-1.46751e-06
2.99e-10,-1.3235e-07
3e-10,-3.55959e-07
3.01e-10,-3.17887e-07
3.02e-10,-3.23587e-07
3.03e-10,-2.01726e-06
3.04e-10,-8.13419e-07
3.05e-10,-1.32752e-06
3.06e-10,-1.93055e-07
3.07e-10,-2.58533e-07
3.08e-10,-3.29821e-08
3.09e-10,-6.92028e-07
3.1e-10,-2.48115e-07
3.11e-10,-1.70119e-06
3.12e-10,-1.25736e-06
3.13e-10,-8.36934e-07
3.14e-10,-9.50213e-08
3.15e-10,-1.4964e-07
3.16e-10,-4.57534e-07
3.17e-10,-1.3984e-06
3.18e-10,6.79042e-07
3.19e-10,1.41889e-07
3.2e-10,-1.26343e-09
3.21e-10,-1.88064e-07
3.22e-10,-8.69735e-07
3.23e-10,1.46765e-07
3.24e-10,-2.32886e-07
3.25e-10,-8.70761e-07
3.26e-10,-3.84614e-07
3.27e-10,-5.04175e-07
3.28e-10,-4.8897e-07
3.29e-10,-3.14278e-07
3.3e-10,4.09057e-08
3.31e-10,-4.9683e-07
3.32e-10,-9.02666e-07
3.33e-10,-6.10415e-07
3.34e-10,-1.2455e-06
3.35e-10,-2.24373e-07
3.36e-10,-2.83563e-07
3.37e-10,-1.97311e-07
3.38e-10,-1.81874e-07
3.39e-10,-3.38841e-07
3.4e-10,1.34469e-07
3.41e-10,5.51005e-07
3.42e-10,-7.80806e-07
3.43e-10,-2.95991e-07
3.44e-10,-2.36576e-06
3.45e-10,-2.0305e-07
3.46e-10,-8.41624e-08
3.47e-10,-5.42138e-07
3.48e-10,-3.27156e-07
3.49e-10,-2.35933e-07
3.5e-10,-1.1938e-08
3.51e-10,-1.21306e-06
3.52e-10,2.58143e-07
3.53e-10,1.85142e-07
3.54e-10,-1.4979e-06
3.55e-10,1.64218e-07
3.56e-10,-2.18699e-06
3.57e-10,3.59485e-08
3.58e-10,-1.36319e-07
3.59e-10,-2.5367e-07
3.6e-10,-2.49506e-08
3.61e-10,-1.05094e-06
3.62e-10,-1.77874e-07
3.63e-10,8.69053e-08
3.64e-10,-1.20013e-06
3.65e-10,-1.72864e-07
3.66e-10,-1.11538e-06
3.67e-10,-3.70804e-07
3.68e-10,4.3643e-07
3.69e-10,-2.96681e-07
3.7e-10,-1.06862e-07
3.71e-10,-1.24235e-06
3.72e-10,-1.34713e-06
3.73e-10,-2.33855e-07
3.74e-10,-6.0226e-07
3.75e-10,-7.12307e-07
3.76e-10,-5.02089e-08
3.77e-10,1.55689e-07
3.78e-10,-3.70623e-07
3.79e-10,-5.0729e-07
3.8e-10,7.57078e-07
3.81e-10,-3.72169e-07
3.82e-10,2.66529e-07
3.83e-10,2.03669e-07
3.84e-10,-3.33796e-07
3.85e-10,-1.24047e-06
3.86e-10,-9.77917e-09
3.87e-10,-9.26753e-07
3.88e-10,-3.83844e-07
3.89e-10,1.57612e-08
3.9e-10,-3.87467e-07
3.91e-10,1.05033e-06
3.92e-10,-7.27668e-07
3.93e-10,-1.86317e-07
3.94e-10,-3.32301e-07
3.95e-10,-4.43033e-07
3.96e-10,-3.46301e-07
3.97e-10,5.81654e-08
3.98e-10,7.35953e-07
3.99e-10,-4.41419e-07
4e-10,3.18088e-07
4.01e-10,8.41115e-07
4.02e-10,-1.29506e-06
4.03e-10,-4.39961e-07
4.04e-10,-1.86347e-07
4.05e-10,-2.95542e-07
4.06e-10,6.98314e-07
4.07e-10,-6.16594e-07
4.08e-10,-1.08385e-06
4.09e-10,-4.82205e-08
4.1e-10,-1.13304e-07
4.11e-10,1.1944e-07
4.12e-10,2.74252e-07
4.13e-10,-1.3167e-06
4.14e-10,-3.67026e-07
4.15e-10,6.46001e-07
4.16e-10,-5.11604e-07
4.17e-10,2.18381e-07
4.18e-10,5.61207e-07
4.19e-10,2.75307e-07
4.2e-10,-7.42337e-07
4.21e-10,-2.02584e-07
4.22e-10,-1.06033e-06
4.23e-10,-1.09987e-06
4.24e-10,-3.21184e-07
4.25e-10,6.52409e-08
4.26e-10,3.48136e-07
4.27e-10,-2.78136e-08
4.28e-10,3.26009e-07
4.29e-10,-6.35428e-07
4.3e-10,2.64565e-07
4.31e-10,-5.44338e-07
4.32e-10,-1.32404e-06
4.33e-10,6.16883e-07
4.34e-10,-1.22853e-06
4.35e-10,-2.27467e-07
4.36e-10,7.25551e-07
4.37e-10,-4.38943e-07
4.38e-10,2.12592e-07
4.39e-10,1.25741e-08
4.4e-10,-2.80063e-07
4.41e-10,-4.31927e-07
4.42e-10,-9.11389e-08
4.43e-10,-1.56485e-07
4.44e-10,9.85475e-08
4.45e-10,3.33413e-08
4.46e-10,-7.04043e-07
4.47e-10,4.04502e-07
4.48e-10,1.24171e-08
4.49e-10,-1.58952e-07
4.5e-10,-2.4365e-07
4.51e-10,-1.40011e-06
4.52e-10,4.44113e-07
4.53e-10,5.27432e-07
4.54e-10,-1.13017e-06
4.55e-10,-7.84945e-07
4.56e-10,-3.41409e-07
4.57e-10,-2.30335e-07
4.58e-10,1.24316e-07
4.59e-10,-2.47944e-07
4.6e-10,-7.6227e-07
4.61e-10,2.1436e-07
4.62e-10,-1.00999e-07
4.63e-10,4.6295e-08
4.64e-10,-1.21289e-07
4.65e-10,1.19704e-07
4.66e-10,6.15345e-08
4.67e-10,-1.15806e-07
4.68e-10,5.04284e-07
4.69e-10,-1.17291e-06
4.7e-10,-2.78592e-07
4.71e-10,2.21357e-07
4.72e-10,8.61317e-08
4.73e-10,-2.26499e-07
4.74e-10,1.1811e-07
4.75e-10,-3.67429e-07
4.76e-10,-9.32744e-08
4.77e-10,2.47394e-07
4.78e-10,-2.272e-07
4.79e-10,-1.44107e-06
4.8e-10,-1.08965e-06
4.81e-10,-8.79513e-07
4.82e-10,-4.86302e-08
4.83e-10,-4.25406e-07
4.84e-10,-9.49771e-08
4.85e-10,-1.17521e-07
4.86e-10,8.42156e-08
4.87e-10,-7.6999e-08
4.88e-10,-2.46251e-07
4.89e-10,-4.96424e-08
4.9e-10,-7.32482e-08
4.91e-10,1.08315e-07
4.92e-10,-1.45774e-06
4.93e-10,-3.43192e-07
4.94e-10,-1.06135e-06
4.95e-10,-4.36035e-08
4.96e-10,-5.51051e-07
4.97e-10,-1.19671e-07
4.98e-10,2.80739e-07
4.99e-10,3.96136e-07
5e-10,-1.81558e-06
5.01e-10,-6.2031e-07
5.02e-10,-1.63188e-07
5.03e-10,-1.18062e-07
5.04e-10,-3.85154e-09
5.05e-10,-7.39518e-07
5.06e-10,-2.92251e-07
5.07e-10,-1.87218e-07
5.08e-10,-2.36771e-07
5.09e-10,1.41739e-07
5.1e-10,6.4367e-07
5.11e-10,-1.1404e-06
5.12e-10,-2.68265e-07
5.13e-10,1.03563e-07
5.14e-10,3.00456e-07
5.15e-10,-9.09366e-07
5.16e-10,3.69593e-07
5.17e-10,-1.59233e-07
5.18e-10,-3.33016e-07
5.19e-10,-8.94403e-08
5.2e-10,2.29671e-07
5.21e-10,-7.66332e-07
5.22e-10,-2.42411e-07
5.23e-10,-5.08907e-08
5.24e-10,1.56058e-07
5.25e-10,-1.0952e-06
5.26e-10,2.14229e-07
5.27e-10,1.85524e-07
5.28e-10,1.45455e-09
5.29e-10,-2.55245e-07
5.3e-10,-1.05445e-06
5.31e-10,-1.87889e-07
5.32e-10,1.54357e-07
5.33e-10,-1.48673e-07
5.34e-10,-1.40837e-06
5.35e-10,3.1243e-07
5.36e-10,-7.54131e-08
5.37e-10,-8.35852e-08
5.38e-10,7.2363e-07
5.39e-10,1.42165e-07
5.4e-10,-3.9753e-07
5.41e-10,2.1263e-07
5.42e-10,1.4078e-07
5.43e-10,-2.76926e-07
5.44e-10,-1.30957e-06
5.45e-10,-5.23509e-07
5.46e-10,2.62688e-07
5.47e-10,1.19826e-07
5.48e-10,-3.32099e-08
5.49e-10,-1.73984e-09
5.5e-10,-2.85624e-07
5.51e-10,3.35038e-07
5.52e-10,-1.11649e-07
5.53e-10,7.58048e-08
5.54e-10,-2.1113e-07
5.55e-10,3.36971e-07
5.56e-10,5.58363e-08
5.57e-10,-3.04802e-07
5.58e-10,3.8008e-07
5.59e-10,2.95101e-07
5.6e-10,3.99633e-10
5.61e-10,-2.86666e-07
5.62e-10,-1.76831e-07
5.63e-10,1.15247e-07
5.64e-10,-1.49494e-07
5.65e-10,-5.7915e-08
5.66e-10,-6.16735e-07
5.67e-10,-1.64874e-07
5.68e-10,4.59971e-08
5.69e-10,-9.89688e-08
5.7e-10,1.86294e-07
5.71e-10,1.82338e-07
5.72e-10,1.18552e-07
5.73e-10,1.45248e-07
5.74e-10,-2.02412e-07
5.75e-10,-7.49481e-08
5.76e-10,-1.12418e-07
5.77e-10,-9.09488e-08
5.78e-10,-7.97084e-07
5.79e-10,2.05972e-07
5.8e-10,-7.17911e-08
5.81e-10,2.37661e-07
5.82e-10,-4.54275e-08
5.83e-10,-9.15084e-08
5.84e-10,1.72959e-07
5.85e-10,1.09427e-07
5.86e-10,-1.98283e-07
5.87e-10,-1.80973e-07
5.88e-10,-1.04409e-06
5.89e-10,1.01616e-07
5.9e-10,-5.74878e-07
5.91e-10,-9.3019e-08
5.92e-10,2.83706e-07
5.93e-10,-1.45412e-07
5.94e-10,-8.88705e-08
5.95e-10,-8.88764e-08
5.96e-10,-1.33397e-07
5.97e-10,-8.05901e-08
5.98e-10,-1.36624e-06
5.99e-10,2.59725e-07
6e-10,-6.38521e-08
6.01e-10,-8.54942e-07
6.02e-10,-8.2452e-08
6.03e-10,1.09852e-07
6.04e-10,1.38808e-07
6.05e-10,1.13572e-07
6.06e-10,-2.20698e-07
6.07e-10,1.83225e-07
6.08e-10,-1.38338e-07
6.09e-10,-1.602e-07
6.1e-10,-1.12565e-06
6.11e-10,2.6298e-07
6.12e-10,-5.90465e-08
6.13e-10,-9.68792e-08
6.14e-10,3.57404e-07
6.15e-10,7.15686e-08
6.16e-10,-1.66514e-07
6.17e-10,-6.65943e-08
6.18e-10,-1.77342e-07
6.19e-10,-1.23701e-06
6.2e-10,-7.88189e-08
6.21e-10,-2.40029e-07
6.22e-10,-1.50761e-07
6.23e-10,3.53191e-10
6.24e-10,2.01268e-07
6.25e-10,-1.11835e-07
6.26e-10,7.11914e-08
6.27e-10,2.26411e-09
6.28e-10,-2.70692e-07
6.29e-10,-5.46723e-07
6.3e-10,-6.81306e-08
6.31e-10,-2.70632e-08
6.32e-10,8.83762e-09
6.33e-10,-2.29881e-07
6.34e-10,2.12248e-07
6.35e-10,4.54469e-08
6.36e-10,-4.30288e-07
6.37e-10,-7.7544e-07
6.38e-10,4.66339e-08
6.39e-10,-1.36852e-07
6.4e-10,1.63856e-07
6.41e-10,-6.16975e-07
6.42e-10,1.18312e-07
6.43e-10,-5.17861e-07
6.44e-10,-8.9448e-07
6.45e-10,-9.40251e-08
6.46e-10,-9.17742e-08
6.47e-10,-4.86338e-08
6.48e-10,-6.8709e-08
6.49e-10,-8.58086e-08
6.5e-10,-8.83183e-07
6.51e-10,-1.27155e-07
6.52e-10,-1.99477e-07
6.53e-10,-8.04239e-08
6.54e-10,-1.30387e-06
6.55e-10,-1.0735e-07
6.56e-10,-1.83736e-07
6.57e-10,-1.13983e-07
6.58e-10,-1.20212e-07
6.59e-10,-5.08028e-07
6.6e-10,-1.29955e-06
6.61e-10,-4.32185e-08
6.62e-10,4.08082e-08
6.63e-10,-1.46509e-07
6.64e-10,-2.64742e-07
6.65e-10,-1.34285e-06
6.66e-10,-5.86329e-08
6.67e-10,-2.84584e-08
6.68e-10,-1.56448e-07
6.69e-10,-4.2803e-08
6.7e-10,-4.04599e-08
6.71e-10,-7.44552e-07
6.72e-10,8.06088e-08
6.73e-10,-6.96518e-07
6.74e-10,-1.16666e-06
6.75e-10,-1.36147e-07
6.76e-10,9.87101e-07
6.77e-10,-1.66155e-06
6.78e-10,-4.93379e-08
6.79e-10,-3.733e-08
6.8e-10,-3.91094e-08
6.81e-10,-3.86485e-08
6.82e-10,-8.92782e-08
6.83e-10,-7.04752e-07
6.84e-10,-7.96385e-08
6.85e-10,-3.04048e-09
6.86e-10,-6.81879e-08
6.87e-10,-7.76512e-07
6.88e-10,-5.03409e-08
6.89e-10,-1.13401e-07
6.9e-10,-9.49641e-09
6.91e-10,-1.32799e-07
6.92e-10,-1.4499e-07
6.93e-10,-9.97204e-08
6.94e-10,6.03294e-08
6.95e-10,-1.88375e-07
6.96e-10,-9.07689e-08
6.97e-10,9.53113e-08
6.98e-10,-1.42094e-07
6.99e-10,1.99392e-09
7e-10,-1.15199e-06
7.01e-10,-9.79299e-08
7.02e-10,-4.77517e-08
7.03e-10,3.07763e-09
7.04e-10,-2.95636e-07
7.05e-10,-1.62688e-08
7.06e-10,-3.89548e-08
7.07e-10,-3.25591e-08
7.08e-10,-1.44554e-06
7.09e-10,-1.7841e-07
7.1e-10,1.82189e-07
7.11e-10,-3.3141e-08
7.12e-10,-1.97649e-07
7.13e-10,-3.5873e-08
7.14e-10,-4.86536e-08
7.15e-10,9.46915e-08
7.16e-10,-2.27906e-07
7.17e-10,-1.04178e-07
7.18e-10,-4.02233e-08
7.19e-10,3.49095e-08
7.2e-10,-1.21278e-07
7.21e-10,-8.724e-08
7.22e-10,-5.20703e-09
7.23e-10,-8.85232e-08
7.24e-10,-9.54798e-08
7.25e-10,-3.69606e-08
7.26e-10,-4.60744e-08
7.27e-10,-1.35041e-09
7.28e-10,-8.92881e-08
7.29e-10,-5.01453e-08
7.3e-10,-2.53765e-09
7.31e-10,-4.70059e-08
7.32e-10,4.47237e-08
7.33e-10,-5.86681e-09
7.34e-10,-2.02972e-07
7.35e-10,-4.11205e-08
7.36e-10,-3.2569e-11
7.37e-10,-4.84962e-08
7.38e-10,-7.81462e-08
7.39e-10,-4.29418e-08
7.4e-10,-3.41756e-08
7.41e-10,3.73769e-09
7.42e-10,-1.66278e-07
7.43e-10,4.80176e-09
7.44e-10,-9.82041e-08
7.45e-10,-3.84398e-09
7.46e-10,1.27192e-08
7.47e-10,-4.66418e-08
7.48e-10,-1.38198e-07
7.49e-10,-1.67284e-07
7.5e-10,-1.40919e-07
7.51e-10,1.7486e-07
7.52e-10,-2.31157e-07
7.53e-10,-1.33047e-07
7.54e-10,-4.92397e-08
7.55e-10,2.23154e-09
7.56e-10,-2.26411e-09
7.57e-10,-5.11624e-08
7.58e-10,-1.44947e-07
7.59e-10,-8.83268e-08
7.6e-10,-2.40431e-09
7.61e-10,-4.10887e-08
7.62e-10,3.28502e-09
7.63e-10,-4.71208e-08
7.64e-10,4.6129e-08
7.65e-10,-5.65669e-08
7.66e-10,5.25515e-08
7.67e-10,-4.98029e-08
7.68e-10,-2.65465e-07
7.69e-10,-4.30067e-08
7.7e-10,-4.3079e-08
7.71e-10,-3.8551e-08
7.72e-10,4.81252e-08
7.73e-10,-5.01286e-08
7.74e-10,-4.3079e-08
7.75e-10,8.76299e-09
7.76e-10,-2.05566e-07
7.77e-10,3.00735e-09
7.78e-10,-5.35569e-09
7.79e-10,-1.18448e-07
7.8e-10,-1.56189e-08
7.81e-10,-3.34723e-08
7.82e-10,-1.03212e-08
7.83e-10,-3.99075e-08
7.84e-10,2.82092e-08
7.85e-10,-7.31498e-08
7.86e-10,-9.07764e-08
7.87e-10,-3.85834e-08
7.88e-10,-4.92745e-08
7.89e-10,-4.39604e-08
7.9e-10,-2.57022e-09
7.91e-10,6.98077e-09
7.92e-10,-4.66499e-09
7.93e-10,-8.83703e-08
7.94e-10,-9.06826e-08
7.95e-10,-9.41198e-08
7.96e-10,-4.48392e-08
7.97e-10,3.59055e-08
7.98e-10,-8.91542e-08
7.99e-10,-4.69529e-07
8e-10,4.70188e-08
8.01e-10,-9.23995e-08
8.02e-10,-3.98694e-08
8.03e-10,-3.7536e-09
8.04e-10,-2.60338e-07
8.05e-10,1.65694e-09
8.06e-10,-5.17515e-08
8.07e-10,5.96779e-08
8.08e-10,-8.91626e-09
8.09e-10,-4.68223e-08
8.1e-10,-3.77682e-08
8.11e-10,6.46052e-09
8.12e-10,-5.40511e-07
8.13e-10,-3.89808e-08
8.14e-10,-1.29205e-08
8.15e-10,-5.6311e-07
8.16e-10,7.37092e-08
8.17e-10,-7.34284e-09
8.18e-10,4.52823e-09
8.19e-10,-2.26411e-09
8.2e-10,0
8.21e-10,2.40088e-09
8.22e-10,-7.97166e-09
8.23e-10,-6.99847e-07
8.24e-10,-2.38006e-07
8.25e-10,1.46139e-07
8.26e-10,-7.81529e-08
8.27e-10,-2.12312e-09
8.28e-10,-4.38803e-09
8.29e-10,-4.30793e-08
8.3e-10,-5.35226e-09
8.31e-10,-2.26411e-09
8.32e-10,-2.40088e-09
8.33e-10,5.50501e-10
8.34e-10,3.18094e-07
8.35e-10,-3.93496e-08
8.36e-10,-6.8796e-09
8.37e-10,1.21266e-07
8.38e-10,2.76964e-10
8.39e-10,-2.35886e-07
8.4e-10,0
8.41e-10,-3.00805e-09
8.42e-10,-3.8551e-08
8.43e-10,-7.74233e-09
8.44e-10,-2.65952e-09
8.45e-10,4.0538e-08
8.46e-10,-4.29714e-08
8.47e-10,-9.01236e-08
8.48e-10,1.93935e-07
8.49e-10,3.88244e-08
8.5e-10,-3.87769e-08
8.51e-10,-5.25079e-08
8.52e-10,-2.40088e-09
8.53e-10,-4.52823e-09
8.54e-10,2.12734e-09
8.55e-10,2.64342e-07
8.56e-10,-8.64279e-08
8.57e-10,-6.93253e-09
8.58e-10,-4.39031e-08
8.59e-10,5.28193e-08
8.6e-10,4.54799e-08
8.61e-10,1.53489e-07
8.62e-10,0
8.63e-10,-8.70007e-08
8.64e-10,-9.15975e-08
8.65e-10,3.14095e-07
8.66e-10,-2.23154e-09
8.67e-10,4.39379e-08
8.68e-10,-4.41127e-08
8.69e-10,2.30219e-09
8.7e-10,-4.53409e-08
8.71e-10,-6.83041e-09
8.72e-10,3.71163e-08
8.73e-10,1.8823e-07
8.74e-10,-1.88093e-07
8.75e-10,-3.72457e-09
8.76e-10,1.9412e-07
8.77e-10,4.20276e-07
8.78e-10,5.41225e-09
8.79e-10,-8.82831e-08
8.8e-10,1.98715e-09
8.81e-10,-5.26826e-08
8.82e-10,2.26411e-09
8.83e-10,4.57569e-08
8.84e-10,-4.80519e-09
8.85e-10,5.06954e-08
8.86e-10,-4.56167e-08
8.87e-10,-8.95365e-08
8.88e-10,-3.3132e-08
8.89e-10,-5.68708e-08
8.9e-10,2.54108e-09
8.91e-10,1.37918e-08
8.92e-10,3.81371e-08
8.93e-10,0
8.94e-10,-3.28502e-09
8.95e-10,4.12287e-08
8.96e-10,-6.88046e-09
8.97e-10,-1.2059e-07
8.98e-10,-2.81461e-09
8.99e-10,7.154e-09
9e-10,-4.0538e-08
9.01e-10,-4.42916e-08
9.02e-10,4.28021e-08
9.03e-10,-4.0538e-08
9.04e-10,-2.77523e-09
9.05e-10,-4.5478e-08
9.06e-10,0
9.07e-10,-2.26411e-09
9.08e-10,-1.02448e-08
9.09e-10,2.26411e-09
9.1e-10,-4.79717e-08
9.11e-10,2.67785e-09
9.12e-10,-4.04885e-08
9.13e-10,-7.06588e-09
9.14e-10,4.66499e-09
9.15e-10,-4.17125e-08
9.16e-10,5.43962e-09
9.17e-10,0
9.18e-10,-4.66499e-09
9.19e-10,1.40992e-10
9.2e-10,2.26411e-09
9.21e-10,-4.80176e-09
9.22e-10,-6.92911e-09
9.23e-10,-3.64319e-08
9.24e-10,0
9.25e-10,-4.24404e-08
9.26e-10,-4.80599e-09
9.27e-10,2.40088e-09
9.28e-10,2.00665e-09
9.29e-10,4.57209e-08
9.3e-10,-1.84095e-08
9.31e-10,-4.81543e-08
9.32e-10,4.56493e-08
9.33e-10,-7.25461e-08
9.34e-10,-3.81525e-08
9.35e-10,-6.94518e-09
9.36e-10,-4.62464e-08
9.37e-10,4.52823e-09
9.38e-10,0
9.39e-10,2.34497e-08
9.4e-10,1.31105e-08
9.41e-10,-1.74879e-08
9.42e-10,1.48241e-08
9.43e-10,4.66499e-09
9.44e-10,-4.09174e-08
9.45e-10,-4.54616e-08
9.46e-10,-5.05737e-08
9.47e-10,-1.97225e-09
9.48e-10,1.99058e-09
9.49e-10,-4.68332e-09
9.5e-10,6.79234e-09
9.51e-10,-6.79234e-09
9.52e-10,-7.06588e-09
9.53e-10,-3.13952e-08
9.54e-10,1.55091e-10
9.55e-10,-2.4192e-09
9.56e-10,-4.90228e-08
9.57e-10,-2.24579e-09
9.58e-10,-9.14437e-09
9.59e-10,4.56079e-09
9.6e-10,-2.29668e-09
9.61e-10,7.06588e-09
9.62e-10,2.27836e-09
9.63e-10,0
9.64e-10,2.26411e-09
9.65e-10,-8.88562e-08
9.66e-10,-5.1113e-09
9.67e-10,-1.80292e-09
9.68e-10,-4.28628e-10
9.69e-10,-6.91079e-09
9.7e-10,7.06588e-09
9.71e-10,-2.26411e-09
9.72e-10,7.26106e-10
9.73e-10,-8.91134e-08
9.74e-10,-3.2569e-11
9.75e-10,-2.40088e-09
9.76e-10,4.80176e-09
9.77e-10,-2.26411e-09
9.78e-10,-4.80176e-09
9.79e-10,5.02817e-08
9.8e-10,-4.54765e-08
9.81e-10,-7.6198e-09
9.82e-10,-4.33585e-08
9.83e-10,-4.37175e-09
9.84e-10,-3.97448e-10
9.85e-10,-4.8461e-08
9.86e-10,-2.26411e-09
9.87e-10,-2.26411e-09
9.88e-10,-1.36769e-10
9.89e-10,2.40088e-09
9.9e-10,4.52823e-09
9.91e-10,1.36769e-10
9.92e-10,-4.09515e-08
9.93e-10,4.80176e-09
9.94e-10,-4.74124e-08
9.95e-10,-4.66499e-09
9.96e-10,-2.73424e-09
9.97e-10,1.40195e-10
9.98e-10,-4.94196e-09
9.99e-10,4.80176e-09
1e-09,3.37494e-08
1.001e-09,-3.3693e-08
1.002e-09,-3.84139e-08
1.003e-09,2.62145e-09
1.004e-09,-2.20772e-09
1.005e-09,0
1.006e-09,-4.60839e-08
1.007e-09,2.40088e-09
1.008e-09,-2.40088e-09
1.009e-09,-2.40088e-09
1.01e-09,7.12227e-09
1.011e-09,-2.32051e-09
1.012e-09,2.32051e-09
1.013e-09,-4.12261e-08
1.014e-09,-2.32051e-09
1.015e-09,-4.80176e-09
1.016e-09,-5.01491e-08
1.017e-09,4.99835e-09
1.018e-09,-2.67785e-09
1.019e-09,0
1.02e-09,-2.32051e-09
1.021e-09,-1.36769e-10
1.022e-09,-4.69221e-08
1.023e-09,-9.86941e-11
1.024e-09,-4.61693e-08
1.025e-09,-2.16542e-09
1.026e-09,0
1.027e-09,0
1.028e-09,4.04986e-08
1.029e-09,-4.51636e-08
1.03e-09,4.28614e-08
1.031e-09,-4.3216e-08
1.032e-09,2.26411e-09
1.033e-09,-9.08831e-08
1.034e-09,0
1.035e-09,0
1.036e-09,-4.52823e-09
1.037e-09,5.18931e-08
1.038e-09,4.52823e-09
1.039e-09,0
1.04e-09,1.36769e-10
1.041e-09,-4.46302e-10
1.042e-09,-4.83082e-08
1.043e-09,-9.86941e-11
1.044e-09,-5.17227e-08
1.045e-09,0
1.046e-09,0
1.047e-09,-2.40088e-09
1.048e-09,9.19322e-09
1.049e-09,-4.39146e-09
1.05e-09,-1.36769e-10
1.051e-09,-2.26411e-09
1.052e-09,-4.31622e-08
1.053e-09,-5.02776e-08
1.054e-09,-2.71041e-09
1.055e-09,2.40088e-09
1.056e-09,1.13206e-08
1.057e-09,-6.79234e-09
1.058e-09,2.26411e-09
1.059e-09,-4.66499e-09
1.06e-09,-2.26411e-09
1.061e-09,-1.36769e-10
1.062e-09,-3.84131e-08
1.063e-09,-3.68947e-08
1.064e-09,2.12734e-09
1.065e-09,2.40088e-09
1.066e-09,2.26411e-09
1.067e-09,2.26411e-09
1.068e-09,-6.0154e-08
1.069e-09,0
1.07e-09,6.0154e-08
1.071e-09,-9.50847e-08
1.072e-09,0
1.073e-09,-6.79234e-09
1.074e-09,-5.7897e-08
1.075e-09,5.7897e-08
1.076e-09,-6.01611e-08
1.077e-09,6.24252e-08
1.078e-09,2.26411e-09
1.079e-09,-5.52711e-08
1.08e-09,-4.66499e-09
1.081e-09,4.52823e-09
1.082e-09,-4.52055e-08
1.083e-09,6.79234e-09
1.084e-09,-6.79234e-09
1.085e-09,4.52823e-09
1.086e-09,2.40088e-09
1.087e-09,-3.65873e-08
1.088e-09,-7.53706e-08
1.089e-09,0
1.09e-09,0
1.091e-09,0
1.092e-09,-6.79234e-09
1.093e-09,0
1.094e-09,-8.93604e-08
1.095e-09,0
1.096e-09,0
1.097e-09,0
1.098e-09,2.26411e-09
1.099e-09,-2.40088e-09
1.1e-09,0
1.101e-09,-2.40088e-09
1.102e-09,2.93357e-08
1.103e-09,-1.14573e-08
1.104e-09,-3.61514e-08
1.105e-09,2.28526e-09
1.106e-09,-8.66711e-08
1.107e-09,2.35463e-10
1.108e-09,6.95026e-09
1.109e-09,2.26411e-09
1.11e-09,1.81661e-10
1.111e-09,-4.82973e-09
1.112e-09,-4.26399e-08
1.113e-09,-5.08979e-08
1.114e-09,-1.36769e-10
1.115e-09,2.40088e-09
1.116e-09,1.99058e-09
1.117e-09,2.40088e-09
1.118e-09,-2.40088e-09
1.119e-09,-4.66499e-09
1.12e-09,-2.40088e-09
1.121e-09,-5.0905e-08
1.122e-09,-4.31605e-08
1.123e-09,1.44234e-09
1.124e-09,2.26411e-09
1.125e-09,-2.12734e-09
1.126e-09,-9.19322e-09
1.127e-09,6.79234e-09
1.128e-09,1.36769e-10
1.129e-09,-7.53888e-08
1.13e-09,8.99322e-10
1.131e-09,-5.29078e-09
1.132e-09,4.66499e-09
1.133e-09,-1.63833e-09
1.134e-09,1.50156e-09
1.135e-09,3.16343e-09
1.136e-09,0
1.137e-09,-2.40088e-09
1.138e-09,-5.32706e-08
1.139e-09,-4.12048e-08
1.14e-09,4.66499e-09
1.141e-09,-6.79234e-09
1.142e-09,6.79234e-09
1.143e-09,0
1.144e-09,-2.26411e-09
1.145e-09,0
1.146e-09,-9.74828e-08
1.147e-09,4.52823e-09
1.148e-09,-9.32999e-09
1.149e-09,0
1.15e-09,1.36769e-10
1.151e-09,1.14573e-08
1.152e-09,-7.06588e-09
1.153e-09,-9.79128e-08
1.154e-09,4.66499e-09
1.155e-09,-2.26411e-09
1.156e-09,-1.05388e-07
1.157e-09,4.36322e-08
1.158e-09,-4.5478e-08
1.159e-09,-3.76024e-08
1.16e-09,2.26411e-09
1.161e-09,1.11657e-07
1.162e-09,0
1.163e-09,1.36769e-10
1.164e-09,-1.16185e-07
1.165e-09,-5.44068e-08
1.166e-09,6.79234e-09
1.167e-09,7.36653e-08
1.168e-09,-2.26411e-09
1.169e-09,3.30672e-08
1.17e-09,-1.11657e-07
1.171e-09,1.63833e-09
1.172e-09,-4.66499e-09
1.173e-09,-2.26411e-09
1.174e-09,2.26411e-09
1.175e-09,-8.77713e-08
1.176e-09,4.52823e-09
1.177e-09,8.99322e-10
1.178e-09,6.15064e-08
1.179e-09,-4.66499e-09
1.18e-09,0
1.181e-09,-3.68813e-09
1.182e-09,5.95224e-09
1.183e-09,0
1.184e-09,-3.4154e-08
1.185e-09,3.90875e-08
1.186e-09,0
1.187e-09,0
1.188e-09,2.26411e-09
1.189e-09,-2.26411e-09
1.19e-09,-3.6149e-08
1.191e-09,-4.71123e-08
1.192e-09,2.26411e-09
1.193e-09,-2.26411e-09
1.194e-09,4.52823e-09
1.195e-09,-4.52823e-09
1.196e-09,4.52823e-09
1.197e-09,-3.16279e-08
1.198e-09,-6.79234e-09
1.199e-09,6.79234e-09
1.2e-09,-4.52823e-09
1.201e-09,2.26411e-09
1.202e-09,-5.251e-08
1.203e-09,2.26411e-09
1.204e-09,-4.88465e-08
1.205e-09,-4.52823e-09
1.206e-09,0
1.207e-09,-4.52823e-09
1.208e-09,2.26411e-09
1.209e-09,1.38997e-09
1.21e-09,-2.83182e-08
1.211e-09,2.81818e-08
1.212e-09,-3.6149e-08
1.213e-09,0
1.214e-09,-3.49742e-08
1.215e-09,2.26411e-09
1.216e-09,-2.26411e-09
1.217e-09,0
1.218e-09,-1.35952e-08
1.219e-09,2.26411e-09
1.22e-09,9.05645e-09
1.221e-09,-4.52823e-09
1.222e-09,-4.10873e-08
1.223e-09,0
1.224e-09,6.79234e-09
1.225e-09,0
1.226e-09,0
1.227e-09,2.26411e-09
1.228e-09,-4.94634e-08
1.229e-09,2.26411e-09
1.23e-09,4.52823e-09
1.231e-09,-6.79234e-09
1.232e-09,-5.12599e-08
1.233e-09,0
1.234e-09,9.05645e-09
1.235e-09,0
1.236e-09,-3.50223e-08
1.237e-09,-4.52823e-09
1.238e-09,0
1.239e-09,-3.36084e-08
1.24e-09,0
1.241e-09,0
1.242e-09,2.26411e-09
1.243e-09,0
1.244e-09,-7.06588e-09
1.245e-09,-2.7299e-08
1.246e-09,2.26411e-09
1.247e-09,-6.79234e-09
1.248e-09,-3.45558e-08
1.249e-09,4.52823e-09
1.25e-09,-1.13206e-08
1.251e-09,2.26411e-09
1.252e-09,0
1.253e-09,1.56301e-08
1.254e-09,4.52823e-09
1.255e-09,-4.39994e-08
1.256e-09,0
1.257e-09,-1.36769e-10
1.258e-09,-2.26411e-09
1.259e-09,2.26411e-09
1.26e-09,-6.79234e-09
1.261e-09,4.52823e-09
1.262e-09,-1.2486e-08
1.263e-09,-9.05645e-09
1.264e-09,4.52823e-09
1.265e-09,-4.14962e-08
1.266e-09,4.39146e-09
1.267e-09,1.36769e-10
1.268e-09,2.26411e-09
1.269e-09,-2.26411e-09
1.27e-09,0
1.271e-09,2.20652e-08
1.272e-09,-2.16542e-09
1.273e-09,-3.82844e-08
1.274e-09,4.66499e-09
1.275e-09,-2.40088e-09
1.276e-09,9.86941e-11
1.277e-09,4.52823e-09
1.278e-09,-4.52823e-09
1.279e-09,-9.86941e-11
1.28e-09,4.66499e-09
1.281e-09,1.02231e-08
1.282e-09,-2.26411e-09
1.283e-09,2.70774e-08
1.284e-09,4.52823e-09
1.285e-09,-2.26411e-09
1.286e-09,-2.25492e-08
1.287e-09,0
1.288e-09,-4.66499e-09
1.289e-09,-3.07321e-08
1.29e-09,2.47922e-08
1.291e-09,7.26094e-08
1.292e-09,-2.93204e-08
1.293e-09,0
1.294e-09,-2.26411e-09
1.295e-09,0
1.296e-09,-3.80748e-11
1.297e-09,-2.39803e-08
1.298e-09,1.36769e-10
1.299e-09,2.40088e-09
1.3e-09,-6.92911e-09
1.301e-09,2.30219e-09
1.302e-09,1.30008e-07
1.303e-09,4.66499e-09
1.304e-09,0
1.305e-09,4.52823e-09
1.306e-09,-5.22015e-08
1.307e-09,2.12734e-09
1.308e-09,1.36769e-10
1.309e-09,-9.86941e-11
1.31e-09,-4.52823e-09
1.311e-09,-2.40088e-09
1.312e-09,1.80992e-07
1.313e-09,1.36769e-10
1.314e-09,-1.36769e-10
1.315e-09,-2.81631e-08
1.316e-09,-2.01033e-09
1.317e-09,-2.65467e-09
1.318e-09,2.26411e-09
1.319e-09,0
1.32e-09,0
1.321e-09,2.74051e-07
1.322e-09,4.52823e-09
1.323e-09,3.86272e-07
1.324e-09,-2.22231e-08
1.325e-09,-9.05645e-09
1.326e-09,2.26411e-09
1.327e-09,2.26411e-09
1.328e-09,0
1.329e-09,4.43236e-09
1.33e-09,-4.52823e-09
1.331e-09,-2.40088e-09
1.332e-09,-4.29531e-08
1.333e-09,2.26411e-09
1.334e-09,2.87791e-07
1.335e-09,2.08095e-07
1.336e-09,2.26411e-09
1.337e-09,2.26411e-09
1.338e-09,-4.52823e-09
1.339e-09,9.19322e-09
1.34e-09,-3.2592e-08
1.341e-09,2.26411e-09
1.342e-09,-6.79234e-09
1.343e-09,2.54484e-07
1.344e-09,2.16542e-09
1.345e-09,0
1.346e-09,-1.1519e-08
1.347e-09,2.26411e-09
1.348e-09,-4.52823e-09
1.349e-09,0
1.35e-09,1.39441e-08
1.351e-09,-1.168e-08
1.352e-09,-2.26411e-09
1.353e-09,2.26411e-09
1.354e-09,-3.84907e-08
1.355e-09,4.52823e-09
1.356e-09,3.29871e-07
1.357e-09,2.26411e-09
1.358e-09,-2.26411e-09
1.359e-09,2.26411e-09
1.36e-09,6.86386e-08
1.361e-09,-4.48113e-09
1.362e-09,0
1.363e-09,-4.52823e-09
1.364e-09,2.26411e-09
1.365e-09,3.42296e-07
1.366e-09,0
1.367e-09,0
1.368e-09,-2.26411e-09
1.369e-09,7.06487e-09
1.37e-09,2.26411e-09
1.371e-09,2.26411e-09
1.372e-09,-2.12734e-09
1.373e-09,-2.26411e-09
1.374e-09,2.26411e-09
1.375e-09,-6.79234e-09
1.376e-09,2.26411e-09
1.377e-09,-2.26411e-09
1.378e-09,-2.26411e-09
1.379e-09,-2.8472e-08
1.38e-09,-4.52823e-09
1.381e-09,4.52823e-09
1.382e-09,0
1.383e-09,4.52823e-09
1.384e-09,2.26411e-09
1.385e-09,-1.40766e-09
1.386e-09,0
1.387e-09,4.52823e-09
1.388e-09,-2.26411e-09
1.389e-09,9.05645e-09
1.39e-09,4.52823e-09
1.391e-09,-6.79234e-09
1.392e-09,-6.79234e-09
1.393e-09,6.79234e-09
1.394e-09,-4.52823e-09
1.395e-09,2.26411e-09
1.396e-09,7.29046e-09
1.397e-09,-2.26411e-09
1.398e-09,-6.79234e-09
1.399e-09,0
1.4e-09,6.79234e-09
1.401e-09,0
1.402e-09,0
1.403e-09,2.26411e-09
1.404e-09,2.28124e-08
1.405e-09,0
1.406e-09,9.05645e-09
1.407e-09,-6.79234e-09
1.408e-09,0
1.409e-09,4.52823e-09
1.41e-09,-2.26411e-09
1.411e-09,4.52823e-09
1.412e-09,3.82005e-08
1.413e-09,0
1.414e-09,0
1.415e-09,-2.12734e-09
1.416e-09,-2.26411e-09
1.417e-09,-1.36769e-10
1.418e-09,0
1.419e-09,2.40088e-09
1.42e-09,5.34287e-08
1.421e-09,-2.26411e-09
1.422e-09,0
1.423e-09,-2.26411e-09
1.424e-09,-2.26411e-09
1.425e-09,0
1.426e-09,2.26411e-09
1.427e-09,2.26411e-09
1.428e-09,-4.66499e-09
1.429e-09,6.80637e-08
1.43e-09,0
1.431e-09,-2.26411e-09
1.432e-09,2.26411e-09
1.433e-09,2.26411e-09
1.434e-09,0
1.435e-09,-4.52823e-09
1.436e-09,-2.26411e-09
1.437e-09,2.1865e-07
1.438e-09,1.0572e-07
1.439e-09,0
1.44e-09,2.40088e-09
1.441e-09,-2.26411e-09
1.442e-09,-4.66499e-09
1.443e-09,2.26411e-09
1.444e-09,2.12734e-09
1.445e-09,1.36769e-10
1.446e-09,-6.79234e-09
1.447e-09,1.40055e-07
1.448e-09,2.26411e-09
1.449e-09,-2.26411e-09
1.45e-09,6.79234e-09
1.451e-09,-4.52823e-09
1.452e-09,4.52823e-09
1.453e-09,0
1.454e-09,0
1.455e-09,-4.52823e-09
1.456e-09,2.26411e-09
1.457e-09,-4.52823e-09
1.458e-09,1.68521e-07
1.459e-09,0
1.46e-09,-2.26411e-09
1.461e-09,-4.66499e-09
1.462e-09,2.40952e-07
1.463e-09,0
1.464e-09,4.52823e-09
1.465e-09,4.52823e-09
1.466e-09,2.17451e-07
1.467e-09,-2.26411e-09
1.468e-09,4.52823e-09
1.469e-09,0
1.47e-09,0
1.471e-09,0
1.472e-09,0
1.473e-09,0
1.474e-09,2.26411e-09
1.475e-09,2.26411e-09
1.476e-09,-2.26411e-09
1.477e-09,2.45264e-07
1.478e-09,2.26411e-09
1.479e-09,3.19579e-07
1.48e-09,-5.17932e-10
1.481e-09,4.52823e-09
1.482e-09,-2.26411e-09
1.483e-09,2.26411e-09
1.484e-09,2.40088e-09
1.485e-09,0
1.486e-09,0
1.487e-09,0
1.488e-09,-2.40088e-09
1.489e-09,-4.52823e-09
1.49e-09,2.26411e-09
1.491e-09,1.6458e-07
1.492e-09,0
1.493e-09,-4.09843e-08
1.494e-09,1.36769e-10
1.495e-09,-1.36769e-10
1.496e-09,0
1.497e-09,4.13066e-08
1.498e-09,-4.52823e-09
1.499e-09,0
1.5e-09,7.06588e-09
1.501e-09,-2.26411e-09
1.502e-09,-2.40088e-09
1.503e-09,0
1.504e-09,4.66499e-09
1.505e-09,-6.92911e-09
1.506e-09,-2.26411e-09
1.507e-09,6.79234e-09
1.508e-09,-2.26411e-09
1.509e-09,0
1.51e-09,-4.24237e-08
1.511e-09,0
1.512e-09,5.98396e-09
1.513e-09,2.26411e-09
1.514e-09,-2.26411e-09
1.515e-09,2.26411e-09
1.516e-09,0
1.517e-09,4.52823e-09
1.518e-09,0
1.519e-09,-8.24808e-09
1.52e-09,2.26411e-09
1.521e-09,-8.08375e-10
1.522e-09,0
1.523e-09,-3.77747e-08
1.524e-09,-7.46578e-09
1.525e-09,-2.26411e-09
1.526e-09,2.26411e-09
1.527e-09,-2.26411e-09
1.528e-09,4.52823e-09
1.529e-09,-2.26411e-09
1.53e-09,-4.52823e-09
1.531e-09,4.52823e-09
1.532e-09,0
1.533e-09,-2.26411e-09
1.534e-09,-2.1911e-09
1.535e-09,0
1.536e-09,-4.09519e-08
1.537e-09,-2.26411e-09
1.538e-09,-2.26411e-09
1.539e-09,-2.26411e-09
1.54e-09,9.13336e-10
1.541e-09,4.52823e-09
1.542e-09,4.66499e-09
1.543e-09,-2.26411e-09
1.544e-09,0
1.545e-09,4.47559e-09
1.546e-09,-2.34824e-09
1.547e-09,-2.31675e-09
1.548e-09,-4.2548e-08
1.549e-09,2.26411e-09
1.55e-09,2.26411e-09
1.551e-09,-2.31675e-09
1.552e-09,-4.47559e-09
1.553e-09,4.52823e-09
1.554e-09,-4.52823e-09
1.555e-09,-9.6598e-10
1.556e-09,0
1.557e-09,0
1.558e-09,-2.26411e-09
1.559e-09,-4.14428e-08
1.56e-09,0
1.561e-09,-2.31675e-09
1.562e-09,4.58086e-09
1.563e-09,0
1.564e-09,6.5246e-09
1.565e-09,0
1.566e-09,0
1.567e-09,0
1.568e-09,0
1.569e-09,0
1.57e-09,-4.81611e-08
1.571e-09,0
1.572e-09,2.26411e-09
1.573e-09,0
1.574e-09,-2.31675e-09
1.575e-09,4.58086e-09
1.576e-09,-2.26411e-09
1.577e-09,0
1.578e-09,0
1.579e-09,-3.63337e-08
1.58e-09,-2.26411e-09
1.581e-09,0
1.582e-09,0
1.583e-09,2.26411e-09
1.584e-09,-4.52823e-09
1.585e-09,2.26411e-09
1.586e-09,0
1.587e-09,0
1.588e-09,-4.52823e-09
1.589e-09,-3.99368e-08
1.59e-09,-5.26369e-11
1.591e-09,2.26411e-09
1.592e-09,-2.26411e-09
1.593e-09,2.26411e-09
1.594e-09,0
1.595e-09,5.26369e-11
1.596e-09,0
1.597e-09,0
1.598e-09,-2.26411e-09
1.599e-09,4.52823e-09
1.6e-09,-4.0678e-08
1.601e-09,-2.26411e-09
1.602e-09,0
1.603e-09,2.40088e-09
1.604e-09,2.12734e-09
1.605e-09,1.36769e-10
1.606e-09,2.26411e-09
1.607e-09,-2.40088e-09
1.608e-09,0
1.609e-09,-4.8284e-08
1.61e-09,-2.26411e-09
1.611e-09,4.52823e-09
1.612e-09,-2.26411e-09
1.613e-09,4.61236e-09
1.614e-09,-2.40088e-09
1.615e-09,-4.52823e-09
1.616e-09,4.52823e-09
1.617e-09,0
1.618e-09,1.89406e-10
1.619e-09,-4.0678e-08
1.62e-09,-4.66499e-09
1.621e-09,2.26411e-09
1.622e-09,0
1.623e-09,-2.26411e-09
1.624e-09,4.52823e-09
1.625e-09,0
1.626e-09,2.26411e-09
1.627e-09,-3.99182e-08
1.628e-09,0
1.629e-09,0
1.63e-09,0
1.631e-09,2.26411e-09
1.632e-09,2.26411e-09
1.633e-09,2.26411e-09
1.634e-09,-2.26411e-09
1.635e-09,-6.79234e-09
1.636e-09,-4.27291e-08
1.637e-09,-2.33713e-09
1.638e-09,0
1.639e-09,2.26411e-09
1.64e-09,2.26411e-09
1.641e-09,-4.52823e-09
1.642e-09,0
1.643e-09,0
1.644e-09,-4.22416e-08
1.645e-09,0
1.646e-09,2.03791e-11
1.647e-09,4.50785e-09
1.648e-09,-4.50785e-09
1.649e-09,2.26411e-09
1.65e-09,-2.28449e-09
1.651e-09,2.26411e-09
1.652e-09,-4.0208e-08
1.653e-09,2.26411e-09
1.654e-09,4.52823e-09
1.655e-09,-4.52823e-09
1.656e-09,0
1.657e-09,7.3016e-11
1.658e-09,2.26411e-09
1.659e-09,-4.52823e-09
1.66e-09,2.26411e-09
1.661e-09,-5.2056e-08
1.662e-09,2.26411e-09
1.663e-09,-2.26411e-09
1.664e-09,1.36769e-10
1.665e-09,2.26411e-09
1.666e-09,-2.26411e-09
1.667e-09,2.26411e-09
1.668e-09,0
1.669e-09,0
1.67e-09,0
1.671e-09,4.52823e-09
1.672e-09,-4.13528e-08
1.673e-09,2.26411e-09
1.674e-09,-4.52823e-09
1.675e-09,0
1.676e-09,-4.52823e-09
1.677e-09,-2.26411e-09
1.678e-09,-2.26411e-09
1.679e-09,2.26411e-09
1.68e-09,-2.26411e-09
1.681e-09,-3.76506e-08
1.682e-09,-2.26411e-09
1.683e-09,4.52823e-09
1.684e-09,-2.26411e-09
1.685e-09,9.05645e-09
1.686e-09,-2.26411e-09
1.687e-09,2.26411e-09
1.688e-09,-6.79234e-09
1.689e-09,-4.82826e-08
1.69e-09,-4.52823e-09
1.691e-09,2.26411e-09
1.692e-09,0
1.693e-09,6.79234e-09
1.694e-09,-2.26411e-09
1.695e-09,2.26411e-09
1.696e-09,-2.26411e-09
1.697e-09,-4.66499e-09
1.698e-09,-2.26411e-09
1.699e-09,-3.82764e-08
1.7e-09,0
1.701e-09,2.26411e-09
1.702e-09,0
1.703e-09,-2.26411e-09
1.704e-09,2.26411e-09
1.705e-09,-2.26411e-09
1.706e-09,0
1.707e-09,0
1.708e-09,0
1.709e-09,-2.26411e-09
1.71e-09,-4.06773e-08
1.711e-09,-2.26411e-09
1.712e-09,0
1.713e-09,2.26411e-09
1.714e-09,4.52823e-09
1.715e-09,-2.26411e-09
1.716e-09,0
1.717e-09,0
1.718e-09,2.26411e-09
1.719e-09,-4.52823e-09
1.72e-09,-4.37614e-08
1.721e-09,-4.52823e-09
1.722e-09,0
1.723e-09,0
1.724e-09,2.26411e-09
1.725e-09,2.26411e-09
1.726e-09,2.26411e-09
1.727e-09,-2.26411e-09
1.728e-09,-2.26411e-09
1.729e-09,-3.84131e-08
1.73e-09,0
1.731e-09,0
1.732e-09,-2.26411e-09
1.733e-09,0
1.734e-09,0
1.735e-09,2.26411e-09
1.736e-09,-2.26411e-09
1.737e-09,2.8579e-08
1.738e-09,-2.8579e-08
1.739e-09,1.89591e-09
1.74e-09,-5.38318e-08
1.741e-09,0
1.742e-09,6.92911e-09
1.743e-09,-2.40088e-09
1.744e-09,0
1.745e-09,4.52823e-09
1.746e-09,-2.26411e-09
1.747e-09,2.26411e-09
1.748e-09,-2.26411e-09
1.749e-09,0
1.75e-09,1.36769e-10
1.751e-09,-3.61561e-08
1.752e-09,2.26411e-09
1.753e-09,-2.40088e-09
1.754e-09,0
1.755e-09,2.40088e-09
1.756e-09,0
1.757e-09,0
1.758e-09,0
1.759e-09,0
1.76e-09,-2.40088e-09
1.761e-09,-4.34618e-08
1.762e-09,4.66499e-09
1.763e-09,-4.66499e-09
1.764e-09,2.40088e-09
1.765e-09,-2.26411e-09
1.766e-09,-2.40088e-09
1.767e-09,0
1.768e-09,0
1.769e-09,-4.97982e-08
1.77e-09,0
1.771e-09,0
1.772e-09,0
1.773e-09,0
1.774e-09,0
1.775e-09,0
1.776e-09,-2.26411e-09
1.777e-09,0
1.778e-09,-4.17123e-08
1.779e-09,2.26411e-09
1.78e-09,2.26411e-09
1.781e-09,-2.26411e-09
1.782e-09,0
1.783e-09,2.40088e-09
1.784e-09,4.52823e-09
1.785e-09,-2.26411e-09
1.786e-09,-4.01191e-08
1.787e-09,0
1.788e-09,-4.66499e-09
1.789e-09,-2.26411e-09
1.79e-09,2.26411e-09
1.791e-09,-2.26411e-09
1.792e-09,2.26411e-09
1.793e-09,2.26411e-09
1.794e-09,-2.26411e-09
1.795e-09,-4.93106e-08
1.796e-09,0
1.797e-09,-2.26411e-09
1.798e-09,-2.26411e-09
1.799e-09,-2.26411e-09
1.8e-09,4.52823e-09
1.801e-09,0
1.802e-09,2.26411e-09
1.803e-09,-2.26411e-09
1.804e-09,-3.84131e-08
1.805e-09,-2.26411e-09
1.806e-09,6.79234e-09
1.807e-09,4.52823e-09
1.808e-09,1.36769e-10
1.809e-09,-4.52823e-09
1.81e-09,4.52823e-09
1.811e-09,0
1.812e-09,2.26411e-09
1.813e-09,-3.84131e-08
1.814e-09,-6.79234e-09
1.815e-09,2.26411e-09
1.816e-09,0
1.817e-09,0
1.818e-09,4.52823e-09
1.819e-09,-4.52823e-09
1.82e-09,0
1.821e-09,-2.26411e-09
1.822e-09,-5.48669e-08
1.823e-09,2.26411e-09
1.824e-09,-2.40088e-09
1.825e-09,-2.26411e-09
1.826e-09,2.26411e-09
1.827e-09,4.52823e-09
1.828e-09,0
1.829e-09,0
1.83e-09,-4.52823e-09
1.831e-09,-3.99147e-08
1.832e-09,0
1.833e-09,0
1.834e-09,-2.26411e-09
1.835e-09,2.40088e-09
1.836e-09,-2.40088e-09
1.837e-09,-2.26411e-09
1.838e-09,2.26411e-09
1.839e-09,4.52823e-09
1.84e-09,-4.10873e-08
1.841e-09,-4.52823e-09
1.842e-09,0
1.843e-09,0
1.844e-09,0
1.845e-09,-9.05645e-09
1.846e-09,4.52823e-09
1.847e-09,2.26411e-09
1.848e-09,0
1.849e-09,-6.79234e-09
1.85e-09,4.52823e-09
1.851e-09,-2.26411e-09
1.852e-09,-5.57551e-08
1.853e-09,0
1.854e-09,-4.52823e-09
1.855e-09,2.26411e-09
1.856e-09,0
1.857e-09,2.26411e-09
1.858e-09,0
1.859e-09,2.26411e-09
1.86e-09,-2.26411e-09
1.861e-09,4.52823e-09
1.862e-09,-3.37451e-08
1.863e-09,-2.26411e-09
1.864e-09,0
1.865e-09,-4.52823e-09
1.866e-09,4.52823e-09
1.867e-09,4.52823e-09
1.868e-09,0
1.869e-09,-4.52823e-09
1.87e-09,4.52823e-09
1.871e-09,-3.90841e-08
1.872e-09,0
1.873e-09,-4.52823e-09
1.874e-09,2.26411e-09
1.875e-09,-2.26411e-09
1.876e-09,0
1.877e-09,0
1.878e-09,2.26411e-09
1.879e-09,0
1.88e-09,-5.70887e-08
1.881e-09,-2.26411e-09
1.882e-09,0
1.883e-09,-2.26411e-09
1.884e-09,0
1.885e-09,0
1.886e-09,4.52823e-09
1.887e-09,-3.93872e-08
1.888e-09,0
1.889e-09,2.26411e-09
1.89e-09,0
1.891e-09,0
1.892e-09,0
1.893e-09,-2.26411e-09
1.894e-09,2.26411e-09
1.895e-09,-3.57849e-08
1.896e-09,2.26411e-09
1.897e-09,0
1.898e-09,-4.52823e-09
1.899e-09,0
1.9e-09,6.79234e-09
1.901e-09,-4.52823e-09
1.902e-09,0
1.903e-09,-5.74752e-08
1.904e-09,-2.26411e-09
1.905e-09,-2.26411e-09
1.906e-09,0
1.907e-09,9.05645e-09
1.908e-09,-2.26411e-09
1.909e-09,0
1.91e-09,0
1.911e-09,-3.07138e-08
1.912e-09,-2.26411e-09
1.913e-09,-4.52823e-09
1.914e-09,2.26411e-09
1.915e-09,0
1.916e-09,-2.26411e-09
1.917e-09,0
1.918e-09,2.26411e-09
1.919e-09,-2.26411e-09
1.92e-09,-5.02423e-08
1.921e-09,0
1.922e-09,2.26411e-09
1.923e-09,-2.26411e-09
1.924e-09,2.26411e-09
1.925e-09,-2.26411e-09
1.926e-09,0
1.927e-09,6.79234e-09
1.928e-09,0
1.929e-09,-1.57065e-08
1.93e-09,-2.26411e-09
1.931e-09,2.26411e-09
1.932e-09,0
1.933e-09,-4.52823e-09
1.934e-09,4.52823e-09
1.935e-09,-4.52823e-09
1.936e-09,4.52823e-09
1.937e-09,-5.23937e-08
1.938e-09,4.52823e-09
1.939e-09,-2.26411e-09
1.94e-09,2.26411e-09
1.941e-09,0
1.942e-09,-2.26411e-09
1.943e-09,-4.52823e-09
1.944e-09,4.52823e-09
1.945e-09,-2.26411e-09
1.946e-09,0
1.947e-09,-4.84223e-08
1.948e-09,-6.79234e-09
1.949e-09,4.52823e-09
1.95e-09,0
1.951e-09,0
1.952e-09,-4.52823e-09
1.953e-09,-2.26411e-09
1.954e-09,-2.26411e-09
1.955e-09,0
1.956e-09,6.79234e-09
1.957e-09,-2.26411e-09
1.958e-09,-2.95365e-08
1.959e-09,-2.26411e-09
1.96e-09,-2.26411e-09
1.961e-09,0
1.962e-09,2.26411e-09
1.963e-09,-2.26411e-09
1.964e-09,2.26411e-09
1.965e-09,2.26411e-09
1.966e-09,-2.11346e-08
1.967e-09,0
1.968e-09,0
1.969e-09,0
1.97e-09,0
1.971e-09,0
1.972e-09,4.52823e-09
1.973e-09,-2.26411e-09
1.974e-09,-1.1371e-08
1.975e-09,2.26411e-09
1.976e-09,-2.26411e-09
1.977e-09,0
1.978e-09,4.52823e-09
1.979e-09,-2.26411e-09
1.98e-09,0
1.981e-09,2.26411e-09
1.982e-09,0
1.983e-09,-1.64692e-07
1.984e-09,1.0334e-07
1.985e-09,-4.52823e-09
1.986e-09,0
1.987e-09,2.26411e-09
1.988e-09,0
1.989e-09,0
1.99e-09,2.26411e-09
1.991e-09,-2.26411e-09
1.992e-09,-2.26411e-09
1.993e-09,2.26411e-09
1.994e-09,-6.79234e-09
1.995e-09,-9.00231e-09
1.996e-09,2.26411e-09
1.997e-09,-4.66499e-09
1.998e-09,0
1.999e-09,2.26411e-09
2e-09,-2.26411e-09
2.001e-09,0
2.1e-09,0
