0,0
1e-12,-1.99195e-06
2e-12,-1.29986e-07
3e-12,-1.18365e-06
4e-12,-1.10724e-07
5e-12,-6.67664e-07
6e-12,6.17081e-07
7e-12,-4.17828e-07
8e-12,-2.0322e-06
9e-12,5.06043e-08
1e-11,-1.86205e-06
1.1e-11,-1.87239e-06
1.2e-11,-1.25174e-07
1.3e-11,-8.297e-07
1.4e-11,-3.3824e-07
1.5e-11,-2.66004e-07
1.6e-11,-1.52526e-07
1.7e-11,2.41114e-07
1.8e-11,-5.64524e-07
1.9e-11,-1.1655e-06
2e-11,-1.11698e-06
2.1e-11,-9.96131e-07
2.2e-11,-2.12911e-06
2.3e-11,-3.85835e-07
2.4e-11,-6.88722e-07
2.5e-11,1.12548e-07
2.6e-11,1.86074e-08
2.7e-11,-6.54546e-07
2.8e-11,-1.46437e-06
2.9e-11,7.79053e-07
3e-11,-2.13485e-06
3.1e-11,-7.72079e-07
3.2e-11,-1.23488e-06
3.3e-11,-7.4353e-07
3.4e-11,5.44332e-07
3.5e-11,-2.40733e-07
3.6e-11,-1.67157e-07
3.7e-11,-1.71145e-06
3.8e-11,-3.4014e-07
3.9e-11,-1.18426e-06
4e-11,-1.3019e-06
4.1e-11,-1.82761e-06
4.2e-11,2.622e-07
4.3e-11,-4.62511e-07
4.4e-11,-7.14334e-09
4.5e-11,-1.32086e-06
4.6e-11,-1.0799e-06
4.7e-11,-1.75006e-06
4.8e-11,-7.47823e-07
4.9e-11,-5.16871e-07
5e-11,-5.93484e-07
5.1e-11,-2.32174e-06
5.2e-11,-1.10185e-07
5.3e-11,7.00978e-07
5.4e-11,-5.54455e-07
5.5e-11,-1.96542e-07
5.6e-11,-3.00201e-06
5.7e-11,-2.09706e-07
5.8e-11,-8.84685e-07
5.9e-11,-8.21647e-07
6e-11,-6.53662e-07
6.1e-11,-1.11814e-06
6.2e-11,-1.48864e-06
6.3e-11,2.64929e-07
6.4e-11,-4.23312e-07
6.5e-11,-2.33118e-06
6.6e-11,-3.27819e-07
6.7e-11,-1.00268e-06
6.8e-11,6.86373e-07
6.9e-11,-6.47821e-07
7e-11,-1.75664e-07
7.1e-11,-4.2619e-07
7.2e-11,-1.40644e-06
7.3e-11,3.11994e-07
7.4e-11,-6.3937e-07
7.5e-11,-3.18693e-07
7.6e-11,-1.49313e-06
7.7e-11,-8.17797e-07
7.8e-11,2.5773e-07
7.9e-11,-6.27619e-07
8e-11,-1.54034e-06
8.1e-11,-3.02772e-07
8.2e-11,-6.51848e-07
8.3e-11,2.87475e-07
8.4e-11,1.65696e-07
8.5e-11,-3.52652e-07
8.6e-11,-5.81917e-07
8.7e-11,3.49863e-08
8.8e-11,-8.50227e-07
8.9e-11,-3.71532e-07
9e-11,1.79396e-07
9.1e-11,-4.81359e-07
9.2e-11,-4.6227e-07
9.3e-11,-5.87324e-07
9.4e-11,-8.22592e-07
9.5e-11,-8.08255e-07
9.6e-11,-4.55527e-07
9.7e-11,-1.9354e-07
9.8e-11,-2.24432e-07
9.9e-11,-1.67513e-07
1e-10,-7.57821e-07
1.01e-10,-2.76738e-06
1.02e-10,-1.0853e-07
1.03e-10,-1.51447e-07
1.04e-10,-7.56157e-07
1.05e-10,-7.37069e-07
1.06e-10,-6.49611e-07
1.07e-10,-2.35967e-07
1.08e-10,-7.16811e-07
1.09e-10,-1.62842e-06
1.1e-10,-7.87508e-09
1.11e-10,-4.51523e-07
1.12e-10,-5.95541e-07
1.13e-10,5.87521e-08
1.14e-10,-1.03946e-06
1.15e-10,-9.23777e-09
1.16e-10,-6.13219e-07
1.17e-10,1.23802e-07
1.18e-10,-4.91138e-07
1.19e-10,-6.05912e-07
1.2e-10,-4.25481e-07
1.21e-10,-4.2372e-07
1.22e-10,-2.98636e-07
1.23e-10,-2.50998e-06
1.24e-10,-5.54172e-07
1.25e-10,-3.81983e-08
1.26e-10,-9.90807e-08
1.27e-10,-1.14812e-07
1.28e-10,9.30982e-08
1.29e-10,-5.76161e-07
1.3e-10,-8.65734e-07
1.31e-10,-7.27014e-07
1.32e-10,-6.25529e-07
1.33e-10,-5.58439e-07
1.34e-10,-1.93539e-06
1.35e-10,-4.67497e-07
1.36e-10,-1.57727e-07
1.37e-10,-1.02589e-06
1.38e-10,-1.54962e-07
1.39e-10,-8.67936e-07
1.4e-10,-4.51363e-07
1.41e-10,-3.07383e-07
1.42e-10,-9.03119e-07
1.43e-10,2.75719e-08
1.44e-10,-3.48201e-07
1.45e-10,-3.00685e-07
1.46e-10,-1.77322e-06
1.47e-10,-8.97983e-07
1.48e-10,3.41633e-07
1.49e-10,5.40824e-07
1.5e-10,-1.58135e-06
1.51e-10,-9.27668e-07
1.52e-10,-6.75749e-07
1.53e-10,-1.07506e-07
1.54e-10,-1.80575e-06
1.55e-10,-1.79631e-06
1.56e-10,-1.62778e-07
1.57e-10,-8.74851e-07
1.58e-10,5.97865e-07
1.59e-10,-9.44512e-07
1.6e-10,-2.75605e-07
1.61e-10,-9.57383e-07
1.62e-10,-1.58834e-07
1.63e-10,-2.68955e-07
1.64e-10,-5.50145e-07
1.65e-10,-1.20947e-06
1.66e-10,-1.4636e-06
1.67e-10,-1.95554e-06
1.68e-10,-3.49521e-07
1.69e-10,-1.52921e-06
1.7e-10,1.60439e-07
1.71e-10,-6.0553e-07
1.72e-10,-2.96437e-07
1.73e-10,1.843e-07
1.74e-10,6.4855e-07
1.75e-10,-1.85136e-06
1.76e-10,-1.94095e-06
1.77e-10,1.92295e-07
1.78e-10,-8.70493e-07
1.79e-10,-1.29508e-06
1.8e-10,-1.09102e-06
1.81e-10,-2.32806e-07
1.82e-10,-4.37899e-07
1.83e-10,3.19465e-07
1.84e-10,-1.5521e-06
1.85e-10,-3.21231e-07
1.86e-10,-3.95565e-07
1.87e-10,-4.04368e-07
1.88e-10,-5.55116e-07
1.89e-10,-3.75172e-07
1.9e-10,-6.72912e-07
1.91e-10,-1.86557e-07
1.92e-10,-3.2484e-07
1.93e-10,-6.04339e-07
1.94e-10,-6.42974e-07
1.95e-10,-2.29533e-07
1.96e-10,-2.22838e-06
1.97e-10,-2.81719e-07
1.98e-10,-1.11623e-06
1.99e-10,-5.75095e-07
2e-10,3.60087e-08
2.01e-10,-8.50756e-08
2.02e-10,-1.45654e-06
2.03e-10,6.25403e-08
2.04e-10,2.30736e-07
2.05e-10,-2.3141e-07
2.06e-10,-1.21186e-06
2.07e-10,-6.83217e-07
2.08e-10,-3.8318e-07
2.09e-10,-5.30076e-07
2.1e-10,-2.07469e-06
2.11e-10,-5.28345e-07
2.12e-10,-3.42114e-07
2.13e-10,-3.13856e-08
2.14e-10,-2.33489e-06
2.15e-10,-5.6477e-07
2.16e-10,-1.53339e-07
2.17e-10,-6.7805e-07
2.18e-10,-1.52066e-07
2.19e-10,-8.9102e-07
2.2e-10,-2.45689e-07
2.21e-10,-2.39349e-06
2.22e-10,-3.64187e-07
2.23e-10,-3.27445e-07
2.24e-10,-1.34389e-06
2.25e-10,-9.55087e-07
2.26e-10,-2.68942e-07
2.27e-10,5.42596e-07
2.28e-10,-1.25039e-06
2.29e-10,-1.43246e-06
2.3e-10,-2.56987e-07
2.31e-10,-4.34833e-07
2.32e-10,-2.84032e-06
2.33e-10,-1.3558e-06
2.34e-10,3.85536e-07
2.35e-10,-2.52399e-07
2.36e-10,-4.99612e-07
2.37e-10,-3.76493e-07
2.38e-10,-1.45408e-06
2.39e-10,-3.51026e-07
2.4e-10,-3.94838e-07
2.41e-10,-7.30307e-07
2.42e-10,-6.83987e-07
2.43e-10,-6.44195e-07
2.44e-10,-9.14587e-07
2.45e-10,2.69943e-07
2.46e-10,-6.88288e-07
2.47e-10,-2.57181e-07
2.48e-10,-3.09239e-07
2.49e-10,-4.38771e-07
2.5e-10,-5.88983e-07
2.51e-10,-5.88511e-08
2.52e-10,-2.05569e-06
2.53e-10,1.46105e-07
2.54e-10,-7.7172e-07
2.55e-10,3.91858e-07
2.56e-10,2.52424e-07
2.57e-10,-3.41498e-07
2.58e-10,-1.01711e-07
2.59e-10,-6.56824e-07
2.6e-10,-6.89331e-07
2.61e-10,-7.18364e-07
2.62e-10,2.99597e-07
2.63e-10,-9.61903e-07
2.64e-10,-2.53481e-07
2.65e-10,-9.10586e-07
2.66e-10,-3.93288e-07
2.67e-10,8.09893e-08
2.68e-10,6.56698e-08
2.69e-10,-9.9478e-07
2.7e-10,-1.51079e-06
2.71e-10,-6.6255e-07
2.72e-10,-8.94696e-07
2.73e-10,-3.66817e-07
2.74e-10,-7.03061e-08
2.75e-10,-3.70678e-07
2.76e-10,-2.0412e-07
2.77e-10,-6.06917e-07
2.78e-10,-4.15229e-07
2.79e-10,-8.47159e-07
2.8e-10,-1.90989e-06
2.81e-10,-3.07997e-07
2.82e-10,4.74407e-07
2.83e-10,-3.644e-07
2.84e-10,-1.56287e-06
2.85e-10,3.5047e-08
2.86e-10,-1.48091e-07
2.87e-10,-1.65886e-07
2.88e-10,-1.54873e-06
2.89e-10,1.71795e-07
2.9e-10,-1.21219e-06
2.91e-10,-7.79288e-07
2.92e-10,-4.5011e-07
2.93e-10,-1.91473e-07
2.94e-10,-9.04603e-08
2.95e-10,9.01218e-09
2.96e-10,-1.03791e-06
2.97e-10,-1.7115e-07
2.98e-10,-3.00433e-06
2.99e-10,6.38882e-07
3e-10,-1.36191e-06
3.01e-10,-3.08476e-07
3.02e-10,-3.34162e-07
3.03e-10,2.36441e-08
3.04e-10,-1.09023e-06
3.05e-10,-1.4739e-06
3.06e-10,5.13315e-07
3.07e-10,-1.33957e-07
3.08e-10,-7.95997e-07
3.09e-10,-1.65497e-07
3.1e-10,8.37168e-08
3.11e-10,-2.88008e-07
3.12e-10,-5.2361e-07
3.13e-10,2.26715e-07
3.14e-10,-7.5694e-07
3.15e-10,2.04647e-07
3.16e-10,4.1709e-07
3.17e-10,-1.55006e-06
3.18e-10,6.20012e-08
3.19e-10,-7.32922e-07
3.2e-10,-7.48903e-07
3.21e-10,7.87107e-07
3.22e-10,-1.02874e-06
3.23e-10,5.04468e-07
3.24e-10,-4.81015e-07
3.25e-10,4.88766e-07
3.26e-10,-3.67579e-07
3.27e-10,-8.62727e-08
3.28e-10,2.02614e-07
3.29e-10,-2.64175e-07
3.3e-10,-1.46236e-06
3.31e-10,-4.05651e-07
3.32e-10,1.23289e-08
3.33e-10,-4.45913e-07
3.34e-10,4.62733e-07
3.35e-10,-3.70025e-07
3.36e-10,1.58731e-08
3.37e-10,-5.49585e-07
3.38e-10,4.81623e-07
3.39e-10,-3.02726e-07
3.4e-10,-1.43188e-07
3.41e-10,-8.33854e-08
3.42e-10,-2.7717e-07
3.43e-10,3.25877e-07
3.44e-10,-4.95094e-07
3.45e-10,-6.13689e-08
3.46e-10,-5.3519e-07
3.47e-10,-2.06737e-07
3.48e-10,-8.27659e-07
3.49e-10,-3.72481e-07
3.5e-10,-2.76142e-07
3.51e-10,3.73917e-09
3.52e-10,4.22493e-07
3.53e-10,-2.25508e-07
3.54e-10,2.2718e-08
3.55e-10,6.3707e-07
3.56e-10,-7.34549e-07
3.57e-10,-5.75577e-07
3.58e-10,-2.01167e-07
3.59e-10,-1.43976e-07
3.6e-10,1.57814e-07
3.61e-10,-2.06052e-07
3.62e-10,-3.72928e-07
3.63e-10,-5.0588e-08
3.64e-10,-1.79137e-07
3.65e-10,-1.45573e-06
3.66e-10,1.6106e-07
3.67e-10,7.25174e-08
3.68e-10,-5.91856e-07
3.69e-10,4.1627e-09
3.7e-10,2.4804e-07
3.71e-10,-1.50058e-06
3.72e-10,-2.25067e-07
3.73e-10,-7.81222e-08
3.74e-10,2.15017e-08
3.75e-10,-4.02584e-07
3.76e-10,-4.22513e-07
3.77e-10,-7.89245e-08
3.78e-10,-7.17625e-07
3.79e-10,-6.11786e-07
3.8e-10,-4.28966e-07
3.81e-10,-8.70475e-08
3.82e-10,3.16615e-07
3.83e-10,-3.46823e-07
3.84e-10,8.14387e-08
3.85e-10,-2.47595e-07
3.86e-10,-1.09986e-06
3.87e-10,-8.70095e-07
3.88e-10,-1.3026e-06
3.89e-10,-1.48317e-06
3.9e-10,-2.36675e-07
3.91e-10,3.28675e-08
3.92e-10,-2.89097e-07
3.93e-10,-2.65554e-07
3.94e-10,-1.76829e-07
3.95e-10,-8.05392e-08
3.96e-10,-1.10932e-06
3.97e-10,-1.36995e-07
3.98e-10,-7.71169e-07
3.99e-10,1.44714e-07
4e-10,-1.21662e-07
4.01e-10,-4.57631e-08
4.02e-10,-1.22647e-06
4.03e-10,5.83146e-08
4.04e-10,-1.46368e-06
4.05e-10,-3.79834e-07
4.06e-10,-1.01693e-07
4.07e-10,-1.56791e-07
4.08e-10,-8.06026e-07
4.09e-10,6.71226e-07
4.1e-10,-5.7686e-08
4.11e-10,-1.55931e-06
4.12e-10,-7.07637e-08
4.13e-10,-2.8326e-07
4.14e-10,-3.07129e-07
4.15e-10,1.28806e-07
4.16e-10,-2.4298e-07
4.17e-10,-7.74385e-07
4.18e-10,2.68067e-08
4.19e-10,1.21868e-08
4.2e-10,5.86052e-07
4.21e-10,-1.23866e-06
4.22e-10,-1.53742e-06
4.23e-10,2.16051e-08
4.24e-10,-2.67106e-07
4.25e-10,-1.51512e-07
4.26e-10,-8.58761e-07
4.27e-10,-4.84309e-07
4.28e-10,-2.2037e-08
4.29e-10,-3.88709e-07
4.3e-10,4.40644e-07
4.31e-10,-1.75375e-06
4.32e-10,-2.0675e-07
4.33e-10,1.06252e-08
4.34e-10,2.26677e-07
4.35e-10,-3.51363e-07
4.36e-10,-1.13278e-06
4.37e-10,-1.87102e-07
4.38e-10,2.0423e-07
4.39e-10,-3.55081e-07
4.4e-10,-1.70102e-07
4.41e-10,-1.81009e-07
4.42e-10,-8.52516e-07
4.43e-10,-2.7908e-07
4.44e-10,9.95126e-08
4.45e-10,-1.11088e-06
4.46e-10,-4.90977e-07
4.47e-10,3.02303e-07
4.48e-10,-1.10545e-06
4.49e-10,-4.3806e-07
4.5e-10,-5.83872e-07
4.51e-10,1.49517e-07
4.52e-10,4.30772e-07
4.53e-10,1.85525e-07
4.54e-10,-8.59811e-07
4.55e-10,8.86622e-08
4.56e-10,-8.19675e-09
4.57e-10,-1.28427e-06
4.58e-10,1.28222e-08
4.59e-10,3.92631e-07
4.6e-10,2.43091e-07
4.61e-10,-1.20847e-07
4.62e-10,1.74431e-07
4.63e-10,-1.19628e-07
4.64e-10,5.48859e-08
4.65e-10,5.11948e-07
4.66e-10,-1.64719e-07
4.67e-10,-1.49006e-07
4.68e-10,4.48592e-07
4.69e-10,-1.02366e-06
4.7e-10,5.60079e-07
4.71e-10,-6.58452e-09
4.72e-10,2.38032e-07
4.73e-10,3.61346e-08
4.74e-10,-2.68729e-07
4.75e-10,-2.71996e-07
4.76e-10,-2.73054e-07
4.77e-10,-8.3e-07
4.78e-10,3.82834e-08
4.79e-10,5.28113e-07
4.8e-10,-1.00998e-06
4.81e-10,-1.11588e-07
4.82e-10,-2.79186e-07
4.83e-10,1.93298e-08
4.84e-10,-1.12152e-07
4.85e-10,-1.1411e-06
4.86e-10,-3.62324e-07
4.87e-10,-7.56643e-08
4.88e-10,1.59756e-07
4.89e-10,-1.03253e-06
4.9e-10,3.56513e-07
4.91e-10,-2.41819e-07
4.92e-10,-4.0465e-07
4.93e-10,-9.95344e-08
4.94e-10,-1.94087e-07
4.95e-10,-6.23151e-07
4.96e-10,-1.43179e-07
4.97e-10,1.49698e-07
4.98e-10,-2.34732e-07
4.99e-10,4.8352e-07
5e-10,1.70717e-07
5.01e-10,6.25222e-08
5.02e-10,-3.41964e-07
5.03e-10,-2.37956e-07
5.04e-10,-1.05268e-06
5.05e-10,-3.19272e-07
5.06e-10,-1.31483e-08
5.07e-10,-5.69616e-07
5.08e-10,7.24882e-07
5.09e-10,2.17143e-07
5.1e-10,6.72189e-08
5.11e-10,-1.10684e-06
5.12e-10,-1.89805e-07
5.13e-10,1.65353e-07
5.14e-10,-6.94949e-07
5.15e-10,2.37533e-08
5.16e-10,-2.24597e-07
5.17e-10,3.70005e-07
5.18e-10,-2.17381e-07
5.19e-10,-2.43316e-07
5.2e-10,1.4127e-07
5.21e-10,-5.87793e-07
5.22e-10,-1.21112e-06
5.23e-10,-3.31442e-07
5.24e-10,-1.63947e-08
5.25e-10,-6.71106e-08
5.26e-10,4.47437e-09
5.27e-10,-1.43819e-06
5.28e-10,-9.58529e-08
5.29e-10,1.06762e-07
5.3e-10,1.0696e-08
5.31e-10,-9.10355e-07
5.32e-10,-1.32665e-06
5.33e-10,-1.05616e-07
5.34e-10,-4.39743e-08
5.35e-10,9.72816e-08
5.36e-10,-5.71183e-08
5.37e-10,-1.00406e-06
5.38e-10,-1.0166e-06
5.39e-10,5.78387e-07
5.4e-10,-5.80824e-07
5.41e-10,-8.34698e-07
5.42e-10,-1.22266e-06
5.43e-10,-1.66716e-07
5.44e-10,-1.4944e-07
5.45e-10,9.77369e-07
5.46e-10,-9.68647e-07
5.47e-10,-1.29905e-06
5.48e-10,-6.98039e-08
5.49e-10,1.14655e-07
5.5e-10,-8.84105e-08
5.51e-10,-8.77508e-07
5.52e-10,-1.4757e-07
5.53e-10,-3.0774e-07
5.54e-10,-6.52009e-07
5.55e-10,1.91163e-07
5.56e-10,-1.84966e-07
5.57e-10,-8.29927e-07
5.58e-10,6.68126e-08
5.59e-10,-2.64854e-07
5.6e-10,-1.91681e-08
5.61e-10,-1.101e-07
5.62e-10,7.20542e-08
5.63e-10,6.65419e-07
5.64e-10,-1.79831e-06
5.65e-10,1.7271e-07
5.66e-10,-1.3788e-07
5.67e-10,-2.40348e-07
5.68e-10,-3.90023e-07
5.69e-10,-1.11179e-06
5.7e-10,-1.37286e-07
5.71e-10,-1.59327e-07
5.72e-10,-7.68162e-08
5.73e-10,-1.74895e-06
5.74e-10,-1.5431e-06
5.75e-10,9.20662e-08
5.76e-10,5.94294e-07
5.77e-10,-3.30562e-08
5.78e-10,-2.40771e-07
5.79e-10,-1.59479e-06
5.8e-10,1.11567e-07
5.81e-10,2.27065e-08
5.82e-10,6.32314e-07
5.83e-10,-4.18574e-07
5.84e-10,-4.55522e-07
5.85e-10,8.36066e-07
5.86e-10,-4.01491e-07
5.87e-10,-1.11429e-06
5.88e-10,-1.02659e-07
5.89e-10,-1.57275e-06
5.9e-10,-8.55682e-08
5.91e-10,2.61799e-08
5.92e-10,2.27912e-07
5.93e-10,-3.77711e-08
5.94e-10,5.87491e-08
5.95e-10,-1.48866e-07
5.96e-10,-1.91377e-07
5.97e-10,-1.75491e-07
5.98e-10,-2.89429e-07
5.99e-10,3.03135e-07
6e-10,-5.26008e-08
6.01e-10,1.31145e-08
6.02e-10,-1.03889e-06
6.03e-10,-8.50931e-07
6.04e-10,4.40568e-08
6.05e-10,-1.14268e-07
6.06e-10,-2.96332e-07
6.07e-10,-4.53508e-09
6.08e-10,-7.12331e-07
6.09e-10,1.54597e-07
6.1e-10,-9.23346e-08
6.11e-10,-9.44726e-08
6.12e-10,-2.85557e-07
6.13e-10,-2.16842e-06
6.14e-10,-2.8162e-07
6.15e-10,1.74237e-07
6.16e-10,-4.25457e-07
6.17e-10,3.0023e-07
6.18e-10,-2.74487e-07
6.19e-10,-3.86479e-08
6.2e-10,-1.01523e-06
6.21e-10,4.58939e-08
6.22e-10,-1.0022e-07
6.23e-10,-1.07611e-06
6.24e-10,-1.22504e-06
6.25e-10,-2.5013e-08
6.26e-10,-1.04502e-07
6.27e-10,-6.78599e-08
6.28e-10,-1.20778e-07
6.29e-10,-1.95066e-07
6.3e-10,-1.72702e-06
6.31e-10,-2.47057e-08
6.32e-10,-1.22415e-06
6.33e-10,1.55908e-07
6.34e-10,-4.97604e-08
6.35e-10,-6.50302e-08
6.36e-10,-5.25769e-08
6.37e-10,-5.63846e-08
6.38e-10,-3.22971e-08
6.39e-10,-8.96281e-08
6.4e-10,-2.05396e-06
6.41e-10,-3.7104e-08
6.42e-10,-4.87475e-07
6.43e-10,-1.05404e-07
6.44e-10,-1.57791e-07
6.45e-10,2.57876e-07
6.46e-10,-3.6293e-07
6.47e-10,7.15811e-08
6.48e-10,1.24374e-07
6.49e-10,-1.07289e-06
6.5e-10,-7.35815e-08
6.51e-10,4.13553e-07
6.52e-10,-9.89845e-08
6.53e-10,-1.81789e-07
6.54e-10,-9.01652e-08
6.55e-10,-1.12526e-07
6.56e-10,-3.92703e-07
6.57e-10,-3.68782e-08
6.58e-10,1.68087e-08
6.59e-10,3.6312e-07
6.6e-10,-8.6476e-08
6.61e-10,-5.49398e-07
6.62e-10,-1.00075e-07
6.63e-10,-1.79489e-08
6.64e-10,-3.64479e-08
6.65e-10,1.13094e-08
6.66e-10,-8.96706e-09
6.67e-10,-3.43417e-08
6.68e-10,2.54398e-08
6.69e-10,-2.53711e-07
6.7e-10,-1.83729e-07
6.71e-10,4.44124e-08
6.72e-10,-4.56467e-08
6.73e-10,-8.26575e-08
6.74e-10,4.69735e-09
6.75e-10,-6.9908e-08
6.76e-10,-6.01477e-07
6.77e-10,3.24169e-08
6.78e-10,-1.06948e-07
6.79e-10,-2.47593e-08
6.8e-10,-8.87531e-08
6.81e-10,-1.008e-07
6.82e-10,-1.3295e-07
6.83e-10,-7.84839e-07
6.84e-10,-1.37982e-07
6.85e-10,-1.39869e-08
6.86e-10,-9.65369e-08
6.87e-10,-9.13226e-07
6.88e-10,-1.43227e-07
6.89e-10,-4.47503e-08
6.9e-10,6.34882e-08
6.91e-10,-1.78637e-09
6.92e-10,2.57832e-09
6.93e-10,-9.0596e-07
6.94e-10,5.97452e-09
6.95e-10,-1.78382e-07
6.96e-10,-7.99807e-08
6.97e-10,4.88706e-09
6.98e-10,-8.3893e-08
6.99e-10,-1.09955e-06
7e-10,-1.37395e-07
7.01e-10,-7.94931e-09
7.02e-10,1.05758e-08
7.03e-10,-1.65692e-06
7.04e-10,-5.2239e-08
7.05e-10,3.77908e-08
7.06e-10,-1.23303e-07
7.07e-10,-1.0863e-06
7.08e-10,-3.93755e-09
7.09e-10,-5.10194e-08
7.1e-10,1.15641e-08
7.11e-10,-6.79234e-09
7.12e-10,-3.64574e-07
7.13e-10,-1.75746e-10
7.14e-10,-1.24772e-07
7.15e-10,-8.99626e-07
7.16e-10,-1.81431e-07
7.17e-10,-1.78557e-07
7.18e-10,1.48287e-07
7.19e-10,-2.51847e-07
7.2e-10,-4.98065e-08
7.21e-10,-2.60285e-09
7.22e-10,-1.60246e-07
7.23e-10,-6.87193e-08
7.24e-10,-1.75955e-07
7.25e-10,5.25567e-09
7.26e-10,-1.78351e-07
7.27e-10,-9.92067e-09
7.28e-10,-2.26411e-09
7.29e-10,3.35723e-08
7.3e-10,-4.57571e-08
7.31e-10,-4.90995e-08
7.32e-10,1.98715e-09
7.33e-10,-5.5457e-09
7.34e-10,-6.00338e-08
7.35e-10,-1.34453e-07
7.36e-10,7.12861e-09
7.37e-10,-9.2455e-08
7.38e-10,4.66499e-09
7.39e-10,-4.34536e-08
7.4e-10,-4.54799e-08
7.41e-10,-3.87038e-08
7.42e-10,-7.00383e-08
7.43e-10,-4.14954e-08
7.44e-10,-1.35623e-07
7.45e-10,-5.41782e-08
7.46e-10,4.54799e-08
7.47e-10,5.50501e-10
7.48e-10,5.78185e-09
7.49e-10,-1.26358e-07
7.5e-10,9.00466e-08
7.51e-10,-1.40126e-07
7.52e-10,1.33159e-08
7.53e-10,3.43533e-08
7.54e-10,-5.20707e-08
7.55e-10,-4.36687e-08
7.56e-10,-4.09517e-08
7.57e-10,-4.07757e-08
7.58e-10,-1.00727e-07
7.59e-10,-1.68337e-07
7.6e-10,-1.02102e-08
7.61e-10,-4.52823e-09
7.62e-10,7.77327e-08
7.63e-10,1.07415e-09
7.64e-10,-5.55543e-08
7.65e-10,-2.87529e-08
7.66e-10,-2.40088e-09
7.67e-10,-5.59559e-08
7.68e-10,4.78808e-08
7.69e-10,-4.14875e-08
7.7e-10,-2.40088e-09
7.71e-10,1.31852e-07
7.72e-10,-1.36769e-10
7.73e-10,4.13733e-10
7.74e-10,0
7.75e-10,-3.8551e-08
7.76e-10,-8.06608e-08
7.77e-10,-5.01451e-08
7.78e-10,-1.38007e-07
7.79e-10,4.3079e-08
7.8e-10,1.74389e-07
7.81e-10,-8.67086e-08
7.82e-10,-8.43364e-08
7.83e-10,-8.22505e-08
7.84e-10,1.05652e-08
7.85e-10,-2.54108e-09
7.86e-10,-4.21869e-09
7.87e-10,-5.1113e-09
7.88e-10,-3.86545e-08
7.89e-10,2.96896e-07
7.9e-10,2.66832e-07
7.91e-10,-2.73538e-10
7.92e-10,-3.07051e-08
7.93e-10,4.3079e-08
7.94e-10,4.80176e-09
7.95e-10,-9.03368e-08
7.96e-10,4.31318e-08
7.97e-10,-1.81595e-07
7.98e-10,-1.20078e-08
7.99e-10,-5.63726e-09
8e-10,4.56167e-08
8.01e-10,2.51372e-07
8.02e-10,-9.88392e-09
8.03e-10,-4.00769e-08
8.04e-10,2.40941e-09
8.05e-10,2.62582e-07
8.06e-10,2.12549e-07
8.07e-10,5.86436e-08
8.08e-10,0
8.09e-10,-4.54799e-08
8.1e-10,2.26411e-09
8.11e-10,-4.80176e-09
8.12e-10,1.36769e-10
8.13e-10,-9.31512e-08
8.14e-10,2.66176e-07
8.15e-10,6.88088e-08
8.16e-10,-8.67086e-08
8.17e-10,-9.96525e-08
8.18e-10,3.7654e-08
8.19e-10,-8.7983e-09
8.2e-10,-1.85411e-10
8.21e-10,4.85041e-09
8.22e-10,-1.00612e-07
8.23e-10,4.50789e-07
8.24e-10,-2.12734e-09
8.25e-10,1.12074e-07
8.26e-10,-9.55546e-08
8.27e-10,-2.26411e-09
8.28e-10,-2.26411e-09
8.29e-10,2.26411e-09
8.3e-10,-1.50074e-07
8.31e-10,-4.90596e-09
8.32e-10,6.89654e-09
8.33e-10,4.84215e-07
8.34e-10,2.40088e-09
8.35e-10,7.2352e-09
8.36e-10,-5.02819e-08
8.37e-10,4.80176e-09
8.38e-10,-2.26411e-09
8.39e-10,6.00173e-08
8.4e-10,-5.73477e-08
8.41e-10,-4.69755e-09
8.42e-10,-8.41675e-08
8.43e-10,5.27167e-07
8.44e-10,-2.26411e-09
8.45e-10,2.40088e-09
8.46e-10,-4.66499e-09
8.47e-10,2.26411e-09
8.48e-10,-2.26411e-09
8.49e-10,-4.09517e-08
8.5e-10,7.06588e-09
8.51e-10,-5.73922e-08
8.52e-10,4.83597e-08
8.53e-10,-4.59262e-08
8.54e-10,-4.66499e-09
8.55e-10,2.73538e-10
8.56e-10,3.1475e-07
8.57e-10,1.62273e-07
8.58e-10,4.63768e-08
8.59e-10,-4.90547e-08
8.6e-10,-9.15405e-08
8.61e-10,0
8.62e-10,2.40088e-09
8.63e-10,-4.66499e-09
8.64e-10,4.52823e-09
8.65e-10,4.13733e-10
8.66e-10,-4.7744e-08
8.67e-10,5.21321e-08
8.68e-10,2.26411e-09
8.69e-10,-1.40275e-08
8.7e-10,2.73179e-07
8.71e-10,1.34347e-07
8.72e-10,-8.87674e-08
8.73e-10,4.52823e-09
8.74e-10,3.58404e-08
8.75e-10,-1.36769e-10
8.76e-10,-6.92911e-09
8.77e-10,3.47845e-07
8.78e-10,2.40088e-09
8.79e-10,-5.54058e-08
8.8e-10,2.40088e-09
8.81e-10,2.36831e-09
8.82e-10,-7.34284e-09
8.83e-10,0
8.84e-10,4.78482e-08
8.85e-10,4.69755e-09
8.86e-10,-4.57209e-08
8.87e-10,8.01956e-08
8.88e-10,-3.70124e-08
8.89e-10,7.76254e-08
8.9e-10,-4.80207e-08
8.91e-10,-4.66499e-09
8.92e-10,-8.01956e-08
8.93e-10,-4.31832e-08
8.94e-10,-4.3079e-08
8.95e-10,3.6843e-08
8.96e-10,-8.00589e-08
8.97e-10,5.61414e-08
8.98e-10,-1.36769e-10
8.99e-10,-4.67567e-08
9e-10,-7.20607e-09
9.01e-10,6.87982e-08
9.02e-10,-2.09174e-08
9.03e-10,1.99855e-09
9.04e-10,1.86453e-08
9.05e-10,-6.39964e-08
9.06e-10,-2.65565e-10
9.07e-10,-5.2883e-09
9.08e-10,-4.09517e-08
9.09e-10,4.3079e-08
9.1e-10,-4.31832e-08
9.11e-10,-1.00207e-08
9.12e-10,3.89286e-08
9.13e-10,2.67785e-09
9.14e-10,-3.22835e-09
9.15e-10,-3.1208e-08
9.16e-10,-1.20078e-08
9.17e-10,7.34284e-09
9.18e-10,-4.13045e-08
9.19e-10,-6.79234e-09
9.2e-10,-2.40088e-09
9.21e-10,2.40088e-09
9.22e-10,2.12734e-09
9.23e-10,-7.34284e-09
9.24e-10,1.95458e-09
9.25e-10,-9.9933e-08
9.26e-10,2.26411e-09
9.27e-10,-4.13733e-10
9.28e-10,-5.04701e-08
9.29e-10,-2.54108e-09
9.3e-10,-1.36769e-10
9.31e-10,2.40088e-09
9.32e-10,-4.39146e-09
9.33e-10,4.66499e-09
9.34e-10,-2.12392e-09
9.35e-10,4.80176e-09
9.36e-10,-5.07873e-09
9.37e-10,-5.01789e-08
9.38e-10,-6.79234e-09
9.39e-10,4.52823e-09
9.4e-10,-4.66499e-09
9.41e-10,-2.40088e-09
9.42e-10,9.75391e-08
9.43e-10,-4.52823e-09
9.44e-10,-1.36769e-10
9.45e-10,-4.37255e-08
9.46e-10,-1.1856e-07
9.47e-10,9.05645e-09
9.48e-10,2.40088e-09
9.49e-10,1.06826e-07
9.5e-10,-1.15882e-07
9.51e-10,1.13481e-07
9.52e-10,7.74749e-09
9.53e-10,-6.65557e-09
9.54e-10,-6.02666e-08
9.55e-10,2.26411e-09
9.56e-10,1.24125e-08
9.57e-10,4.52823e-09
9.58e-10,-4.66499e-09
9.59e-10,4.80519e-09
9.6e-10,0
9.61e-10,-6.65557e-09
9.62e-10,-5.28235e-08
9.63e-10,-2.54108e-09
9.64e-10,6.79234e-09
9.65e-10,2.26411e-09
9.66e-10,-2.26411e-09
9.67e-10,2.26411e-09
9.68e-10,4.66499e-09
9.69e-10,0
9.7e-10,-3.72218e-08
9.71e-10,-2.40088e-09
9.72e-10,-4.52823e-09
9.73e-10,6.92911e-09
9.74e-10,2.26411e-09
9.75e-10,-1.36769e-10
9.76e-10,-2.26411e-09
9.77e-10,-6.79234e-09
9.78e-10,-7.06588e-09
9.79e-10,-2.26411e-09
9.8e-10,2.53765e-09
9.81e-10,-4.76678e-08
9.82e-10,7.20264e-09
9.83e-10,-2.40088e-09
9.84e-10,0
9.85e-10,9.05645e-09
9.86e-10,-9.19322e-09
9.87e-10,4.80176e-09
9.88e-10,-1.36769e-10
9.89e-10,-4.66499e-09
9.9e-10,2.40088e-09
9.91e-10,-4.66499e-09
9.92e-10,2.26411e-09
9.93e-10,-4.61971e-08
9.94e-10,2.43345e-09
9.95e-10,-1.36769e-10
9.96e-10,-2.43345e-09
9.97e-10,-2.23154e-09
9.98e-10,2.26411e-09
9.99e-10,0
1e-09,-1.69338e-10
1.001e-09,-4.39146e-09
1.002e-09,2.26411e-09
1.003e-09,3.59931e-09
1.004e-09,-4.52823e-09
1.005e-09,2.26411e-09
1.006e-09,0
1.007e-09,-4.52823e-09
1.008e-09,4.66499e-09
1.009e-09,-7.06588e-09
1.01e-09,6.82491e-09
1.011e-09,-6.96168e-09
1.012e-09,-5.0556e-08
1.013e-09,4.52823e-09
1.014e-09,0
1.015e-09,0
1.016e-09,-2.26411e-09
1.017e-09,2.40088e-09
1.018e-09,-4.80176e-09
1.019e-09,-4.66499e-09
1.02e-09,9.29742e-09
1.021e-09,-4.52823e-09
1.022e-09,-3.91816e-08
1.023e-09,-4.66499e-09
1.024e-09,-2.40088e-09
1.025e-09,-4.66499e-09
1.026e-09,-2.26411e-09
1.027e-09,7.06588e-09
1.028e-09,-1.18711e-08
1.029e-09,-1.36769e-10
1.03e-09,-3.11638e-08
1.031e-09,-1.36769e-10
1.032e-09,-2.26411e-09
1.033e-09,0
1.034e-09,2.26411e-09
1.035e-09,-2.26411e-09
1.036e-09,-4.66499e-09
1.037e-09,-2.26411e-09
1.038e-09,-2.562e-08
1.039e-09,-2.40088e-09
1.04e-09,0
1.041e-09,-6.92911e-09
1.042e-09,7.06588e-09
1.043e-09,-4.06056e-09
1.044e-09,-4.66499e-09
1.045e-09,2.26411e-09
1.046e-09,2.40088e-09
1.047e-09,-2.40088e-09
1.048e-09,1.23932e-08
1.049e-09,-4.66499e-09
1.05e-09,-5.45214e-10
1.051e-09,2.9461e-09
1.052e-09,0
1.053e-09,4.39146e-09
1.054e-09,1.58213e-09
1.055e-09,-6.24712e-09
1.056e-09,-1.58498e-08
1.057e-09,-2.26411e-09
1.058e-09,-1.36769e-10
1.059e-09,4.52823e-09
1.06e-09,-6.79234e-09
1.061e-09,9.32999e-09
1.062e-09,0
1.063e-09,-2.26411e-09
1.064e-09,2.12734e-09
1.065e-09,4.66499e-09
1.066e-09,1.6488e-08
1.067e-09,4.66499e-09
1.068e-09,-3.00211e-07
1.069e-09,-6.92911e-09
1.07e-09,3.07003e-07
1.071e-09,6.33264e-10
1.072e-09,-3.06606e-07
1.073e-09,2.26411e-09
1.074e-09,-9.95055e-09
1.075e-09,1.76239e-10
1.076e-09,-4.52823e-09
1.077e-09,0
1.078e-09,-2.12734e-09
1.079e-09,-4.52823e-09
1.08e-09,-2.26411e-09
1.081e-09,8.91968e-09
1.082e-09,4.57447e-08
1.083e-09,2.40088e-09
1.084e-09,-2.26411e-09
1.085e-09,-6.92911e-09
1.086e-09,4.80176e-09
1.087e-09,-2.26411e-09
1.088e-09,-4.66499e-09
1.089e-09,4.52823e-09
1.09e-09,9.05645e-09
1.091e-09,-2.26411e-09
1.092e-09,-6.92911e-09
1.093e-09,6.96287e-08
1.094e-09,0
1.095e-09,4.52823e-09
1.096e-09,-2.40088e-09
1.097e-09,-4.52823e-09
1.098e-09,-2.26411e-09
1.099e-09,-2.26411e-09
1.1e-09,-2.12734e-09
1.101e-09,2.26411e-09
1.102e-09,-4.66499e-09
1.103e-09,1.56086e-07
1.104e-09,5.7901e-09
1.105e-09,0
1.106e-09,2.26411e-09
1.107e-09,-3.52599e-09
1.108e-09,-2.40088e-09
1.109e-09,1.26187e-09
1.11e-09,-2.40088e-09
1.111e-09,2.40088e-09
1.112e-09,2.71232e-07
1.113e-09,8.93668e-10
1.114e-09,-6.79234e-09
1.115e-09,0
1.116e-09,2.26411e-09
1.117e-09,0
1.118e-09,1.23368e-09
1.119e-09,-6.37466e-07
1.12e-09,6.92911e-09
1.121e-09,0
1.122e-09,4.52823e-09
1.123e-09,-2.26411e-09
1.124e-09,-2.26411e-09
1.125e-09,1.10093e-09
1.126e-09,0
1.127e-09,-2.40088e-09
1.128e-09,4.52823e-09
1.129e-09,0
1.13e-09,-2.12734e-09
1.131e-09,-7.83577e-07
1.132e-09,4.52823e-09
1.133e-09,-2.26411e-09
1.134e-09,-2.26411e-09
1.135e-09,-6.79234e-09
1.136e-09,9.63278e-08
1.137e-09,-1.36769e-10
1.138e-09,0
1.139e-09,0
1.14e-09,4.66499e-09
1.141e-09,-4.52823e-09
1.142e-09,5.65898e-09
1.143e-09,-1.06421e-06
1.144e-09,-4.52823e-09
1.145e-09,4.66499e-09
1.146e-09,0
1.147e-09,-4.52823e-09
1.148e-09,2.40088e-09
1.149e-09,-9.19322e-09
1.15e-09,6.92911e-09
1.151e-09,9.86306e-08
1.152e-09,4.52823e-09
1.153e-09,-2.26411e-09
1.154e-09,-1.1613e-06
1.155e-09,1.36769e-10
1.156e-09,-2.40088e-09
1.157e-09,0
1.158e-09,0
1.159e-09,-2.26411e-09
1.16e-09,0
1.161e-09,6.79234e-09
1.162e-09,0
1.163e-09,-2.40088e-09
1.164e-09,2.40088e-09
1.165e-09,-1.12605e-06
1.166e-09,0
1.167e-09,-4.66499e-09
1.168e-09,4.52823e-09
1.169e-09,9.32999e-09
1.17e-09,-4.66499e-09
1.171e-09,9.19322e-09
1.172e-09,-9.05645e-09
1.173e-09,2.12734e-09
1.174e-09,4.66499e-09
1.175e-09,-1.14573e-08
1.176e-09,-1.36769e-10
1.177e-09,-9.05645e-09
1.178e-09,4.52823e-09
1.179e-09,1.36769e-10
1.18e-09,-1.36769e-10
1.181e-09,0
1.182e-09,0
1.183e-09,0
1.184e-09,-2.26411e-09
1.185e-09,-2.26411e-09
1.186e-09,-2.26411e-09
1.187e-09,-4.39146e-09
1.188e-09,-2.26411e-09
1.189e-09,6.79234e-09
1.19e-09,-6.92911e-09
1.191e-09,-2.26411e-09
1.192e-09,2.40088e-09
1.193e-09,-2.26411e-09
1.194e-09,-1.36769e-10
1.195e-09,-2.26411e-09
1.196e-09,2.26411e-09
1.197e-09,2.26411e-09
1.198e-09,-4.52823e-09
1.199e-09,2.26411e-09
1.2e-09,4.52823e-09
1.201e-09,2.26411e-09
1.202e-09,0
1.203e-09,-2.26411e-09
1.204e-09,-4.52823e-09
1.205e-09,4.52823e-09
1.206e-09,-6.79234e-09
1.207e-09,2.26411e-09
1.208e-09,-6.79234e-09
1.209e-09,2.26411e-09
1.21e-09,4.52823e-09
1.211e-09,0
1.212e-09,2.26411e-09
1.213e-09,2.26411e-09
1.214e-09,-2.12734e-09
1.215e-09,-4.52823e-09
1.216e-09,-2.40088e-09
1.217e-09,4.66499e-09
1.218e-09,0
1.219e-09,-2.26411e-09
1.22e-09,0
1.221e-09,-2.26411e-09
1.222e-09,-2.26411e-09
1.223e-09,2.26411e-09
1.224e-09,2.26411e-09
1.225e-09,0
1.226e-09,-2.26411e-09
1.227e-09,4.52823e-09
1.228e-09,-6.92911e-09
1.229e-09,-4.52823e-09
1.23e-09,6.79234e-09
1.231e-09,-4.66499e-09
1.232e-09,0
1.233e-09,1.36769e-10
1.234e-09,-2.26411e-09
1.235e-09,-4.66499e-09
1.236e-09,-2.26411e-09
1.237e-09,0
1.238e-09,0
1.239e-09,0
1.24e-09,2.26411e-09
1.241e-09,0
1.242e-09,-2.26411e-09
1.243e-09,0
1.244e-09,0
1.245e-09,0
1.246e-09,2.26411e-09
1.247e-09,-2.26411e-09
1.248e-09,2.26411e-09
1.249e-09,0
1.25e-09,0
1.251e-09,4.52823e-09
1.252e-09,-2.26411e-09
1.253e-09,0
1.254e-09,0
1.255e-09,0
1.256e-09,-2.26411e-09
1.257e-09,-2.26411e-09
1.258e-09,2.26411e-09
1.259e-09,0
1.26e-09,2.26411e-09
1.261e-09,4.66499e-09
1.262e-09,2.26411e-09
1.263e-09,-2.26411e-09
1.264e-09,-2.26411e-09
1.265e-09,2.26411e-09
1.266e-09,2.26411e-09
1.267e-09,-2.26411e-09
1.268e-09,-2.26411e-09
1.269e-09,0
1.27e-09,0
1.271e-09,0
1.272e-09,4.52823e-09
1.273e-09,-2.26411e-09
1.274e-09,0
1.275e-09,-2.26411e-09
1.276e-09,0
1.277e-09,-2.26411e-09
1.278e-09,0
1.279e-09,0
1.28e-09,0
1.281e-09,-4.52823e-09
1.282e-09,-1.36769e-10
1.283e-09,-2.26411e-09
1.284e-09,2.40088e-09
1.285e-09,0
1.286e-09,0
1.287e-09,0
1.288e-09,2.26411e-09
1.289e-09,0
1.29e-09,-2.26411e-09
1.291e-09,0
1.292e-09,2.12734e-09
1.293e-09,0
1.294e-09,-2.26411e-09
1.295e-09,2.26411e-09
1.296e-09,-2.26411e-09
1.297e-09,4.52823e-09
1.298e-09,0
1.299e-09,-2.26411e-09
1.3e-09,2.26411e-09
1.301e-09,-2.40088e-09
1.302e-09,2.26411e-09
1.303e-09,4.52823e-09
1.304e-09,0
1.305e-09,-2.26411e-09
1.306e-09,1.36769e-10
1.307e-09,-2.26411e-09
1.308e-09,2.26411e-09
1.309e-09,-2.40088e-09
1.31e-09,1.36769e-10
1.311e-09,0
1.312e-09,4.66499e-09
1.313e-09,0
1.314e-09,-4.52823e-09
1.315e-09,-2.26411e-09
1.316e-09,-2.40088e-09
1.317e-09,4.66499e-09
1.318e-09,-2.40088e-09
1.319e-09,2.26411e-09
1.32e-09,4.52823e-09
1.321e-09,-2.26411e-09
1.322e-09,-2.26411e-09
1.323e-09,-4.52823e-09
1.324e-09,4.39146e-09
1.325e-09,-2.26411e-09
1.326e-09,0
1.327e-09,2.26411e-09
1.328e-09,-4.52823e-09
1.329e-09,4.52823e-09
1.33e-09,2.26411e-09
1.331e-09,-2.26411e-09
1.332e-09,-2.26411e-09
1.333e-09,2.26411e-09
1.334e-09,2.26411e-09
1.335e-09,2.40088e-09
1.336e-09,6.79234e-09
1.337e-09,-2.26411e-09
1.338e-09,-4.52823e-09
1.339e-09,0
1.34e-09,-4.52823e-09
1.341e-09,4.52823e-09
1.342e-09,-2.26411e-09
1.343e-09,-2.26411e-09
1.344e-09,0
1.345e-09,4.52823e-09
1.346e-09,-2.26411e-09
1.347e-09,0
1.348e-09,0
1.349e-09,-2.26411e-09
1.35e-09,0
1.351e-09,0
1.352e-09,-2.26411e-09
1.353e-09,0
1.354e-09,4.52823e-09
1.355e-09,0
1.356e-09,4.52823e-09
1.357e-09,-2.26411e-09
1.358e-09,2.26411e-09
1.359e-09,0
1.36e-09,0
1.361e-09,0
1.362e-09,-2.26411e-09
1.363e-09,6.79234e-09
1.364e-09,0
1.365e-09,0
1.366e-09,-2.26411e-09
1.367e-09,-2.26411e-09
1.368e-09,0
1.369e-09,0
1.37e-09,2.26411e-09
1.371e-09,2.26411e-09
1.372e-09,-2.26411e-09
1.373e-09,2.26411e-09
1.374e-09,-4.52823e-09
1.375e-09,-2.26411e-09
1.376e-09,2.26411e-09
1.377e-09,2.26411e-09
1.378e-09,-6.79234e-09
1.379e-09,4.52823e-09
1.38e-09,-2.26411e-09
1.381e-09,0
1.382e-09,4.52823e-09
1.383e-09,2.26411e-09
1.384e-09,-2.26411e-09
1.385e-09,2.26411e-09
1.386e-09,-2.26411e-09
1.387e-09,0
1.388e-09,-2.26411e-09
1.389e-09,-4.52823e-09
1.39e-09,0
1.391e-09,-4.52823e-09
1.392e-09,2.26411e-09
1.393e-09,2.26411e-09
1.394e-09,-2.26411e-09
1.395e-09,0
1.396e-09,0
1.397e-09,-4.52823e-09
1.398e-09,6.79234e-09
1.399e-09,0
1.4e-09,-2.26411e-09
1.401e-09,0
1.402e-09,-4.52823e-09
1.403e-09,2.26411e-09
1.404e-09,0
1.405e-09,-2.26411e-09
1.406e-09,-2.40088e-09
1.407e-09,4.66499e-09
1.408e-09,6.79234e-09
1.409e-09,-2.26411e-09
1.41e-09,0
1.411e-09,1.36769e-10
1.412e-09,6.65557e-09
1.413e-09,-2.12734e-09
1.414e-09,-2.40088e-09
1.415e-09,2.26411e-09
1.416e-09,0
1.417e-09,-2.12734e-09
1.418e-09,0
1.419e-09,2.26411e-09
1.42e-09,-1.36769e-10
1.421e-09,2.26411e-09
1.422e-09,0
1.423e-09,2.26411e-09
1.424e-09,0
1.425e-09,0
1.426e-09,-4.52823e-09
1.427e-09,-2.26411e-09
1.428e-09,2.26411e-09
1.429e-09,0
1.43e-09,2.26411e-09
1.431e-09,-2.26411e-09
1.432e-09,-2.26411e-09
1.433e-09,0
1.434e-09,2.26411e-09
1.435e-09,-2.26411e-09
1.436e-09,-4.52823e-09
1.437e-09,0
1.438e-09,2.26411e-09
1.439e-09,2.26411e-09
1.44e-09,-2.26411e-09
1.441e-09,-4.52823e-09
1.442e-09,-2.26411e-09
1.443e-09,2.26411e-09
1.444e-09,2.26411e-09
1.445e-09,-2.26411e-09
1.446e-09,-4.52823e-09
1.447e-09,4.52823e-09
1.448e-09,0
1.449e-09,-4.52823e-09
1.45e-09,-2.26411e-09
1.451e-09,9.05645e-09
1.452e-09,0
1.453e-09,-2.26411e-09
1.454e-09,2.26411e-09
1.455e-09,-4.52823e-09
1.456e-09,4.52823e-09
1.457e-09,0
1.458e-09,4.52823e-09
1.459e-09,-4.52823e-09
1.46e-09,-2.26411e-09
1.461e-09,0
1.462e-09,0
1.463e-09,2.26411e-09
1.464e-09,0
1.465e-09,4.52823e-09
1.466e-09,2.26411e-09
1.467e-09,-2.26411e-09
1.468e-09,4.52823e-09
1.469e-09,-4.52823e-09
1.47e-09,0
1.471e-09,-2.26411e-09
1.472e-09,4.52823e-09
1.473e-09,2.26411e-09
1.474e-09,2.26411e-09
1.475e-09,-4.52823e-09
1.476e-09,-2.26411e-09
1.477e-09,-4.52823e-09
1.478e-09,0
1.479e-09,0
1.48e-09,0
1.481e-09,2.26411e-09
1.482e-09,0
1.483e-09,0
1.484e-09,0
1.485e-09,-2.26411e-09
1.486e-09,2.26411e-09
1.487e-09,-2.26411e-09
1.488e-09,0
1.489e-09,2.26411e-09
1.49e-09,-2.26411e-09
1.491e-09,-2.26411e-09
1.492e-09,0
1.493e-09,6.79234e-09
1.494e-09,-2.40088e-09
1.495e-09,-2.12734e-09
1.496e-09,4.39146e-09
1.497e-09,0
1.498e-09,1.36769e-10
1.499e-09,0
1.5e-09,0
1.501e-09,0
1.502e-09,-2.40088e-09
1.503e-09,-2.26411e-09
1.504e-09,2.26411e-09
1.505e-09,2.40088e-09
1.506e-09,2.12734e-09
1.507e-09,2.40088e-09
1.508e-09,-4.66499e-09
1.509e-09,-4.52823e-09
1.51e-09,1.36769e-10
1.511e-09,-4.66499e-09
1.512e-09,2.26411e-09
1.513e-09,2.40088e-09
1.514e-09,-6.79234e-09
1.515e-09,-2.26411e-09
1.516e-09,-2.40088e-09
1.517e-09,4.52823e-09
1.518e-09,0
1.519e-09,2.26411e-09
1.52e-09,-2.26411e-09
1.521e-09,4.52823e-09
1.522e-09,-9.05645e-09
1.523e-09,6.79234e-09
1.524e-09,1.36769e-10
1.525e-09,-2.26411e-09
1.526e-09,-2.26411e-09
1.527e-09,0
1.528e-09,-2.26411e-09
1.529e-09,0
1.53e-09,2.26411e-09
1.531e-09,2.26411e-09
1.532e-09,0
1.533e-09,2.26411e-09
1.534e-09,2.26411e-09
1.535e-09,0
1.536e-09,-9.05645e-09
1.537e-09,0
1.538e-09,2.26411e-09
1.539e-09,2.12734e-09
1.54e-09,-2.26411e-09
1.541e-09,0
1.542e-09,2.26411e-09
1.543e-09,2.26411e-09
1.544e-09,0
1.545e-09,0
1.546e-09,2.26411e-09
1.547e-09,-2.26411e-09
1.548e-09,-2.26411e-09
1.549e-09,2.26411e-09
1.55e-09,-2.26411e-09
1.551e-09,0
1.552e-09,0
1.553e-09,0
1.554e-09,2.26411e-09
1.555e-09,-2.26411e-09
1.556e-09,2.26411e-09
1.557e-09,0
1.558e-09,0
1.559e-09,4.52823e-09
1.56e-09,-4.52823e-09
1.561e-09,0
1.562e-09,0
1.563e-09,0
1.564e-09,0
1.565e-09,0
1.566e-09,2.26411e-09
1.567e-09,2.26411e-09
1.568e-09,2.26411e-09
1.569e-09,-2.26411e-09
1.57e-09,2.26411e-09
1.571e-09,-2.26411e-09
1.572e-09,0
1.573e-09,-2.26411e-09
1.574e-09,0
1.575e-09,2.26411e-09
1.576e-09,0
1.577e-09,-4.52823e-09
1.578e-09,6.79234e-09
1.579e-09,-4.52823e-09
1.58e-09,2.26411e-09
1.581e-09,1.36769e-10
1.582e-09,2.26411e-09
1.583e-09,2.26411e-09
1.584e-09,-6.79234e-09
1.585e-09,-1.36769e-10
1.586e-09,-4.52823e-09
1.587e-09,6.79234e-09
1.588e-09,0
1.589e-09,-4.52823e-09
1.59e-09,2.26411e-09
1.591e-09,-2.26411e-09
1.592e-09,2.26411e-09
1.593e-09,-2.26411e-09
1.594e-09,0
1.595e-09,-2.26411e-09
1.596e-09,4.52823e-09
1.597e-09,2.26411e-09
1.598e-09,-2.26411e-09
1.599e-09,2.26411e-09
1.6e-09,-4.52823e-09
1.601e-09,6.79234e-09
1.602e-09,-4.52823e-09
1.603e-09,0
1.604e-09,2.26411e-09
1.605e-09,0
1.606e-09,0
1.607e-09,-2.26411e-09
1.608e-09,-2.26411e-09
1.609e-09,4.52823e-09
1.61e-09,-9.05645e-09
1.611e-09,4.52823e-09
1.612e-09,2.26411e-09
1.613e-09,2.26411e-09
1.614e-09,-6.79234e-09
1.615e-09,-2.26411e-09
1.616e-09,0
1.617e-09,2.26411e-09
1.618e-09,0
1.619e-09,4.52823e-09
1.62e-09,0
1.621e-09,-4.52823e-09
1.622e-09,-2.26411e-09
1.623e-09,0
1.624e-09,0
1.625e-09,0
1.626e-09,0
1.627e-09,2.26411e-09
1.628e-09,2.26411e-09
1.629e-09,-2.26411e-09
1.63e-09,2.26411e-09
1.631e-09,0
1.632e-09,-2.26411e-09
1.633e-09,2.26411e-09
1.634e-09,-6.79234e-09
1.635e-09,2.26411e-09
1.636e-09,-2.26411e-09
1.637e-09,2.26411e-09
1.638e-09,0
1.639e-09,2.26411e-09
1.64e-09,0
1.641e-09,0
1.642e-09,2.26411e-09
1.643e-09,-2.26411e-09
1.644e-09,2.26411e-09
1.645e-09,2.26411e-09
1.646e-09,4.52823e-09
1.647e-09,-4.52823e-09
1.648e-09,2.26411e-09
1.649e-09,0
1.65e-09,-2.26411e-09
1.651e-09,2.26411e-09
1.652e-09,2.26411e-09
1.653e-09,-4.52823e-09
1.654e-09,4.52823e-09
1.655e-09,2.26411e-09
1.656e-09,0
1.657e-09,-4.52823e-09
1.658e-09,2.26411e-09
1.659e-09,0
1.66e-09,-2.26411e-09
1.661e-09,2.26411e-09
1.662e-09,-4.52823e-09
1.663e-09,-2.26411e-09
1.664e-09,0
1.665e-09,-2.26411e-09
1.666e-09,0
1.667e-09,0
1.668e-09,2.26411e-09
1.669e-09,0
1.67e-09,2.26411e-09
1.671e-09,-2.26411e-09
1.672e-09,-6.79234e-09
1.673e-09,-2.26411e-09
1.674e-09,6.79234e-09
1.675e-09,-2.26411e-09
1.676e-09,6.79234e-09
1.677e-09,0
1.678e-09,-4.52823e-09
1.679e-09,2.26411e-09
1.68e-09,0
1.681e-09,-6.79234e-09
1.682e-09,0
1.683e-09,0
1.684e-09,2.26411e-09
1.685e-09,0
1.686e-09,-2.26411e-09
1.687e-09,2.26411e-09
1.688e-09,2.26411e-09
1.689e-09,4.52823e-09
1.69e-09,0
1.691e-09,-2.26411e-09
1.692e-09,0
1.693e-09,0
1.694e-09,-6.79234e-09
1.695e-09,2.26411e-09
1.696e-09,-4.52823e-09
1.697e-09,0
1.698e-09,4.52823e-09
1.699e-09,2.26411e-09
1.7e-09,-2.26411e-09
1.701e-09,0
1.702e-09,0
1.703e-09,-2.26411e-09
1.704e-09,2.26411e-09
1.705e-09,2.26411e-09
1.706e-09,-2.26411e-09
1.707e-09,0
1.708e-09,-2.26411e-09
1.709e-09,-2.26411e-09
1.71e-09,2.26411e-09
1.711e-09,-2.26411e-09
1.712e-09,0
1.713e-09,2.26411e-09
1.714e-09,0
1.715e-09,2.26411e-09
1.716e-09,-4.52823e-09
1.717e-09,0
1.718e-09,-2.26411e-09
1.719e-09,2.26411e-09
1.72e-09,2.26411e-09
1.721e-09,2.26411e-09
1.722e-09,-4.52823e-09
1.723e-09,-2.26411e-09
1.724e-09,4.52823e-09
1.725e-09,-2.26411e-09
1.726e-09,-2.26411e-09
1.727e-09,4.52823e-09
1.728e-09,0
1.729e-09,2.26411e-09
1.73e-09,0
1.731e-09,2.26411e-09
1.732e-09,0
1.733e-09,-2.26411e-09
1.734e-09,0
1.735e-09,0
1.736e-09,0
1.737e-09,0
1.738e-09,-2.26411e-09
1.739e-09,-2.26411e-09
1.74e-09,0
1.741e-09,2.26411e-09
1.742e-09,0
1.743e-09,-2.26411e-09
1.744e-09,2.26411e-09
1.745e-09,-4.52823e-09
1.746e-09,-2.26411e-09
1.747e-09,2.26411e-09
1.748e-09,0
1.749e-09,2.26411e-09
1.75e-09,0
1.751e-09,0
1.752e-09,0
1.753e-09,-2.26411e-09
1.754e-09,-2.26411e-09
1.755e-09,-2.26411e-09
1.756e-09,4.52823e-09
1.757e-09,2.26411e-09
1.758e-09,-2.26411e-09
1.759e-09,2.26411e-09
1.76e-09,2.26411e-09
1.761e-09,0
1.762e-09,0
1.763e-09,0
1.764e-09,-4.52823e-09
1.765e-09,0
1.766e-09,0
1.767e-09,0
1.768e-09,0
1.769e-09,6.79234e-09
1.77e-09,0
1.771e-09,4.66499e-09
1.772e-09,0
1.773e-09,2.26411e-09
1.774e-09,-4.66499e-09
1.775e-09,-6.79234e-09
1.776e-09,4.66499e-09
1.777e-09,0
1.778e-09,-2.26411e-09
1.779e-09,-2.26411e-09
1.78e-09,0
1.781e-09,2.26411e-09
1.782e-09,2.26411e-09
1.783e-09,4.52823e-09
1.784e-09,-2.26411e-09
1.785e-09,-2.26411e-09
1.786e-09,6.79234e-09
1.787e-09,-4.52823e-09
1.788e-09,2.26411e-09
1.789e-09,-6.79234e-09
1.79e-09,2.26411e-09
1.791e-09,4.52823e-09
1.792e-09,4.52823e-09
1.793e-09,0
1.794e-09,-4.52823e-09
1.795e-09,4.52823e-09
1.796e-09,0
1.797e-09,-2.26411e-09
1.798e-09,0
1.799e-09,0
1.8e-09,2.26411e-09
1.801e-09,-2.26411e-09
1.802e-09,0
1.803e-09,0
1.804e-09,-4.52823e-09
1.805e-09,4.39146e-09
1.806e-09,0
1.807e-09,2.26411e-09
1.808e-09,-2.26411e-09
1.809e-09,-2.26411e-09
1.81e-09,0
1.811e-09,0
1.812e-09,-4.52823e-09
1.813e-09,0
1.814e-09,4.52823e-09
1.815e-09,-2.26411e-09
1.816e-09,2.26411e-09
1.817e-09,0
1.818e-09,2.26411e-09
1.819e-09,0
1.82e-09,6.79234e-09
1.821e-09,-6.79234e-09
1.822e-09,0
1.823e-09,2.26411e-09
1.824e-09,0
1.825e-09,-2.12734e-09
1.826e-09,2.26411e-09
1.827e-09,-4.66499e-09
1.828e-09,2.40088e-09
1.829e-09,-1.36769e-10
1.83e-09,0
1.831e-09,2.26411e-09
1.832e-09,0
1.833e-09,-2.26411e-09
1.834e-09,-2.26411e-09
1.835e-09,0
1.836e-09,2.26411e-09
1.837e-09,0
1.838e-09,2.26411e-09
1.839e-09,4.52823e-09
1.84e-09,-2.26411e-09
1.841e-09,2.26411e-09
1.842e-09,0
1.843e-09,0
1.844e-09,0
1.845e-09,-2.26411e-09
1.846e-09,4.52823e-09
1.847e-09,-4.52823e-09
1.848e-09,2.26411e-09
1.849e-09,-2.26411e-09
1.85e-09,-2.26411e-09
1.851e-09,0
1.852e-09,-4.52823e-09
1.853e-09,0
1.854e-09,4.52823e-09
1.855e-09,2.26411e-09
1.856e-09,-2.26411e-09
1.857e-09,0
1.858e-09,4.52823e-09
1.859e-09,-2.26411e-09
1.86e-09,0
1.861e-09,-2.26411e-09
1.862e-09,0
1.863e-09,-2.26411e-09
1.864e-09,6.79234e-09
1.865e-09,-4.52823e-09
1.866e-09,0
1.867e-09,-2.26411e-09
1.868e-09,2.26411e-09
1.869e-09,-2.26411e-09
1.87e-09,-2.26411e-09
1.871e-09,6.79234e-09
1.872e-09,-2.26411e-09
1.873e-09,0
1.874e-09,0
1.875e-09,2.26411e-09
1.876e-09,0
1.877e-09,-2.12734e-09
1.878e-09,0
1.879e-09,0
1.88e-09,-2.40088e-09
1.881e-09,2.26411e-09
1.882e-09,-2.26411e-09
1.883e-09,0
1.884e-09,0
1.885e-09,1.36769e-10
1.886e-09,2.26411e-09
1.887e-09,4.52823e-09
1.888e-09,1.36769e-10
1.889e-09,0
1.89e-09,-2.40088e-09
1.891e-09,0
1.892e-09,0
1.893e-09,-2.40088e-09
1.894e-09,-2.26411e-09
1.895e-09,2.26411e-09
1.896e-09,2.26411e-09
1.897e-09,-2.26411e-09
1.898e-09,0
1.899e-09,2.26411e-09
1.9e-09,0
1.901e-09,-2.26411e-09
1.902e-09,0
1.903e-09,0
1.904e-09,-4.52823e-09
1.905e-09,0
1.906e-09,4.66499e-09
1.907e-09,0
1.908e-09,-2.40088e-09
1.909e-09,-2.26411e-09
1.91e-09,2.26411e-09
1.911e-09,2.26411e-09
1.912e-09,1.36769e-10
1.913e-09,2.26411e-09
1.914e-09,-6.92911e-09
1.915e-09,0
1.916e-09,0
1.917e-09,2.26411e-09
1.918e-09,0
1.919e-09,2.26411e-09
1.92e-09,-2.26411e-09
1.921e-09,0
1.922e-09,-2.26411e-09
1.923e-09,0
1.924e-09,-2.26411e-09
1.925e-09,4.52823e-09
1.926e-09,-2.26411e-09
1.927e-09,0
1.928e-09,2.26411e-09
1.929e-09,-2.26411e-09
1.93e-09,-6.79234e-09
1.931e-09,9.05645e-09
1.932e-09,-9.05645e-09
1.933e-09,4.52823e-09
1.934e-09,0
1.935e-09,-6.79234e-09
1.936e-09,2.26411e-09
1.937e-09,6.79234e-09
1.938e-09,-6.79234e-09
1.939e-09,2.26411e-09
1.94e-09,2.26411e-09
1.941e-09,1.36769e-10
1.942e-09,2.26411e-09
1.943e-09,-1.36769e-10
1.944e-09,-4.52823e-09
1.945e-09,-2.26411e-09
1.946e-09,2.26411e-09
1.947e-09,2.26411e-09
1.948e-09,2.53765e-09
1.949e-09,-2.53765e-09
1.95e-09,2.40088e-09
1.951e-09,-4.66499e-09
1.952e-09,0
1.953e-09,-2.26411e-09
1.954e-09,-2.26411e-09
1.955e-09,0
1.956e-09,2.26411e-09
1.957e-09,0
1.958e-09,0
1.959e-09,-4.52823e-09
1.96e-09,2.40088e-09
1.961e-09,4.39146e-09
1.962e-09,-2.26411e-09
1.963e-09,4.52823e-09
1.964e-09,-2.12734e-09
1.965e-09,-2.40088e-09
1.966e-09,0
1.967e-09,2.26411e-09
1.968e-09,2.26411e-09
1.969e-09,-2.26411e-09
1.97e-09,0
1.971e-09,1.36769e-10
1.972e-09,-2.26411e-09
1.973e-09,4.52823e-09
1.974e-09,-9.19322e-09
1.975e-09,-2.26411e-09
1.976e-09,-2.26411e-09
1.977e-09,6.92911e-09
1.978e-09,-4.66499e-09
1.979e-09,0
1.98e-09,2.26411e-09
1.981e-09,0
1.982e-09,0
1.983e-09,-2.26411e-09
1.984e-09,2.26411e-09
1.985e-09,2.26411e-09
1.986e-09,4.66499e-09
1.987e-09,0
1.988e-09,-1.36769e-10
1.989e-09,0
1.99e-09,0
1.991e-09,2.26411e-09
1.992e-09,2.26411e-09
1.993e-09,0
1.994e-09,-4.52823e-09
1.995e-09,0
1.996e-09,0
1.997e-09,2.26411e-09
1.998e-09,2.26411e-09
1.999e-09,0
2e-09,0
2.001e-09,-2.26411e-09
2.1e-09,0
