0,0
1e-12,-1.87851e-06
2e-12,4.96234e-08
3e-12,3.97479e-07
4e-12,5.33963e-08
5e-12,-3.14738e-06
6e-12,2.10136e-07
7e-12,-3.74073e-07
8e-12,1.47728e-06
9e-12,-7.23251e-07
1e-11,-1.10188e-06
1.1e-11,-1.30235e-06
1.2e-11,-7.27203e-07
1.3e-11,9.94192e-07
1.4e-11,-1.56754e-06
1.5e-11,-9.3983e-07
1.6e-11,-7.71626e-07
1.7e-11,-9.36835e-08
1.8e-11,1.89761e-07
1.9e-11,-1.08797e-06
2e-11,-1.32265e-06
2.1e-11,3.00818e-07
2.2e-11,-8.30678e-07
2.3e-11,-6.13128e-07
2.4e-11,-1.48473e-06
2.5e-11,-8.64454e-07
2.6e-11,1.63427e-06
2.7e-11,-2.94034e-06
2.8e-11,-3.5326e-07
2.9e-11,-4.28923e-07
3e-11,-2.65769e-06
3.1e-11,1.86307e-06
3.2e-11,-2.06586e-06
3.3e-11,2.41891e-07
3.4e-11,-1.3783e-06
3.5e-11,-2.65761e-07
3.6e-11,2.42909e-07
3.7e-11,-4.38319e-07
3.8e-11,-1.28097e-06
3.9e-11,-2.92149e-06
4e-11,-5.61841e-07
4.1e-11,-1.55824e-06
4.2e-11,-5.17118e-07
4.3e-11,-3.01126e-07
4.4e-11,-6.89809e-07
4.5e-11,-5.09178e-07
4.6e-11,-8.93688e-07
4.7e-11,6.036e-07
4.8e-11,-6.61507e-07
4.9e-11,-2.45817e-07
5e-11,-1.16103e-06
5.1e-11,-1.42334e-06
5.2e-11,-7.32527e-07
5.3e-11,-7.291e-07
5.4e-11,4.52362e-07
5.5e-11,-4.66382e-07
5.6e-11,-1.58972e-06
5.7e-11,-1.9479e-06
5.8e-11,-1.14311e-06
5.9e-11,-1.50489e-07
6e-11,-1.22047e-06
6.1e-11,-6.2032e-07
6.2e-11,-8.95825e-08
6.3e-11,-4.95192e-07
6.4e-11,-1.66901e-06
6.5e-11,-2.30666e-07
6.6e-11,-1.70251e-06
6.7e-11,-2.09163e-06
6.8e-11,-6.78911e-07
6.9e-11,-2.45411e-07
7e-11,-1.00105e-06
7.1e-11,-2.07024e-07
7.2e-11,5.1782e-07
7.3e-11,-2.22978e-06
7.4e-11,-1.36997e-07
7.5e-11,-2.77999e-06
7.6e-11,-7.55833e-07
7.7e-11,-4.40644e-07
7.8e-11,-6.56785e-07
7.9e-11,-8.05212e-07
8e-11,-3.79011e-07
8.1e-11,1.95725e-07
8.2e-11,-1.25594e-07
8.3e-11,-2.04433e-06
8.4e-11,2.17125e-07
8.5e-11,-1.40509e-06
8.6e-11,-1.88519e-06
8.7e-11,-1.36504e-06
8.8e-11,-3.41169e-08
8.9e-11,-7.10675e-07
9e-11,-1.18764e-06
9.1e-11,-6.18235e-07
9.2e-11,-5.5618e-07
9.3e-11,1.83471e-07
9.4e-11,-4.23502e-07
9.5e-11,-3.08849e-06
9.6e-11,-1.06225e-06
9.7e-11,-4.78853e-07
9.8e-11,-7.39236e-07
9.9e-11,-6.67034e-07
1e-10,3.11768e-07
1.01e-10,-3.96525e-07
1.02e-10,-5.10429e-07
1.03e-10,-3.79316e-07
1.04e-10,-1.03096e-06
1.05e-10,-1.16423e-06
1.06e-10,-1.2957e-06
1.07e-10,-6.67852e-07
1.08e-10,-1.68169e-06
1.09e-10,4.46925e-07
1.1e-10,-6.48443e-07
1.11e-10,-6.94493e-07
1.12e-10,-5.22891e-07
1.13e-10,-2.50022e-07
1.14e-10,-1.28947e-06
1.15e-10,-2.60125e-07
1.16e-10,1.09685e-07
1.17e-10,-1.47992e-07
1.18e-10,-5.49157e-07
1.19e-10,-4.02454e-07
1.2e-10,-1.59146e-06
1.21e-10,4.7505e-09
1.22e-10,-5.70931e-07
1.23e-10,-1.06545e-06
1.24e-10,-1.41154e-07
1.25e-10,-1.84375e-07
1.26e-10,-1.24415e-06
1.27e-10,-2.45895e-07
1.28e-10,-9.20121e-08
1.29e-10,-3.35511e-07
1.3e-10,-1.64908e-06
1.31e-10,-1.71356e-06
1.32e-10,-4.22058e-07
1.33e-10,-4.80718e-07
1.34e-10,-1.29914e-07
1.35e-10,-2.63798e-07
1.36e-10,2.20461e-07
1.37e-10,-4.0645e-07
1.38e-10,-7.66011e-07
1.39e-10,-7.81775e-08
1.4e-10,-1.30176e-06
1.41e-10,-4.52099e-07
1.42e-10,-5.15008e-07
1.43e-10,-1.45725e-06
1.44e-10,-1.63086e-06
1.45e-10,-5.67116e-07
1.46e-10,-3.60928e-07
1.47e-10,4.99907e-07
1.48e-10,-1.49887e-06
1.49e-10,-7.08097e-07
1.5e-10,-5.3784e-08
1.51e-10,-3.84268e-07
1.52e-10,-1.08852e-07
1.53e-10,-3.78328e-08
1.54e-10,-5.94103e-07
1.55e-10,-3.91133e-07
1.56e-10,-1.57349e-06
1.57e-10,-9.84591e-07
1.58e-10,-7.04736e-07
1.59e-10,-1.85057e-06
1.6e-10,-1.33174e-08
1.61e-10,-2.43277e-07
1.62e-10,7.14752e-07
1.63e-10,-1.47793e-06
1.64e-10,1.49005e-07
1.65e-10,-8.29667e-07
1.66e-10,-8.87473e-07
1.67e-10,-4.70495e-07
1.68e-10,-6.55635e-07
1.69e-10,-6.71476e-07
1.7e-10,8.51095e-09
1.71e-10,-9.39421e-07
1.72e-10,-3.08448e-06
1.73e-10,-2.10813e-08
1.74e-10,-2.85176e-07
1.75e-10,2.25369e-07
1.76e-10,-1.69842e-06
1.77e-10,-6.56951e-07
1.78e-10,1.65233e-07
1.79e-10,2.55338e-08
1.8e-10,-6.67062e-07
1.81e-10,-8.30337e-07
1.82e-10,-3.10514e-07
1.83e-10,-1.10304e-06
1.84e-10,-4.60093e-08
1.85e-10,-9.56372e-07
1.86e-10,-1.96553e-07
1.87e-10,-7.44834e-07
1.88e-10,4.99768e-07
1.89e-10,-3.20636e-07
1.9e-10,-1.48979e-06
1.91e-10,8.5178e-08
1.92e-10,-9.50542e-07
1.93e-10,-1.58519e-06
1.94e-10,-2.73029e-07
1.95e-10,-2.72103e-07
1.96e-10,-4.45843e-07
1.97e-10,-2.57725e-07
1.98e-10,-8.88104e-07
1.99e-10,-2.49131e-07
2e-10,-2.99317e-07
2.01e-10,-2.57469e-07
2.02e-10,-3.57554e-07
2.03e-10,-8.73781e-07
2.04e-10,5.85622e-08
2.05e-10,-6.32855e-07
2.06e-10,-1.57012e-06
2.07e-10,-2.10938e-07
2.08e-10,-5.92847e-07
2.09e-10,-3.10513e-07
2.1e-10,-2.50304e-07
2.11e-10,-7.13473e-07
2.12e-10,-6.53311e-07
2.13e-10,-1.43567e-07
2.14e-10,-6.48268e-07
2.15e-10,-5.62998e-07
2.16e-10,-1.35433e-07
2.17e-10,-4.83203e-07
2.18e-10,-4.69558e-07
2.19e-10,-5.31835e-07
2.2e-10,-1.52751e-06
2.21e-10,-6.28076e-07
2.22e-10,-2.06497e-07
2.23e-10,-7.17861e-07
2.24e-10,-2.1604e-07
2.25e-10,-1.23949e-06
2.26e-10,-8.37667e-07
2.27e-10,-5.60523e-07
2.28e-10,-5.85235e-07
2.29e-10,-2.301e-07
2.3e-10,-4.67899e-07
2.31e-10,-1.55034e-07
2.32e-10,-1.3336e-06
2.33e-10,2.11635e-07
2.34e-10,-1.3513e-06
2.35e-10,-2.89326e-07
2.36e-10,-5.9074e-07
2.37e-10,3.40137e-08
2.38e-10,-3.73085e-07
2.39e-10,-1.73417e-06
2.4e-10,-2.51843e-06
2.41e-10,-5.30185e-07
2.42e-10,-1.62677e-07
2.43e-10,-2.35901e-06
2.44e-10,8.96598e-08
2.45e-10,1.71603e-07
2.46e-10,-8.32141e-08
2.47e-10,-6.2519e-07
2.48e-10,-5.62517e-07
2.49e-10,-9.93189e-07
2.5e-10,-2.0244e-07
2.51e-10,-1.61831e-06
2.52e-10,-5.00963e-07
2.53e-10,3.69986e-07
2.54e-10,-1.00559e-06
2.55e-10,-5.24753e-07
2.56e-10,-1.60551e-06
2.57e-10,-3.47798e-07
2.58e-10,-3.59528e-07
2.59e-10,-1.36844e-06
2.6e-10,-3.32406e-07
2.61e-10,-1.33899e-06
2.62e-10,4.61062e-07
2.63e-10,-6.02403e-07
2.64e-10,4.76702e-08
2.65e-10,-1.44653e-06
2.66e-10,-6.90557e-07
2.67e-10,-3.32994e-07
2.68e-10,-5.32439e-07
2.69e-10,-1.33069e-06
2.7e-10,-5.80902e-08
2.71e-10,-3.91429e-07
2.72e-10,-9.50503e-07
2.73e-10,-4.68956e-07
2.74e-10,-3.0162e-07
2.75e-10,1.74827e-07
2.76e-10,-1.23827e-06
2.77e-10,-4.14357e-07
2.78e-10,-2.25951e-08
2.79e-10,-2.81271e-07
2.8e-10,-5.74707e-07
2.81e-10,-5.51538e-07
2.82e-10,-9.50415e-08
2.83e-10,-1.36973e-07
2.84e-10,-5.15268e-07
2.85e-10,1.00785e-07
2.86e-10,-1.25564e-07
2.87e-10,-3.19112e-07
2.88e-10,-4.28825e-07
2.89e-10,4.38628e-07
2.9e-10,-5.97288e-07
2.91e-10,-1.22589e-07
2.92e-10,-1.27811e-06
2.93e-10,-5.18207e-07
2.94e-10,6.00796e-07
2.95e-10,-3.4468e-07
2.96e-10,-5.61353e-07
2.97e-10,-1.2979e-06
2.98e-10,-4.90176e-07
2.99e-10,2.37905e-08
3e-10,-2.74382e-07
3.01e-10,1.74241e-07
3.02e-10,-3.34867e-07
3.03e-10,-1.98652e-06
3.04e-10,-8.3026e-08
3.05e-10,-6.75077e-07
3.06e-10,-4.27017e-07
3.07e-10,-3.42992e-07
3.08e-10,-8.23614e-07
3.09e-10,-8.30273e-07
3.1e-10,-1.70701e-07
3.11e-10,-2.96361e-07
3.12e-10,-2.88207e-07
3.13e-10,1.56325e-07
3.14e-10,-9.17396e-07
3.15e-10,3.06172e-08
3.16e-10,-2.11715e-07
3.17e-10,-1.22306e-06
3.18e-10,-3.5167e-07
3.19e-10,1.49954e-08
3.2e-10,-1.74267e-07
3.21e-10,-3.54605e-07
3.22e-10,-1.52504e-08
3.23e-10,-1.11881e-06
3.24e-10,-6.45585e-07
3.25e-10,-1.25538e-06
3.26e-10,-2.52975e-07
3.27e-10,-3.01908e-07
3.28e-10,8.24502e-07
3.29e-10,-3.01184e-07
3.3e-10,-8.39003e-07
3.31e-10,3.23521e-08
3.32e-10,-1.47951e-06
3.33e-10,-1.01649e-06
3.34e-10,-1.60918e-08
3.35e-10,1.8817e-07
3.36e-10,-3.61246e-07
3.37e-10,-5.65002e-08
3.38e-10,-5.03833e-07
3.39e-10,-2.71237e-07
3.4e-10,-8.53469e-07
3.41e-10,-4.45657e-07
3.42e-10,-3.41877e-07
3.43e-10,-4.99476e-07
3.44e-10,-2.74213e-07
3.45e-10,-7.57449e-08
3.46e-10,-4.16447e-07
3.47e-10,7.7742e-08
3.48e-10,-3.29891e-06
3.49e-10,-1.92108e-07
3.5e-10,-1.022e-07
3.51e-10,-3.65337e-07
3.52e-10,-2.09767e-07
3.53e-10,4.93294e-08
3.54e-10,-2.36216e-07
3.55e-10,-8.90012e-07
3.56e-10,-7.42226e-07
3.57e-10,7.20357e-08
3.58e-10,-1.16041e-06
3.59e-10,-1.3115e-06
3.6e-10,-5.07622e-07
3.61e-10,-1.19079e-07
3.62e-10,-3.31913e-08
3.63e-10,-1.26642e-07
3.64e-10,-9.19652e-08
3.65e-10,-3.2816e-07
3.66e-10,-2.34725e-07
3.67e-10,-1.82264e-07
3.68e-10,-4.68304e-07
3.69e-10,-8.64217e-08
3.7e-10,-2.80173e-06
3.71e-10,5.07603e-07
3.72e-10,-1.58567e-06
3.73e-10,-2.25121e-07
3.74e-10,-4.79687e-07
3.75e-10,-3.72892e-08
3.76e-10,2.03331e-07
3.77e-10,-2.29277e-07
3.78e-10,5.84042e-08
3.79e-10,-1.23594e-06
3.8e-10,-8.02855e-07
3.81e-10,-1.29284e-06
3.82e-10,-1.10508e-06
3.83e-10,-3.57696e-07
3.84e-10,-7.61831e-07
3.85e-10,2.02438e-07
3.86e-10,-4.26287e-07
3.87e-10,4.04295e-08
3.88e-10,-4.14176e-07
3.89e-10,-1.91272e-06
3.9e-10,1.03431e-07
3.91e-10,3.15824e-07
3.92e-10,-2.18063e-06
3.93e-10,-2.01158e-07
3.94e-10,1.88529e-07
3.95e-10,-5.56585e-07
3.96e-10,2.58389e-07
3.97e-10,-2.39148e-07
3.98e-10,-2.25545e-07
3.99e-10,-7.15321e-07
4e-10,-5.24991e-08
4.01e-10,-1.76805e-06
4.02e-10,5.42782e-08
4.03e-10,-1.19304e-06
4.04e-10,-2.82297e-07
4.05e-10,-2.37385e-07
4.06e-10,-2.99357e-07
4.07e-10,-4.19011e-08
4.08e-10,-1.25581e-06
4.09e-10,-2.69367e-07
4.1e-10,4.37726e-07
4.11e-10,9.94505e-08
4.12e-10,-4.12416e-07
4.13e-10,-2.24716e-06
4.14e-10,-9.29302e-07
4.15e-10,5.05335e-08
4.16e-10,-1.92971e-07
4.17e-10,2.98932e-08
4.18e-10,-5.1953e-07
4.19e-10,1.49821e-07
4.2e-10,9.97903e-08
4.21e-10,-1.4841e-06
4.22e-10,3.88293e-08
4.23e-10,-3.00563e-07
4.24e-10,-1.81665e-07
4.25e-10,-2.40726e-06
4.26e-10,4.31597e-07
4.27e-10,3.33704e-07
4.28e-10,4.52246e-07
4.29e-10,1.90632e-07
4.3e-10,-4.01022e-07
4.31e-10,6.42508e-08
4.32e-10,-2.54961e-07
4.33e-10,-7.67911e-08
4.34e-10,5.93045e-07
4.35e-10,1.00343e-07
4.36e-10,-4.4247e-07
4.37e-10,-2.36022e-07
4.38e-10,4.96575e-07
4.39e-10,5.21177e-07
4.4e-10,4.73491e-07
4.41e-10,8.77145e-08
4.42e-10,-1.70738e-08
4.43e-10,-1.02148e-06
4.44e-10,3.16875e-07
4.45e-10,-1.25548e-07
4.46e-10,-2.96044e-07
4.47e-10,-2.05179e-08
4.48e-10,2.74041e-07
4.49e-10,7.5107e-07
4.5e-10,1.83539e-07
4.51e-10,2.33498e-07
4.52e-10,5.16384e-07
4.53e-10,5.63351e-08
4.54e-10,-2.28661e-07
4.55e-10,3.98031e-08
4.56e-10,-1.4212e-07
4.57e-10,-6.71218e-09
4.58e-10,-3.76947e-07
4.59e-10,-1.2066e-07
4.6e-10,-2.27684e-07
4.61e-10,1.9766e-07
4.62e-10,9.58261e-08
4.63e-10,-2.13074e-07
4.64e-10,4.12272e-07
4.65e-10,1.54773e-07
4.66e-10,2.00159e-07
4.67e-10,-8.26611e-08
4.68e-10,3.35639e-07
4.69e-10,1.29405e-06
4.7e-10,1.60742e-08
4.71e-10,1.57288e-07
4.72e-10,-9.15719e-07
4.73e-10,-2.65829e-07
4.74e-10,-2.67529e-07
4.75e-10,2.20832e-08
4.76e-10,2.52801e-07
4.77e-10,4.73846e-08
4.78e-10,4.86055e-07
4.79e-10,-2.2269e-07
4.8e-10,-1.76148e-07
4.81e-10,-1.68878e-06
4.82e-10,3.84269e-07
4.83e-10,1.38772e-07
4.84e-10,-1.31006e-07
4.85e-10,-1.48939e-07
4.86e-10,1.41965e-07
4.87e-10,6.22824e-07
4.88e-10,3.13427e-07
4.89e-10,-2.07995e-07
4.9e-10,-1.33449e-06
4.91e-10,6.92258e-07
4.92e-10,6.77818e-08
4.93e-10,2.88578e-07
4.94e-10,-1.33485e-07
4.95e-10,-1.31837e-07
4.96e-10,-3.61112e-07
4.97e-10,2.97869e-07
4.98e-10,-1.43255e-07
4.99e-10,-2.09516e-07
5e-10,7.14852e-07
5.01e-10,2.92911e-07
5.02e-10,-1.1486e-07
5.03e-10,-8.18537e-08
5.04e-10,9.70361e-08
5.05e-10,3.39194e-07
5.06e-10,2.81922e-07
5.07e-10,-2.05372e-07
5.08e-10,-2.50321e-08
5.09e-10,5.11839e-07
5.1e-10,-8.36047e-08
5.11e-10,3.51579e-07
5.12e-10,-2.8845e-07
5.13e-10,1.49789e-07
5.14e-10,-2.15526e-07
5.15e-10,-5.52324e-07
5.16e-10,1.99754e-07
5.17e-10,1.90891e-07
5.18e-10,1.07541e-07
5.19e-10,-3.29808e-07
5.2e-10,-6.83048e-08
5.21e-10,-2.31433e-07
5.22e-10,2.14415e-07
5.23e-10,-2.05432e-07
5.24e-10,2.24887e-07
5.25e-10,-6.68609e-07
5.26e-10,2.43958e-07
5.27e-10,-1.40551e-07
5.28e-10,-1.86308e-07
5.29e-10,-2.17263e-07
5.3e-10,-6.91938e-07
5.31e-10,1.99189e-07
5.32e-10,3.72997e-07
5.33e-10,7.07138e-08
5.34e-10,-1.65832e-07
5.35e-10,-6.72118e-07
5.36e-10,8.24504e-08
5.37e-10,-1.89214e-07
5.38e-10,-1.64087e-07
5.39e-10,-1.13853e-07
5.4e-10,-4.89069e-07
5.41e-10,-3.06218e-07
5.42e-10,4.20419e-08
5.43e-10,-9.12589e-07
5.44e-10,-7.97425e-07
5.45e-10,-2.47149e-07
5.46e-10,-6.27693e-07
5.47e-10,4.40147e-08
5.48e-10,-4.27639e-08
5.49e-10,3.6928e-08
5.5e-10,-2.82925e-08
5.51e-10,-8.16385e-08
5.52e-10,-2.16563e-07
5.53e-10,-8.03398e-08
5.54e-10,-6.27442e-07
5.55e-10,-1.02712e-06
5.56e-10,2.51997e-07
5.57e-10,-5.9047e-07
5.58e-10,-7.12001e-07
5.59e-10,-7.39362e-08
5.6e-10,-8.80257e-07
5.61e-10,-4.02251e-07
5.62e-10,3.26751e-07
5.63e-10,-1.81877e-06
5.64e-10,-7.04132e-08
5.65e-10,-5.40147e-07
5.66e-10,-4.84377e-07
5.67e-10,3.92127e-07
5.68e-10,2.54187e-09
5.69e-10,-1.48816e-07
5.7e-10,-2.68074e-07
5.71e-10,8.0311e-08
5.72e-10,-1.30932e-07
5.73e-10,-1.08757e-06
5.74e-10,3.31855e-07
5.75e-10,-1.18972e-06
5.76e-10,7.6781e-08
5.77e-10,-6.57566e-08
5.78e-10,-4.19833e-07
5.79e-10,-1.96711e-07
5.8e-10,1.58967e-07
5.81e-10,-7.92168e-07
5.82e-10,-6.86705e-08
5.83e-10,-1.58581e-07
5.84e-10,-1.44173e-07
5.85e-10,-9.66775e-08
5.86e-10,-1.1872e-06
5.87e-10,2.7531e-07
5.88e-10,-2.15947e-07
5.89e-10,-1.60067e-07
5.9e-10,1.79039e-07
5.91e-10,-1.74271e-07
5.92e-10,-1.61626e-06
5.93e-10,-7.54859e-07
5.94e-10,-1.19123e-07
5.95e-10,1.25298e-07
5.96e-10,-1.19522e-06
5.97e-10,-1.8332e-07
5.98e-10,-2.52098e-08
5.99e-10,-5.43568e-08
6e-10,-2.62703e-07
6.01e-10,-1.14727e-06
6.02e-10,-4.19056e-08
6.03e-10,-8.80446e-07
6.04e-10,-1.3863e-07
6.05e-10,-8.17373e-07
6.06e-10,2.43448e-07
6.07e-10,-1.4558e-07
6.08e-10,-1.21638e-07
6.09e-10,-3.04606e-07
6.1e-10,-1.19949e-06
6.11e-10,4.13726e-09
6.12e-10,-1.57983e-07
6.13e-10,5.23982e-07
6.14e-10,-1.05811e-06
6.15e-10,-1.17561e-06
6.16e-10,-1.42087e-07
6.17e-10,-5.35495e-08
6.18e-10,-2.8538e-09
6.19e-10,-4.38167e-08
6.2e-10,-7.50963e-07
6.21e-10,-8.91537e-08
6.22e-10,-8.78644e-08
6.23e-10,-4.631e-07
6.24e-10,7.86929e-08
6.25e-10,-1.55643e-06
6.26e-10,-1.05688e-07
6.27e-10,-8.46015e-08
6.28e-10,-2.23558e-07
6.29e-10,-6.58268e-09
6.3e-10,-2.40543e-07
6.31e-10,2.597e-07
6.32e-10,3.51431e-08
6.33e-10,1.29657e-07
6.34e-10,-3.6851e-07
6.35e-10,2.02314e-08
6.36e-10,-8.50027e-08
6.37e-10,-7.42274e-08
6.38e-10,-1.59358e-07
6.39e-10,-1.90995e-07
6.4e-10,-5.76409e-08
6.41e-10,-3.87778e-08
6.42e-10,-2.05622e-07
6.43e-10,1.00109e-07
6.44e-10,-7.56108e-09
6.45e-10,-3.52235e-08
6.46e-10,-5.2991e-08
6.47e-10,-1.37884e-07
6.48e-10,-1.01191e-07
6.49e-10,-8.78925e-08
6.5e-10,-1.08099e-07
6.51e-10,-8.92547e-08
6.52e-10,-1.70089e-08
6.53e-10,1.87984e-08
6.54e-10,-1.48973e-07
6.55e-10,4.03667e-09
6.56e-10,-2.91434e-08
6.57e-10,-4.56167e-08
6.58e-10,-8.594e-08
6.59e-10,-1.22314e-07
6.6e-10,-1.16216e-07
6.61e-10,5.34799e-08
6.62e-10,-1.61445e-07
6.63e-10,-9.75758e-08
6.64e-10,-5.21036e-08
6.65e-10,8.27952e-09
6.66e-10,-1.42957e-07
6.67e-10,-5.16321e-08
6.68e-10,-6.16063e-09
6.69e-10,-8.11382e-08
6.7e-10,2.84457e-07
6.71e-10,-3.64672e-08
6.72e-10,1.26333e-07
6.73e-10,-4.79963e-08
6.74e-10,-1.19927e-07
6.75e-10,5.37354e-08
6.76e-10,5.27217e-09
6.77e-10,-1.94897e-07
6.78e-10,-5.9803e-08
6.79e-10,-7.88963e-08
6.8e-10,-8.42564e-08
6.81e-10,-3.397e-08
6.82e-10,-8.41677e-08
6.83e-10,2.38057e-07
6.84e-10,-2.40884e-09
6.85e-10,-2.22309e-08
6.86e-10,-1.2154e-08
6.87e-10,-1.18034e-07
6.88e-10,-3.79376e-07
6.89e-10,2.37494e-08
6.9e-10,-9.98503e-08
6.91e-10,-8.32885e-08
6.92e-10,-6.66959e-08
6.93e-10,3.00805e-09
6.94e-10,-3.47665e-08
6.95e-10,-9.33604e-08
6.96e-10,2.77016e-07
6.97e-10,-3.46712e-09
6.98e-10,-1.02583e-08
6.99e-10,-4.11029e-08
7e-10,-1.69433e-08
7.01e-10,-6.35431e-07
7.02e-10,3.00805e-09
7.03e-10,-9.01689e-08
7.04e-10,-6.44042e-09
7.05e-10,4.23155e-07
7.06e-10,-8.73774e-08
7.07e-10,4.71745e-09
7.08e-10,-1.30487e-09
7.09e-10,-1.34956e-07
7.1e-10,-9.44049e-08
7.11e-10,-4.39775e-08
7.12e-10,-4.0208e-08
7.13e-10,-8.57882e-08
7.14e-10,-5.96414e-07
7.15e-10,4.61635e-08
7.16e-10,-4.41127e-08
7.17e-10,-8.26689e-07
7.18e-10,-4.83604e-08
7.19e-10,-4.41127e-08
7.2e-10,-1.50417e-09
7.21e-10,2.24851e-08
7.22e-10,-1.27569e-08
7.23e-10,-1.62805e-07
7.24e-10,7.88633e-08
7.25e-10,-4.12449e-08
7.26e-10,8.71062e-08
7.27e-10,-1.97832e-06
7.28e-10,-2.40088e-09
7.29e-10,4.66499e-09
7.3e-10,-4.57637e-08
7.31e-10,-2.72637e-07
7.32e-10,-8.09172e-08
7.33e-10,1.26167e-07
7.34e-10,-8.69756e-08
7.35e-10,-1.12736e-06
7.36e-10,4.32158e-08
7.37e-10,-1.34695e-06
7.38e-10,-4.32392e-08
7.39e-10,1.65764e-09
7.4e-10,-7.06588e-09
7.41e-10,-9.55624e-08
7.42e-10,2.07168e-07
7.43e-10,-1.2428e-06
7.44e-10,-1.25612e-07
7.45e-10,-6.23124e-07
7.46e-10,8.1852e-08
7.47e-10,-6.78795e-09
7.48e-10,7.06995e-10
7.49e-10,7.22582e-09
7.5e-10,-4.94196e-09
7.51e-10,5.60167e-09
7.52e-10,-1.23836e-07
7.53e-10,-8.66057e-08
7.54e-10,4.55999e-08
7.55e-10,-9.60695e-09
7.56e-10,-1.36769e-10
7.57e-10,-4.62972e-08
7.58e-10,-2.37219e-07
7.59e-10,3.24639e-07
7.6e-10,-8.10438e-08
7.61e-10,-9.6544e-07
7.62e-10,-2.99156e-09
7.63e-10,-4.81646e-08
7.64e-10,4.7864e-08
7.65e-10,-4.62323e-08
7.66e-10,3.64484e-08
7.67e-10,-9.27624e-08
7.68e-10,-8.40951e-08
7.69e-10,-4.59262e-08
7.7e-10,-1.02621e-06
7.71e-10,-1.20145e-07
7.72e-10,-3.72761e-09
7.73e-10,8.49277e-08
7.74e-10,-8.63105e-08
7.75e-10,-5.89995e-08
7.76e-10,2.40088e-09
7.77e-10,-8.96823e-08
7.78e-10,1.19834e-08
7.79e-10,3.11318e-09
7.8e-10,-8.40231e-08
7.81e-10,-1.18971e-06
7.82e-10,-5.07872e-09
7.83e-10,5.35568e-09
7.84e-10,-4.08149e-08
7.85e-10,2.12734e-09
7.86e-10,-3.76057e-08
7.87e-10,4.86247e-08
7.88e-10,-4.80171e-08
7.89e-10,-4.66499e-09
7.9e-10,5.08612e-09
7.91e-10,-1.2048e-08
7.92e-10,-9.17875e-08
7.93e-10,-3.10714e-08
7.94e-10,-1.17375e-06
7.95e-10,-8.29799e-08
7.96e-10,-4.08199e-09
7.97e-10,1.27648e-09
7.98e-10,-1.80624e-09
7.99e-10,-2.89439e-08
8e-10,0
8.01e-10,-8.4063e-08
8.02e-10,4.29388e-08
8.03e-10,4.94196e-09
8.04e-10,-3.34504e-08
8.05e-10,-4.81543e-08
8.06e-10,-3.00805e-09
8.07e-10,0
8.08e-10,-4.54801e-08
8.09e-10,4.46302e-10
8.1e-10,-4.66499e-09
8.11e-10,-4.46302e-10
8.12e-10,-7.421e-08
8.13e-10,-4.09512e-08
8.14e-10,4.13733e-10
8.15e-10,-4.00301e-08
8.16e-10,-4.78319e-08
8.17e-10,4.51732e-08
8.18e-10,-1.41071e-07
8.19e-10,4.32158e-08
8.2e-10,4.66273e-10
8.21e-10,-4.56171e-08
8.22e-10,-4.56167e-08
8.23e-10,1.14535e-08
8.24e-10,2.40088e-09
8.25e-10,4.54799e-08
8.26e-10,-4.80742e-08
8.27e-10,4.39598e-08
8.28e-10,-4.22944e-08
8.29e-10,-4.13733e-10
8.3e-10,-2.26411e-09
8.31e-10,-5.97118e-08
8.32e-10,-5.23923e-08
8.33e-10,-7.98726e-09
8.34e-10,4.80176e-09
8.35e-10,-5.2155e-09
8.36e-10,-8.98696e-08
8.37e-10,-4.91193e-08
8.38e-10,3.63193e-08
8.39e-10,-3.55102e-08
8.4e-10,8.37453e-08
8.41e-10,-1.48706e-07
8.42e-10,-1.08452e-07
8.43e-10,1.48878e-07
8.44e-10,-1.18727e-07
8.45e-10,1.0561e-07
8.46e-10,-1.53482e-07
8.47e-10,7.32915e-08
8.48e-10,5.40454e-09
8.49e-10,-2.62622e-08
8.5e-10,-1.36769e-10
8.51e-10,-1.11717e-07
8.52e-10,2.40088e-09
8.53e-10,-4.13733e-10
8.54e-10,-4.51867e-08
8.55e-10,5.04616e-09
8.56e-10,4.53757e-08
8.57e-10,-3.61988e-08
8.58e-10,3.15763e-08
8.59e-10,1.09312e-07
8.6e-10,-2.81461e-09
8.61e-10,-4.94196e-09
8.62e-10,2.67785e-09
8.63e-10,-4.09517e-08
8.64e-10,-4.32158e-08
8.65e-10,-2.67785e-09
8.66e-10,-3.81164e-10
8.67e-10,4.21092e-08
8.68e-10,-5.92768e-08
8.69e-10,-2.40088e-09
8.7e-10,-2.67785e-09
8.71e-10,-3.82739e-08
8.72e-10,-4.78808e-08
8.73e-10,-5.35569e-09
8.74e-10,-4.52823e-09
8.75e-10,2.26411e-09
8.76e-10,-4.13733e-10
8.77e-10,-2.26411e-09
8.78e-10,-4.48113e-09
8.79e-10,-4.80176e-08
8.8e-10,-2.26411e-09
8.81e-10,2.40088e-09
8.82e-10,-2.67785e-09
8.83e-10,-4.66499e-09
8.84e-10,7.06588e-09
8.85e-10,-7.06588e-09
8.86e-10,2.40088e-09
8.87e-10,-3.85448e-08
8.88e-10,4.09517e-08
8.89e-10,-2.26411e-09
8.9e-10,-7.06588e-09
8.91e-10,-3.86876e-08
8.92e-10,3.2569e-11
8.93e-10,5.50501e-10
8.94e-10,-5.60315e-08
8.95e-10,-3.55306e-10
8.96e-10,2.26411e-09
8.97e-10,4.66499e-09
8.98e-10,-2.26411e-09
8.99e-10,2.26411e-09
9e-10,-4.52823e-09
9.01e-10,6.65557e-09
9.02e-10,-2.12734e-09
9.03e-10,-3.80628e-09
9.04e-10,3.86876e-08
9.05e-10,-5.02494e-08
9.06e-10,2.26411e-09
9.07e-10,2.12734e-09
9.08e-10,-4.52823e-09
9.09e-10,-1.36769e-10
9.1e-10,-4.66499e-09
9.11e-10,-5.26825e-08
9.12e-10,-3.70524e-08
9.13e-10,3.09533e-10
9.14e-10,-2.71035e-09
9.15e-10,1.36769e-10
9.16e-10,-4.52823e-09
9.17e-10,-4.49566e-09
9.18e-10,4.66499e-09
9.19e-10,-7.20262e-09
9.2e-10,-4.09517e-08
9.21e-10,4.26619e-08
9.22e-10,-2.39738e-08
9.23e-10,5.70706e-08
9.24e-10,-6.44134e-08
9.25e-10,-1.36769e-10
9.26e-10,4.13733e-10
9.27e-10,-1.32694e-08
9.28e-10,-3.2569e-11
9.29e-10,8.09629e-08
9.3e-10,0
9.31e-10,-4.80176e-08
9.32e-10,0
9.33e-10,-3.81164e-10
9.34e-10,-4.34602e-08
9.35e-10,0
9.36e-10,-2.26411e-09
9.37e-10,7.28878e-08
9.38e-10,1.98715e-09
9.39e-10,4.13733e-10
9.4e-10,-5.57545e-08
9.41e-10,-2.93248e-10
9.42e-10,-2.24783e-09
9.43e-10,2.3846e-09
9.44e-10,0
9.45e-10,-6.94539e-09
9.46e-10,2.40088e-09
9.47e-10,7.9886e-08
9.48e-10,-2.23154e-09
9.49e-10,1.36769e-10
9.5e-10,-4.95924e-08
9.51e-10,4.52823e-09
9.52e-10,-2.40088e-09
9.53e-10,2.26411e-09
9.54e-10,2.77933e-25
9.55e-10,-4.66499e-09
9.56e-10,4.80176e-09
9.57e-10,2.40088e-09
9.58e-10,5.09827e-08
9.59e-10,2.26411e-09
9.6e-10,-2.26411e-09
9.61e-10,2.26411e-09
9.62e-10,2.23154e-09
9.63e-10,-5.04219e-08
9.64e-10,4.66499e-09
9.65e-10,-1.36769e-10
9.66e-10,3.86876e-08
9.67e-10,7.06588e-09
9.68e-10,9.45752e-08
9.69e-10,-5.03749e-08
9.7e-10,-5.99355e-10
9.71e-10,2.23722e-07
9.72e-10,5.66737e-10
9.73e-10,1.85043e-09
9.74e-10,-7.52846e-09
9.75e-10,2.26411e-09
9.76e-10,-4.39146e-09
9.77e-10,4.52823e-09
9.78e-10,-1.9383e-09
9.79e-10,-5.09894e-08
9.8e-10,1.78256e-07
9.81e-10,-1.36769e-10
9.82e-10,2.7267e-09
9.83e-10,8.79153e-11
9.84e-10,-2.81461e-09
9.85e-10,5.1113e-09
9.86e-10,-4.11407e-08
9.87e-10,3.8567e-08
9.88e-10,1.76516e-07
9.89e-10,2.44395e-10
9.9e-10,-5.70357e-08
9.91e-10,2.53288e-07
9.92e-10,2.26411e-09
9.93e-10,-9.47018e-09
9.94e-10,4.66499e-09
9.95e-10,2.40088e-09
9.96e-10,-4.93853e-09
9.97e-10,2.53765e-09
9.98e-10,3.16256e-07
9.99e-10,-5.08974e-08
1e-09,5.83071e-10
1.001e-09,-5.4249e-08
1.002e-09,-2.73538e-10
1.003e-09,2.53765e-09
1.004e-09,-2.26411e-09
1.005e-09,-4.80176e-09
1.006e-09,-2.53765e-09
1.007e-09,-2.26411e-09
1.008e-09,9.19322e-09
1.009e-09,2.03759e-07
1.01e-09,4.52823e-09
1.011e-09,-5.52205e-08
1.012e-09,-4.30793e-08
1.013e-09,-4.66499e-09
1.014e-09,2.26411e-09
1.015e-09,2.26411e-09
1.016e-09,0
1.017e-09,-1.86621e-08
1.018e-09,1.86621e-08
1.019e-09,-2.40088e-09
1.02e-09,-2.24373e-09
1.021e-09,2.26411e-09
1.022e-09,-3.86582e-08
1.023e-09,-5.18316e-08
1.024e-09,-9.7968e-10
1.025e-09,4.66499e-09
1.026e-09,-2.40088e-09
1.027e-09,2.40088e-09
1.028e-09,4.52823e-09
1.029e-09,-4.52823e-09
1.03e-09,-4.75321e-08
1.031e-09,2.26411e-09
1.032e-09,-2.26411e-09
1.033e-09,-4.50785e-09
1.034e-09,-3.7252e-08
1.035e-09,0
1.036e-09,-6.79234e-09
1.037e-09,2.26411e-09
1.038e-09,-2.26411e-09
1.039e-09,-2.26411e-09
1.04e-09,-5.04186e-08
1.041e-09,0
1.042e-09,2.26411e-09
1.043e-09,-4.00028e-08
1.044e-09,2.12734e-09
1.045e-09,0
1.046e-09,-4.52823e-09
1.047e-09,2.26411e-09
1.048e-09,0
1.049e-09,-2.26411e-09
1.05e-09,-6.83533e-08
1.051e-09,-3.80214e-08
1.052e-09,-2.12734e-09
1.053e-09,-2.26411e-09
1.054e-09,2.26411e-09
1.055e-09,2.40088e-09
1.056e-09,-1.36769e-10
1.057e-09,-9.19322e-09
1.058e-09,-1.36769e-10
1.059e-09,-4.66499e-09
1.06e-09,-9.58141e-08
1.061e-09,-5.7853e-09
1.062e-09,5.7853e-09
1.063e-09,0
1.064e-09,9.05645e-09
1.065e-09,-4.39146e-09
1.066e-09,2.26411e-09
1.067e-09,-5.40874e-08
1.068e-09,-1.95067e-08
1.069e-09,-2.40088e-09
1.07e-09,-2.26411e-09
1.071e-09,9.19322e-09
1.072e-09,-6.92911e-09
1.073e-09,-2.4197e-08
1.074e-09,-4.52823e-09
1.075e-09,-2.15562e-08
1.076e-09,2.26411e-09
1.077e-09,2.26411e-09
1.078e-09,-9.05645e-09
1.079e-09,-5.50795e-08
1.08e-09,9.10909e-09
1.081e-09,-5.26369e-11
1.082e-09,-3.65321e-08
1.083e-09,0
1.084e-09,2.26411e-09
1.085e-09,2.26411e-09
1.086e-09,-9.05645e-09
1.087e-09,4.47559e-09
1.088e-09,-6.79234e-09
1.089e-09,-4.58934e-08
1.09e-09,-2.40088e-09
1.091e-09,-4.03233e-08
1.092e-09,-4.66499e-09
1.093e-09,-2.63243e-08
1.094e-09,-2.26411e-09
1.095e-09,4.52823e-09
1.096e-09,0
1.097e-09,0
1.098e-09,-5.86832e-08
1.099e-09,7.98111e-09
1.1e-09,-1.80899e-08
1.101e-09,-1.27532e-08
1.102e-09,3.08431e-08
1.103e-09,0
1.104e-09,2.26411e-09
1.105e-09,-1.80899e-08
1.106e-09,-2.12734e-09
1.107e-09,-5.49496e-08
1.108e-09,3.74664e-09
1.109e-09,-1.48253e-09
1.11e-09,-4.0208e-08
1.111e-09,-3.65288e-09
1.112e-09,-3.13946e-09
1.113e-09,1.01211e-09
1.114e-09,-1.36769e-10
1.115e-09,-4.52823e-09
1.116e-09,0
1.117e-09,-8.24984e-08
1.118e-09,2.12734e-09
1.119e-09,2.87158e-08
1.12e-09,-5.25455e-08
1.121e-09,-1.36769e-10
1.122e-09,4.49037e-09
1.123e-09,-4.52823e-09
1.124e-09,6.79234e-09
1.125e-09,-5.55867e-25
1.126e-09,-4.39146e-09
1.127e-09,-4.52823e-09
1.128e-09,4.66499e-09
1.129e-09,-3.08431e-08
1.13e-09,-4.8427e-08
1.131e-09,-5.49466e-08
1.132e-09,-1.36769e-10
1.133e-09,9.20654e-09
1.134e-09,-2.40088e-09
1.135e-09,2.26411e-09
1.136e-09,-6.79234e-09
1.137e-09,-4.67831e-09
1.138e-09,-2.26411e-09
1.139e-09,2.36515e-08
1.14e-09,0
1.141e-09,-7.0387e-08
1.142e-09,9.39103e-09
1.143e-09,-4.75278e-08
1.144e-09,3.08196e-08
1.145e-09,2.12734e-09
1.146e-09,-4.52823e-09
1.147e-09,0
1.148e-09,0
1.149e-09,-2.26411e-09
1.15e-09,-2.26411e-09
1.151e-09,-4.75517e-08
1.152e-09,0
1.153e-09,-4.57443e-08
1.154e-09,4.52823e-09
1.155e-09,-2.26411e-09
1.156e-09,-2.26411e-09
1.157e-09,2.26411e-09
1.158e-09,-4.66499e-09
1.159e-09,1.13206e-08
1.16e-09,-6.79234e-09
1.161e-09,-5.43599e-08
1.162e-09,-6.79234e-09
1.163e-09,-3.53865e-08
1.164e-09,4.39146e-09
1.165e-09,-6.79234e-09
1.166e-09,2.26411e-09
1.167e-09,4.66499e-09
1.168e-09,-9.05645e-09
1.169e-09,-5.32318e-08
1.17e-09,-2.12734e-09
1.171e-09,-5.28108e-08
1.172e-09,6.79234e-09
1.173e-09,-1.36769e-10
1.174e-09,2.26411e-09
1.175e-09,0
1.176e-09,-4.52823e-09
1.177e-09,2.40088e-09
1.178e-09,-5.53591e-08
1.179e-09,-3.84131e-08
1.18e-09,-6.79234e-09
1.181e-09,2.12734e-09
1.182e-09,0
1.183e-09,4.52823e-09
1.184e-09,1.36769e-10
1.185e-09,-2.26411e-09
1.186e-09,-2.40088e-09
1.187e-09,-6.25086e-08
1.188e-09,-3.81396e-08
1.189e-09,2.26411e-09
1.19e-09,-2.26411e-09
1.191e-09,-6.79234e-09
1.192e-09,0
1.193e-09,0
1.194e-09,-5.98803e-08
1.195e-09,0
1.196e-09,4.66499e-09
1.197e-09,-5.06905e-08
1.198e-09,2.40088e-09
1.199e-09,-2.26411e-09
1.2e-09,-7.06588e-09
1.201e-09,4.52823e-09
1.202e-09,0
1.203e-09,-2.26411e-09
1.204e-09,-6.08844e-08
1.205e-09,0
1.206e-09,-4.09508e-08
1.207e-09,0
1.208e-09,-4.52823e-09
1.209e-09,4.66499e-09
1.21e-09,4.66499e-09
1.211e-09,-4.52823e-09
1.212e-09,-2.26411e-09
1.213e-09,0
1.214e-09,-6.50453e-08
1.215e-09,-5.836e-08
1.216e-09,2.26411e-09
1.217e-09,0
1.218e-09,0
1.219e-09,4.52823e-09
1.22e-09,2.26411e-09
1.221e-09,-2.26411e-09
1.222e-09,2.26411e-09
1.223e-09,-6.46881e-08
1.224e-09,-4.06843e-08
1.225e-09,4.52823e-09
1.226e-09,2.26411e-09
1.227e-09,2.26411e-09
1.228e-09,-6.79234e-09
1.229e-09,4.52823e-09
1.23e-09,-4.66499e-09
1.231e-09,4.52823e-09
1.232e-09,2.26411e-09
1.233e-09,-6.50982e-08
1.234e-09,-3.89336e-08
1.235e-09,2.26411e-09
1.236e-09,-2.40088e-09
1.237e-09,1.36769e-10
1.238e-09,1.36769e-10
1.239e-09,2.26411e-09
1.24e-09,-1.36769e-10
1.241e-09,2.40088e-09
1.242e-09,-1.27707e-07
1.243e-09,2.12734e-09
1.244e-09,-6.92911e-09
1.245e-09,2.40088e-09
1.246e-09,2.26411e-09
1.247e-09,-2.26411e-09
1.248e-09,4.66499e-09
1.249e-09,-2.40088e-09
1.25e-09,4.66499e-09
1.251e-09,-4.39765e-08
1.252e-09,-1.36769e-10
1.253e-09,-6.00201e-08
1.254e-09,0
1.255e-09,2.77933e-25
1.256e-09,-2.26411e-09
1.257e-09,9.05645e-09
1.258e-09,0
1.259e-09,-2.26411e-09
1.26e-09,-4.46474e-08
1.261e-09,2.26411e-09
1.262e-09,-4.94196e-09
1.263e-09,-7.11679e-08
1.264e-09,6.79234e-09
1.265e-09,-6.79234e-09
1.266e-09,2.40088e-09
1.267e-09,-1.36769e-10
1.268e-09,2.40088e-09
1.269e-09,-5.15747e-08
1.27e-09,-6.92911e-09
1.271e-09,-6.82587e-08
1.272e-09,0
1.273e-09,2.26411e-09
1.274e-09,0
1.275e-09,-4.52823e-09
1.276e-09,4.52823e-09
1.277e-09,-4.52823e-09
1.278e-09,0
1.279e-09,-3.38849e-08
1.28e-09,2.26411e-09
1.281e-09,-7.02079e-08
1.282e-09,-2.26411e-09
1.283e-09,4.66499e-09
1.284e-09,-2.40088e-09
1.285e-09,-2.12734e-09
1.286e-09,-4.09517e-08
1.287e-09,-1.36769e-10
1.288e-09,-4.06773e-08
1.289e-09,-6.76254e-08
1.29e-09,0
1.291e-09,0
1.292e-09,2.26411e-09
1.293e-09,-2.26411e-09
1.294e-09,0
1.295e-09,0
1.296e-09,-5.95319e-08
1.297e-09,0
1.298e-09,-7.67687e-08
1.299e-09,1.36769e-10
1.3e-09,-4.52823e-09
1.301e-09,-4.52823e-09
1.302e-09,-4.66499e-09
1.303e-09,4.66499e-09
1.304e-09,0
1.305e-09,6.79234e-09
1.306e-09,-4.21788e-08
1.307e-09,-7.23722e-08
1.308e-09,-4.09432e-08
1.309e-09,-2.26411e-09
1.31e-09,0
1.311e-09,-9.05645e-09
1.312e-09,6.79234e-09
1.313e-09,0
1.314e-09,0
1.315e-09,-6.97391e-08
1.316e-09,2.26411e-09
1.317e-09,-4.33514e-08
1.318e-09,-5.84821e-08
1.319e-09,-5.25784e-08
1.32e-09,5.99775e-08
1.321e-09,2.26411e-09
1.322e-09,0
1.323e-09,-6.07462e-08
1.324e-09,-8.31697e-08
1.325e-09,-3.8392e-08
1.326e-09,4.56472e-08
1.327e-09,0
1.328e-09,-4.52823e-09
1.329e-09,-5.01446e-08
1.33e-09,6.79234e-09
1.331e-09,0
1.332e-09,-2.26411e-09
1.333e-09,4.66499e-09
1.334e-09,-7.69995e-08
1.335e-09,-2.26411e-09
1.336e-09,-4.05375e-08
1.337e-09,4.52823e-09
1.338e-09,-4.51552e-08
1.339e-09,2.40088e-09
1.34e-09,-4.52823e-09
1.341e-09,-2.47754e-09
1.342e-09,-2.26411e-09
1.343e-09,-7.63868e-08
1.344e-09,-3.90841e-08
1.345e-09,2.26411e-09
1.346e-09,-2.26411e-09
1.347e-09,0
1.348e-09,-4.50348e-09
1.349e-09,9.03171e-09
1.35e-09,-4.52033e-08
1.351e-09,-1.8653e-08
1.352e-09,-1.43082e-07
1.353e-09,-1.36769e-10
1.354e-09,0
1.355e-09,4.66499e-09
1.356e-09,2.26411e-09
1.357e-09,-4.52823e-09
1.358e-09,-4.92947e-08
1.359e-09,2.26411e-09
1.36e-09,-4.30109e-08
1.361e-09,-1.2762e-07
1.362e-09,-2.40088e-09
1.363e-09,6.49325e-08
1.364e-09,0
1.365e-09,-6.26683e-08
1.366e-09,-2.26411e-09
1.367e-09,0
1.368e-09,6.71966e-08
1.369e-09,-1.05354e-08
1.37e-09,-1.59232e-07
1.371e-09,-8.28246e-08
1.372e-09,-8.27127e-09
1.373e-09,9.28239e-08
1.374e-09,-2.26411e-09
1.375e-09,-8.40804e-09
1.376e-09,8.27127e-09
1.377e-09,-9.5088e-08
1.378e-09,-2.38172e-08
1.379e-09,-1.13846e-07
1.38e-09,-4.26015e-08
1.381e-09,2.40088e-09
1.382e-09,9.63817e-09
1.383e-09,0
1.384e-09,-1.20391e-08
1.385e-09,-2.26411e-09
1.386e-09,3.83638e-08
1.387e-09,-1.36769e-10
1.388e-09,-1.69864e-07
1.389e-09,2.26411e-09
1.39e-09,-4.33523e-08
1.391e-09,-2.26411e-09
1.392e-09,0
1.393e-09,-5.33059e-08
1.394e-09,-2.26411e-09
1.395e-09,7.76118e-08
1.396e-09,-2.26411e-09
1.397e-09,-4.2891e-08
1.398e-09,-1.00597e-07
1.399e-09,-8.00127e-08
1.4e-09,2.40088e-09
1.401e-09,-1.36769e-10
1.402e-09,-2.72919e-08
1.403e-09,-2.40088e-09
1.404e-09,1.36769e-10
1.405e-09,2.12734e-09
1.406e-09,2.26411e-09
1.407e-09,-1.68082e-07
1.408e-09,-2.26411e-09
1.409e-09,0
1.41e-09,-2.12734e-09
1.411e-09,-5.31339e-08
1.412e-09,2.40088e-09
1.413e-09,-2.40088e-09
1.414e-09,-2.40088e-09
1.415e-09,0
1.416e-09,-6.18631e-08
1.417e-09,-4.33523e-08
1.418e-09,0
1.419e-09,-4.61582e-08
1.42e-09,-4.52823e-09
1.421e-09,0
1.422e-09,2.26411e-09
1.423e-09,-2.26411e-09
1.424e-09,-2.40088e-09
1.425e-09,-9.93727e-08
1.426e-09,-4.66499e-09
1.427e-09,4.52823e-09
1.428e-09,-4.17126e-08
1.429e-09,-3.18006e-08
1.43e-09,-2.26411e-09
1.431e-09,0
1.432e-09,2.26411e-09
1.433e-09,2.26411e-09
1.434e-09,-4.52823e-09
1.435e-09,-1.1327e-07
1.436e-09,-4.66499e-09
1.437e-09,-1.90663e-08
1.438e-09,4.66499e-09
1.439e-09,-4.56171e-08
1.44e-09,-4.33175e-09
1.441e-09,4.52823e-09
1.442e-09,6.59587e-09
1.443e-09,-2.26411e-09
1.444e-09,-1.30631e-07
1.445e-09,2.26411e-09
1.446e-09,-9.10686e-09
1.447e-09,0
1.448e-09,-4.56164e-08
1.449e-09,2.26411e-09
1.45e-09,0
1.451e-09,0
1.452e-09,-2.78461e-07
1.453e-09,4.78314e-08
1.454e-09,-4.52823e-09
1.455e-09,-4.52823e-09
1.456e-09,1.98587e-10
1.457e-09,-2.32199e-07
1.458e-09,-1.98587e-10
1.459e-09,-4.58998e-08
1.46e-09,2.26411e-09
1.461e-09,-9.00231e-09
1.462e-09,-2.11324e-07
1.463e-09,-2.40088e-09
1.464e-09,-2.26411e-09
1.465e-09,2.26411e-09
1.466e-09,1.36769e-10
1.467e-09,2.26411e-09
1.468e-09,-4.78819e-08
1.469e-09,-1.36769e-10
1.47e-09,-2.54694e-07
1.471e-09,2.26411e-09
1.472e-09,4.20578e-10
1.473e-09,-2.26411e-09
1.474e-09,2.26411e-09
1.475e-09,-1.36769e-10
1.476e-09,9.19322e-09
1.477e-09,4.52823e-09
1.478e-09,-2.26411e-09
1.479e-09,-4.10896e-08
1.48e-09,-3.02748e-07
1.481e-09,-5.85526e-08
1.482e-09,-4.52823e-09
1.483e-09,0
1.484e-09,-4.52823e-09
1.485e-09,4.66499e-09
1.486e-09,-1.36769e-10
1.487e-09,2.40088e-09
1.488e-09,5.21386e-09
1.489e-09,-4.02701e-07
1.49e-09,-4.66499e-09
1.491e-09,2.26411e-09
1.492e-09,2.26411e-09
1.493e-09,-2.89015e-07
1.494e-09,-2.26411e-09
1.495e-09,2.26411e-09
1.496e-09,2.26411e-09
1.497e-09,-4.78841e-07
1.498e-09,7.17647e-09
1.499e-09,-4.90604e-08
1.5e-09,4.52823e-09
1.501e-09,0
1.502e-09,-2.26411e-09
1.503e-09,2.26411e-09
1.504e-09,-2.26411e-09
1.505e-09,-2.26411e-09
1.506e-09,-6.77612e-07
1.507e-09,-2.17961e-08
1.508e-09,4.88806e-08
1.509e-09,-4.09498e-08
1.51e-09,-6.79234e-09
1.511e-09,-2.63243e-08
1.512e-09,2.26411e-09
1.513e-09,0
1.514e-09,6.79234e-09
1.515e-09,-6.79234e-09
1.516e-09,-1.52271e-09
1.517e-09,2.26411e-09
1.518e-09,-1.01126e-07
1.519e-09,2.26411e-09
1.52e-09,-2.26411e-09
1.521e-09,4.52823e-09
1.522e-09,0
1.523e-09,-5.63966e-11
1.524e-09,0
1.525e-09,3.9554e-08
1.526e-09,2.26411e-09
1.527e-09,-4.92002e-08
1.528e-09,2.26411e-09
1.529e-09,0
1.53e-09,0
1.531e-09,2.26411e-09
1.532e-09,-2.26411e-09
1.533e-09,0
1.534e-09,2.26411e-09
1.535e-09,5.02899e-08
1.536e-09,-5.17521e-08
1.537e-09,4.66499e-09
1.538e-09,0
1.539e-09,-2.26411e-09
1.54e-09,9.86941e-11
1.541e-09,-4.76369e-09
1.542e-09,2.12734e-09
1.543e-09,0
1.544e-09,2.53068e-08
1.545e-09,2.26411e-09
1.546e-09,0
1.547e-09,-2.26411e-09
1.548e-09,2.26411e-09
1.549e-09,2.57861e-07
1.55e-09,-2.26411e-09
1.551e-09,6.79234e-09
1.552e-09,2.26411e-09
1.553e-09,7.07778e-08
1.554e-09,-2.26411e-09
1.555e-09,2.26411e-09
1.556e-09,-2.26411e-09
1.557e-09,-2.26411e-09
1.558e-09,0
1.559e-09,2.26411e-09
1.56e-09,0
1.561e-09,-2.26411e-09
1.562e-09,1.45276e-07
1.563e-09,-2.26411e-09
1.564e-09,0
1.565e-09,-4.87607e-08
1.566e-09,-2.26411e-09
1.567e-09,-6.79234e-09
1.568e-09,4.52823e-09
1.569e-09,-2.26411e-09
1.57e-09,4.66499e-09
1.571e-09,1.75567e-07
1.572e-09,2.26411e-09
1.573e-09,0
1.574e-09,-5.0142e-08
1.575e-09,2.90685e-07
1.576e-09,0
1.577e-09,1.36769e-10
1.578e-09,-4.5663e-09
1.579e-09,2.16542e-09
1.58e-09,2.35463e-10
1.581e-09,2.08038e-07
1.582e-09,-2.26411e-09
1.583e-09,-4.34935e-08
1.584e-09,0
1.585e-09,0
1.586e-09,3.04045e-07
1.587e-09,-1.36769e-10
1.588e-09,1.36769e-10
1.589e-09,-2.26411e-09
1.59e-09,2.26411e-09
1.591e-09,4.52823e-09
1.592e-09,1.99938e-07
1.593e-09,0
1.594e-09,2.26411e-09
1.595e-09,-2.40088e-09
1.596e-09,1.36769e-10
1.597e-09,4.66499e-09
1.598e-09,2.35324e-07
1.599e-09,-2.26411e-09
1.6e-09,-5.02788e-08
1.601e-09,-2.26411e-09
1.602e-09,4.73814e-08
1.603e-09,-4.29519e-08
1.604e-09,-4.42953e-09
1.605e-09,4.73814e-08
1.606e-09,-9.86941e-11
1.607e-09,-2.26411e-09
1.608e-09,-1.36769e-10
1.609e-09,-9.54031e-08
1.61e-09,3.8616e-08
1.611e-09,0
1.612e-09,4.52823e-09
1.613e-09,-4.52823e-09
1.614e-09,-2.26411e-09
1.615e-09,-2.26411e-09
1.616e-09,-4.66499e-09
1.617e-09,4.52823e-09
1.618e-09,-5.28001e-08
1.619e-09,0
1.62e-09,7.06588e-09
1.621e-09,-2.26411e-09
1.622e-09,2.12734e-09
1.623e-09,2.62688e-09
1.624e-09,2.26411e-09
1.625e-09,-7.29188e-09
1.626e-09,2.76365e-09
1.627e-09,-4.57576e-08
1.628e-09,0
1.629e-09,2.26411e-09
1.63e-09,0
1.631e-09,-4.52823e-09
1.632e-09,4.52823e-09
1.633e-09,-6.79234e-09
1.634e-09,-2.26411e-09
1.635e-09,1.36769e-10
1.636e-09,0
1.637e-09,-5.17227e-08
1.638e-09,2.36281e-09
1.639e-09,4.52823e-09
1.64e-09,2.02865e-09
1.641e-09,1.36769e-10
1.642e-09,0
1.643e-09,-2.26411e-09
1.644e-09,-2.40088e-09
1.645e-09,4.52823e-09
1.646e-09,-5.25334e-08
1.647e-09,-6.86535e-09
1.648e-09,4.60124e-09
1.649e-09,-7.3016e-11
1.65e-09,7.3016e-11
1.651e-09,-2.33713e-09
1.652e-09,0
1.653e-09,2.26411e-09
1.654e-09,-4.59571e-08
1.655e-09,0
1.656e-09,-6.79234e-09
1.657e-09,-6.79234e-09
1.658e-09,0
1.659e-09,-4.36437e-08
1.66e-09,4.13796e-08
1.661e-09,4.52823e-09
1.662e-09,-4.13796e-08
1.663e-09,4.13066e-08
1.664e-09,6.79234e-09
1.665e-09,-4.98053e-08
1.666e-09,0
1.667e-09,-2.69063e-09
1.668e-09,-2.26411e-09
1.669e-09,0
1.67e-09,0
1.671e-09,-2.26411e-09
1.672e-09,-5.66081e-08
1.673e-09,4.99537e-10
1.674e-09,0
1.675e-09,2.26411e-09
1.676e-09,-2.26411e-09
1.677e-09,0
1.678e-09,7.04958e-12
1.679e-09,-4.52823e-09
1.68e-09,-7.04958e-12
1.681e-09,-4.97197e-08
1.682e-09,2.26411e-09
1.683e-09,-4.02164e-09
1.684e-09,-2.7707e-09
1.685e-09,2.27116e-09
1.686e-09,-1.76458e-09
1.687e-09,-4.99537e-10
1.688e-09,2.26411e-09
1.689e-09,-2.26411e-09
1.69e-09,-1.76458e-09
1.691e-09,-5.09473e-08
1.692e-09,4.52823e-09
1.693e-09,0
1.694e-09,0
1.695e-09,2.26411e-09
1.696e-09,-2.26411e-09
1.697e-09,4.52823e-09
1.698e-09,0
1.699e-09,-5.68196e-08
1.7e-09,0
1.701e-09,0
1.702e-09,0
1.703e-09,2.26411e-09
1.704e-09,4.52823e-09
1.705e-09,-2.26411e-09
1.706e-09,0
1.707e-09,-2.26411e-09
1.708e-09,-5.56729e-08
1.709e-09,2.26411e-09
1.71e-09,-2.26411e-09
1.711e-09,0
1.712e-09,4.52823e-09
1.713e-09,2.26411e-09
1.714e-09,-2.26411e-09
1.715e-09,4.53527e-09
1.716e-09,-6.79234e-09
1.717e-09,4.52823e-09
1.718e-09,7.88765e-08
1.719e-09,-4.86479e-08
1.72e-09,2.26411e-09
1.721e-09,-8.79259e-08
1.722e-09,9.019e-08
1.723e-09,-4.52823e-09
1.724e-09,4.52823e-09
1.725e-09,-4.52823e-09
1.726e-09,2.26411e-09
1.727e-09,-4.52823e-09
1.728e-09,4.52823e-09
1.729e-09,2.26411e-09
1.73e-09,-4.61689e-08
1.731e-09,0
1.732e-09,0
1.733e-09,2.26411e-09
1.734e-09,0
1.735e-09,-4.52823e-09
1.736e-09,-2.27821e-09
1.737e-09,-4.51413e-09
1.738e-09,2.25001e-09
1.739e-09,-5.08556e-08
1.74e-09,-2.26411e-09
1.741e-09,0
1.742e-09,4.51413e-09
1.743e-09,2.26411e-09
1.744e-09,-9.55006e-08
1.745e-09,4.54232e-09
1.746e-09,-2.26411e-09
1.747e-09,2.26411e-09
1.748e-09,-4.76751e-08
1.749e-09,0
1.75e-09,-6.79234e-09
1.751e-09,4.52823e-09
1.752e-09,0
1.753e-09,-2.26411e-09
1.754e-09,-4.74165e-09
1.755e-09,6.79234e-09
1.756e-09,9.55006e-08
1.757e-09,-4.12894e-08
1.758e-09,0
1.759e-09,-4.52823e-09
1.76e-09,-2.26411e-09
1.761e-09,-1.11594e-07
1.762e-09,4.54232e-09
1.763e-09,0
1.764e-09,0
1.765e-09,1.13844e-07
1.766e-09,-1.40992e-11
1.767e-09,-5.20059e-08
1.768e-09,0
1.769e-09,-4.52823e-09
1.77e-09,0
1.771e-09,0
1.772e-09,-2.25001e-09
1.773e-09,-4.55179e-08
1.774e-09,-6.79234e-09
1.775e-09,2.26411e-09
1.776e-09,-4.52823e-09
1.777e-09,-2.26411e-09
1.778e-09,-1.40992e-11
1.779e-09,4.52823e-09
1.78e-09,-2.25001e-09
1.781e-09,-3.41681e-08
1.782e-09,0
1.783e-09,0
1.784e-09,0
1.785e-09,-2.26411e-09
1.786e-09,-2.26411e-09
1.787e-09,-1.38059e-07
1.788e-09,2.26411e-09
1.789e-09,-2.26411e-09
1.79e-09,1.40992e-11
1.791e-09,2.26411e-09
1.792e-09,-4.93905e-08
1.793e-09,-2.26411e-09
1.794e-09,2.40088e-09
1.795e-09,-2.40088e-09
1.796e-09,2.26411e-09
1.797e-09,-4.52823e-09
1.798e-09,4.52823e-09
1.799e-09,-2.26411e-09
1.8e-09,1.40992e-11
1.801e-09,-4.12036e-08
1.802e-09,-2.26411e-09
1.803e-09,-4.52823e-09
1.804e-09,0
1.805e-09,4.52823e-09
1.806e-09,2.26411e-09
1.807e-09,0
1.808e-09,2.26411e-09
1.809e-09,2.26411e-09
1.81e-09,-8.205e-08
1.811e-09,-2.26411e-09
1.812e-09,0
1.813e-09,-4.52823e-09
1.814e-09,4.52823e-09
1.815e-09,2.26411e-09
1.816e-09,-2.26411e-09
1.817e-09,-4.34606e-08
1.818e-09,2.26411e-09
1.819e-09,2.26411e-09
1.82e-09,-4.52823e-09
1.821e-09,2.26411e-09
1.822e-09,2.26411e-09
1.823e-09,-2.26411e-09
1.824e-09,-2.26411e-09
1.825e-09,-3.6149e-08
1.826e-09,1.36769e-10
1.827e-09,-2.40088e-09
1.828e-09,0
1.829e-09,2.26411e-09
1.83e-09,-2.26411e-09
1.831e-09,4.52823e-09
1.832e-09,-2.26411e-09
1.833e-09,2.40088e-09
1.834e-09,-3.72681e-08
1.835e-09,4.66499e-09
1.836e-09,4.52823e-09
1.837e-09,-2.40088e-09
1.838e-09,-2.26411e-09
1.839e-09,0
1.84e-09,-2.26411e-09
1.841e-09,4.66499e-09
1.842e-09,-2.40088e-09
1.843e-09,-3.16608e-08
1.844e-09,2.26411e-09
1.845e-09,-2.26411e-09
1.846e-09,2.26411e-09
1.847e-09,-2.26411e-09
1.848e-09,0
1.849e-09,0
1.85e-09,4.52823e-09
1.851e-09,-4.52823e-09
1.852e-09,-2.26411e-09
1.853e-09,-4.46168e-08
1.854e-09,0
1.855e-09,2.26411e-09
1.856e-09,6.79234e-09
1.857e-09,-6.79234e-09
1.858e-09,4.52823e-09
1.859e-09,-4.52823e-09
1.86e-09,-2.26411e-09
1.861e-09,2.26411e-09
1.862e-09,-1.01655e-08
1.863e-09,2.26411e-09
1.864e-09,-6.79234e-09
1.865e-09,0
1.866e-09,4.52823e-09
1.867e-09,-6.79234e-09
1.868e-09,2.26411e-09
1.869e-09,-2.26411e-09
1.87e-09,2.26411e-09
1.871e-09,-2.26411e-09
1.872e-09,2.86453e-09
1.873e-09,0
1.874e-09,2.26411e-09
1.875e-09,-4.52823e-09
1.876e-09,0
1.877e-09,0
1.878e-09,0
1.879e-09,0
1.88e-09,-2.26411e-09
1.881e-09,1.51566e-09
1.882e-09,-2.26411e-09
1.883e-09,0
1.884e-09,0
1.885e-09,0
1.886e-09,0
1.887e-09,0
1.888e-09,0
1.889e-09,2.26411e-09
1.89e-09,4.84529e-08
1.891e-09,0
1.892e-09,-2.26411e-09
1.893e-09,-2.26411e-09
1.894e-09,0
1.895e-09,0
1.896e-09,2.26411e-09
1.897e-09,6.79234e-09
1.898e-09,-6.79234e-09
1.899e-09,7.49253e-08
1.9e-09,-2.26411e-09
1.901e-09,2.26411e-09
1.902e-09,-4.52823e-09
1.903e-09,2.26411e-09
1.904e-09,-4.52823e-09
1.905e-09,7.04612e-09
1.906e-09,-2.26411e-09
1.907e-09,1.5213e-07
1.908e-09,4.52823e-09
1.909e-09,0
1.91e-09,-2.26411e-09
1.911e-09,4.52823e-09
1.912e-09,-4.52823e-09
1.913e-09,0
1.914e-09,2.26411e-09
1.915e-09,2.26411e-09
1.916e-09,0
1.917e-09,0
1.918e-09,2.26411e-09
1.919e-09,-2.26411e-09
1.92e-09,0
1.921e-09,0
1.922e-09,-5.52897e-07
1.923e-09,1.87076e-07
1.924e-09,-4.52823e-09
1.925e-09,-4.52823e-09
1.926e-09,2.26411e-09
1.927e-09,4.52823e-09
1.928e-09,-2.26411e-09
1.929e-09,2.26411e-09
1.93e-09,6.79234e-09
1.931e-09,-7.78795e-07
1.932e-09,4.52823e-09
1.933e-09,0
1.934e-09,-6.79234e-09
1.935e-09,4.52823e-09
1.936e-09,-4.52823e-09
1.937e-09,-2.26411e-09
1.938e-09,9.00501e-08
1.939e-09,2.26411e-09
1.94e-09,6.79234e-09
1.941e-09,-2.26411e-09
1.942e-09,-1.05225e-06
1.943e-09,2.26411e-09
1.944e-09,-2.26411e-09
1.945e-09,-4.52823e-09
1.946e-09,2.26411e-09
1.947e-09,0
1.948e-09,0
1.949e-09,-2.26411e-09
1.95e-09,0
1.951e-09,-1.03764e-06
1.952e-09,0
1.953e-09,2.26411e-09
1.954e-09,-4.99081e-09
1.955e-09,2.26411e-09
1.956e-09,-4.52823e-09
1.957e-09,-4.52823e-09
1.958e-09,0
1.959e-09,-1.05236e-06
1.96e-09,-2.26411e-09
1.961e-09,1.02387e-06
1.962e-09,-1.12769e-06
1.963e-09,-4.52823e-09
1.964e-09,-2.26411e-09
1.965e-09,4.52823e-09
1.966e-09,2.24783e-09
1.967e-09,-4.52823e-09
1.968e-09,0
1.969e-09,2.26411e-09
1.97e-09,-4.52823e-09
1.971e-09,4.52823e-09
1.972e-09,0
1.973e-09,2.26411e-09
1.974e-09,-2.26411e-09
1.975e-09,-2.26411e-09
1.976e-09,0
1.977e-09,-5.50834e-08
1.978e-09,-9.0493e-08
1.979e-09,-2.26411e-09
1.98e-09,2.26411e-09
1.981e-09,-4.52823e-09
1.982e-09,0
1.983e-09,2.26411e-09
1.984e-09,-2.26411e-09
1.985e-09,2.26411e-09
1.986e-09,0
1.987e-09,0
1.988e-09,0
1.989e-09,0
1.99e-09,2.26411e-09
1.991e-09,-2.26411e-09
1.992e-09,0
1.993e-09,2.26411e-09
1.994e-09,0
1.995e-09,-4.52823e-09
1.996e-09,0
1.997e-09,0
1.998e-09,0
1.999e-09,-2.26411e-09
2e-09,-4.5471e-08
2.001e-09,4.77351e-08
2.1e-09,0
