0,0
1e-12,-1.75428e-06
2e-12,1.20855e-06
3e-12,-9.23375e-08
4e-12,-1.03518e-06
5e-12,6.64237e-07
6e-12,-1.08673e-06
7e-12,-1.85404e-09
8e-12,-7.84777e-07
9e-12,-4.76328e-07
1e-11,-1.11659e-06
1.1e-11,-1.74621e-06
1.2e-11,-5.739e-07
1.3e-11,2.85857e-07
1.4e-11,-8.66558e-07
1.5e-11,-1.375e-07
1.6e-11,-8.89054e-07
1.7e-11,8.49735e-07
1.8e-11,-1.68828e-06
1.9e-11,-6.65278e-07
2e-11,-1.10146e-06
2.1e-11,-1.80456e-06
2.2e-11,-2.26959e-07
2.3e-11,3.22012e-07
2.4e-11,-1.3523e-06
2.5e-11,8.69095e-08
2.6e-11,1.93781e-07
2.7e-11,4.18202e-07
2.8e-11,-2.08839e-06
2.9e-11,-1.96137e-06
3e-11,-5.12147e-07
3.1e-11,2.08293e-07
3.2e-11,-4.12256e-07
3.3e-11,-3.85076e-07
3.4e-11,4.53026e-07
3.5e-11,-9.54699e-07
3.6e-11,1.66687e-07
3.7e-11,-5.54861e-07
3.8e-11,-4.88507e-07
3.9e-11,-1.00897e-06
4e-11,-5.69374e-07
4.1e-11,-9.20517e-07
4.2e-11,-3.80735e-07
4.3e-11,5.30063e-07
4.4e-11,1.07522e-06
4.5e-11,-9.97043e-07
4.6e-11,-1.06766e-06
4.7e-11,-1.02554e-06
4.8e-11,4.61504e-07
4.9e-11,5.23239e-07
5e-11,-8.42157e-07
5.1e-11,-8.59074e-07
5.2e-11,-2.92321e-07
5.3e-11,6.12012e-07
5.4e-11,-2.29329e-07
5.5e-11,-3.66739e-07
5.6e-11,-1.16634e-06
5.7e-11,-8.43e-07
5.8e-11,9.06349e-07
5.9e-11,-2.15972e-07
6e-11,3.0504e-07
6.1e-11,-1.44731e-06
6.2e-11,-6.54653e-07
6.3e-11,2.22369e-07
6.4e-11,1.329e-07
6.5e-11,-2.41028e-07
6.6e-11,-3.55849e-07
6.7e-11,-1.33871e-06
6.8e-11,-1.95535e-07
6.9e-11,-6.35832e-07
7e-11,3.89828e-08
7.1e-11,-6.71684e-08
7.2e-11,1.39854e-07
7.3e-11,-3.46348e-07
7.4e-11,2.05507e-07
7.5e-11,-4.47069e-07
7.6e-11,-7.08786e-08
7.7e-11,9.47132e-09
7.8e-11,8.79622e-07
7.9e-11,-9.00306e-07
8e-11,-6.79038e-07
8.1e-11,-2.57679e-07
8.2e-11,-6.93263e-07
8.3e-11,2.06244e-07
8.4e-11,-2.55576e-07
8.5e-11,-1.9614e-06
8.6e-11,-9.83028e-07
8.7e-11,-8.93986e-09
8.8e-11,1.25755e-07
8.9e-11,-4.89551e-07
9e-11,-5.39257e-07
9.1e-11,-4.45674e-07
9.2e-11,4.77956e-08
9.3e-11,-1.21209e-06
9.4e-11,2.98404e-08
9.5e-11,-3.54155e-07
9.6e-11,-7.34875e-07
9.7e-11,-5.78872e-07
9.8e-11,-6.52399e-07
9.9e-11,-1.15093e-06
1e-10,-3.87192e-07
1.01e-10,-1.93311e-07
1.02e-10,-8.70171e-07
1.03e-10,1.59416e-07
1.04e-10,-4.03208e-07
1.05e-10,-5.90863e-07
1.06e-10,-1.94233e-06
1.07e-10,-5.22224e-07
1.08e-10,-2.61409e-06
1.09e-10,6.66454e-08
1.1e-10,-5.81539e-07
1.11e-10,-4.47531e-07
1.12e-10,1.34755e-07
1.13e-10,-1.43706e-06
1.14e-10,-3.21256e-07
1.15e-10,-8.18723e-07
1.16e-10,-5.42947e-07
1.17e-10,-7.16207e-07
1.18e-10,-1.97452e-06
1.19e-10,-4.40721e-07
1.2e-10,-1.09591e-06
1.21e-10,-2.3526e-07
1.22e-10,-8.19774e-07
1.23e-10,-3.47359e-07
1.24e-10,-5.35196e-07
1.25e-10,-5.04892e-07
1.26e-10,-1.64411e-06
1.27e-10,-5.0242e-07
1.28e-10,-7.06798e-07
1.29e-10,-1.22283e-06
1.3e-10,-1.78155e-07
1.31e-10,-2.86809e-06
1.32e-10,-1.21569e-07
1.33e-10,3.91236e-07
1.34e-10,-3.45636e-07
1.35e-10,-6.60755e-07
1.36e-10,-4.64381e-07
1.37e-10,-1.00183e-06
1.38e-10,-5.28421e-07
1.39e-10,-7.81941e-07
1.4e-10,-2.66278e-06
1.41e-10,-9.15958e-07
1.42e-10,-4.9623e-08
1.43e-10,-4.65058e-07
1.44e-10,-8.24898e-07
1.45e-10,3.88927e-07
1.46e-10,-8.06626e-07
1.47e-10,-1.26496e-06
1.48e-10,-2.56063e-07
1.49e-10,-4.72923e-07
1.5e-10,4.26522e-08
1.51e-10,-9.72068e-07
1.52e-10,-1.54861e-06
1.53e-10,-2.89538e-07
1.54e-10,-1.13018e-06
1.55e-10,-6.50185e-07
1.56e-10,-7.24697e-10
1.57e-10,-5.46402e-07
1.58e-10,-1.4718e-07
1.59e-10,-7.1381e-08
1.6e-10,-4.73043e-07
1.61e-10,-4.38366e-07
1.62e-10,-2.51454e-06
1.63e-10,4.49646e-07
1.64e-10,-3.3859e-07
1.65e-10,6.70779e-07
1.66e-10,-9.13972e-07
1.67e-10,2.56063e-07
1.68e-10,-5.33424e-07
1.69e-10,-2.99158e-07
1.7e-10,-4.74023e-07
1.71e-10,-4.20569e-07
1.72e-10,-1.46993e-06
1.73e-10,-2.50099e-06
1.74e-10,2.66385e-07
1.75e-10,-4.68057e-07
1.76e-10,-6.50112e-07
1.77e-10,-6.29871e-08
1.78e-10,-9.709e-08
1.79e-10,-1.45336e-06
1.8e-10,-2.08523e-07
1.81e-10,-3.9998e-07
1.82e-10,-8.16315e-07
1.83e-10,-4.81968e-07
1.84e-10,-8.41411e-07
1.85e-10,-1.60472e-06
1.86e-10,-3.65102e-07
1.87e-10,-2.24622e-07
1.88e-10,3.12369e-07
1.89e-10,-7.85322e-07
1.9e-10,-1.17483e-06
1.91e-10,-6.11635e-08
1.92e-10,5.49867e-07
1.93e-10,-3.52521e-07
1.94e-10,-1.90051e-07
1.95e-10,-8.35507e-07
1.96e-10,-2.75666e-07
1.97e-10,-4.06273e-07
1.98e-10,-7.41834e-08
1.99e-10,-2.65991e-06
2e-10,-2.60848e-07
2.01e-10,-3.07473e-07
2.02e-10,-3.71174e-07
2.03e-10,-2.17063e-07
2.04e-10,-1.96361e-07
2.05e-10,-3.58663e-08
2.06e-10,-1.27044e-06
2.07e-10,1.29296e-07
2.08e-10,-7.18728e-07
2.09e-10,-8.74257e-07
2.1e-10,-3.38462e-08
2.11e-10,2.69444e-07
2.12e-10,-4.95997e-08
2.13e-10,-5.90084e-07
2.14e-10,4.42021e-07
2.15e-10,-1.10722e-06
2.16e-10,-5.23901e-07
2.17e-10,-2.30113e-06
2.18e-10,3.12987e-07
2.19e-10,6.71644e-08
2.2e-10,-3.61529e-07
2.21e-10,8.44544e-08
2.22e-10,9.42691e-09
2.23e-10,-4.27787e-07
2.24e-10,-4.27764e-07
2.25e-10,-3.31024e-07
2.26e-10,-1.11409e-06
2.27e-10,-1.29827e-06
2.28e-10,-4.00991e-08
2.29e-10,-4.79849e-07
2.3e-10,-1.15846e-06
2.31e-10,8.71072e-08
2.32e-10,-2.17135e-07
2.33e-10,1.01851e-06
2.34e-10,-8.2332e-07
2.35e-10,-1.62162e-07
2.36e-10,3.7578e-08
2.37e-10,-1.29869e-06
2.38e-10,-5.41525e-07
2.39e-10,-1.57552e-06
2.4e-10,-6.73172e-07
2.41e-10,1.15387e-07
2.42e-10,-7.50161e-07
2.43e-10,1.9649e-07
2.44e-10,-4.10371e-07
2.45e-10,1.38649e-07
2.46e-10,4.4533e-07
2.47e-10,-3.67334e-07
2.48e-10,-1.06924e-06
2.49e-10,7.23242e-07
2.5e-10,-1.72329e-06
2.51e-10,-4.21252e-07
2.52e-10,-9.26657e-08
2.53e-10,4.48861e-08
2.54e-10,-1.55731e-07
2.55e-10,5.17761e-07
2.56e-10,4.81696e-07
2.57e-10,-3.70291e-07
2.58e-10,1.87446e-07
2.59e-10,-1.05711e-07
2.6e-10,5.83846e-08
2.61e-10,3.15127e-07
2.62e-10,-2.88162e-07
2.63e-10,-2.4149e-07
2.64e-10,-5.49867e-07
2.65e-10,-3.43562e-07
2.66e-10,-3.62852e-07
2.67e-10,1.47107e-07
2.68e-10,-6.1182e-07
2.69e-10,1.5178e-07
2.7e-10,6.86178e-08
2.71e-10,-6.82794e-07
2.72e-10,-4.94967e-07
2.73e-10,-5.66493e-07
2.74e-10,-4.38523e-07
2.75e-10,-3.90691e-07
2.76e-10,-6.44816e-09
2.77e-10,-2.76087e-07
2.78e-10,-1.50194e-07
2.79e-10,7.61133e-07
2.8e-10,-3.80855e-07
2.81e-10,1.08014e-07
2.82e-10,-1.90616e-07
2.83e-10,-1.22609e-06
2.84e-10,-3.94928e-07
2.85e-10,-5.18219e-07
2.86e-10,-4.70636e-07
2.87e-10,-1.48782e-06
2.88e-10,2.8403e-07
2.89e-10,-4.98976e-07
2.9e-10,-5.21126e-08
2.91e-10,-7.16069e-09
2.92e-10,-9.12215e-07
2.93e-10,-2.45077e-07
2.94e-10,-3.55466e-07
2.95e-10,-3.75391e-07
2.96e-10,2.88292e-07
2.97e-10,-5.88376e-07
2.98e-10,-1.21239e-06
2.99e-10,-2.0939e-07
3e-10,-1.41924e-07
3.01e-10,-9.12825e-07
3.02e-10,-1.50373e-06
3.03e-10,3.04987e-09
3.04e-10,-2.5614e-07
3.05e-10,3.91776e-07
3.06e-10,1.59144e-08
3.07e-10,-2.5213e-06
3.08e-10,4.72835e-07
3.09e-10,-5.4508e-07
3.1e-10,-3.11528e-07
3.11e-10,-1.50918e-06
3.12e-10,-3.77942e-07
3.13e-10,-5.64093e-07
3.14e-10,-1.42412e-06
3.15e-10,9.23765e-08
3.16e-10,-4.79072e-07
3.17e-10,5.59158e-07
3.18e-10,-4.21369e-07
3.19e-10,-4.31573e-07
3.2e-10,-4.25866e-07
3.21e-10,-1.16066e-06
3.22e-10,-6.50721e-07
3.23e-10,-2.01614e-06
3.24e-10,-7.30658e-07
3.25e-10,-5.02055e-07
3.26e-10,2.46466e-08
3.27e-10,-4.95042e-07
3.28e-10,-1.02087e-06
3.29e-10,1.01979e-07
3.3e-10,-1.18576e-06
3.31e-10,-3.52777e-07
3.32e-10,-2.49978e-08
3.33e-10,2.00531e-07
3.34e-10,-3.01074e-06
3.35e-10,-3.71483e-07
3.36e-10,-1.00904e-06
3.37e-10,-7.85415e-07
3.38e-10,-8.28173e-07
3.39e-10,-2.54515e-07
3.4e-10,-1.00392e-06
3.41e-10,-4.25511e-07
3.42e-10,-1.23205e-06
3.43e-10,-1.08746e-08
3.44e-10,-3.34915e-07
3.45e-10,-5.57885e-07
3.46e-10,-1.46889e-06
3.47e-10,-2.76114e-07
3.48e-10,-3.83037e-07
3.49e-10,-1.32713e-06
3.5e-10,-1.22795e-07
3.51e-10,-9.57521e-07
3.52e-10,-2.26706e-07
3.53e-10,-1.89612e-08
3.54e-10,-1.47831e-06
3.55e-10,-1.86156e-07
3.56e-10,-1.04526e-06
3.57e-10,1.01784e-07
3.58e-10,-1.94431e-06
3.59e-10,4.27349e-08
3.6e-10,-1.47174e-06
3.61e-10,1.14903e-07
3.62e-10,-1.42351e-06
3.63e-10,-3.05715e-07
3.64e-10,-1.55661e-07
3.65e-10,-5.79639e-07
3.66e-10,-1.01167e-06
3.67e-10,9.32412e-07
3.68e-10,-1.45512e-06
3.69e-10,8.47351e-09
3.7e-10,-1.44275e-07
3.71e-10,-3.73118e-07
3.72e-10,7.04972e-07
3.73e-10,-1.50002e-06
3.74e-10,4.36435e-07
3.75e-10,-3.37514e-07
3.76e-10,-1.50418e-06
3.77e-10,-8.10861e-07
3.78e-10,1.36348e-08
3.79e-10,-3.17568e-07
3.8e-10,-2.93221e-07
3.81e-10,-4.34581e-07
3.82e-10,-9.25391e-08
3.83e-10,1.77112e-07
3.84e-10,-3.96776e-07
3.85e-10,-1.32641e-06
3.86e-10,-1.15742e-07
3.87e-10,-1.97096e-07
3.88e-10,-9.10376e-07
3.89e-10,1.00461e-08
3.9e-10,-1.14593e-07
3.91e-10,-1.36409e-06
3.92e-10,-2.67699e-07
3.93e-10,-4.10145e-07
3.94e-10,-1.1755e-06
3.95e-10,-3.95952e-07
3.96e-10,-9.2309e-07
3.97e-10,-3.7599e-07
3.98e-10,-1.84206e-07
3.99e-10,-5.77333e-07
4e-10,-2.37974e-07
4.01e-10,-8.90233e-07
4.02e-10,-9.99226e-07
4.03e-10,-3.58801e-07
4.04e-10,-1.32641e-06
4.05e-10,4.6448e-07
4.06e-10,-4.85256e-07
4.07e-10,-4.94897e-07
4.08e-10,-3.55199e-09
4.09e-10,-3.61116e-07
4.1e-10,-6.99829e-07
4.11e-10,-1.22668e-07
4.12e-10,-1.63413e-07
4.13e-10,-8.20936e-07
4.14e-10,-1.35683e-06
4.15e-10,5.01324e-07
4.16e-10,-8.00041e-07
4.17e-10,1.15001e-07
4.18e-10,-9.58055e-08
4.19e-10,-3.51795e-07
4.2e-10,-3.30668e-07
4.21e-10,3.46135e-07
4.22e-10,-5.69899e-07
4.23e-10,-4.44287e-07
4.24e-10,-1.99914e-06
4.25e-10,-7.99066e-07
4.26e-10,-1.19863e-06
4.27e-10,4.0729e-08
4.28e-10,2.20079e-07
4.29e-10,-2.72001e-07
4.3e-10,3.36683e-07
4.31e-10,3.19758e-07
4.32e-10,-3.73745e-07
4.33e-10,-2.19335e-07
4.34e-10,-7.96809e-07
4.35e-10,-2.84191e-07
4.36e-10,-1.73674e-06
4.37e-10,5.75828e-08
4.38e-10,-2.66381e-07
4.39e-10,4.33628e-07
4.4e-10,1.5338e-07
4.41e-10,1.88497e-07
4.42e-10,-2.912e-07
4.43e-10,-1.8069e-06
4.44e-10,3.24619e-07
4.45e-10,-2.16845e-07
4.46e-10,8.38057e-08
4.47e-10,-1.7131e-07
4.48e-10,-1.03322e-06
4.49e-10,-1.01744e-07
4.5e-10,-9.69246e-08
4.51e-10,-3.74443e-07
4.52e-10,1.06221e-07
4.53e-10,1.88361e-07
4.54e-10,-3.10521e-07
4.55e-10,-5.34737e-09
4.56e-10,-1.00408e-07
4.57e-10,-6.35186e-08
4.58e-10,2.80964e-07
4.59e-10,-9.45596e-08
4.6e-10,-1.22744e-06
4.61e-10,-2.79816e-07
4.62e-10,-4.95395e-07
4.63e-10,2.97622e-07
4.64e-10,-4.97747e-07
4.65e-10,-8.75429e-08
4.66e-10,4.74762e-07
4.67e-10,-7.76312e-08
4.68e-10,-1.00165e-06
4.69e-10,4.22575e-07
4.7e-10,-1.25064e-06
4.71e-10,-6.00587e-08
4.72e-10,8.86577e-09
4.73e-10,-1.75452e-07
4.74e-10,1.02885e-07
4.75e-10,-9.12816e-07
4.76e-10,-1.90952e-07
4.77e-10,-1.00751e-07
4.78e-10,-2.64063e-07
4.79e-10,6.02953e-08
4.8e-10,-3.2764e-07
4.81e-10,-4.61532e-08
4.82e-10,-1.50986e-06
4.83e-10,1.21853e-07
4.84e-10,-1.98231e-07
4.85e-10,-1.07963e-06
4.86e-10,-1.52838e-07
4.87e-10,-6.90178e-07
4.88e-10,5.48999e-08
4.89e-10,1.41071e-07
4.9e-10,-3.15419e-07
4.91e-10,2.03592e-07
4.92e-10,-7.62955e-08
4.93e-10,-1.03763e-06
4.94e-10,-1.29564e-07
4.95e-10,-1.74036e-08
4.96e-10,-1.05077e-07
4.97e-10,-1.86308e-06
4.98e-10,-3.95415e-08
4.99e-10,4.23823e-07
5e-10,-2.12553e-07
5.01e-10,-1.50263e-07
5.02e-10,-5.67699e-07
5.03e-10,-1.23796e-06
5.04e-10,2.65047e-07
5.05e-10,-4.94322e-07
5.06e-10,-1.03046e-07
5.07e-10,-6.82478e-07
5.08e-10,-9.78669e-07
5.09e-10,1.80234e-07
5.1e-10,-1.96839e-07
5.11e-10,2.89634e-07
5.12e-10,-1.77109e-07
5.13e-10,-1.06479e-06
5.14e-10,-1.02145e-06
5.15e-10,-1.12406e-07
5.16e-10,-5.46e-08
5.17e-10,-3.77568e-07
5.18e-10,-5.74298e-08
5.19e-10,-5.78662e-07
5.2e-10,-4.15775e-07
5.21e-10,-1.3247e-06
5.22e-10,2.12336e-07
5.23e-10,-1.38512e-06
5.24e-10,-4.58865e-07
5.25e-10,-3.97409e-07
5.26e-10,-1.10989e-06
5.27e-10,5.05798e-07
5.28e-10,-1.18151e-07
5.29e-10,-1.87112e-06
5.3e-10,-3.68461e-07
5.31e-10,-1.8295e-07
5.32e-10,-1.16384e-06
5.33e-10,-1.33407e-06
5.34e-10,-1.27608e-06
5.35e-10,1.30659e-07
5.36e-10,-2.47966e-08
5.37e-10,-6.76241e-07
5.38e-10,-8.05239e-07
5.39e-10,-6.96079e-07
5.4e-10,4.80721e-07
5.41e-10,-3.77699e-07
5.42e-10,1.58632e-07
5.43e-10,-3.30954e-06
5.44e-10,-3.25083e-07
5.45e-10,-1.11595e-06
5.46e-10,3.54772e-07
5.47e-10,-2.44661e-07
5.48e-10,-2.21582e-08
5.49e-10,-1.93225e-06
5.5e-10,-3.7918e-07
5.51e-10,-1.32585e-07
5.52e-10,-1.04697e-06
5.53e-10,-1.63184e-07
5.54e-10,-1.4926e-06
5.55e-10,-9.36009e-07
5.56e-10,2.69617e-07
5.57e-10,-1.1535e-06
5.58e-10,7.5113e-08
5.59e-10,-2.36066e-06
5.6e-10,-2.28947e-07
5.61e-10,-1.09752e-06
5.62e-10,-4.89281e-07
5.63e-10,-2.61496e-07
5.64e-10,-2.63138e-06
5.65e-10,-1.38635e-06
5.66e-10,-2.70177e-07
5.67e-10,-1.44953e-07
5.68e-10,-1.09953e-06
5.69e-10,-1.10186e-07
5.7e-10,-1.20511e-07
5.71e-10,-9.60531e-07
5.72e-10,-9.87553e-07
5.73e-10,2.10953e-07
5.74e-10,-1.23942e-06
5.75e-10,7.47695e-08
5.76e-10,-2.72953e-07
5.77e-10,2.71107e-07
5.78e-10,-1.30763e-07
5.79e-10,-1.30604e-07
5.8e-10,-1.54131e-07
5.81e-10,-9.05903e-07
5.82e-10,-3.16797e-07
5.83e-10,-7.55618e-08
5.84e-10,-2.03214e-07
5.85e-10,2.22435e-07
5.86e-10,2.68228e-07
5.87e-10,-1.83056e-07
5.88e-10,2.39764e-07
5.89e-10,-8.4918e-07
5.9e-10,-1.33809e-06
5.91e-10,-1.28015e-07
5.92e-10,3.70605e-07
5.93e-10,-2.14993e-07
5.94e-10,-4.07296e-08
5.95e-10,1.6507e-07
5.96e-10,-5.81923e-08
5.97e-10,-9.20395e-08
5.98e-10,1.77393e-07
5.99e-10,-1.68691e-07
6e-10,-3.15257e-08
6.01e-10,-2.55316e-07
6.02e-10,-6.51031e-08
6.03e-10,3.29949e-07
6.04e-10,-8.79374e-08
6.05e-10,1.53068e-07
6.06e-10,1.36804e-07
6.07e-10,-3.15006e-07
6.08e-10,6.71648e-08
6.09e-10,1.27478e-07
6.1e-10,-2.05724e-07
6.11e-10,-1.14035e-07
6.12e-10,2.37426e-08
6.13e-10,-2.80245e-07
6.14e-10,2.52654e-07
6.15e-10,-8.62839e-08
6.16e-10,1.77629e-07
6.17e-10,-5.46481e-08
6.18e-10,-9.30951e-07
6.19e-10,-4.27637e-08
6.2e-10,-5.14514e-07
6.21e-10,2.47919e-08
6.22e-10,-1.31256e-07
6.23e-10,-2.17392e-07
6.24e-10,-1.03692e-07
6.25e-10,-1.29614e-07
6.26e-10,-7.08881e-07
6.27e-10,-1.28487e-07
6.28e-10,-1.02321e-08
6.29e-10,1.82269e-07
6.3e-10,-3.19755e-08
6.31e-10,-1.29386e-07
6.32e-10,-9.70184e-08
6.33e-10,2.13941e-08
6.34e-10,2.15851e-08
6.35e-10,-8.64331e-07
6.36e-10,-1.22484e-06
6.37e-10,2.35012e-07
6.38e-10,2.03298e-07
6.39e-10,-8.6946e-07
6.4e-10,-1.60249e-07
6.41e-10,-6.05394e-08
6.42e-10,-1.35092e-07
6.43e-10,-1.27183e-07
6.44e-10,1.6079e-07
6.45e-10,-1.04542e-06
6.46e-10,-1.26577e-06
6.47e-10,-4.99127e-08
6.48e-10,-2.01654e-07
6.49e-10,7.20245e-08
6.5e-10,2.03212e-07
6.51e-10,-1.01809e-06
6.52e-10,1.38951e-07
6.53e-10,-1.03407e-06
6.54e-10,4.24928e-08
6.55e-10,-7.6487e-08
6.56e-10,-4.56164e-08
6.57e-10,-8.78882e-08
6.58e-10,-1.41281e-07
6.59e-10,-4.75686e-08
6.6e-10,-1.2294e-06
6.61e-10,-5.51167e-08
6.62e-10,6.58554e-08
6.63e-10,-1.21476e-06
6.64e-10,-4.99884e-08
6.65e-10,1.60437e-07
6.66e-10,-2.40088e-09
6.67e-10,6.36306e-10
6.68e-10,-1.37342e-07
6.69e-10,5.07106e-08
6.7e-10,-5.90905e-08
6.71e-10,-1.14218e-06
6.72e-10,-3.98924e-08
6.73e-10,-3.85628e-08
6.74e-10,-8.44673e-08
6.75e-10,-3.05693e-08
6.76e-10,-1.89737e-07
6.77e-10,-7.35997e-08
6.78e-10,-2.44981e-08
6.79e-10,8.26206e-08
6.8e-10,-3.4548e-07
6.81e-10,4.53186e-08
6.82e-10,-8.61452e-08
6.83e-10,-8.944e-08
6.84e-10,-5.70925e-09
6.85e-10,9.51336e-08
6.86e-10,-1.29034e-07
6.87e-10,-1.06376e-07
6.88e-10,-4.13544e-08
6.89e-10,-9.35409e-08
6.9e-10,-5.4346e-08
6.91e-10,-5.18509e-08
6.92e-10,-4.31735e-08
6.93e-10,5.75658e-08
6.94e-10,-3.83169e-08
6.95e-10,-2.3891e-11
6.96e-10,-9.56043e-08
6.97e-10,-8.77278e-08
6.98e-10,-1.60812e-07
6.99e-10,-1.69841e-07
7e-10,5.40041e-09
7.01e-10,-4.40882e-08
7.02e-10,-7.01579e-08
7.03e-10,-8.20643e-08
7.04e-10,-2.40088e-09
7.05e-10,3.75129e-09
7.06e-10,-4.41045e-08
7.07e-10,-8.63329e-08
7.08e-10,1.5498e-07
7.09e-10,-2.35647e-07
7.1e-10,1.16739e-07
7.11e-10,4.93469e-08
7.12e-10,-4.74002e-08
7.13e-10,-9.69759e-08
7.14e-10,-3.61173e-08
7.15e-10,-3.76841e-08
7.16e-10,-9.74647e-08
7.17e-10,9.2663e-08
7.18e-10,-1.88603e-07
7.19e-10,-3.8516e-08
7.2e-10,-5.12461e-08
7.21e-10,-5.26422e-09
7.22e-10,-6.35526e-09
7.23e-10,-3.8414e-08
7.24e-10,-5.67668e-08
7.25e-10,-8.15346e-08
7.26e-10,5.89166e-08
7.27e-10,-1.59201e-07
7.28e-10,-4.52064e-08
7.29e-10,-4.42369e-08
7.3e-10,-5.67822e-08
7.31e-10,-2.55597e-08
7.32e-10,-8.60509e-08
7.33e-10,-4.87696e-09
7.34e-10,-8.29321e-08
7.35e-10,-1.22336e-07
7.36e-10,6.40631e-08
7.37e-10,-4.57205e-08
7.38e-10,-4.74835e-08
7.39e-10,-1.11474e-09
7.4e-10,-3.75007e-08
7.41e-10,2.26411e-09
7.42e-10,-5.03517e-08
7.43e-10,6.4839e-08
7.44e-10,-2.35463e-10
7.45e-10,-3.97004e-08
7.46e-10,-4.08311e-08
7.47e-10,-6.77612e-09
7.48e-10,-4.41936e-08
7.49e-10,-4.02963e-08
7.5e-10,1.11113e-07
7.51e-10,-4.51874e-08
7.52e-10,-3.52176e-08
7.53e-10,-9.33171e-08
7.54e-10,1.16869e-07
7.55e-10,4.86486e-08
7.56e-10,2.40088e-09
7.57e-10,-4.24558e-08
7.58e-10,2.40088e-09
7.59e-10,-1.34475e-07
7.6e-10,4.28346e-08
7.61e-10,-1.33552e-07
7.62e-10,2.01905e-07
7.63e-10,-1.00755e-08
7.64e-10,-1.61883e-07
7.65e-10,4.09517e-08
7.66e-10,-4.11211e-08
7.67e-10,2.73611e-07
7.68e-10,-4.81578e-08
7.69e-10,-1.78749e-09
7.7e-10,-9.09594e-08
7.71e-10,-1.18137e-07
7.72e-10,7.66452e-09
7.73e-10,1.50396e-09
7.74e-10,2.03837e-07
7.75e-10,0
7.76e-10,0
7.77e-10,-4.3976e-08
7.78e-10,-8.65684e-08
7.79e-10,9.01565e-08
7.8e-10,1.83017e-07
7.81e-10,-4.52865e-08
7.82e-10,-9.84792e-09
7.83e-10,-4.68473e-08
7.84e-10,6.79234e-09
7.85e-10,1.71646e-07
7.86e-10,-8.93762e-08
7.87e-10,-1.48478e-07
7.88e-10,-4.58937e-08
7.89e-10,-4.35117e-08
7.9e-10,-1.00207e-08
7.91e-10,-4.05705e-08
7.92e-10,-3.81164e-10
7.93e-10,-2.88527e-08
7.94e-10,-4.77442e-08
7.95e-10,-6.98795e-09
7.96e-10,-9.36572e-08
7.97e-10,-4.67827e-08
7.98e-10,2.64528e-09
7.99e-10,-1.36769e-10
8e-10,2.26411e-09
8.01e-10,8.64318e-08
8.02e-10,-3.52611e-08
8.03e-10,-1.48478e-07
8.04e-10,-3.91662e-08
8.05e-10,-5.58685e-08
8.06e-10,5.57813e-09
8.07e-10,3.65267e-09
8.08e-10,-6.74425e-09
8.09e-10,3.32247e-09
8.1e-10,9.32999e-09
8.11e-10,-1.23052e-07
8.12e-10,-8.17836e-08
8.13e-10,3.62867e-08
8.14e-10,-4.81789e-08
8.15e-10,-8.12847e-08
8.16e-10,1.96647e-09
8.17e-10,-2.67785e-09
8.18e-10,4.13654e-08
8.19e-10,-1.54691e-07
8.2e-10,-2.26411e-09
8.21e-10,-4.09519e-08
8.22e-10,-6.92911e-09
8.23e-10,-2.76964e-10
8.24e-10,-1.36769e-10
8.25e-10,-3.15292e-09
8.26e-10,-1.36769e-10
8.27e-10,-1.2921e-07
8.28e-10,2.97549e-09
8.29e-10,-5.02906e-08
8.3e-10,-4.1314e-08
8.31e-10,-2.16937e-09
8.32e-10,5.07873e-09
8.33e-10,-7.31027e-09
8.34e-10,-1.35993e-07
8.35e-10,-4.58932e-08
8.36e-10,-3.71836e-08
8.37e-10,2.40088e-09
8.38e-10,-6.60329e-09
8.39e-10,-3.55428e-08
8.4e-10,4.32158e-08
8.41e-10,-9.07992e-08
8.42e-10,-2.67785e-09
8.43e-10,-1.55063e-07
8.44e-10,-2.53765e-09
8.45e-10,1.85038e-09
8.46e-10,0
8.47e-10,2.81461e-09
8.48e-10,2.26411e-09
8.49e-10,-1.01575e-08
8.5e-10,-2.76632e-07
8.51e-10,4.96203e-09
8.52e-10,-2.25065e-07
8.53e-10,-4.25126e-09
8.54e-10,2.26411e-09
8.55e-10,-4.47199e-08
8.56e-10,-4.8174e-08
8.57e-10,4.52823e-09
8.58e-10,0
8.59e-10,5.07873e-09
8.6e-10,-4.30793e-08
8.61e-10,-2.47445e-07
8.62e-10,0
8.63e-10,-5.01976e-08
8.64e-10,-2.24327e-10
8.65e-10,4.52823e-09
8.66e-10,0
8.67e-10,-1.00207e-08
8.68e-10,7.34284e-09
8.69e-10,-4.68192e-09
8.7e-10,-2.88179e-07
8.71e-10,-4.92161e-09
8.72e-10,-7.08623e-09
8.73e-10,-3.9707e-07
8.74e-10,-7.6198e-09
8.75e-10,-4.66499e-09
8.76e-10,2.54108e-09
8.77e-10,-1.40195e-10
8.78e-10,-4.68974e-07
8.79e-10,7.06588e-09
8.8e-10,-4.66499e-09
8.81e-10,-3.94477e-08
8.82e-10,2.40431e-09
8.83e-10,-4.29803e-08
8.84e-10,3.59986e-08
8.85e-10,1.36339e-08
8.86e-10,-5.48099e-08
8.87e-10,4.58263e-08
8.88e-10,-6.76368e-07
8.89e-10,-3.41285e-07
8.9e-10,4.80176e-09
8.91e-10,-1.15941e-08
8.92e-10,-2.81461e-09
8.93e-10,-2.40088e-09
8.94e-10,2.40088e-09
8.95e-10,-2.40088e-09
8.96e-10,9.32999e-09
8.97e-10,-4.66499e-09
8.98e-10,-8.64316e-08
8.99e-10,-2.12734e-09
9e-10,4.07623e-08
9.01e-10,-4.79649e-08
9.02e-10,-5.01001e-08
9.03e-10,4.80176e-09
9.04e-10,-2.31675e-09
9.05e-10,1.36769e-10
9.06e-10,-2.34824e-09
9.07e-10,4.66499e-09
9.08e-10,4.54799e-08
9.09e-10,-4.52823e-09
9.1e-10,-2.40088e-09
9.11e-10,-5.03381e-08
9.12e-10,5.63966e-11
9.13e-10,9.19322e-09
9.14e-10,-4.58462e-09
9.15e-10,2.34824e-09
9.16e-10,-1.17309e-08
9.17e-10,5.26369e-11
9.18e-10,2.21148e-09
9.19e-10,2.26411e-09
9.2e-10,2.45352e-09
9.21e-10,4.93853e-09
9.22e-10,-2.40088e-09
9.23e-10,-2.40088e-09
9.24e-10,-2.48609e-09
9.25e-10,5.07873e-09
9.26e-10,-4.55315e-08
9.27e-10,-4.69756e-09
9.28e-10,2.40088e-09
9.29e-10,-2.83468e-09
9.3e-10,0
9.31e-10,-4.13733e-10
9.32e-10,-2.43345e-09
9.33e-10,2.40088e-09
9.34e-10,-2.26411e-09
9.35e-10,0
9.36e-10,9.46676e-09
9.37e-10,-6.92911e-09
9.38e-10,-5.02609e-09
9.39e-10,-4.66499e-09
9.4e-10,9.09453e-09
9.41e-10,-4.66499e-09
9.42e-10,-1.042e-10
9.43e-10,-7.51218e-09
9.44e-10,5.50501e-10
9.45e-10,-2.50851e-09
9.46e-10,-1.36769e-10
9.47e-10,-2.40088e-09
9.48e-10,6.51537e-09
9.49e-10,4.13733e-10
9.5e-10,-7.34284e-09
9.51e-10,2.40088e-09
9.52e-10,0
9.53e-10,-4.52823e-09
9.54e-10,-4.66499e-09
9.55e-10,6.65214e-09
9.56e-10,0
9.57e-10,0
9.58e-10,-7.20264e-09
9.59e-10,0
9.6e-10,4.52823e-09
9.61e-10,-2.12734e-09
9.62e-10,2.40088e-09
9.63e-10,-2.40088e-09
9.64e-10,6.92911e-09
9.65e-10,-9.46676e-09
9.66e-10,2.40088e-09
9.67e-10,2.40088e-09
9.68e-10,4.80176e-09
9.69e-10,-9.46676e-09
9.7e-10,-6.92911e-09
9.71e-10,-2.40088e-09
9.72e-10,-5.50501e-10
9.73e-10,-1.36769e-10
9.74e-10,-4.94196e-09
9.75e-10,2.40088e-09
9.76e-10,-2.26411e-09
9.77e-10,0
9.78e-10,4.52823e-09
9.79e-10,-1.36769e-10
9.8e-10,-4.52823e-09
9.81e-10,-1.36769e-10
9.82e-10,-2.26411e-09
9.83e-10,-2.26411e-09
9.84e-10,1.36769e-10
9.85e-10,-2.01033e-09
9.86e-10,2.67785e-09
9.87e-10,4.25126e-09
9.88e-10,-1.98715e-09
9.89e-10,-9.47018e-09
9.9e-10,2.40088e-09
9.91e-10,2.26411e-09
9.92e-10,0
9.93e-10,1.05744e-10
9.94e-10,-4.66499e-09
9.95e-10,4.52823e-09
9.96e-10,-2.26411e-09
9.97e-10,-4.80176e-09
9.98e-10,-2.26411e-09
9.99e-10,-2.26411e-09
1e-09,2.26411e-09
1.001e-09,9.19322e-09
1.002e-09,2.53765e-09
1.003e-09,-2.12029e-09
1.004e-09,-2.40088e-09
1.005e-09,-7.20969e-09
1.006e-09,2.40793e-09
1.007e-09,-4.53527e-09
1.008e-09,4.42953e-09
1.009e-09,-7.04958e-12
1.01e-09,-2.26411e-09
1.011e-09,2.40088e-09
1.012e-09,4.66499e-09
1.013e-09,1.99058e-09
1.014e-09,-4.39146e-09
1.015e-09,-1.36769e-10
1.016e-09,-2.12734e-09
1.017e-09,-6.92911e-09
1.018e-09,-4.66499e-09
1.019e-09,1.36769e-10
1.02e-09,-1.36769e-10
1.021e-09,0
1.022e-09,-1.36769e-10
1.023e-09,-2.40088e-09
1.024e-09,-2.12734e-09
1.025e-09,-2.77933e-25
1.026e-09,2.26411e-09
1.027e-09,-4.39146e-09
1.028e-09,-1.36769e-10
1.029e-09,2.40088e-09
1.03e-09,-4.80176e-09
1.031e-09,6.92911e-09
1.032e-09,-2.40088e-09
1.033e-09,6.92911e-09
1.034e-09,-4.52823e-09
1.035e-09,1.36769e-10
1.036e-09,-4.80176e-09
1.037e-09,4.66499e-09
1.038e-09,4.66499e-09
1.039e-09,-2.40088e-09
1.04e-09,-4.66499e-09
1.041e-09,2.73538e-10
1.042e-09,-2.40088e-09
1.043e-09,1.36769e-10
1.044e-09,0
1.045e-09,-4.66499e-09
1.046e-09,-7.06588e-09
1.047e-09,2.40088e-09
1.048e-09,0
1.049e-09,1.36769e-10
1.05e-09,-2.26411e-09
1.051e-09,9.19322e-09
1.052e-09,2.26411e-09
1.053e-09,0
1.054e-09,-4.66499e-09
1.055e-09,4.66499e-09
1.056e-09,-4.03257e-10
1.057e-09,-2.12734e-09
1.058e-09,2.26411e-09
1.059e-09,1.36769e-10
1.06e-09,-4.66499e-09
1.061e-09,4.66499e-09
1.062e-09,-2.40088e-09
1.063e-09,6.78529e-09
1.064e-09,2.40793e-09
1.065e-09,0
1.066e-09,-2.12734e-09
1.067e-09,4.52823e-09
1.068e-09,-2.26411e-09
1.069e-09,-2.40088e-09
1.07e-09,0
1.071e-09,2.26411e-09
1.072e-09,-4.66499e-09
1.073e-09,2.26411e-09
1.074e-09,4.66499e-09
1.075e-09,2.26411e-09
1.076e-09,1.36769e-10
1.077e-09,4.52118e-09
1.078e-09,-2.26411e-09
1.079e-09,2.26411e-09
1.08e-09,-2.25706e-09
1.081e-09,-4.66499e-09
1.082e-09,-2.26411e-09
1.083e-09,-7.04958e-12
1.084e-09,6.92911e-09
1.085e-09,4.80176e-09
1.086e-09,-4.80176e-09
1.087e-09,-6.79234e-09
1.088e-09,4.80176e-09
1.089e-09,0
1.09e-09,-1.36769e-10
1.091e-09,2.26411e-09
1.092e-09,-4.52823e-09
1.093e-09,0
1.094e-09,1.36769e-10
1.095e-09,-4.80176e-09
1.096e-09,1.36769e-10
1.097e-09,2.12734e-09
1.098e-09,-4.66499e-09
1.099e-09,4.80176e-09
1.1e-09,-4.66499e-09
1.101e-09,-4.52823e-09
1.102e-09,4.52823e-09
1.103e-09,-4.66499e-09
1.104e-09,-2.67442e-09
1.105e-09,-4.52823e-09
1.106e-09,2.26411e-09
1.107e-09,1.36769e-10
1.108e-09,-2.26411e-09
1.109e-09,-4.66499e-09
1.11e-09,2.53765e-09
1.111e-09,0
1.112e-09,2.12734e-09
1.113e-09,2.40088e-09
1.114e-09,-1.36769e-10
1.115e-09,0
1.116e-09,-2.26411e-09
1.117e-09,6.79234e-09
1.118e-09,2.40088e-09
1.119e-09,2.26411e-09
1.12e-09,-2.26411e-09
1.121e-09,-4.52823e-09
1.122e-09,0
1.123e-09,-1.36769e-10
1.124e-09,-2.40088e-09
1.125e-09,-2.12734e-09
1.126e-09,4.52823e-09
1.127e-09,-2.26411e-09
1.128e-09,1.36769e-10
1.129e-09,2.12734e-09
1.13e-09,-6.79234e-09
1.131e-09,1.14573e-08
1.132e-09,0
1.133e-09,-2.40088e-09
1.134e-09,-2.26411e-09
1.135e-09,-4.66499e-09
1.136e-09,1.36769e-10
1.137e-09,-2.40088e-09
1.138e-09,6.92911e-09
1.139e-09,-1.36769e-10
1.14e-09,-6.79234e-09
1.141e-09,-2.26411e-09
1.142e-09,-2.40088e-09
1.143e-09,2.26411e-09
1.144e-09,-4.52823e-09
1.145e-09,2.26411e-09
1.146e-09,-6.92911e-09
1.147e-09,2.26411e-09
1.148e-09,0
1.149e-09,1.36769e-10
1.15e-09,0
1.151e-09,-2.73538e-10
1.152e-09,-2.12734e-09
1.153e-09,4.80176e-09
1.154e-09,-1.36769e-10
1.155e-09,-4.52823e-09
1.156e-09,2.40088e-09
1.157e-09,2.12734e-09
1.158e-09,-4.52823e-09
1.159e-09,2.12734e-09
1.16e-09,2.73538e-10
1.161e-09,-2.40088e-09
1.162e-09,-2.26411e-09
1.163e-09,1.36769e-10
1.164e-09,-2.40088e-09
1.165e-09,9.05645e-09
1.166e-09,-2.26411e-09
1.167e-09,-1.36769e-10
1.168e-09,2.26411e-09
1.169e-09,-4.39146e-09
1.17e-09,4.66499e-09
1.171e-09,2.26411e-09
1.172e-09,-1.36769e-10
1.173e-09,-4.66499e-09
1.174e-09,2.40088e-09
1.175e-09,-1.36769e-10
1.176e-09,4.80176e-09
1.177e-09,-2.26411e-09
1.178e-09,2.26411e-09
1.179e-09,0
1.18e-09,0
1.181e-09,-2.40088e-09
1.182e-09,0
1.183e-09,-4.52823e-09
1.184e-09,1.36769e-10
1.185e-09,-2.53765e-09
1.186e-09,-2.26411e-09
1.187e-09,-2.26411e-09
1.188e-09,0
1.189e-09,-9.18489e-11
1.19e-09,2.26411e-09
1.191e-09,1.36769e-10
1.192e-09,0
1.193e-09,0
1.194e-09,2.40088e-09
1.195e-09,-2.26411e-09
1.196e-09,-1.36769e-10
1.197e-09,2.12734e-09
1.198e-09,4.93853e-09
1.199e-09,0
1.2e-09,-2.73538e-10
1.201e-09,2.26411e-09
1.202e-09,6.92911e-09
1.203e-09,-4.52823e-09
1.204e-09,-1.36769e-10
1.205e-09,-4.52823e-09
1.206e-09,-2.40088e-09
1.207e-09,-2.26411e-09
1.208e-09,-2.26411e-09
1.209e-09,6.65557e-09
1.21e-09,-6.65557e-09
1.211e-09,6.79234e-09
1.212e-09,-2.26411e-09
1.213e-09,0
1.214e-09,-2.26411e-09
1.215e-09,-4.52823e-09
1.216e-09,-2.26411e-09
1.217e-09,2.26411e-09
1.218e-09,-6.92911e-09
1.219e-09,1.36769e-10
1.22e-09,2.26411e-09
1.221e-09,2.26411e-09
1.222e-09,-4.52823e-09
1.223e-09,0
1.224e-09,2.40088e-09
1.225e-09,2.26411e-09
1.226e-09,0
1.227e-09,-4.52823e-09
1.228e-09,1.36769e-10
1.229e-09,8.91968e-09
1.23e-09,2.40088e-09
1.231e-09,-4.52823e-09
1.232e-09,0
1.233e-09,-4.66499e-09
1.234e-09,-2.26411e-09
1.235e-09,4.52823e-09
1.236e-09,0
1.237e-09,4.52823e-09
1.238e-09,-2.26411e-09
1.239e-09,1.13206e-08
1.24e-09,-4.52823e-09
1.241e-09,-4.52823e-09
1.242e-09,0
1.243e-09,-4.52823e-09
1.244e-09,-6.79234e-09
1.245e-09,9.05645e-09
1.246e-09,-2.26411e-09
1.247e-09,-6.79234e-09
1.248e-09,-2.26411e-09
1.249e-09,2.62364e-09
1.25e-09,2.26411e-09
1.251e-09,-6.92911e-09
1.252e-09,2.26411e-09
1.253e-09,0
1.254e-09,0
1.255e-09,-2.26411e-09
1.256e-09,4.66499e-09
1.257e-09,2.15837e-09
1.258e-09,-4.66499e-09
1.259e-09,1.36769e-10
1.26e-09,4.52823e-09
1.261e-09,0
1.262e-09,2.26411e-09
1.263e-09,2.26411e-09
1.264e-09,0
1.265e-09,-2.26411e-09
1.266e-09,4.52823e-09
1.267e-09,1.36769e-10
1.268e-09,-1.36769e-10
1.269e-09,2.40088e-09
1.27e-09,-9.32999e-09
1.271e-09,-2.26411e-09
1.272e-09,-2.26411e-09
1.273e-09,4.66499e-09
1.274e-09,-1.36769e-10
1.275e-09,2.53765e-09
1.276e-09,-1.36769e-10
1.277e-09,-2.26411e-09
1.278e-09,4.52823e-09
1.279e-09,-9.19322e-09
1.28e-09,2.40088e-09
1.281e-09,-2.26411e-09
1.282e-09,-2.26411e-09
1.283e-09,-1.36769e-10
1.284e-09,2.40088e-09
1.285e-09,-4.52823e-09
1.286e-09,0
1.287e-09,-2.40088e-09
1.288e-09,2.26411e-09
1.289e-09,0
1.29e-09,6.92911e-09
1.291e-09,-9.32999e-09
1.292e-09,4.66499e-09
1.293e-09,-2.12734e-09
1.294e-09,0
1.295e-09,-4.66499e-09
1.296e-09,6.92911e-09
1.297e-09,0
1.298e-09,-2.26411e-09
1.299e-09,2.26411e-09
1.3e-09,-2.40088e-09
1.301e-09,4.52823e-09
1.302e-09,-4.52823e-09
1.303e-09,2.12734e-09
1.304e-09,2.26411e-09
1.305e-09,0
1.306e-09,2.26411e-09
1.307e-09,-2.26411e-09
1.308e-09,0
1.309e-09,1.36769e-10
1.31e-09,-2.40088e-09
1.311e-09,2.40088e-09
1.312e-09,0
1.313e-09,0
1.314e-09,-2.40088e-09
1.315e-09,6.79234e-09
1.316e-09,0
1.317e-09,2.26411e-09
1.318e-09,2.40088e-09
1.319e-09,0
1.32e-09,-4.52823e-09
1.321e-09,-4.66499e-09
1.322e-09,2.26411e-09
1.323e-09,0
1.324e-09,0
1.325e-09,0
1.326e-09,2.40088e-09
1.327e-09,2.26411e-09
1.328e-09,-2.26411e-09
1.329e-09,-1.36769e-10
1.33e-09,-6.92911e-09
1.331e-09,0
1.332e-09,-2.26411e-09
1.333e-09,6.79234e-09
1.334e-09,0
1.335e-09,0
1.336e-09,2.26411e-09
1.337e-09,-4.52823e-09
1.338e-09,4.52823e-09
1.339e-09,-2.26411e-09
1.34e-09,-2.26411e-09
1.341e-09,2.26411e-09
1.342e-09,4.52823e-09
1.343e-09,6.92911e-09
1.344e-09,-1.14573e-08
1.345e-09,-2.12734e-09
1.346e-09,1.36769e-10
1.347e-09,-2.40088e-09
1.348e-09,4.66499e-09
1.349e-09,0
1.35e-09,4.52823e-09
1.351e-09,-2.12734e-09
1.352e-09,-6.92911e-09
1.353e-09,2.26411e-09
1.354e-09,2.26411e-09
1.355e-09,4.52823e-09
1.356e-09,0
1.357e-09,-6.65557e-09
1.358e-09,2.12734e-09
1.359e-09,6.92911e-09
1.36e-09,-1.14573e-08
1.361e-09,2.26411e-09
1.362e-09,1.36769e-10
1.363e-09,0
1.364e-09,2.26411e-09
1.365e-09,-4.66499e-09
1.366e-09,2.26411e-09
1.367e-09,6.79234e-09
1.368e-09,2.26411e-09
1.369e-09,0
1.37e-09,1.36769e-10
1.371e-09,-2.26411e-09
1.372e-09,2.26411e-09
1.373e-09,0
1.374e-09,-7.06588e-09
1.375e-09,2.26411e-09
1.376e-09,6.92911e-09
1.377e-09,-2.26411e-09
1.378e-09,-1.36769e-10
1.379e-09,-2.12734e-09
1.38e-09,-1.36769e-10
1.381e-09,0
1.382e-09,0
1.383e-09,0
1.384e-09,2.26411e-09
1.385e-09,-2.26411e-09
1.386e-09,0
1.387e-09,-2.26411e-09
1.388e-09,0
1.389e-09,0
1.39e-09,6.92911e-09
1.391e-09,-4.52823e-09
1.392e-09,2.12734e-09
1.393e-09,-2.26411e-09
1.394e-09,4.66499e-09
1.395e-09,1.36769e-10
1.396e-09,0
1.397e-09,-2.26411e-09
1.398e-09,2.26411e-09
1.399e-09,-4.66499e-09
1.4e-09,2.40088e-09
1.401e-09,-1.36769e-10
1.402e-09,-6.79234e-09
1.403e-09,0
1.404e-09,2.40088e-09
1.405e-09,4.66499e-09
1.406e-09,-9.19322e-09
1.407e-09,9.19322e-09
1.408e-09,-6.92911e-09
1.409e-09,-2.40088e-09
1.41e-09,2.40088e-09
1.411e-09,0
1.412e-09,0
1.413e-09,0
1.414e-09,4.52823e-09
1.415e-09,0
1.416e-09,-4.66499e-09
1.417e-09,2.40088e-09
1.418e-09,-6.92911e-09
1.419e-09,-2.26411e-09
1.42e-09,2.26411e-09
1.421e-09,0
1.422e-09,2.26411e-09
1.423e-09,2.26411e-09
1.424e-09,-2.40088e-09
1.425e-09,0
1.426e-09,-4.52823e-09
1.427e-09,2.26411e-09
1.428e-09,2.26411e-09
1.429e-09,2.26411e-09
1.43e-09,-2.26411e-09
1.431e-09,-2.26411e-09
1.432e-09,2.26411e-09
1.433e-09,6.92911e-09
1.434e-09,7.06588e-09
1.435e-09,-2.40088e-09
1.436e-09,-4.52823e-09
1.437e-09,4.52823e-09
1.438e-09,-2.40088e-09
1.439e-09,-2.12734e-09
1.44e-09,-1.14573e-08
1.441e-09,2.26411e-09
1.442e-09,4.52823e-09
1.443e-09,0
1.444e-09,2.26411e-09
1.445e-09,0
1.446e-09,-2.26411e-09
1.447e-09,0
1.448e-09,-2.26411e-09
1.449e-09,0
1.45e-09,6.79234e-09
1.451e-09,-4.52823e-09
1.452e-09,-2.26411e-09
1.453e-09,0
1.454e-09,0
1.455e-09,-2.26411e-09
1.456e-09,-2.26411e-09
1.457e-09,-2.26411e-09
1.458e-09,4.52823e-09
1.459e-09,-4.52823e-09
1.46e-09,0
1.461e-09,0
1.462e-09,2.26411e-09
1.463e-09,-2.26411e-09
1.464e-09,0
1.465e-09,6.79234e-09
1.466e-09,-4.52823e-09
1.467e-09,-2.26411e-09
1.468e-09,6.79234e-09
1.469e-09,-6.79234e-09
1.47e-09,0
1.471e-09,2.26411e-09
1.472e-09,-2.26411e-09
1.473e-09,2.26411e-09
1.474e-09,0
1.475e-09,-4.52823e-09
1.476e-09,0
1.477e-09,-4.66499e-09
1.478e-09,6.79234e-09
1.479e-09,-2.26411e-09
1.48e-09,2.26411e-09
1.481e-09,-4.52823e-09
1.482e-09,2.12734e-09
1.483e-09,2.40088e-09
1.484e-09,-2.26411e-09
1.485e-09,2.26411e-09
1.486e-09,-2.26411e-09
1.487e-09,2.40088e-09
1.488e-09,-2.26411e-09
1.489e-09,-2.40088e-09
1.49e-09,0
1.491e-09,2.26411e-09
1.492e-09,2.40088e-09
1.493e-09,-1.36769e-10
1.494e-09,-2.26411e-09
1.495e-09,0
1.496e-09,0
1.497e-09,0
1.498e-09,2.26411e-09
1.499e-09,0
1.5e-09,-4.52823e-09
1.501e-09,4.66499e-09
1.502e-09,-2.40088e-09
1.503e-09,0
1.504e-09,-2.26411e-09
1.505e-09,2.26411e-09
1.506e-09,-2.26411e-09
1.507e-09,2.26411e-09
1.508e-09,0
1.509e-09,2.26411e-09
1.51e-09,0
1.511e-09,4.66499e-09
1.512e-09,-4.66499e-09
1.513e-09,0
1.514e-09,4.52823e-09
1.515e-09,-2.26411e-09
1.516e-09,4.52823e-09
1.517e-09,-2.26411e-09
1.518e-09,-4.66499e-09
1.519e-09,-2.12734e-09
1.52e-09,-1.36769e-10
1.521e-09,-2.26411e-09
1.522e-09,-2.12734e-09
1.523e-09,-5.1113e-09
1.524e-09,2.40088e-09
1.525e-09,2.26411e-09
1.526e-09,-1.36769e-10
1.527e-09,9.19322e-09
1.528e-09,-2.26411e-09
1.529e-09,0
1.53e-09,-6.92911e-09
1.531e-09,-2.26411e-09
1.532e-09,2.26411e-09
1.533e-09,4.52823e-09
1.534e-09,0
1.535e-09,2.26411e-09
1.536e-09,0
1.537e-09,4.52823e-09
1.538e-09,2.73538e-10
1.539e-09,-9.32999e-09
1.54e-09,6.92911e-09
1.541e-09,-6.92911e-09
1.542e-09,6.92911e-09
1.543e-09,-2.26411e-09
1.544e-09,2.26411e-09
1.545e-09,-4.52823e-09
1.546e-09,2.26411e-09
1.547e-09,-4.80176e-08
1.548e-09,0
1.549e-09,0
1.55e-09,0
1.551e-09,2.26411e-09
1.552e-09,-2.53765e-09
1.553e-09,-2.26411e-09
1.554e-09,1.36769e-10
1.555e-09,-2.12734e-09
1.556e-09,-2.40088e-09
1.557e-09,-4.65568e-08
1.558e-09,-2.26411e-09
1.559e-09,-1.36769e-10
1.56e-09,-2.26411e-09
1.561e-09,0
1.562e-09,-4.66499e-09
1.563e-09,0
1.564e-09,2.26411e-09
1.565e-09,4.80176e-09
1.566e-09,-4.81867e-08
1.567e-09,-2.26411e-09
1.568e-09,0
1.569e-09,0
1.57e-09,4.52823e-09
1.571e-09,-4.52823e-09
1.572e-09,2.26411e-09
1.573e-09,0
1.574e-09,-2.40088e-09
1.575e-09,-5.04186e-08
1.576e-09,-2.26411e-09
1.577e-09,2.40088e-09
1.578e-09,-6.92911e-09
1.579e-09,-4.52823e-09
1.58e-09,2.26411e-09
1.581e-09,2.40088e-09
1.582e-09,-2.73538e-10
1.583e-09,1.36769e-10
1.584e-09,0
1.585e-09,-1.36769e-10
1.586e-09,-5.03324e-08
1.587e-09,4.52823e-09
1.588e-09,2.26411e-09
1.589e-09,-2.12734e-09
1.59e-09,2.26411e-09
1.591e-09,-2.40088e-09
1.592e-09,1.36769e-10
1.593e-09,-2.26411e-09
1.594e-09,0
1.595e-09,-1.36769e-10
1.596e-09,2.26411e-09
1.597e-09,-5.22597e-08
1.598e-09,2.26411e-09
1.599e-09,-4.52823e-09
1.6e-09,2.26411e-09
1.601e-09,-2.26411e-09
1.602e-09,0
1.603e-09,2.26411e-09
1.604e-09,0
1.605e-09,4.52823e-09
1.606e-09,-4.87711e-08
1.607e-09,-2.12734e-09
1.608e-09,-2.40088e-09
1.609e-09,0
1.61e-09,-2.26411e-09
1.611e-09,-2.26411e-09
1.612e-09,-2.26411e-09
1.613e-09,2.40088e-09
1.614e-09,-4.66499e-09
1.615e-09,-2.26411e-09
1.616e-09,4.52823e-09
1.617e-09,2.26411e-09
1.618e-09,-4.82473e-08
1.619e-09,-4.52823e-09
1.62e-09,0
1.621e-09,2.26411e-09
1.622e-09,-2.26411e-09
1.623e-09,2.26411e-09
1.624e-09,9.05645e-09
1.625e-09,2.26411e-09
1.626e-09,-6.79234e-09
1.627e-09,-5.25535e-08
1.628e-09,4.52823e-09
1.629e-09,-2.26411e-09
1.63e-09,2.26411e-09
1.631e-09,4.66499e-09
1.632e-09,-4.52823e-09
1.633e-09,0
1.634e-09,-5.36266e-08
1.635e-09,-2.26411e-09
1.636e-09,4.52823e-09
1.637e-09,0
1.638e-09,4.52823e-09
1.639e-09,-2.26411e-09
1.64e-09,-2.26411e-09
1.641e-09,0
1.642e-09,-2.26411e-09
1.643e-09,-2.26411e-09
1.644e-09,-4.3822e-08
1.645e-09,-2.26411e-09
1.646e-09,-2.26411e-09
1.647e-09,4.52823e-09
1.648e-09,0
1.649e-09,2.26411e-09
1.65e-09,-2.26411e-09
1.651e-09,2.26411e-09
1.652e-09,-2.26411e-09
1.653e-09,4.52823e-09
1.654e-09,-5.26827e-08
1.655e-09,0
1.656e-09,0
1.657e-09,-6.79234e-09
1.658e-09,0
1.659e-09,2.26411e-09
1.66e-09,-2.26411e-09
1.661e-09,0
1.662e-09,0
1.663e-09,0
1.664e-09,-5.26827e-08
1.665e-09,0
1.666e-09,0
1.667e-09,-2.26411e-09
1.668e-09,4.66499e-09
1.669e-09,0
1.67e-09,0
1.671e-09,0
1.672e-09,2.26411e-09
1.673e-09,0
1.674e-09,-5.80054e-08
1.675e-09,4.52823e-09
1.676e-09,0
1.677e-09,2.26411e-09
1.678e-09,0
1.679e-09,-4.52823e-09
1.68e-09,4.52823e-09
1.681e-09,-2.26411e-09
1.682e-09,2.26411e-09
1.683e-09,0
1.684e-09,-5.42435e-08
1.685e-09,2.26411e-09
1.686e-09,-6.79234e-09
1.687e-09,4.52823e-09
1.688e-09,2.26411e-09
1.689e-09,-2.26411e-09
1.69e-09,0
1.691e-09,-2.26411e-09
1.692e-09,-5.52193e-08
1.693e-09,0
1.694e-09,2.26411e-09
1.695e-09,0
1.696e-09,0
1.697e-09,-2.26411e-09
1.698e-09,6.79234e-09
1.699e-09,-2.26411e-09
1.7e-09,-5.58985e-08
1.701e-09,0
1.702e-09,4.66499e-09
1.703e-09,2.26411e-09
1.704e-09,2.26411e-09
1.705e-09,-2.26411e-09
1.706e-09,2.26411e-09
1.707e-09,2.26411e-09
1.708e-09,0
1.709e-09,-2.26411e-09
1.71e-09,-5.20176e-08
1.711e-09,-2.26411e-09
1.712e-09,0
1.713e-09,-4.52823e-09
1.714e-09,4.52823e-09
1.715e-09,0
1.716e-09,-2.26411e-09
1.717e-09,4.52823e-09
1.718e-09,0
1.719e-09,-5.50866e-08
1.72e-09,-2.40088e-09
1.721e-09,-2.12734e-09
1.722e-09,0
1.723e-09,2.26411e-09
1.724e-09,2.26411e-09
1.725e-09,2.26411e-09
1.726e-09,0
1.727e-09,-2.40088e-09
1.728e-09,0
1.729e-09,-5.19765e-08
1.73e-09,2.26411e-09
1.731e-09,-2.12734e-09
1.732e-09,2.26411e-09
1.733e-09,-4.52823e-09
1.734e-09,2.26411e-09
1.735e-09,0
1.736e-09,2.26411e-09
1.737e-09,4.52823e-09
1.738e-09,-4.52823e-09
1.739e-09,-5.17298e-08
1.74e-09,0
1.741e-09,2.26411e-09
1.742e-09,-4.52823e-09
1.743e-09,2.26411e-09
1.744e-09,-2.26411e-09
1.745e-09,2.26411e-09
1.746e-09,2.26411e-09
1.747e-09,2.26411e-09
1.748e-09,0
1.749e-09,-5.73477e-08
1.75e-09,0
1.751e-09,0
1.752e-09,2.26411e-09
1.753e-09,-2.26411e-09
1.754e-09,0
1.755e-09,0
1.756e-09,-5.58844e-08
1.757e-09,0
1.758e-09,2.26411e-09
1.759e-09,-2.26411e-09
1.76e-09,4.52823e-09
1.761e-09,0
1.762e-09,0
1.763e-09,-6.79234e-09
1.764e-09,0
1.765e-09,-2.26411e-09
1.766e-09,-5.29e-08
1.767e-09,0
1.768e-09,0
1.769e-09,0
1.77e-09,0
1.771e-09,-4.52823e-09
1.772e-09,4.52823e-09
1.773e-09,-2.26411e-09
1.774e-09,-5.43734e-08
1.775e-09,4.52823e-09
1.776e-09,-2.26411e-09
1.777e-09,0
1.778e-09,2.26411e-09
1.779e-09,2.26411e-09
1.78e-09,-2.26411e-09
1.781e-09,4.52823e-09
1.782e-09,-4.52823e-09
1.783e-09,4.52823e-09
1.784e-09,0
1.785e-09,-5.29552e-08
1.786e-09,-2.26411e-09
1.787e-09,-4.52823e-09
1.788e-09,0
1.789e-09,2.26411e-09
1.79e-09,-2.26411e-09
1.791e-09,2.26411e-09
1.792e-09,0
1.793e-09,2.26411e-09
1.794e-09,-6.11434e-08
1.795e-09,-2.26411e-09
1.796e-09,2.26411e-09
1.797e-09,-6.79234e-09
1.798e-09,2.26411e-09
1.799e-09,0
1.8e-09,2.26411e-09
1.801e-09,2.26411e-09
1.802e-09,2.26411e-09
1.803e-09,0
1.804e-09,-5.42312e-08
1.805e-09,0
1.806e-09,0
1.807e-09,0
1.808e-09,-2.26411e-09
1.809e-09,2.40088e-09
1.81e-09,-4.66499e-09
1.811e-09,1.36769e-10
1.812e-09,-2.26411e-09
1.813e-09,-5.54959e-08
1.814e-09,-4.39146e-09
1.815e-09,-1.36769e-10
1.816e-09,4.66499e-09
1.817e-09,2.26411e-09
1.818e-09,-4.66499e-09
1.819e-09,4.66499e-09
1.82e-09,4.52823e-09
1.821e-09,-6.45453e-08
1.822e-09,2.40088e-09
1.823e-09,0
1.824e-09,-2.40088e-09
1.825e-09,0
1.826e-09,0
1.827e-09,2.40088e-09
1.828e-09,-5.64953e-08
1.829e-09,0
1.83e-09,4.52823e-09
1.831e-09,-2.26411e-09
1.832e-09,2.12734e-09
1.833e-09,-2.26411e-09
1.834e-09,0
1.835e-09,1.36769e-10
1.836e-09,2.26411e-09
1.837e-09,-5.76232e-08
1.838e-09,-4.52823e-09
1.839e-09,-2.26411e-09
1.84e-09,-2.26411e-09
1.841e-09,0
1.842e-09,0
1.843e-09,6.79234e-09
1.844e-09,-6.79234e-09
1.845e-09,-4.52823e-09
1.846e-09,-6.32853e-08
1.847e-09,2.26411e-09
1.848e-09,0
1.849e-09,0
1.85e-09,2.26411e-09
1.851e-09,0
1.852e-09,0
1.853e-09,-2.40088e-09
1.854e-09,2.26411e-09
1.855e-09,-6.29892e-08
1.856e-09,0
1.857e-09,-2.26411e-09
1.858e-09,4.52823e-09
1.859e-09,2.26411e-09
1.86e-09,0
1.861e-09,-2.26411e-09
1.862e-09,2.26411e-09
1.863e-09,-6.2424e-08
1.864e-09,-2.26411e-09
1.865e-09,0
1.866e-09,0
1.867e-09,2.26411e-09
1.868e-09,2.26411e-09
1.869e-09,-2.12734e-09
1.87e-09,-2.40088e-09
1.871e-09,-5.81691e-08
1.872e-09,0
1.873e-09,0
1.874e-09,-2.40088e-09
1.875e-09,-2.26411e-09
1.876e-09,-2.26411e-09
1.877e-09,4.66499e-09
1.878e-09,0
1.879e-09,2.26411e-09
1.88e-09,-6.39761e-08
1.881e-09,2.26411e-09
1.882e-09,-2.26411e-09
1.883e-09,0
1.884e-09,0
1.885e-09,2.26411e-09
1.886e-09,-2.26411e-09
1.887e-09,0
1.888e-09,2.26411e-09
1.889e-09,0
1.89e-09,-6.00271e-08
1.891e-09,0
1.892e-09,-2.26411e-09
1.893e-09,0
1.894e-09,0
1.895e-09,0
1.896e-09,-2.32636e-09
1.897e-09,6.79234e-09
1.898e-09,-6.79234e-09
1.899e-09,-5.56329e-08
1.9e-09,-5.8723e-09
1.901e-09,0
1.902e-09,0
1.903e-09,0
1.904e-09,-2.26411e-09
1.905e-09,2.26411e-09
1.906e-09,-6.46893e-08
1.907e-09,0
1.908e-09,0
1.909e-09,0
1.91e-09,-7.14604e-08
1.911e-09,-4.52823e-09
1.912e-09,-4.52823e-09
1.913e-09,7.50675e-08
1.914e-09,-2.26411e-09
1.915e-09,-6.6011e-08
1.916e-09,-2.26411e-09
1.917e-09,2.26411e-09
1.918e-09,-6.90095e-08
1.919e-09,-2.26411e-09
1.92e-09,0
1.921e-09,4.52823e-09
1.922e-09,-2.26411e-09
1.923e-09,4.52823e-09
1.924e-09,-4.52823e-09
1.925e-09,2.26411e-09
1.926e-09,-6.99812e-08
1.927e-09,0
1.928e-09,0
1.929e-09,0
1.93e-09,0
1.931e-09,2.26411e-09
1.932e-09,0
1.933e-09,-2.26411e-09
1.934e-09,2.26411e-09
1.935e-09,-8.11348e-08
1.936e-09,4.52823e-09
1.937e-09,0
1.938e-09,4.52823e-09
1.939e-09,0
1.94e-09,0
1.941e-09,-2.26411e-09
1.942e-09,2.26411e-09
1.943e-09,0
1.944e-09,-7.50127e-08
1.945e-09,2.40088e-09
1.946e-09,-6.92911e-09
1.947e-09,2.26411e-09
1.948e-09,-2.26411e-09
1.949e-09,0
1.95e-09,0
1.951e-09,0
1.952e-09,-7.21061e-08
1.953e-09,-2.26411e-09
1.954e-09,4.52823e-09
1.955e-09,0
1.956e-09,-2.40088e-09
1.957e-09,1.36769e-10
1.958e-09,2.15717e-09
1.959e-09,-2.15717e-09
1.96e-09,2.15717e-09
1.961e-09,-8.31697e-08
1.962e-09,-2.26411e-09
1.963e-09,-2.40088e-09
1.964e-09,2.26411e-09
1.965e-09,-2.26411e-09
1.966e-09,0
1.967e-09,0
1.968e-09,0
1.969e-09,4.66499e-09
1.97e-09,-7.43084e-08
1.971e-09,-2.26411e-09
1.972e-09,4.23799e-09
1.973e-09,-4.52823e-09
1.974e-09,0
1.975e-09,-1.97388e-09
1.976e-09,2.26411e-09
1.977e-09,0
1.978e-09,-4.27e-10
1.979e-09,1.36769e-10
1.98e-09,-7.63868e-08
1.981e-09,0
1.982e-09,-3.75157e-09
1.983e-09,2.26411e-09
1.984e-09,-4.52823e-09
1.985e-09,1.48746e-09
1.986e-09,-1.48746e-09
1.987e-09,-4.52823e-09
1.988e-09,-9.41852e-08
1.989e-09,4.44948e-09
1.99e-09,-2.18537e-09
1.991e-09,2.40088e-09
1.992e-09,-1.10231e-07
1.993e-09,1.0783e-07
1.994e-09,0
1.995e-09,-2.26411e-09
1.996e-09,2.26411e-09
1.997e-09,-1.8902e-07
1.998e-09,2.26411e-09
1.999e-09,0
2e-09,-2.26411e-09
2.001e-09,0
2.1e-09,0
