0,0
1e-12,-6.06787e-06
2e-12,-1.05831e-06
3e-12,-1.57559e-06
4e-12,-4.10519e-07
5e-12,-8.99153e-07
6e-12,1.21999e-07
7e-12,-9.11209e-07
8e-12,-1.1154e-06
9e-12,3.01692e-07
1e-11,2.21729e-07
1.1e-11,-2.05658e-07
1.2e-11,-1.55064e-06
1.3e-11,-9.70982e-07
1.4e-11,-6.26976e-07
1.5e-11,-1.4496e-07
1.6e-11,4.77836e-07
1.7e-11,-5.87252e-07
1.8e-11,7.48103e-07
1.9e-11,-3.44779e-07
2e-11,-5.57824e-07
2.1e-11,-8.97968e-07
2.2e-11,-7.93172e-07
2.3e-11,-8.85204e-07
2.4e-11,-5.54534e-07
2.5e-11,6.91251e-07
2.6e-11,-7.42051e-07
2.7e-11,3.39246e-07
2.8e-11,-2.6022e-06
2.9e-11,-3.29673e-07
3e-11,-2.89046e-07
3.1e-11,-1.76561e-06
3.2e-11,-2.29816e-07
3.3e-11,-5.49453e-07
3.4e-11,-2.05951e-07
3.5e-11,4.91905e-08
3.6e-11,-1.79938e-07
3.7e-11,3.21959e-07
3.8e-11,-6.3875e-07
3.9e-11,-9.13519e-07
4e-11,-7.92052e-07
4.1e-11,-2.48731e-06
4.2e-11,3.92008e-07
4.3e-11,-7.64352e-07
4.4e-11,-2.18404e-07
4.5e-11,-4.25641e-07
4.6e-11,-1.44924e-06
4.7e-11,-5.86379e-07
4.8e-11,5.89476e-07
4.9e-11,-1.67332e-06
5e-11,-1.92904e-07
5.1e-11,-5.94332e-07
5.2e-11,-1.29492e-06
5.3e-11,1.97746e-07
5.4e-11,3.41774e-07
5.5e-11,-6.51123e-08
5.6e-11,-1.0605e-06
5.7e-11,-6.46136e-07
5.8e-11,-1.44455e-07
5.9e-11,-1.97339e-07
6e-11,-1.61081e-06
6.1e-11,-2.59282e-06
6.2e-11,-8.54704e-07
6.3e-11,-2.48816e-07
6.4e-11,3.17967e-07
6.5e-11,-6.33239e-07
6.6e-11,-7.55566e-07
6.7e-11,-4.32146e-07
6.8e-11,-1.03122e-07
6.9e-11,-1.33045e-06
7e-11,-6.53707e-07
7.1e-11,-7.8572e-07
7.2e-11,-1.40492e-06
7.3e-11,-6.44592e-07
7.4e-11,-4.96098e-07
7.5e-11,-1.37637e-07
7.6e-11,-2.23847e-07
7.7e-11,-1.84673e-06
7.8e-11,-3.42184e-07
7.9e-11,-2.03799e-07
8e-11,-7.38559e-07
8.1e-11,-1.67659e-06
8.2e-11,-1.52029e-06
8.3e-11,-1.59951e-07
8.4e-11,-7.63536e-07
8.5e-11,-1.10608e-06
8.6e-11,1.32826e-06
8.7e-11,-1.17253e-06
8.8e-11,-4.74919e-07
8.9e-11,-2.92954e-07
9e-11,-5.25495e-07
9.1e-11,-5.90658e-07
9.2e-11,-6.5295e-07
9.3e-11,-2.69632e-07
9.4e-11,-3.9977e-07
9.5e-11,1.89053e-07
9.6e-11,-1.26656e-06
9.7e-11,8.44501e-07
9.8e-11,-1.70353e-06
9.9e-11,2.07347e-07
1e-10,-3.5934e-07
1.01e-10,-1.04564e-06
1.02e-10,-6.90089e-07
1.03e-10,-6.38836e-07
1.04e-10,-1.15997e-06
1.05e-10,-6.12762e-07
1.06e-10,-3.72223e-07
1.07e-10,-8.6037e-07
1.08e-10,-9.84975e-07
1.09e-10,2.24333e-07
1.1e-10,-1.14813e-07
1.11e-10,-5.2983e-07
1.12e-10,-6.84278e-07
1.13e-10,-4.90147e-07
1.14e-10,-3.5043e-07
1.15e-10,-1.80351e-06
1.16e-10,-6.97863e-07
1.17e-10,-2.42794e-08
1.18e-10,-4.59491e-08
1.19e-10,-2.70225e-07
1.2e-10,4.36083e-07
1.21e-10,-3.4243e-07
1.22e-10,-7.81955e-07
1.23e-10,-2.09878e-06
1.24e-10,-2.78993e-07
1.25e-10,-6.78559e-07
1.26e-10,-9.33451e-07
1.27e-10,-3.6283e-07
1.28e-10,-1.00928e-06
1.29e-10,6.08802e-07
1.3e-10,1.40259e-07
1.31e-10,-1.58126e-06
1.32e-10,1.49989e-07
1.33e-10,-2.82039e-07
1.34e-10,-5.03245e-07
1.35e-10,1.60138e-08
1.36e-10,-1.18242e-06
1.37e-10,-1.10286e-06
1.38e-10,-1.6276e-06
1.39e-10,-1.30213e-07
1.4e-10,-1.73104e-06
1.41e-10,1.29769e-07
1.42e-10,-2.63118e-08
1.43e-10,-3.42098e-07
1.44e-10,-3.63561e-07
1.45e-10,-1.28317e-06
1.46e-10,-1.53552e-07
1.47e-10,-1.61692e-06
1.48e-10,-4.76234e-07
1.49e-10,-1.62792e-06
1.5e-10,-8.27736e-07
1.51e-10,2.43934e-07
1.52e-10,-1.52529e-07
1.53e-10,-1.80374e-07
1.54e-10,-8.41358e-08
1.55e-10,-3.72247e-07
1.56e-10,-1.31491e-06
1.57e-10,-7.09516e-07
1.58e-10,-3.79603e-07
1.59e-10,-1.83225e-06
1.6e-10,-1.23509e-06
1.61e-10,-7.44377e-08
1.62e-10,-5.75255e-07
1.63e-10,-5.30374e-07
1.64e-10,-1.39829e-06
1.65e-10,8.08466e-07
1.66e-10,-1.44813e-06
1.67e-10,-1.16346e-06
1.68e-10,-1.41848e-07
1.69e-10,9.32518e-09
1.7e-10,-5.95358e-07
1.71e-10,-2.10331e-06
1.72e-10,-6.71947e-07
1.73e-10,-6.0558e-07
1.74e-10,2.16977e-07
1.75e-10,-1.22028e-07
1.76e-10,1.89585e-07
1.77e-10,9.58259e-08
1.78e-10,-8.46741e-07
1.79e-10,-1.12703e-06
1.8e-10,5.26871e-08
1.81e-10,-7.49979e-07
1.82e-10,-1.69751e-06
1.83e-10,-1.921e-07
1.84e-10,3.12093e-07
1.85e-10,-1.08063e-06
1.86e-10,7.0506e-07
1.87e-10,-1.1014e-08
1.88e-10,-3.55209e-07
1.89e-10,-5.11751e-07
1.9e-10,-2.85326e-07
1.91e-10,-8.7821e-07
1.92e-10,-1.58242e-06
1.93e-10,-2.78649e-07
1.94e-10,-1.03317e-06
1.95e-10,4.22005e-07
1.96e-10,-4.1448e-07
1.97e-10,-2.28561e-07
1.98e-10,-9.65731e-07
1.99e-10,1.71745e-07
2e-10,-2.78886e-06
2.01e-10,-4.10113e-07
2.02e-10,-9.20792e-07
2.03e-10,-1.00917e-07
2.04e-10,2.99297e-07
2.05e-10,-3.37371e-07
2.06e-10,-4.59303e-07
2.07e-10,-7.06123e-07
2.08e-10,9.62479e-08
2.09e-10,-2.29212e-06
2.1e-10,-1.24456e-06
2.11e-10,-1.55918e-06
2.12e-10,-2.66501e-07
2.13e-10,-4.95583e-07
2.14e-10,-1.10086e-08
2.15e-10,-6.0029e-07
2.16e-10,-2.6731e-07
2.17e-10,-6.34374e-07
2.18e-10,-3.39747e-07
2.19e-10,-3.55483e-06
2.2e-10,1.55683e-07
2.21e-10,-6.24213e-07
2.22e-10,-7.1584e-07
2.23e-10,-5.6323e-07
2.24e-10,9.29192e-08
2.25e-10,-8.65125e-07
2.26e-10,-5.02177e-07
2.27e-10,4.74437e-09
2.28e-10,-3.44961e-07
2.29e-10,-1.41435e-07
2.3e-10,-4.30668e-07
2.31e-10,-1.82866e-06
2.32e-10,-1.91341e-06
2.33e-10,7.90147e-08
2.34e-10,-1.56073e-06
2.35e-10,-4.98748e-07
2.36e-10,2.82056e-07
2.37e-10,-1.12302e-07
2.38e-10,-5.29387e-07
2.39e-10,-5.10133e-07
2.4e-10,-1.46489e-07
2.41e-10,-1.00418e-06
2.42e-10,-2.94583e-07
2.43e-10,-1.26359e-06
2.44e-10,-2.45464e-07
2.45e-10,-6.97797e-07
2.46e-10,-8.78469e-08
2.47e-10,-1.19239e-06
2.48e-10,-4.91142e-07
2.49e-10,-6.27596e-08
2.5e-10,-5.23373e-08
2.51e-10,-3.52591e-07
2.52e-10,-4.1712e-07
2.53e-10,-2.29134e-06
2.54e-10,-5.3337e-08
2.55e-10,-4.91614e-07
2.56e-10,-2.85575e-07
2.57e-10,-2.20122e-06
2.58e-10,-3.31155e-07
2.59e-10,-2.92316e-07
2.6e-10,-2.17697e-07
2.61e-10,2.13232e-07
2.62e-10,-2.76045e-07
2.63e-10,-1.00093e-06
2.64e-10,-3.14466e-07
2.65e-10,-2.75268e-07
2.66e-10,-1.27517e-06
2.67e-10,-6.42628e-07
2.68e-10,-9.93605e-08
2.69e-10,-9.47802e-07
2.7e-10,-4.53318e-07
2.71e-10,-4.28081e-08
2.72e-10,-1.25582e-07
2.73e-10,-8.30319e-07
2.74e-10,-6.04635e-07
2.75e-10,-4.93214e-07
2.76e-10,-1.33871e-06
2.77e-10,-1.42495e-06
2.78e-10,1.9633e-07
2.79e-10,-9.7345e-07
2.8e-10,-3.23606e-07
2.81e-10,-5.45522e-07
2.82e-10,-9.79351e-07
2.83e-10,-1.66896e-06
2.84e-10,-3.78329e-07
2.85e-10,-5.54184e-08
2.86e-10,-2.61149e-06
2.87e-10,-1.71333e-08
2.88e-10,1.59328e-08
2.89e-10,-5.07034e-09
2.9e-10,-2.68004e-07
2.91e-10,-2.65665e-07
2.92e-10,-1.9283e-07
2.93e-10,-1.47607e-06
2.94e-10,-3.10865e-07
2.95e-10,-1.09309e-07
2.96e-10,-2.79894e-07
2.97e-10,-1.67161e-07
2.98e-10,3.93323e-07
2.99e-10,-5.98986e-07
3e-10,-4.41499e-07
3.01e-10,-9.73639e-07
3.02e-10,-2.88423e-07
3.03e-10,-1.3058e-06
3.04e-10,-3.39409e-07
3.05e-10,-3.60257e-07
3.06e-10,7.4699e-07
3.07e-10,-1.01941e-07
3.08e-10,-1.19254e-06
3.09e-10,-5.09893e-07
3.1e-10,-1.15536e-06
3.11e-10,-2.57628e-07
3.12e-10,-2.32228e-07
3.13e-10,-2.84044e-07
3.14e-10,2.34915e-08
3.15e-10,-2.38539e-07
3.16e-10,1.25114e-07
3.17e-10,-1.22479e-07
3.18e-10,-1.22588e-06
3.19e-10,-1.93831e-06
3.2e-10,-2.05122e-07
3.21e-10,-9.00955e-07
3.22e-10,1.2095e-07
3.23e-10,-5.34524e-07
3.24e-10,-3.77479e-07
3.25e-10,-1.0188e-07
3.26e-10,1.20205e-07
3.27e-10,-2.15082e-07
3.28e-10,-1.22622e-06
3.29e-10,-1.15913e-06
3.3e-10,1.41717e-07
3.31e-10,-1.27927e-06
3.32e-10,-8.67242e-08
3.33e-10,-5.54842e-07
3.34e-10,-2.87001e-08
3.35e-10,-2.01677e-07
3.36e-10,-4.08456e-07
3.37e-10,3.96673e-07
3.38e-10,-3.85405e-07
3.39e-10,-2.35947e-06
3.4e-10,-1.50798e-06
3.41e-10,3.73434e-08
3.42e-10,-3.59094e-07
3.43e-10,-3.06776e-07
3.44e-10,-1.32387e-06
3.45e-10,8.15565e-07
3.46e-10,-1.77795e-07
3.47e-10,2.30852e-07
3.48e-10,2.19148e-07
3.49e-10,-4.41153e-07
3.5e-10,-2.71788e-06
3.51e-10,-7.68861e-08
3.52e-10,-2.2099e-07
3.53e-10,-1.6532e-06
3.54e-10,-6.2016e-07
3.55e-10,-4.57868e-07
3.56e-10,-6.8631e-07
3.57e-10,-5.97305e-07
3.58e-10,1.03926e-07
3.59e-10,-1.58324e-06
3.6e-10,-4.27819e-07
3.61e-10,-3.33183e-07
3.62e-10,-1.90551e-07
3.63e-10,7.63166e-08
3.64e-10,-2.39467e-07
3.65e-10,-1.13664e-06
3.66e-10,-4.8982e-07
3.67e-10,-1.16062e-06
3.68e-10,-8.77613e-07
3.69e-10,4.95333e-07
3.7e-10,1.62756e-07
3.71e-10,-4.72723e-07
3.72e-10,1.99741e-07
3.73e-10,-5.8419e-07
3.74e-10,1.61115e-07
3.75e-10,-2.06691e-07
3.76e-10,1.6172e-07
3.77e-10,-1.86913e-07
3.78e-10,-1.19184e-06
3.79e-10,-1.71912e-06
3.8e-10,4.59532e-07
3.81e-10,-1.78441e-07
3.82e-10,2.53225e-07
3.83e-10,1.47326e-07
3.84e-10,-2.3119e-07
3.85e-10,-2.73826e-07
3.86e-10,-3.55599e-07
3.87e-10,-1.13577e-06
3.88e-10,-2.55638e-07
3.89e-10,-2.25034e-06
3.9e-10,-2.05123e-07
3.91e-10,-4.4662e-07
3.92e-10,-6.10197e-07
3.93e-10,3.7276e-07
3.94e-10,-6.7812e-08
3.95e-10,-2.82841e-08
3.96e-10,-1.00541e-06
3.97e-10,2.85504e-07
3.98e-10,-6.5235e-07
3.99e-10,3.63091e-08
4e-10,1.40158e-07
4.01e-10,-2.55993e-07
4.02e-10,-1.14442e-06
4.03e-10,-2.28859e-07
4.04e-10,-3.2628e-07
4.05e-10,-7.30503e-07
4.06e-10,-3.65214e-07
4.07e-10,-1.59348e-07
4.08e-10,-3.25543e-07
4.09e-10,1.27679e-07
4.1e-10,3.27791e-07
4.11e-10,2.11992e-07
4.12e-10,-1.09389e-06
4.13e-10,-5.27294e-07
4.14e-10,-1.49854e-06
4.15e-10,-3.4336e-07
4.16e-10,-4.80211e-07
4.17e-10,-6.91822e-08
4.18e-10,-9.38925e-07
4.19e-10,1.39395e-08
4.2e-10,-9.33666e-07
4.21e-10,-2.9468e-07
4.22e-10,-3.73456e-07
4.23e-10,-9.41535e-07
4.24e-10,-1.49363e-06
4.25e-10,-1.32914e-06
4.26e-10,1.70142e-07
4.27e-10,-2.36025e-07
4.28e-10,1.26565e-07
4.29e-10,-1.05312e-06
4.3e-10,-1.00429e-06
4.31e-10,4.40728e-08
4.32e-10,-5.92048e-07
4.33e-10,3.0886e-07
4.34e-10,-1.72287e-06
4.35e-10,2.03886e-08
4.36e-10,2.03797e-07
4.37e-10,-2.96456e-07
4.38e-10,-2.51816e-07
4.39e-10,-1.45354e-06
4.4e-10,-1.12137e-06
4.41e-10,2.41846e-07
4.42e-10,-6.40525e-08
4.43e-10,1.19833e-07
4.44e-10,2.37711e-07
4.45e-10,-1.07025e-06
4.46e-10,-9.0694e-08
4.47e-10,-9.70775e-07
4.48e-10,-1.35461e-06
4.49e-10,-6.89312e-07
4.5e-10,4.73013e-08
4.51e-10,-5.74857e-08
4.52e-10,2.39749e-07
4.53e-10,-2.15323e-06
4.54e-10,-1.91825e-07
4.55e-10,1.98461e-07
4.56e-10,-2.80944e-07
4.57e-10,1.90124e-07
4.58e-10,-5.20459e-07
4.59e-10,-3.1141e-07
4.6e-10,4.09131e-08
4.61e-10,-1.16095e-07
4.62e-10,3.08468e-07
4.63e-10,8.02309e-08
4.64e-10,-3.55281e-07
4.65e-10,7.59204e-08
4.66e-10,-7.04905e-07
4.67e-10,-4.70355e-07
4.68e-10,3.63384e-07
4.69e-10,5.88593e-07
4.7e-10,-1.5686e-07
4.71e-10,-1.79831e-07
4.72e-10,-1.40987e-07
4.73e-10,-2.02971e-07
4.74e-10,-1.21017e-07
4.75e-10,3.15485e-07
4.76e-10,-1.05252e-06
4.77e-10,-4.06155e-07
4.78e-10,1.21307e-07
4.79e-10,-6.61243e-07
4.8e-10,2.10361e-07
4.81e-10,1.27148e-06
4.82e-10,1.6167e-07
4.83e-10,-1.61518e-07
4.84e-10,-9.96908e-07
4.85e-10,-1.99498e-07
4.86e-10,1.12496e-06
4.87e-10,-1.18133e-06
4.88e-10,2.11152e-07
4.89e-10,-4.41806e-07
4.9e-10,2.21978e-07
4.91e-10,7.42293e-07
4.92e-10,-8.37775e-07
4.93e-10,7.43186e-07
4.94e-10,-1.50044e-07
4.95e-10,-1.62472e-07
4.96e-10,4.59278e-07
4.97e-10,-1.35912e-07
4.98e-10,5.20999e-07
4.99e-10,-3.12852e-07
5e-10,-1.01477e-07
5.01e-10,-4.63425e-08
5.02e-10,6.63033e-08
5.03e-10,-1.12088e-09
5.04e-10,4.6252e-08
5.05e-10,-1.01022e-07
5.06e-10,-3.46188e-07
5.07e-10,-4.73158e-07
5.08e-10,2.5995e-07
5.09e-10,2.09082e-07
5.1e-10,5.73411e-07
5.11e-10,8.94768e-07
5.12e-10,-2.97891e-07
5.13e-10,-4.08871e-08
5.14e-10,-1.69803e-08
5.15e-10,-7.46703e-07
5.16e-10,1.55279e-07
5.17e-10,4.83869e-07
5.18e-10,-9.09163e-08
5.19e-10,-6.17458e-07
5.2e-10,2.30799e-07
5.21e-10,-4.47105e-07
5.22e-10,-5.24471e-07
5.23e-10,1.30187e-07
5.24e-10,4.33952e-09
5.25e-10,1.82115e-07
5.26e-10,-1.11553e-06
5.27e-10,-2.01469e-07
5.28e-10,2.1915e-08
5.29e-10,1.87404e-07
5.3e-10,2.92718e-07
5.31e-10,1.64887e-07
5.32e-10,-6.41941e-07
5.33e-10,1.99574e-09
5.34e-10,-1.59899e-08
5.35e-10,-1.03028e-06
5.36e-10,-9.10989e-08
5.37e-10,-1.12397e-06
5.38e-10,-7.54909e-07
5.39e-10,-3.70538e-07
5.4e-10,6.1848e-07
5.41e-10,-1.90771e-07
5.42e-10,3.78024e-07
5.43e-10,-1.09874e-06
5.44e-10,-2.48484e-07
5.45e-10,7.16193e-08
5.46e-10,2.38051e-07
5.47e-10,-1.11596e-06
5.48e-10,-9.35537e-07
5.49e-10,-1.95157e-07
5.5e-10,-1.30725e-07
5.51e-10,-6.72725e-07
5.52e-10,-3.83269e-07
5.53e-10,-1.47232e-06
5.54e-10,2.70779e-07
5.55e-10,-8.6123e-07
5.56e-10,-1.16975e-06
5.57e-10,-8.67608e-08
5.58e-10,4.62887e-08
5.59e-10,-6.91302e-07
5.6e-10,8.72919e-08
5.61e-10,-7.43045e-08
5.62e-10,-7.85873e-07
5.63e-10,-3.77052e-07
5.64e-10,5.15255e-07
5.65e-10,2.33522e-07
5.66e-10,-5.54064e-08
5.67e-10,2.03342e-07
5.68e-10,6.13621e-08
5.69e-10,-1.43409e-07
5.7e-10,-7.34941e-07
5.71e-10,2.25392e-07
5.72e-10,-1.97957e-07
5.73e-10,2.46793e-07
5.74e-10,-8.05505e-07
5.75e-10,-3.8632e-08
5.76e-10,-2.42367e-07
5.77e-10,4.4156e-07
5.78e-10,-1.26481e-07
5.79e-10,-2.08931e-07
5.8e-10,1.28892e-07
5.81e-10,-2.94398e-08
5.82e-10,8.25105e-09
5.83e-10,-3.50523e-07
5.84e-10,-1.43356e-07
5.85e-10,-1.01498e-06
5.86e-10,2.07835e-07
5.87e-10,2.82649e-07
5.88e-10,-3.66312e-07
5.89e-10,-4.7238e-09
5.9e-10,1.08015e-07
5.91e-10,1.08622e-07
5.92e-10,-8.17362e-08
5.93e-10,1.78526e-07
5.94e-10,-1.05113e-07
5.95e-10,-1.20564e-06
5.96e-10,7.4288e-07
5.97e-10,4.85885e-09
5.98e-10,-1.56869e-07
5.99e-10,4.70305e-07
6e-10,-9.2155e-07
6.01e-10,-2.2172e-07
6.02e-10,1.5043e-07
6.03e-10,-3.54404e-07
6.04e-10,4.27973e-07
6.05e-10,-6.30365e-08
6.06e-10,-2.31185e-07
6.07e-10,3.68172e-07
6.08e-10,-1.61788e-07
6.09e-10,4.13139e-07
6.1e-10,-9.50683e-07
6.11e-10,2.10103e-07
6.12e-10,-1.3443e-07
6.13e-10,2.81462e-07
6.14e-10,-4.7881e-08
6.15e-10,-8.76257e-08
6.16e-10,-1.14967e-07
6.17e-10,-5.63758e-08
6.18e-10,-2.37486e-08
6.19e-10,-1.30293e-07
6.2e-10,1.97602e-07
6.21e-10,-1.0304e-06
6.22e-10,-1.44327e-07
6.23e-10,-4.76641e-08
6.24e-10,-5.40471e-09
6.25e-10,-8.53383e-08
6.26e-10,-2.22761e-08
6.27e-10,-2.93162e-08
6.28e-10,-2.09487e-08
6.29e-10,-1.99665e-08
6.3e-10,-1.31551e-06
6.31e-10,3.18802e-07
6.32e-10,2.75293e-07
6.33e-10,-2.62978e-08
6.34e-10,-2.41086e-08
6.35e-10,-8.56631e-08
6.36e-10,-5.55319e-08
6.37e-10,-3.23466e-07
6.38e-10,-1.30056e-06
6.39e-10,-3.43758e-09
6.4e-10,-1.1922e-07
6.41e-10,1.80803e-07
6.42e-10,-2.49386e-07
6.43e-10,-4.08149e-08
6.44e-10,4.03889e-08
6.45e-10,-8.87276e-08
6.46e-10,-1.29121e-07
6.47e-10,2.72055e-07
6.48e-10,-1.03893e-07
6.49e-10,-8.58385e-08
6.5e-10,-1.01394e-07
6.51e-10,7.42246e-08
6.52e-10,-5.71194e-08
6.53e-10,2.34551e-08
6.54e-10,2.2841e-07
6.55e-10,-5.41816e-08
6.56e-10,-1.06834e-07
6.57e-10,-6.93291e-09
6.58e-10,1.43192e-08
6.59e-10,1.96495e-07
6.6e-10,-1.10299e-07
6.61e-10,1.11061e-07
6.62e-10,1.08336e-08
6.63e-10,-2.81774e-08
6.64e-10,-4.03585e-08
6.65e-10,-8.01127e-08
6.66e-10,-1.29948e-07
6.67e-10,-7.72691e-08
6.68e-10,-9.51327e-08
6.69e-10,1.13389e-07
6.7e-10,3.00805e-09
6.71e-10,6.5103e-07
6.72e-10,-1.18903e-07
6.73e-10,1.45299e-07
6.74e-10,-1.3493e-07
6.75e-10,-4.80503e-08
6.76e-10,7.14306e-08
6.77e-10,-9.13976e-08
6.78e-10,-3.39056e-08
6.79e-10,-1.54865e-07
6.8e-10,1.36979e-08
6.81e-10,-2.69882e-08
6.82e-10,2.88484e-07
6.83e-10,2.63869e-07
6.84e-10,2.27354e-08
6.85e-10,-4.87556e-08
6.86e-10,-6.48141e-08
6.87e-10,-4.02888e-08
6.88e-10,7.23531e-08
6.89e-10,-5.50718e-08
6.9e-10,3.78069e-08
6.91e-10,-1.77876e-08
6.92e-10,-6.60077e-08
6.93e-10,2.9669e-07
6.94e-10,-8.41045e-08
6.95e-10,-4.36864e-08
6.96e-10,-4.71509e-08
6.97e-10,-8.28004e-08
6.98e-10,1.44784e-07
6.99e-10,1.36769e-10
7e-10,-1.52017e-09
7.01e-10,2.74705e-08
7.02e-10,-9.58091e-08
7.03e-10,2.34821e-07
7.04e-10,-5.50831e-08
7.05e-10,-4.12289e-08
7.06e-10,-1.8019e-07
7.07e-10,-4.83003e-08
7.08e-10,-8.87034e-08
7.09e-10,-5.46364e-08
7.1e-10,1.93461e-09
7.11e-10,1.80828e-07
7.12e-10,-6.52002e-07
7.13e-10,-4.74215e-08
7.14e-10,4.47892e-09
7.15e-10,4.51173e-09
7.16e-10,-5.1454e-08
7.17e-10,-2.21148e-09
7.18e-10,-4.17131e-10
7.19e-10,-4.94007e-08
7.2e-10,-1.38009e-07
7.21e-10,-2.76964e-10
7.22e-10,-6.04639e-08
7.23e-10,8.87844e-09
7.24e-10,-1.79595e-07
7.25e-10,-3.20692e-08
7.26e-10,-5.2422e-08
7.27e-10,-7.29507e-07
7.28e-10,-5.581e-09
7.29e-10,-5.85532e-08
7.3e-10,-4.33656e-08
7.31e-10,-1.27351e-07
7.32e-10,-9.30307e-08
7.33e-10,8.77448e-08
7.34e-10,-8.37267e-08
7.35e-10,-9.3193e-07
7.36e-10,7.67305e-09
7.37e-10,-9.67584e-08
7.38e-10,-1.54829e-08
7.39e-10,-5.01235e-08
7.4e-10,-3.44832e-08
7.41e-10,-8.24478e-08
7.42e-10,-5.82702e-09
7.43e-10,-5.58095e-08
7.44e-10,-6.18712e-09
7.45e-10,5.68519e-09
7.46e-10,2.73039e-09
7.47e-10,-1.23832e-06
7.48e-10,-9.38789e-08
7.49e-10,6.14094e-09
7.5e-10,-4.54767e-08
7.51e-10,-3.5481e-08
7.52e-10,-1.27516e-07
7.53e-10,-1.45368e-07
7.54e-10,-5.35667e-09
7.55e-10,-4.31976e-08
7.56e-10,-4.17451e-08
7.57e-10,2.26461e-09
7.58e-10,-9.01077e-11
7.59e-10,-1.2655e-06
7.6e-10,1.04122e-06
7.61e-10,-1.12675e-06
7.62e-10,-4.68635e-08
7.63e-10,-9.77629e-09
7.64e-10,4.52823e-09
7.65e-10,6.06468e-10
7.66e-10,-3.00735e-09
7.67e-10,6.06468e-10
7.68e-10,-9.14229e-08
7.69e-10,-2.19822e-09
7.7e-10,4.03195e-08
7.71e-10,-1.81093e-07
7.72e-10,-8.72251e-08
7.73e-10,-4.62316e-08
7.74e-10,9.51454e-08
7.75e-10,-1.38561e-07
7.76e-10,-4.37781e-08
7.77e-10,-1.4793e-09
7.78e-10,-4.27434e-08
7.79e-10,-4.57052e-08
7.8e-10,-8.77423e-08
7.81e-10,8.75223e-08
7.82e-10,-4.51863e-08
7.83e-10,-3.88972e-08
7.84e-10,-4.06747e-08
7.85e-10,1.36769e-10
7.86e-10,-9.40586e-08
7.87e-10,7.84815e-10
7.88e-10,4.30756e-08
7.89e-10,-5.58658e-09
7.9e-10,-4.37595e-08
7.91e-10,-7.74746e-08
7.92e-10,7.71178e-08
7.93e-10,-1.896e-07
7.94e-10,-3.56072e-08
7.95e-10,-1.61672e-08
7.96e-10,-4.15751e-08
7.97e-10,2.45352e-09
7.98e-10,-2.76964e-10
7.99e-10,-4.11573e-08
8e-10,4.33688e-08
8.01e-10,-3.87038e-08
8.02e-10,-4.54698e-08
8.03e-10,-2.40088e-09
8.04e-10,-2.81461e-09
8.05e-10,-5.15038e-08
8.06e-10,1.76999e-08
8.07e-10,-4.56693e-08
8.08e-10,-1.30339e-08
8.09e-10,-8.2308e-08
8.1e-10,1.32804e-09
8.11e-10,4.55326e-08
8.12e-10,-4.79334e-08
8.13e-10,-4.57979e-09
8.14e-10,-1.01146e-07
8.15e-10,1.36769e-10
8.16e-10,-6.94806e-08
8.17e-10,4.92189e-09
8.18e-10,2.59261e-08
8.19e-10,-5.7628e-08
8.2e-10,-4.60971e-08
8.21e-10,1.36769e-10
8.22e-10,-7.25492e-09
8.23e-10,-4.13733e-10
8.24e-10,5.6859e-09
8.25e-10,-4.78482e-08
8.26e-10,4.03686e-08
8.27e-10,-4.80726e-08
8.28e-10,-5.26369e-11
8.29e-10,-4.53439e-08
8.3e-10,-3.73412e-08
8.31e-10,-2.94231e-09
8.32e-10,-7.64756e-08
8.33e-10,8.15544e-08
8.34e-10,-6.90696e-10
8.35e-10,-5.01281e-08
8.36e-10,-5.08979e-08
8.37e-10,-5.26825e-08
8.38e-10,2.40088e-09
8.39e-10,0
8.4e-10,-5.48099e-08
8.41e-10,3.97772e-09
8.42e-10,2.05446e-09
8.43e-10,4.4027e-08
8.44e-10,-1.78595e-07
8.45e-10,4.28021e-08
8.46e-10,-5.57068e-08
8.47e-10,-4.61708e-08
8.48e-10,4.54799e-08
8.49e-10,-7.62288e-08
8.5e-10,-4.76038e-08
8.51e-10,4.28021e-08
8.52e-10,-7.06588e-09
8.53e-10,-9.1695e-08
8.54e-10,4.13733e-10
8.55e-10,-4.13733e-10
8.56e-10,-4.80176e-09
8.57e-10,2.26411e-09
8.58e-10,-7.06588e-09
8.59e-10,7.06588e-09
8.6e-10,-2.90034e-10
8.61e-10,0
8.62e-10,-5.08697e-08
8.63e-10,0
8.64e-10,-4.77927e-08
8.65e-10,2.40088e-09
8.66e-10,-4.55681e-08
8.67e-10,-5.7452e-08
8.68e-10,1.36769e-10
8.69e-10,4.47958e-09
8.7e-10,-5.22033e-08
8.71e-10,-4.37496e-09
8.72e-10,-4.76962e-09
8.73e-10,-2.38439e-09
8.74e-10,6.92911e-09
8.75e-10,-4.79292e-08
8.76e-10,-4.51173e-09
8.77e-10,-2.26411e-09
8.78e-10,-3.65704e-08
8.79e-10,-2.48901e-09
8.8e-10,-8.86957e-08
8.81e-10,-2.73538e-10
8.82e-10,-7.10145e-09
8.83e-10,-9.60695e-09
8.84e-10,3.4858e-09
8.85e-10,-8.00409e-10
8.86e-10,-5.20059e-08
8.87e-10,-1.01684e-08
8.88e-10,6.92911e-09
8.89e-10,-6.78891e-09
8.9e-10,-2.21547e-09
8.91e-10,-5.01768e-08
8.92e-10,5.2529e-08
8.93e-10,-8.61853e-08
8.94e-10,-5.07873e-09
8.95e-10,5.25609e-09
8.96e-10,-9.05645e-09
8.97e-10,0
8.98e-10,-2.26411e-09
8.99e-10,3.70076e-09
9e-10,-4.77759e-08
9.01e-10,-4.69688e-08
9.02e-10,2.67785e-09
9.03e-10,1.48718e-09
9.04e-10,4.52823e-09
9.05e-10,4.09349e-08
9.06e-10,0
9.07e-10,-4.6151e-08
9.08e-10,-4.82945e-08
9.09e-10,-4.99914e-08
9.1e-10,-4.70348e-08
9.11e-10,-4.94196e-09
9.12e-10,0
9.13e-10,2.26411e-09
9.14e-10,0
9.15e-10,-4.52823e-09
9.16e-10,2.26411e-09
9.17e-10,2.26411e-09
9.18e-10,0
9.19e-10,-4.29742e-08
9.2e-10,-4.94196e-09
9.21e-10,-4.67385e-08
9.22e-10,-4.09191e-08
9.23e-10,-4.94196e-09
9.24e-10,4.13733e-10
9.25e-10,-4.24558e-08
9.26e-10,2.26411e-09
9.27e-10,1.36769e-10
9.28e-10,-3.29831e-08
9.29e-10,4.66499e-09
9.3e-10,-2.40088e-09
9.31e-10,2.81461e-09
9.32e-10,-5.02126e-08
9.33e-10,-4.80176e-09
9.34e-10,2.36831e-09
9.35e-10,-9.46676e-09
9.36e-10,2.26411e-09
9.37e-10,-4.99856e-08
9.38e-10,4.76919e-09
9.39e-10,-4.37337e-08
9.4e-10,-1.98715e-09
9.41e-10,-1.93461e-09
9.42e-10,2.23154e-09
9.43e-10,-3.00735e-09
9.44e-10,-7.34284e-09
9.45e-10,-8.34111e-08
9.46e-10,-1.042e-10
9.47e-10,2.73538e-10
9.48e-10,-4.80176e-09
9.49e-10,-3.86878e-08
9.5e-10,-2.26411e-09
9.51e-10,7.06588e-09
9.52e-10,0
9.53e-10,-8.07757e-08
9.54e-10,-2.40088e-09
9.55e-10,-7.06588e-09
9.56e-10,2.40088e-09
9.57e-10,-1.36769e-10
9.58e-10,-5.15038e-08
9.59e-10,-2.40088e-09
9.6e-10,2.81461e-09
9.61e-10,-4.13733e-10
9.62e-10,-5.02764e-08
9.63e-10,2.73538e-10
9.64e-10,-2.98366e-08
9.65e-10,5.07873e-09
9.66e-10,-4.88383e-08
9.67e-10,2.76964e-10
9.68e-10,-2.76964e-10
9.69e-10,-2.23154e-09
9.7e-10,-2.40088e-09
9.71e-10,1.3366e-08
9.72e-10,-5.16753e-08
9.73e-10,-2.76964e-10
9.74e-10,7.75657e-09
9.75e-10,-1.57901e-08
9.76e-10,8.58407e-09
9.77e-10,-5.26928e-08
9.78e-10,2.26411e-09
9.79e-10,-1.36769e-10
9.8e-10,-6.57194e-08
9.81e-10,2.40088e-09
9.82e-10,-2.83759e-09
9.83e-10,2.97436e-09
9.84e-10,2.26411e-09
9.85e-10,-4.27101e-08
9.86e-10,-4.52823e-09
9.87e-10,2.26411e-09
9.88e-10,-4.24793e-08
9.89e-10,2.43293e-08
9.9e-10,2.26411e-09
9.91e-10,-5.26937e-08
9.92e-10,2.43345e-09
9.93e-10,2.12734e-09
9.94e-10,0
9.95e-10,-2.12734e-09
9.96e-10,-2.40088e-09
9.97e-10,2.40088e-09
9.98e-10,-3.12382e-07
9.99e-10,-5.07704e-08
1e-09,-4.71509e-08
1.001e-09,3.64688e-07
1.002e-09,-3.57759e-07
1.003e-09,0
1.004e-09,0
1.005e-09,4.52823e-09
1.006e-09,-4.52823e-09
1.007e-09,-4.95217e-08
1.008e-09,4.40023e-08
1.009e-09,4.52823e-09
1.01e-09,0
1.011e-09,-5.26827e-08
1.012e-09,0
1.013e-09,4.66499e-09
1.014e-09,-4.52823e-09
1.015e-09,9.32999e-09
1.016e-09,-2.53765e-09
1.017e-09,-4.04594e-08
1.018e-09,7.52524e-08
1.019e-09,4.46302e-10
1.02e-09,-5.80091e-08
1.021e-09,2.71041e-09
1.022e-09,-4.66499e-09
1.023e-09,4.66499e-09
1.024e-09,-2.26411e-09
1.025e-09,1.56879e-07
1.026e-09,-4.54801e-08
1.027e-09,-2.40088e-09
1.028e-09,4.66499e-09
1.029e-09,-5.85518e-08
1.03e-09,-4.52823e-09
1.031e-09,-2.40088e-09
1.032e-09,2.26411e-09
1.033e-09,2.40088e-09
1.034e-09,-6.79234e-09
1.035e-09,-7.19839e-10
1.036e-09,1.98743e-07
1.037e-09,-3.00532e-07
1.038e-09,2.57349e-07
1.039e-09,-4.52823e-09
1.04e-09,2.40088e-09
1.041e-09,1.81781e-09
1.042e-09,-9.05645e-09
1.043e-09,7.23864e-09
1.044e-09,-5.71289e-08
1.045e-09,-2.40088e-09
1.046e-09,-1.94814e-08
1.047e-09,-3.94515e-09
1.048e-09,-1.93897e-08
1.049e-09,-2.73538e-10
1.05e-09,1.65425e-08
1.051e-09,-6.57129e-07
1.052e-09,2.7223e-07
1.053e-09,4.66499e-09
1.054e-09,-2.40088e-09
1.055e-09,-5.04146e-08
1.056e-09,-2.53765e-09
1.057e-09,4.80176e-09
1.058e-09,-2.36042e-08
1.059e-09,-1.70159e-08
1.06e-09,-2.93592e-08
1.061e-09,-9.67704e-07
1.062e-09,-5.52234e-08
1.063e-09,1.33737e-08
1.064e-09,2.26411e-09
1.065e-09,2.40088e-09
1.066e-09,-2.27037e-08
1.067e-09,2.51045e-08
1.068e-09,-4.93412e-08
1.069e-09,-1.36769e-10
1.07e-09,-2.40088e-09
1.071e-09,-2.26411e-09
1.072e-09,-1.02474e-06
1.073e-09,1.36769e-10
1.074e-09,0
1.075e-09,0
1.076e-09,1.88506e-09
1.077e-09,-4.71763e-09
1.078e-09,4.83776e-09
1.079e-09,-5.4236e-08
1.08e-09,-2.40088e-09
1.081e-09,-2.28404e-08
1.082e-09,-1.16727e-06
1.083e-09,-1.56378e-08
1.084e-09,-2.26411e-09
1.085e-09,-4.78737e-08
1.086e-09,2.26411e-09
1.087e-09,-2.26411e-09
1.088e-09,0
1.089e-09,-5.09062e-08
1.09e-09,0
1.091e-09,-6.92911e-09
1.092e-09,-2.34824e-09
1.093e-09,0
1.094e-09,-4.56178e-08
1.095e-09,2.26411e-09
1.096e-09,2.26411e-09
1.097e-09,-6.92911e-09
1.098e-09,-5.4747e-08
1.099e-09,2.26411e-09
1.1e-09,-4.39146e-09
1.101e-09,4.39146e-09
1.102e-09,4.66499e-09
1.103e-09,-3.53548e-08
1.104e-09,-5.0146e-08
1.105e-09,3.30907e-08
1.106e-09,-5.9016e-08
1.107e-09,0
1.108e-09,4.52823e-09
1.109e-09,-2.26411e-09
1.11e-09,-4.52823e-09
1.111e-09,0
1.112e-09,2.26411e-09
1.113e-09,4.52823e-09
1.114e-09,-9.508e-08
1.115e-09,0
1.116e-09,4.52823e-09
1.117e-09,0
1.118e-09,4.52823e-09
1.119e-09,2.26411e-09
1.12e-09,-2.31675e-09
1.121e-09,-5.53065e-08
1.122e-09,0
1.123e-09,0
1.124e-09,-4.91156e-08
1.125e-09,2.26411e-09
1.126e-09,4.52823e-09
1.127e-09,-9.05645e-09
1.128e-09,4.52823e-09
1.129e-09,0
1.13e-09,-2.26411e-09
1.131e-09,-5.76162e-08
1.132e-09,2.26411e-09
1.133e-09,-5.40433e-08
1.134e-09,0
1.135e-09,0
1.136e-09,2.26411e-09
1.137e-09,-2.26411e-09
1.138e-09,0
1.139e-09,-4.21976e-08
1.14e-09,-4.52823e-09
1.141e-09,-5.02858e-08
1.142e-09,-2.26411e-09
1.143e-09,-6.92911e-09
1.144e-09,4.52823e-09
1.145e-09,-2.26411e-09
1.146e-09,2.26411e-09
1.147e-09,0
1.148e-09,-5.76232e-08
1.149e-09,-2.26411e-09
1.15e-09,4.52823e-09
1.151e-09,-2.26411e-09
1.152e-09,-5.25429e-08
1.153e-09,5.41044e-08
1.154e-09,-6.79234e-09
1.155e-09,-2.26411e-09
1.156e-09,-2.26411e-09
1.157e-09,0
1.158e-09,-4.57506e-08
1.159e-09,-2.26411e-09
1.16e-09,2.26411e-09
1.161e-09,4.52823e-09
1.162e-09,-5.55531e-08
1.163e-09,4.52823e-09
1.164e-09,-4.52823e-09
1.165e-09,0
1.166e-09,0
1.167e-09,-2.26411e-09
1.168e-09,-5.97581e-08
1.169e-09,0
1.17e-09,2.26411e-09
1.171e-09,-8.39957e-08
1.172e-09,-2.26411e-09
1.173e-09,3.82452e-08
1.174e-09,-3.82452e-08
1.175e-09,-4.52823e-09
1.176e-09,2.26411e-09
1.177e-09,4.05093e-08
1.178e-09,-9.8405e-08
1.179e-09,5.03833e-08
1.18e-09,-4.57576e-08
1.181e-09,0
1.182e-09,0
1.183e-09,-4.81192e-08
1.184e-09,-4.52823e-09
1.185e-09,5.26474e-08
1.186e-09,-1.08689e-07
1.187e-09,-2.26411e-09
1.188e-09,-4.87607e-08
1.189e-09,-2.26411e-09
1.19e-09,4.66499e-09
1.191e-09,-1.13206e-08
1.192e-09,-1.36769e-10
1.193e-09,2.40088e-09
1.194e-09,-5.28871e-08
1.195e-09,4.52823e-09
1.196e-09,6.79234e-09
1.197e-09,-5.25429e-08
1.198e-09,2.12734e-09
1.199e-09,-6.79234e-09
1.2e-09,4.52823e-09
1.201e-09,-2.26411e-09
1.202e-09,-2.26411e-09
1.203e-09,0
1.204e-09,-6.00201e-08
1.205e-09,-4.74566e-08
1.206e-09,-2.26411e-09
1.207e-09,-2.26411e-09
1.208e-09,4.52823e-09
1.209e-09,-2.26411e-09
1.21e-09,-2.26411e-09
1.211e-09,4.53508e-09
1.212e-09,0
1.213e-09,-2.40088e-09
1.214e-09,-1.23842e-07
1.215e-09,2.26411e-09
1.216e-09,0
1.217e-09,2.26411e-09
1.218e-09,2.26411e-09
1.219e-09,2.26411e-09
1.22e-09,-2.26411e-09
1.221e-09,4.52823e-09
1.222e-09,-2.26411e-09
1.223e-09,-8.78001e-08
1.224e-09,2.26411e-09
1.225e-09,0
1.226e-09,0
1.227e-09,2.26411e-09
1.228e-09,-9.05645e-09
1.229e-09,0
1.23e-09,-2.26411e-09
1.231e-09,4.52823e-09
1.232e-09,-5.72109e-08
1.233e-09,-6.34156e-08
1.234e-09,-4.52823e-09
1.235e-09,0
1.236e-09,0
1.237e-09,0
1.238e-09,-6.79234e-09
1.239e-09,2.26411e-09
1.24e-09,-4.52823e-09
1.241e-09,4.52823e-09
1.242e-09,-1.23303e-07
1.243e-09,-4.52823e-09
1.244e-09,4.52823e-09
1.245e-09,0
1.246e-09,-2.26411e-09
1.247e-09,0
1.248e-09,0
1.249e-09,-2.26411e-09
1.25e-09,9.19322e-09
1.251e-09,-4.42037e-08
1.252e-09,-5.26827e-08
1.253e-09,4.52823e-09
1.254e-09,1.36769e-10
1.255e-09,-4.66499e-09
1.256e-09,6.92911e-09
1.257e-09,0
1.258e-09,6.79234e-09
1.259e-09,-7.4773e-08
1.26e-09,-6.92911e-09
1.261e-09,-2.12734e-09
1.262e-09,2.26411e-09
1.263e-09,-4.71699e-08
1.264e-09,-2.26411e-09
1.265e-09,4.52823e-09
1.266e-09,-6.92911e-09
1.267e-09,-2.26411e-09
1.268e-09,-4.39146e-09
1.269e-09,-4.66499e-09
1.27e-09,-6.78035e-08
1.271e-09,-2.40088e-09
1.272e-09,-5.93246e-08
1.273e-09,4.52823e-09
1.274e-09,2.26411e-09
1.275e-09,0
1.276e-09,-4.52823e-09
1.277e-09,6.79234e-09
1.278e-09,-4.1952e-08
1.279e-09,2.26411e-09
1.28e-09,-5.74506e-08
1.281e-09,0
1.282e-09,-4.52823e-09
1.283e-09,2.26411e-09
1.284e-09,-4.52823e-09
1.285e-09,9.05645e-09
1.286e-09,-7.73351e-08
1.287e-09,0
1.288e-09,-5.08697e-08
1.289e-09,-2.26411e-09
1.29e-09,2.26411e-09
1.291e-09,-2.26411e-09
1.292e-09,4.52823e-09
1.293e-09,-2.26411e-09
1.294e-09,2.26411e-09
1.295e-09,-8.29254e-08
1.296e-09,-2.26411e-09
1.297e-09,0
1.298e-09,-5.9408e-08
1.299e-09,0
1.3e-09,4.52823e-09
1.301e-09,1.3082e-07
1.302e-09,0
1.303e-09,-7.89341e-08
1.304e-09,-2.26411e-09
1.305e-09,-4.52823e-09
1.306e-09,-1.32317e-07
1.307e-09,4.52823e-09
1.308e-09,8.54847e-08
1.309e-09,2.7267e-09
1.31e-09,-4.52823e-09
1.311e-09,-5.47212e-08
1.312e-09,4.52823e-09
1.313e-09,2.26411e-09
1.314e-09,-2.26411e-09
1.315e-09,-2.26411e-09
1.316e-09,-4.63697e-08
1.317e-09,-4.52823e-09
1.318e-09,-2.26411e-09
1.319e-09,-2.26411e-09
1.32e-09,-4.50667e-08
1.321e-09,4.52823e-09
1.322e-09,-6.79234e-09
1.323e-09,6.79234e-09
1.324e-09,-2.26411e-09
1.325e-09,2.26411e-09
1.326e-09,-2.19792e-07
1.327e-09,0
1.328e-09,2.26411e-09
1.329e-09,-3.50539e-08
1.33e-09,-4.52823e-09
1.331e-09,4.52823e-09
1.332e-09,-4.52823e-09
1.333e-09,4.52823e-09
1.334e-09,-2.26411e-09
1.335e-09,-4.52823e-09
1.336e-09,-5.08697e-08
1.337e-09,2.26411e-09
1.338e-09,-9.3394e-08
1.339e-09,-2.26411e-09
1.34e-09,-2.26411e-09
1.341e-09,-2.26411e-09
1.342e-09,2.26411e-09
1.343e-09,-5.25458e-08
1.344e-09,6.79234e-09
1.345e-09,-4.99392e-08
1.346e-09,4.52823e-09
1.347e-09,4.52823e-09
1.348e-09,-1.05758e-07
1.349e-09,0
1.35e-09,4.52823e-09
1.351e-09,-4.52823e-09
1.352e-09,2.26411e-09
1.353e-09,2.26411e-09
1.354e-09,-5.72273e-08
1.355e-09,-2.26411e-09
1.356e-09,-5.31446e-08
1.357e-09,-2.43293e-08
1.358e-09,4.52823e-09
1.359e-09,-6.79234e-09
1.36e-09,-4.52823e-09
1.361e-09,0
1.362e-09,-4.97418e-08
1.363e-09,0
1.364e-09,0
1.365e-09,-4.52823e-09
1.366e-09,-8.91806e-08
1.367e-09,-6.79234e-09
1.368e-09,-4.54467e-08
1.369e-09,9.05645e-09
1.37e-09,-5.45673e-08
1.371e-09,4.52823e-09
1.372e-09,-6.79234e-09
1.373e-09,-2.26411e-09
1.374e-09,-7.7496e-08
1.375e-09,2.26411e-09
1.376e-09,-4.52823e-09
1.377e-09,-4.60271e-08
1.378e-09,-4.52823e-09
1.379e-09,-5.61122e-08
1.38e-09,0
1.381e-09,4.52823e-09
1.382e-09,4.52823e-09
1.383e-09,-6.79234e-09
1.384e-09,-1.14443e-07
1.385e-09,4.52823e-09
1.386e-09,-4.52823e-09
1.387e-09,4.77778e-09
1.388e-09,-2.26411e-09
1.389e-09,-4.50202e-08
1.39e-09,0
1.391e-09,-5.36572e-08
1.392e-09,2.26411e-09
1.393e-09,0
1.394e-09,0
1.395e-09,-2.26411e-09
1.396e-09,-4.76751e-08
1.397e-09,0
1.398e-09,-4.07078e-08
1.399e-09,4.66499e-09
1.4e-09,2.26411e-09
1.401e-09,-2.26644e-09
1.402e-09,2.32636e-12
1.403e-09,2.26411e-09
1.404e-09,-9.43979e-08
1.405e-09,-2.12967e-09
1.406e-09,-4.88256e-08
1.407e-09,-6.35884e-08
1.408e-09,0
1.409e-09,-4.52823e-09
1.41e-09,0
1.411e-09,-8.75311e-08
1.412e-09,5.62465e-09
1.413e-09,-3.36053e-09
1.414e-09,-4.52823e-09
1.415e-09,4.52823e-09
1.416e-09,-6.15581e-08
1.417e-09,2.26411e-09
1.418e-09,-1.73831e-07
1.419e-09,-5.39845e-08
1.42e-09,4.52823e-09
1.421e-09,-8.43482e-08
1.422e-09,6.79234e-09
1.423e-09,0
1.424e-09,-4.52823e-09
1.425e-09,2.26411e-09
1.426e-09,-8.37385e-08
1.427e-09,0
1.428e-09,-5.99153e-08
1.429e-09,-8.34716e-08
1.43e-09,1.36769e-10
1.431e-09,2.12734e-09
1.432e-09,1.36769e-10
1.433e-09,0
1.434e-09,-2.26411e-09
1.435e-09,-6.04771e-08
1.436e-09,-5.09027e-08
1.437e-09,-6.93948e-08
1.438e-09,-4.52823e-09
1.439e-09,2.26411e-09
1.44e-09,4.66499e-09
1.441e-09,-2.40088e-09
1.442e-09,0
1.443e-09,-4.76593e-07
1.444e-09,-1.06025e-07
1.445e-09,0
1.446e-09,-1.48669e-07
1.447e-09,2.26411e-09
1.448e-09,-2.26411e-09
1.449e-09,-2.26411e-09
1.45e-09,4.52823e-09
1.451e-09,2.40088e-09
1.452e-09,-2.26411e-09
1.453e-09,-5.28195e-08
1.454e-09,-4.7376e-08
1.455e-09,-2.26411e-09
1.456e-09,-2.26411e-09
1.457e-09,-1.4974e-07
1.458e-09,4.66499e-09
1.459e-09,-2.40088e-09
1.46e-09,-2.12734e-09
1.461e-09,-6.84599e-07
1.462e-09,-5.43945e-08
1.463e-09,2.26411e-09
1.464e-09,-4.92744e-08
1.465e-09,-4.52823e-09
1.466e-09,2.26411e-09
1.467e-09,2.26411e-09
1.468e-09,-2.26411e-09
1.469e-09,-3.09312e-07
1.47e-09,-2.26411e-09
1.471e-09,-5.32816e-08
1.472e-09,-4.44111e-08
1.473e-09,0
1.474e-09,-8.46402e-07
1.475e-09,4.66499e-09
1.476e-09,-4.52823e-09
1.477e-09,2.26411e-09
1.478e-09,0
1.479e-09,-4.70806e-07
1.48e-09,-4.66499e-09
1.481e-09,-7.82343e-08
1.482e-09,2.26411e-09
1.483e-09,-4.52823e-09
1.484e-09,-1.94026e-09
1.485e-09,1.80349e-09
1.486e-09,-6.33172e-09
1.487e-09,0
1.488e-09,2.40088e-09
1.489e-09,-2.03672e-07
1.49e-09,2.02496e-07
1.491e-09,-2.06073e-07
1.492e-09,2.26411e-09
1.493e-09,-6.33172e-09
1.494e-09,4.52823e-09
1.495e-09,-4.74483e-08
1.496e-09,1.36769e-10
1.497e-09,-6.92911e-09
1.498e-09,0
1.499e-09,2.26411e-09
1.5e-09,-2.26411e-09
1.501e-09,0
1.502e-09,-6.48766e-08
1.503e-09,3.14917e-08
1.504e-09,0
1.505e-09,0
1.506e-09,2.56605e-09
1.507e-09,2.26411e-09
1.508e-09,4.54937e-09
1.509e-09,-4.52823e-09
1.51e-09,0
1.511e-09,6.75396e-08
1.512e-09,2.26411e-09
1.513e-09,-5.44803e-08
1.514e-09,2.26411e-09
1.515e-09,-6.42267e-07
1.516e-09,2.26411e-09
1.517e-09,-2.26411e-09
1.518e-09,0
1.519e-09,6.79234e-09
1.52e-09,-2.26411e-09
1.521e-09,2.26411e-09
1.522e-09,-4.52823e-09
1.523e-09,-5.42817e-08
1.524e-09,-2.26411e-09
1.525e-09,5.05549e-08
1.526e-09,-4.39146e-09
1.527e-09,0
1.528e-09,-2.40088e-09
1.529e-09,-8.39005e-07
1.53e-09,2.40088e-09
1.531e-09,-2.40088e-09
1.532e-09,-6.1e-08
1.533e-09,4.52823e-09
1.534e-09,-2.26411e-09
1.535e-09,2.26411e-09
1.536e-09,-2.26411e-09
1.537e-09,-2.26411e-09
1.538e-09,-1.36769e-10
1.539e-09,0
1.54e-09,-8.70125e-07
1.541e-09,4.52823e-09
1.542e-09,-2.26411e-09
1.543e-09,-4.60231e-08
1.544e-09,-2.77302e-07
1.545e-09,-2.26411e-09
1.546e-09,0
1.547e-09,0
1.548e-09,-1.25208e-06
1.549e-09,4.52823e-09
1.55e-09,4.66499e-09
1.551e-09,-4.66499e-09
1.552e-09,-4.52823e-09
1.553e-09,-4.94657e-08
1.554e-09,0
1.555e-09,0
1.556e-09,2.63243e-08
1.557e-09,-2.12734e-09
1.558e-09,-6.79234e-09
1.559e-09,2.26411e-09
1.56e-09,-2.26411e-09
1.561e-09,7.49229e-08
1.562e-09,-7.50597e-08
1.563e-09,-7.40371e-08
1.564e-09,4.52823e-09
1.565e-09,1.29719e-10
1.566e-09,0
1.567e-09,-3.81164e-10
1.568e-09,9.50283e-08
1.569e-09,0
1.57e-09,-9.50283e-08
1.571e-09,-2.26411e-09
1.572e-09,7.04958e-12
1.573e-09,-5.33218e-08
1.574e-09,-2.40793e-09
1.575e-09,2.26411e-09
1.576e-09,2.26411e-09
1.577e-09,1.36769e-10
1.578e-09,0
1.579e-09,-2.40088e-09
1.58e-09,2.26411e-09
1.581e-09,-2.26411e-09
1.582e-09,9.62843e-08
1.583e-09,-5.51641e-08
1.584e-09,0
1.585e-09,0
1.586e-09,0
1.587e-09,0
1.588e-09,0
1.589e-09,0
1.59e-09,-4.52823e-09
1.591e-09,-6.01117e-08
1.592e-09,2.26411e-09
1.593e-09,-2.26411e-09
1.594e-09,4.52823e-09
1.595e-09,-4.29422e-08
1.596e-09,3.8414e-08
1.597e-09,-3.61499e-08
1.598e-09,-4.52823e-09
1.599e-09,4.52823e-09
1.6e-09,-2.26411e-09
1.601e-09,-5.52193e-08
1.602e-09,0
1.603e-09,0
1.604e-09,0
1.605e-09,-2.26411e-09
1.606e-09,0
1.607e-09,2.26411e-09
1.608e-09,-3.85083e-08
1.609e-09,0
1.61e-09,-2.26411e-09
1.611e-09,-4.98228e-08
1.612e-09,0
1.613e-09,-2.26411e-09
1.614e-09,2.26411e-09
1.615e-09,-6.79234e-09
1.616e-09,2.26411e-09
1.617e-09,-3.0057e-08
1.618e-09,-3.84139e-08
1.619e-09,-7.43942e-10
1.62e-09,-6.36716e-08
1.621e-09,0
1.622e-09,4.52823e-09
1.623e-09,-2.26411e-09
1.624e-09,-4.70207e-10
1.625e-09,-1.79391e-09
1.626e-09,-2.73432e-09
1.627e-09,0
1.628e-09,-6.60799e-08
1.629e-09,2.26411e-09
1.63e-09,2.26411e-09
1.631e-09,-6.79234e-09
1.632e-09,-3.38863e-08
1.633e-09,-2.26411e-09
1.634e-09,2.26411e-09
1.635e-09,0
1.636e-09,3.98595e-08
1.637e-09,-2.26411e-09
1.638e-09,-5.53591e-08
1.639e-09,0
1.64e-09,-4.52823e-09
1.641e-09,4.70207e-10
1.642e-09,2.26411e-09
1.643e-09,0
1.644e-09,2.26411e-09
1.645e-09,2.26411e-09
1.646e-09,-4.877e-08
1.647e-09,2.40088e-09
1.648e-09,-6.38649e-08
1.649e-09,0
1.65e-09,4.66499e-09
1.651e-09,0
1.652e-09,0
1.653e-09,2.26411e-09
1.654e-09,-2.26411e-09
1.655e-09,2.26411e-09
1.656e-09,-2.26411e-09
1.657e-09,-3.67038e-08
1.658e-09,-4.52823e-09
1.659e-09,-5.76232e-08
1.66e-09,0
1.661e-09,-2.26411e-09
1.662e-09,-2.26411e-09
1.663e-09,2.26411e-09
1.664e-09,-4.52823e-09
1.665e-09,4.52823e-09
1.666e-09,2.26411e-09
1.667e-09,2.26411e-09
1.668e-09,-3.98064e-08
1.669e-09,-6.55494e-08
1.67e-09,4.52823e-09
1.671e-09,0
1.672e-09,-4.66499e-09
1.673e-09,2.40088e-09
1.674e-09,-2.26411e-09
1.675e-09,0
1.676e-09,-3.80221e-08
1.677e-09,-6.73094e-08
1.678e-09,-2.26411e-09
1.679e-09,-2.26411e-09
1.68e-09,0
1.681e-09,-4.52823e-09
1.682e-09,0
1.683e-09,-4.06972e-08
1.684e-09,0
1.685e-09,2.26411e-09
1.686e-09,-6.2424e-08
1.687e-09,2.26411e-09
1.688e-09,0
1.689e-09,-2.26411e-09
1.69e-09,-2.40088e-09
1.691e-09,-3.84139e-08
1.692e-09,0
1.693e-09,2.26411e-09
1.694e-09,-6.92093e-08
1.695e-09,0
1.696e-09,2.40088e-09
1.697e-09,-2.40088e-09
1.698e-09,1.58158e-08
1.699e-09,-1.12876e-08
1.7e-09,-4.15074e-08
1.701e-09,-2.26411e-09
1.702e-09,-6.8254e-08
1.703e-09,-4.52823e-09
1.704e-09,4.52823e-09
1.705e-09,2.26411e-09
1.706e-09,0
1.707e-09,4.52823e-09
1.708e-09,-4.52823e-09
1.709e-09,2.26411e-09
1.71e-09,-2.26411e-09
1.711e-09,0
1.712e-09,-1.01467e-07
1.713e-09,0
1.714e-09,0
1.715e-09,0
1.716e-09,0
1.717e-09,0
1.718e-09,2.26411e-09
1.719e-09,-3.85508e-08
1.72e-09,-6.82975e-08
1.721e-09,2.40088e-09
1.722e-09,-4.66499e-09
1.723e-09,6.92911e-09
1.724e-09,2.26411e-09
1.725e-09,0
1.726e-09,-9.05645e-09
1.727e-09,-3.75946e-08
1.728e-09,-2.26411e-09
1.729e-09,-7.14604e-08
1.73e-09,-2.26411e-09
1.731e-09,2.26411e-09
1.732e-09,4.52823e-09
1.733e-09,-1.14573e-08
1.734e-09,2.26411e-09
1.735e-09,-4.00331e-08
1.736e-09,-2.26411e-09
1.737e-09,0
1.738e-09,-6.67454e-08
1.739e-09,0
1.74e-09,0
1.741e-09,-2.26411e-09
1.742e-09,0
1.743e-09,-3.37489e-08
1.744e-09,-2.26411e-09
1.745e-09,-6.92911e-09
1.746e-09,0
1.747e-09,-6.99812e-08
1.748e-09,1.42791e-08
1.749e-09,-1.65432e-08
1.75e-09,2.33356e-08
1.751e-09,0
1.752e-09,4.52823e-09
1.753e-09,-3.69964e-08
1.754e-09,6.79234e-09
1.755e-09,-8.33989e-08
1.756e-09,2.26411e-09
1.757e-09,-2.26411e-09
1.758e-09,-2.26411e-09
1.759e-09,2.26411e-09
1.76e-09,-4.52823e-09
1.761e-09,-2.26411e-09
1.762e-09,2.26411e-09
1.763e-09,0
1.764e-09,-6.80836e-08
1.765e-09,2.26411e-09
1.766e-09,2.26411e-09
1.767e-09,-4.16113e-08
1.768e-09,-2.26411e-09
1.769e-09,2.26411e-09
1.77e-09,-2.26411e-09
1.771e-09,-6.77146e-08
1.772e-09,-4.52823e-09
1.773e-09,-6.79234e-09
1.774e-09,2.26411e-09
1.775e-09,0
1.776e-09,-2.26411e-09
1.777e-09,-3.62888e-08
1.778e-09,0
1.779e-09,-8.5025e-08
1.78e-09,0
1.781e-09,-2.26411e-09
1.782e-09,2.26411e-09
1.783e-09,-4.52823e-09
1.784e-09,6.79234e-09
1.785e-09,0
1.786e-09,0
1.787e-09,-1.16205e-07
1.788e-09,-2.26411e-09
1.789e-09,2.26411e-09
1.79e-09,-2.40602e-08
1.791e-09,-4.52823e-09
1.792e-09,2.26411e-09
1.793e-09,4.52823e-09
1.794e-09,-9.05645e-09
1.795e-09,-1.17889e-07
1.796e-09,0
1.797e-09,0
1.798e-09,2.26411e-09
1.799e-09,-2.26411e-09
1.8e-09,-2.26411e-09
1.801e-09,0
1.802e-09,0
1.803e-09,0
1.804e-09,-1.30197e-07
1.805e-09,2.26411e-09
1.806e-09,-4.52823e-09
1.807e-09,0
1.808e-09,2.26411e-09
1.809e-09,4.52823e-09
1.81e-09,-2.26411e-09
1.811e-09,0
1.812e-09,0
1.813e-09,-2.26411e-09
1.814e-09,-1.18649e-07
1.815e-09,0
1.816e-09,-2.26411e-09
1.817e-09,2.26411e-09
1.818e-09,2.26411e-09
1.819e-09,-2.26411e-09
1.82e-09,2.26411e-09
1.821e-09,0
1.822e-09,-9.33599e-08
1.823e-09,-4.06773e-08
1.824e-09,-2.26411e-09
1.825e-09,4.52823e-09
1.826e-09,4.52823e-09
1.827e-09,-2.26411e-09
1.828e-09,-4.52823e-09
1.829e-09,-2.26411e-09
1.83e-09,9.05645e-09
1.831e-09,-1.07719e-07
1.832e-09,-1.37338e-07
1.833e-09,2.26411e-09
1.834e-09,-4.7345e-08
1.835e-09,2.26411e-09
1.836e-09,-2.26411e-09
1.837e-09,2.26411e-09
1.838e-09,1.30545e-07
1.839e-09,-2.26411e-09
1.84e-09,-9.06435e-08
1.841e-09,3.23282e-08
1.842e-09,2.26411e-09
1.843e-09,-3.45923e-08
1.844e-09,-3.38849e-08
1.845e-09,-2.26411e-09
1.846e-09,3.91135e-08
1.847e-09,-1.00597e-07
1.848e-09,-1.32816e-07
1.849e-09,-2.26411e-09
1.85e-09,1.35847e-08
1.851e-09,-4.52823e-09
1.852e-09,-1.13206e-08
1.853e-09,-7.21301e-08
1.854e-09,2.26411e-09
1.855e-09,-1.13978e-07
1.856e-09,4.52823e-09
1.857e-09,0
1.858e-09,2.26411e-09
1.859e-09,-2.26411e-09
1.86e-09,0
1.861e-09,0
1.862e-09,4.52823e-09
1.863e-09,-2.26411e-09
1.864e-09,-1.15452e-07
1.865e-09,-2.26411e-09
1.866e-09,-7.85029e-08
1.867e-09,3.23117e-08
1.868e-09,-4.52823e-09
1.869e-09,-3.23117e-08
1.87e-09,4.52823e-09
1.871e-09,6.79234e-09
1.872e-09,-1.58489e-07
1.873e-09,0
1.874e-09,4.52823e-09
1.875e-09,-4.30812e-08
1.876e-09,-2.26411e-09
1.877e-09,1.36769e-10
1.878e-09,-2.26411e-09
1.879e-09,-2.26411e-09
1.88e-09,0
1.881e-09,0
1.882e-09,-1.61098e-07
1.883e-09,4.52823e-09
1.884e-09,-3.7002e-08
1.885e-09,0
1.886e-09,-4.52823e-09
1.887e-09,6.79234e-09
1.888e-09,-2.26411e-09
1.889e-09,0
1.89e-09,-1.41203e-07
1.891e-09,-2.26411e-09
1.892e-09,-4.60267e-08
1.893e-09,-2.26411e-09
1.894e-09,0
1.895e-09,2.12734e-09
1.896e-09,1.36769e-10
1.897e-09,2.26411e-09
1.898e-09,-4.52823e-09
1.899e-09,-1.81716e-07
1.9e-09,9.9447e-09
1.901e-09,-4.52823e-09
1.902e-09,-4.29414e-08
1.903e-09,-2.26411e-09
1.904e-09,0
1.905e-09,2.26411e-09
1.906e-09,-7.68058e-09
1.907e-09,6.79234e-09
1.908e-09,-2.17827e-07
1.909e-09,2.26411e-09
1.91e-09,-4.02489e-08
1.911e-09,1.36769e-10
1.912e-09,0
1.913e-09,0
1.914e-09,-1.6649e-09
1.915e-09,2.26411e-09
1.916e-09,-2.5243e-07
1.917e-09,-6.79234e-09
1.918e-09,0
1.919e-09,-5.02306e-08
1.92e-09,2.26411e-09
1.921e-09,2.26411e-09
1.922e-09,0
1.923e-09,4.52823e-09
1.924e-09,-2.93691e-07
1.925e-09,1.36769e-10
1.926e-09,-4.52823e-09
1.927e-09,-2.88382e-07
1.928e-09,-2.72353e-09
1.929e-09,2.26411e-09
1.93e-09,0
1.931e-09,-3.67873e-07
1.932e-09,0
1.933e-09,0
1.934e-09,-4.66499e-09
1.935e-09,-2.26411e-09
1.936e-09,-3.7109e-08
1.937e-09,2.26411e-09
1.938e-09,0
1.939e-09,-5.21548e-07
1.94e-09,2.68448e-08
1.941e-09,-4.52823e-09
1.942e-09,4.52823e-09
1.943e-09,0
1.944e-09,-4.57788e-08
1.945e-09,-4.52823e-09
1.946e-09,-2.26411e-09
1.947e-09,-6.77612e-07
1.948e-09,0
1.949e-09,2.26411e-09
1.95e-09,0
1.951e-09,6.79234e-09
1.952e-09,-2.26411e-09
1.953e-09,-3.82804e-08
1.954e-09,0
1.955e-09,-4.52823e-09
1.956e-09,-5.23643e-08
1.957e-09,5.46284e-08
1.958e-09,1.36769e-10
1.959e-09,-1.36769e-10
1.96e-09,-2.53233e-08
1.961e-09,-1.50168e-08
1.962e-09,-5.68925e-08
1.963e-09,5.44916e-08
1.964e-09,2.26411e-09
1.965e-09,-5.91566e-08
1.966e-09,4.52823e-09
1.967e-09,5.46284e-08
1.968e-09,-2.75874e-08
1.969e-09,-2.70974e-08
1.97e-09,-4.8319e-08
1.971e-09,0
1.972e-09,0
1.973e-09,0
1.974e-09,2.26411e-09
1.975e-09,-2.12734e-09
1.976e-09,3.61538e-08
1.977e-09,-3.16256e-08
1.978e-09,-2.26411e-09
1.979e-09,-3.35125e-08
1.98e-09,-2.26411e-09
1.981e-09,5.63966e-11
1.982e-09,-5.63966e-11
1.983e-09,-2.26411e-09
1.984e-09,4.52823e-09
1.985e-09,-2.26411e-09
1.986e-09,2.93615e-08
1.987e-09,-2.70974e-08
1.988e-09,0
1.989e-09,-3.54465e-08
1.99e-09,6.79234e-09
1.991e-09,-4.52823e-09
1.992e-09,-2.26411e-09
1.993e-09,2.69606e-08
1.994e-09,-2.46965e-08
1.995e-09,0
1.996e-09,2.26411e-09
1.997e-09,2.24324e-08
1.998e-09,-6.88468e-08
1.999e-09,-4.62692e-09
2e-09,2.26411e-09
2.001e-09,2.26411e-09
2.1e-09,0
