0,0
1e-12,1.0416e-06
2e-12,-3.4776e-06
3e-12,-1.89731e-07
4e-12,-6.29429e-08
5e-12,1.29932e-06
6e-12,-1.07611e-06
7e-12,-3.20931e-07
8e-12,2.61741e-07
9e-12,-1.14615e-06
1e-11,-5.36406e-07
1.1e-11,-7.96043e-07
1.2e-11,-8.33927e-07
1.3e-11,-5.2e-07
1.4e-11,-6.39369e-07
1.5e-11,3.79106e-07
1.6e-11,2.0667e-07
1.7e-11,-8.13758e-07
1.8e-11,-8.23526e-07
1.9e-11,9.71648e-07
2e-11,-1.29364e-06
2.1e-11,9.16636e-07
2.2e-11,-2.02461e-07
2.3e-11,-1.66913e-06
2.4e-11,-8.88156e-07
2.5e-11,1.32319e-06
2.6e-11,-7.0735e-07
2.7e-11,5.1698e-07
2.8e-11,-8.6406e-07
2.9e-11,-1.1079e-06
3e-11,5.72866e-07
3.1e-11,-1.69267e-07
3.2e-11,-1.47131e-06
3.3e-11,5.1887e-08
3.4e-11,-8.62611e-07
3.5e-11,8.51211e-07
3.6e-11,-2.597e-07
3.7e-11,-1.69787e-06
3.8e-11,-1.20485e-07
3.9e-11,2.0278e-07
4e-11,-2.33209e-07
4.1e-11,-1.79779e-06
4.2e-11,5.72861e-07
4.3e-11,-3.41419e-07
4.4e-11,2.89612e-07
4.5e-11,-1.13468e-06
4.6e-11,-9.86891e-07
4.7e-11,-1.36686e-06
4.8e-11,7.10999e-08
4.9e-11,2.05467e-07
5e-11,-1.35658e-06
5.1e-11,-9.32524e-07
5.2e-11,-9.10305e-07
5.3e-11,6.30359e-07
5.4e-11,-2.62906e-07
5.5e-11,-2.45314e-06
5.6e-11,-4.60466e-08
5.7e-11,2.23357e-08
5.8e-11,-2.71164e-07
5.9e-11,-2.1312e-06
6e-11,-2.03553e-07
6.1e-11,-5.55678e-07
6.2e-11,-1.80364e-06
6.3e-11,-1.41714e-06
6.4e-11,-2.7447e-07
6.5e-11,3.2471e-07
6.6e-11,1.15496e-07
6.7e-11,-9.34965e-07
6.8e-11,-5.308e-07
6.9e-11,-4.8869e-07
7e-11,-7.72473e-07
7.1e-11,-5.05168e-07
7.2e-11,-2.27498e-06
7.3e-11,-7.67678e-07
7.4e-11,-8.39821e-07
7.5e-11,5.53208e-07
7.6e-11,-6.71693e-07
7.7e-11,-6.76343e-07
7.8e-11,5.66218e-07
7.9e-11,-5.76505e-07
8e-11,-1.77424e-06
8.1e-11,-2.95486e-07
8.2e-11,-2.09308e-06
8.3e-11,-2.70499e-08
8.4e-11,-2.83222e-06
8.5e-11,-8.31707e-07
8.6e-11,5.53377e-07
8.7e-11,-1.05989e-07
8.8e-11,-1.72322e-07
8.9e-11,-4.82265e-07
9e-11,-1.5913e-06
9.1e-11,-3.97451e-07
9.2e-11,-1.13982e-06
9.3e-11,-1.3207e-06
9.4e-11,-1.47298e-06
9.5e-11,8.44243e-08
9.6e-11,-4.83938e-07
9.7e-11,-7.42317e-07
9.8e-11,-3.45253e-07
9.9e-11,-1.19582e-06
1e-10,-5.54142e-07
1.01e-10,-2.49158e-07
1.02e-10,-2.1929e-06
1.03e-10,-4.49614e-07
1.04e-10,3.73768e-07
1.05e-10,-5.19913e-08
1.06e-10,2.25446e-07
1.07e-10,-1.96486e-06
1.08e-10,-3.63914e-07
1.09e-10,-1.18322e-06
1.1e-10,-5.65202e-07
1.11e-10,6.15499e-09
1.12e-10,-4.70321e-07
1.13e-10,-2.7771e-07
1.14e-10,-1.36847e-06
1.15e-10,-4.12241e-07
1.16e-10,-4.89042e-07
1.17e-10,3.3516e-08
1.18e-10,-9.51565e-07
1.19e-10,-6.06582e-07
1.2e-10,9.79384e-09
1.21e-10,-8.95284e-07
1.22e-10,-1.31081e-06
1.23e-10,-2.79903e-07
1.24e-10,-3.868e-07
1.25e-10,-7.43071e-07
1.26e-10,-8.47027e-07
1.27e-10,-7.58844e-07
1.28e-10,-3.28548e-07
1.29e-10,-3.25636e-07
1.3e-10,-5.02663e-07
1.31e-10,-9.57189e-07
1.32e-10,-1.39371e-06
1.33e-10,-2.32986e-07
1.34e-10,-8.10426e-07
1.35e-10,-5.1297e-08
1.36e-10,-9.24421e-07
1.37e-10,-1.46058e-07
1.38e-10,-2.80496e-07
1.39e-10,1.00947e-07
1.4e-10,-8.89797e-07
1.41e-10,-1.31068e-06
1.42e-10,-2.5762e-06
1.43e-10,-1.43954e-07
1.44e-10,-5.60621e-07
1.45e-10,-7.26786e-07
1.46e-10,-2.58423e-08
1.47e-10,7.068e-07
1.48e-10,-2.8611e-07
1.49e-10,-1.85027e-06
1.5e-10,-1.12443e-06
1.51e-10,-1.21331e-06
1.52e-10,-2.08297e-07
1.53e-10,-1.93036e-06
1.54e-10,-4.60723e-07
1.55e-10,1.67818e-07
1.56e-10,-7.67026e-07
1.57e-10,-4.65225e-07
1.58e-10,4.1992e-08
1.59e-10,-1.04752e-06
1.6e-10,-2.21287e-07
1.61e-10,-4.9163e-07
1.62e-10,-3.49949e-06
1.63e-10,-4.00065e-07
1.64e-10,-3.28958e-07
1.65e-10,-1.45969e-06
1.66e-10,-8.4552e-07
1.67e-10,-5.80686e-07
1.68e-10,-1.42993e-06
1.69e-10,-5.92557e-07
1.7e-10,-1.6e-07
1.71e-10,-1.79536e-06
1.72e-10,3.16173e-08
1.73e-10,-1.26311e-06
1.74e-10,-1.84859e-06
1.75e-10,1.86733e-08
1.76e-10,-8.04131e-07
1.77e-10,-9.66887e-07
1.78e-10,-1.9782e-07
1.79e-10,-3.23322e-08
1.8e-10,-1.3891e-06
1.81e-10,-3.13418e-07
1.82e-10,-1.63032e-06
1.83e-10,-1.60906e-06
1.84e-10,-2.66029e-07
1.85e-10,-3.57576e-07
1.86e-10,-1.9853e-07
1.87e-10,2.20533e-07
1.88e-10,-1.24555e-06
1.89e-10,-7.02984e-07
1.9e-10,-4.02436e-07
1.91e-10,1.05135e-07
1.92e-10,-1.59376e-06
1.93e-10,-2.37279e-06
1.94e-10,-1.4733e-07
1.95e-10,-2.76103e-07
1.96e-10,-1.79906e-07
1.97e-10,9.52363e-08
1.98e-10,-1.60312e-06
1.99e-10,-7.8486e-07
2e-10,-4.54154e-07
2.01e-10,4.80378e-07
2.02e-10,-2.29091e-06
2.03e-10,-3.60116e-07
2.04e-10,-1.76165e-06
2.05e-10,1.90333e-07
2.06e-10,-4.95545e-07
2.07e-10,-1.82377e-06
2.08e-10,-3.58228e-07
2.09e-10,-2.22652e-07
2.1e-10,3.86192e-08
2.11e-10,-7.86407e-07
2.12e-10,3.82653e-07
2.13e-10,-2.39137e-06
2.14e-10,1.63312e-07
2.15e-10,-4.17278e-07
2.16e-10,-3.20148e-07
2.17e-10,-7.43266e-07
2.18e-10,-3.05827e-07
2.19e-10,-1.31095e-06
2.2e-10,-1.03288e-07
2.21e-10,-5.54217e-07
2.22e-10,-1.76168e-06
2.23e-10,-3.50176e-07
2.24e-10,4.6652e-07
2.25e-10,-1.64453e-06
2.26e-10,-4.34308e-07
2.27e-10,-3.73628e-07
2.28e-10,3.31648e-07
2.29e-10,-5.33561e-08
2.3e-10,-2.73471e-06
2.31e-10,-6.73347e-07
2.32e-10,-3.8069e-07
2.33e-10,-1.19783e-07
2.34e-10,-1.02381e-06
2.35e-10,-7.84589e-07
2.36e-10,-9.81878e-07
2.37e-10,-9.76947e-08
2.38e-10,2.58549e-07
2.39e-10,-4.87419e-08
2.4e-10,-3.69427e-07
2.41e-10,-1.42284e-06
2.42e-10,-5.59931e-07
2.43e-10,-5.51092e-07
2.44e-10,-7.17725e-07
2.45e-10,-2.07733e-07
2.46e-10,-1.11578e-06
2.47e-10,-7.0174e-07
2.48e-10,-2.04567e-06
2.49e-10,-1.34368e-07
2.5e-10,-2.15383e-07
2.51e-10,-5.94449e-07
2.52e-10,-5.64626e-07
2.53e-10,-6.5784e-07
2.54e-10,4.34845e-07
2.55e-10,-3.91489e-07
2.56e-10,-7.97284e-08
2.57e-10,-1.21892e-06
2.58e-10,-8.38849e-07
2.59e-10,-4.87567e-07
2.6e-10,-1.07391e-06
2.61e-10,-4.96907e-07
2.62e-10,-5.80464e-08
2.63e-10,-3.50667e-07
2.64e-10,-1.29279e-08
2.65e-10,-5.70815e-08
2.66e-10,-1.28735e-06
2.67e-10,-1.47823e-06
2.68e-10,1.36057e-08
2.69e-10,-5.042e-07
2.7e-10,-1.45253e-06
2.71e-10,-8.70002e-07
2.72e-10,-2.04604e-07
2.73e-10,-3.41139e-07
2.74e-10,-4.45625e-07
2.75e-10,-1.46099e-06
2.76e-10,-5.33187e-07
2.77e-10,-1.63662e-09
2.78e-10,-1.41822e-06
2.79e-10,-5.91975e-07
2.8e-10,-1.04358e-06
2.81e-10,4.28803e-08
2.82e-10,-8.6431e-08
2.83e-10,-9.03018e-07
2.84e-10,-1.44869e-07
2.85e-10,1.85975e-07
2.86e-10,-6.06568e-07
2.87e-10,-1.45069e-06
2.88e-10,-1.04073e-07
2.89e-10,-1.20777e-07
2.9e-10,-6.97955e-07
2.91e-10,-3.47434e-07
2.92e-10,-2.99413e-07
2.93e-10,-6.34419e-07
2.94e-10,-9.1524e-08
2.95e-10,-1.41606e-07
2.96e-10,1.03357e-07
2.97e-10,-3.03861e-07
2.98e-10,-4.70214e-08
2.99e-10,-1.14005e-06
3e-10,-4.90471e-07
3.01e-10,1.54982e-07
3.02e-10,-2.56662e-07
3.03e-10,-6.12603e-08
3.04e-10,-3.38796e-07
3.05e-10,8.56918e-08
3.06e-10,-4.41252e-07
3.07e-10,5.30413e-07
3.08e-10,-3.76921e-07
3.09e-10,-4.73704e-07
3.1e-10,-1.31851e-06
3.11e-10,-2.05558e-07
3.12e-10,2.66802e-07
3.13e-10,1.27157e-07
3.14e-10,-7.80159e-07
3.15e-10,-6.54654e-08
3.16e-10,-1.10731e-06
3.17e-10,-4.80614e-07
3.18e-10,-6.23329e-07
3.19e-10,-1.81503e-07
3.2e-10,-1.72151e-07
3.21e-10,-1.61039e-07
3.22e-10,-6.96405e-07
3.23e-10,-5.51744e-07
3.24e-10,-2.72403e-07
3.25e-10,-1.96613e-07
3.26e-10,-7.04844e-08
3.27e-10,-2.88204e-07
3.28e-10,-1.27531e-06
3.29e-10,-2.86791e-06
3.3e-10,-2.74387e-07
3.31e-10,-1.49286e-07
3.32e-10,-7.9997e-07
3.33e-10,2.03732e-07
3.34e-10,-7.54605e-07
3.35e-10,1.80192e-07
3.36e-10,-1.41167e-06
3.37e-10,-4.832e-07
3.38e-10,-1.65663e-06
3.39e-10,-1.05431e-06
3.4e-10,-1.73298e-06
3.41e-10,-4.80465e-07
3.42e-10,-8.99021e-08
3.43e-10,-1.87501e-06
3.44e-10,-3.77358e-07
3.45e-10,-1.12705e-06
3.46e-10,-1.37707e-07
3.47e-10,-1.03647e-06
3.48e-10,-3.65228e-07
3.49e-10,-1.26797e-06
3.5e-10,-2.01519e-07
3.51e-10,-6.21019e-07
3.52e-10,4.07266e-07
3.53e-10,-2.28258e-07
3.54e-10,-2.12981e-07
3.55e-10,-1.36572e-06
3.56e-10,-1.08045e-06
3.57e-10,-2.75916e-06
3.58e-10,-7.50746e-07
3.59e-10,-1.84106e-07
3.6e-10,-1.45946e-07
3.61e-10,-1.10625e-07
3.62e-10,8.83275e-07
3.63e-10,-5.01118e-07
3.64e-10,-5.137e-07
3.65e-10,-8.24042e-07
3.66e-10,-2.6455e-06
3.67e-10,-1.67926e-06
3.68e-10,-5.66027e-08
3.69e-10,-2.02681e-07
3.7e-10,6.42163e-07
3.71e-10,1.53868e-07
3.72e-10,-3.79835e-07
3.73e-10,-1.12335e-07
3.74e-10,-3.33819e-08
3.75e-10,-6.25218e-08
3.76e-10,2.8016e-08
3.77e-10,-2.01354e-06
3.78e-10,1.20465e-07
3.79e-10,-1.5103e-08
3.8e-10,-4.08128e-07
3.81e-10,1.79485e-07
3.82e-10,4.49451e-07
3.83e-10,3.67558e-07
3.84e-10,-1.6293e-07
3.85e-10,-3.45725e-07
3.86e-10,-8.5286e-07
3.87e-10,-1.38712e-06
3.88e-10,-3.5346e-07
3.89e-10,-5.21083e-07
3.9e-10,-3.87945e-08
3.91e-10,5.12961e-08
3.92e-10,5.66765e-09
3.93e-10,-2.09209e-07
3.94e-10,7.6256e-08
3.95e-10,-1.87655e-07
3.96e-10,-2.16424e-07
3.97e-10,-6.78262e-08
3.98e-10,9.30956e-08
3.99e-10,-1.0663e-06
4e-10,6.46699e-07
4.01e-10,1.87621e-07
4.02e-10,-5.18165e-07
4.03e-10,-1.13594e-07
4.04e-10,-2.7833e-07
4.05e-10,-5.88709e-07
4.06e-10,1.01013e-07
4.07e-10,-1.09986e-06
4.08e-10,-9.94494e-08
4.09e-10,-1.04359e-06
4.1e-10,-1.14555e-07
4.11e-10,-3.80932e-07
4.12e-10,-8.83727e-09
4.13e-10,1.60087e-09
4.14e-10,-4.21892e-07
4.15e-10,-2.55681e-07
4.16e-10,-3.39373e-07
4.17e-10,-1.13519e-06
4.18e-10,-3.22882e-07
4.19e-10,2.10605e-07
4.2e-10,-7.1729e-07
4.21e-10,-1.15143e-06
4.22e-10,2.4699e-07
4.23e-10,-1.47262e-06
4.24e-10,-1.23999e-07
4.25e-10,3.23155e-07
4.26e-10,2.97036e-07
4.27e-10,-2.60884e-07
4.28e-10,2.4398e-07
4.29e-10,-2.97587e-07
4.3e-10,-4.83844e-08
4.31e-10,1.09809e-07
4.32e-10,-2.62844e-06
4.33e-10,-1.02854e-06
4.34e-10,4.86156e-07
4.35e-10,-4.48636e-07
4.36e-10,1.21234e-08
4.37e-10,-2.51505e-07
4.38e-10,-9.22756e-07
4.39e-10,3.66325e-07
4.4e-10,-3.73002e-07
4.41e-10,-1.9391e-06
4.42e-10,-2.09586e-07
4.43e-10,-1.06407e-06
4.44e-10,-1.92221e-07
4.45e-10,-6.54243e-08
4.46e-10,-1.87427e-07
4.47e-10,-9.84277e-07
4.48e-10,-3.29401e-07
4.49e-10,-7.55389e-07
4.5e-10,4.80581e-07
4.51e-10,-4.83548e-07
4.52e-10,-6.23426e-07
4.53e-10,-1.14869e-06
4.54e-10,-2.03381e-07
4.55e-10,-2.26942e-07
4.56e-10,-3.34486e-07
4.57e-10,-2.75253e-07
4.58e-10,-1.62521e-06
4.59e-10,3.06466e-09
4.6e-10,6.18219e-08
4.61e-10,-1.04811e-07
4.62e-10,-1.13334e-06
4.63e-10,3.85254e-08
4.64e-10,-9.32745e-07
4.65e-10,-1.116e-07
4.66e-10,-1.51882e-06
4.67e-10,-4.7453e-08
4.68e-10,9.50356e-08
4.69e-10,4.12222e-07
4.7e-10,2.1885e-07
4.71e-10,-3.20243e-07
4.72e-10,-4.7451e-07
4.73e-10,5.51354e-07
4.74e-10,-2.47888e-07
4.75e-10,3.09655e-07
4.76e-10,2.46108e-08
4.77e-10,1.50274e-07
4.78e-10,6.16812e-07
4.79e-10,-1.45897e-06
4.8e-10,7.35272e-07
4.81e-10,-5.00808e-07
4.82e-10,-1.27914e-07
4.83e-10,-1.27036e-07
4.84e-10,-1.04194e-07
4.85e-10,4.23996e-07
4.86e-10,2.53124e-07
4.87e-10,8.52482e-08
4.88e-10,-1.95086e-07
4.89e-10,-9.70137e-07
4.9e-10,-1.42722e-07
4.91e-10,-3.40768e-09
4.92e-10,-4.49558e-07
4.93e-10,-2.34103e-07
4.94e-10,-2.9481e-07
4.95e-10,5.60115e-07
4.96e-10,2.18137e-07
4.97e-10,-1.54265e-06
4.98e-10,1.78495e-07
4.99e-10,-1.93783e-07
5e-10,-5.8752e-07
5.01e-10,-1.43232e-07
5.02e-10,-2.73219e-07
5.03e-10,6.05976e-07
5.04e-10,-7.09985e-07
5.05e-10,-2.38204e-07
5.06e-10,1.1523e-07
5.07e-10,-1.77136e-06
5.08e-10,4.43764e-08
5.09e-10,4.37548e-07
5.1e-10,-1.75604e-07
5.11e-10,-2.39157e-07
5.12e-10,2.35929e-07
5.13e-10,-7.61141e-07
5.14e-10,8.58906e-08
5.15e-10,2.12835e-07
5.16e-10,-2.42731e-07
5.17e-10,5.63038e-08
5.18e-10,-7.58605e-09
5.19e-10,2.36616e-07
5.2e-10,-6.0693e-07
5.21e-10,-3.50087e-08
5.22e-10,-1.66503e-07
5.23e-10,2.50616e-07
5.24e-10,-3.17074e-07
5.25e-10,-2.40111e-07
5.26e-10,-6.63671e-07
5.27e-10,-4.32158e-08
5.28e-10,2.43707e-07
5.29e-10,-1.89071e-07
5.3e-10,2.2905e-08
5.31e-10,5.23753e-08
5.32e-10,-1.63072e-06
5.33e-10,8.71811e-08
5.34e-10,4.44722e-07
5.35e-10,-8.67332e-07
5.36e-10,-3.98582e-07
5.37e-10,-1.41123e-07
5.38e-10,-1.32913e-08
5.39e-10,-2.79693e-07
5.4e-10,-4.81799e-08
5.41e-10,-1.20988e-06
5.42e-10,-7.51412e-07
5.43e-10,-4.8884e-07
5.44e-10,-6.77524e-07
5.45e-10,-2.81049e-07
5.46e-10,8.23858e-08
5.47e-10,-1.101e-07
5.48e-10,-4.3426e-08
5.49e-10,-1.2385e-07
5.5e-10,-8.38498e-07
5.51e-10,7.68617e-07
5.52e-10,-1.24339e-06
5.53e-10,-1.83447e-06
5.54e-10,1.22855e-07
5.55e-10,-7.66141e-08
5.56e-10,-6.77269e-07
5.57e-10,-3.61662e-08
5.58e-10,2.03678e-07
5.59e-10,-2.63963e-07
5.6e-10,-1.5068e-06
5.61e-10,-1.34212e-07
5.62e-10,-1.39538e-06
5.63e-10,1.08542e-07
5.64e-10,-5.37093e-07
5.65e-10,-7.40013e-07
5.66e-10,2.56074e-07
5.67e-10,2.70158e-07
5.68e-10,-2.28108e-07
5.69e-10,6.72348e-08
5.7e-10,-8.29162e-08
5.71e-10,-6.30122e-07
5.72e-10,-2.33564e-07
5.73e-10,-8.51826e-08
5.74e-10,-1.02239e-06
5.75e-10,2.30254e-08
5.76e-10,-1.3018e-06
5.77e-10,-3.63953e-07
5.78e-10,3.67154e-07
5.79e-10,-8.87327e-08
5.8e-10,1.24713e-07
5.81e-10,2.1643e-07
5.82e-10,-2.18247e-07
5.83e-10,1.3345e-07
5.84e-10,-1.95357e-06
5.85e-10,3.88182e-07
5.86e-10,-7.31048e-08
5.87e-10,-8.43587e-07
5.88e-10,2.34116e-07
5.89e-10,-3.22381e-07
5.9e-10,-1.92235e-07
5.91e-10,5.37883e-07
5.92e-10,-2.51983e-07
5.93e-10,-1.88014e-07
5.94e-10,-1.65938e-07
5.95e-10,-1.13755e-06
5.96e-10,-1.66663e-07
5.97e-10,3.03499e-07
5.98e-10,-1.78765e-07
5.99e-10,4.71305e-07
6e-10,-4.07245e-07
6.01e-10,5.88506e-08
6.02e-10,1.68824e-08
6.03e-10,-1.63209e-07
6.04e-10,-2.31466e-09
6.05e-10,-1.6256e-07
6.06e-10,-1.01573e-07
6.07e-10,-1.71297e-07
6.08e-10,-4.70654e-08
6.09e-10,-1.45771e-07
6.1e-10,3.52359e-07
6.11e-10,-2.62952e-07
6.12e-10,1.79885e-07
6.13e-10,-3.24392e-07
6.14e-10,2.49112e-07
6.15e-10,-2.16073e-07
6.16e-10,3.51213e-08
6.17e-10,-5.19774e-07
6.18e-10,-5.40204e-08
6.19e-10,-1.38036e-07
6.2e-10,4.21453e-07
6.21e-10,6.04106e-08
6.22e-10,-1.62852e-07
6.23e-10,-1.17467e-07
6.24e-10,-1.40335e-07
6.25e-10,5.88491e-08
6.26e-10,8.49678e-09
6.27e-10,-4.75345e-08
6.28e-10,-1.40438e-08
6.29e-10,-3.81952e-08
6.3e-10,-1.31892e-07
6.31e-10,-5.69049e-08
6.32e-10,1.80542e-07
6.33e-10,1.53735e-07
6.34e-10,1.42478e-07
6.35e-10,-4.32989e-07
6.36e-10,1.36841e-07
6.37e-10,-1.3782e-07
6.38e-10,8.11636e-08
6.39e-10,-3.48183e-08
6.4e-10,-1.45023e-07
6.41e-10,-1.42272e-08
6.42e-10,-4.57313e-07
6.43e-10,-9.23685e-08
6.44e-10,7.54623e-07
6.45e-10,-2.18885e-07
6.46e-10,7.31866e-08
6.47e-10,-9.55258e-08
6.48e-10,4.32153e-08
6.49e-10,-2.32983e-07
6.5e-10,-5.05419e-08
6.51e-10,1.88167e-08
6.52e-10,-4.50657e-08
6.53e-10,2.47133e-07
6.54e-10,1.35189e-07
6.55e-10,-4.66602e-08
6.56e-10,-2.74682e-08
6.57e-10,-9.53925e-08
6.58e-10,-2.42586e-08
6.59e-10,-8.66749e-07
6.6e-10,-6.48553e-08
6.61e-10,-7.83885e-09
6.62e-10,-5.33249e-08
6.63e-10,-1.53341e-07
6.64e-10,2.53435e-07
6.65e-10,7.44583e-08
6.66e-10,-6.60112e-08
6.67e-10,-7.73703e-08
6.68e-10,2.74209e-07
6.69e-10,-2.7567e-07
6.7e-10,5.45811e-08
6.71e-10,3.01331e-07
6.72e-10,-1.00383e-06
6.73e-10,5.09368e-08
6.74e-10,-1.38183e-07
6.75e-10,-4.17034e-08
6.76e-10,-1.80617e-07
6.77e-10,-8.23086e-08
6.78e-10,-1.08087e-07
6.79e-10,6.44896e-09
6.8e-10,-8.79683e-08
6.81e-10,1.7732e-07
6.82e-10,-1.09863e-06
6.83e-10,9.62584e-08
6.84e-10,-7.60699e-07
6.85e-10,1.06359e-07
6.86e-10,-1.41355e-07
6.87e-10,4.34269e-09
6.88e-10,-4.08813e-09
6.89e-10,-4.52223e-08
6.9e-10,-1.06369e-07
6.91e-10,0
6.92e-10,-9.68208e-08
6.93e-10,4.00541e-08
6.94e-10,-9.5688e-08
6.95e-10,1.95497e-07
6.96e-10,-2.07772e-07
6.97e-10,4.40412e-08
6.98e-10,-3.75533e-08
6.99e-10,-2.45828e-07
7e-10,-2.55488e-08
7.01e-10,1.2199e-07
7.02e-10,-1.34322e-07
7.03e-10,-1.54064e-07
7.04e-10,-1.61504e-07
7.05e-10,8.27683e-07
7.06e-10,-1.42422e-07
7.07e-10,-4.14503e-08
7.08e-10,-1.48868e-07
7.09e-10,-1.82545e-07
7.1e-10,-8.80515e-08
7.11e-10,5.14196e-08
7.12e-10,-1.45239e-07
7.13e-10,-4.28468e-08
7.14e-10,-7.09314e-08
7.15e-10,-2.43503e-08
7.16e-10,-9.78619e-08
7.17e-10,-3.33327e-08
7.18e-10,-9.77706e-08
7.19e-10,-1.18904e-07
7.2e-10,-1.45938e-08
7.21e-10,-9.1266e-08
7.22e-10,-5.47416e-08
7.23e-10,5.75521e-09
7.24e-10,-4.62227e-08
7.25e-10,-5.89178e-08
7.26e-10,-4.14954e-08
7.27e-10,-9.05388e-08
7.28e-10,-2.46381e-07
7.29e-10,-8.59717e-08
7.3e-10,2.04411e-07
7.31e-10,-2.44918e-07
7.32e-10,1.12587e-07
7.33e-10,-7.80476e-08
7.34e-10,-1.82797e-07
7.35e-10,-5.41648e-09
7.36e-10,-2.30752e-09
7.37e-10,-9.77884e-08
7.38e-10,-4.02002e-08
7.39e-10,1.62988e-08
7.4e-10,-8.27711e-08
7.41e-10,-1.25785e-07
7.42e-10,-9.68628e-09
7.43e-10,9.45144e-10
7.44e-10,-1.54552e-08
7.45e-10,-4.06159e-08
7.46e-10,-4.06304e-08
7.47e-10,-1.36405e-08
7.48e-10,-1.32655e-07
7.49e-10,-1.27546e-07
7.5e-10,-4.40152e-07
7.51e-10,-8.8843e-08
7.52e-10,-2.96272e-08
7.53e-10,-1.1327e-08
7.54e-10,-1.6369e-07
7.55e-10,4.38966e-08
7.56e-10,-4.76152e-08
7.57e-10,-1.24975e-07
7.58e-10,-4.30784e-08
7.59e-10,-2.12734e-09
7.6e-10,-1.73876e-07
7.61e-10,4.52823e-09
7.62e-10,-7.79675e-09
7.63e-10,-1.45104e-07
7.64e-10,-3.77027e-08
7.65e-10,-6.30083e-09
7.66e-10,4.37506e-08
7.67e-10,-1.90712e-07
7.68e-10,-8.94479e-08
7.69e-10,5.25313e-08
7.7e-10,-9.09678e-08
7.71e-10,-1.25211e-07
7.72e-10,-3.5849e-08
7.73e-10,-4.34996e-08
7.74e-10,-1.99058e-09
7.75e-10,-4.33526e-08
7.76e-10,-4.66499e-09
7.77e-10,-5.15489e-07
7.78e-10,-2.4509e-07
7.79e-10,-9.48431e-08
7.8e-10,-1.35041e-09
7.81e-10,-1.32744e-09
7.82e-10,-4.66499e-09
7.83e-10,4.94196e-09
7.84e-10,3.84106e-08
7.85e-10,-8.08375e-10
7.86e-10,-1.42991e-08
7.87e-10,-3.04886e-07
7.88e-10,4.66499e-09
7.89e-10,-4.55681e-08
7.9e-10,-8.34204e-07
7.91e-10,-5.07873e-09
7.92e-10,-1.29778e-07
7.93e-10,-3.61452e-09
7.94e-10,-2.67785e-09
7.95e-10,1.85038e-09
7.96e-10,-9.54602e-08
7.97e-10,-4.41804e-08
7.98e-10,-1.36769e-10
7.99e-10,-5.33008e-07
8e-10,0
8.01e-10,3.78428e-09
8.02e-10,-7.20607e-09
8.03e-10,-3.70763e-08
8.04e-10,3.91654e-09
8.05e-10,-4.00668e-08
8.06e-10,-3.30209e-10
8.07e-10,-8.23825e-08
8.08e-10,-5.58776e-07
8.09e-10,5.55961e-07
8.1e-10,-6.01409e-07
8.11e-10,1.17309e-08
8.12e-10,-5.51443e-08
8.13e-10,-9.5405e-08
8.14e-10,4.84529e-08
8.15e-10,-4.43055e-08
8.16e-10,-6.01611e-09
8.17e-10,-2.78205e-09
8.18e-10,-2.15991e-09
8.19e-10,6.34597e-09
8.2e-10,-2.26411e-09
8.21e-10,5.27217e-09
8.22e-10,2.45626e-08
8.23e-10,-4.74875e-07
8.24e-10,-2.59432e-09
8.25e-10,-4.0208e-08
8.26e-10,-1.36769e-10
8.27e-10,-5.07873e-09
8.28e-10,7.18202e-09
8.29e-10,-1.01249e-08
8.3e-10,-9.02772e-08
8.31e-10,1.56691e-07
8.32e-10,3.00742e-09
8.33e-10,-1.36719e-09
8.34e-10,-7.61091e-08
8.35e-10,6.65557e-09
8.36e-10,-6.59237e-07
8.37e-10,-4.45265e-08
8.38e-10,-3.63029e-08
8.39e-10,-2.40088e-09
8.4e-10,-4.09512e-08
8.41e-10,3.19673e-07
8.42e-10,-3.86871e-08
8.43e-10,-6.79234e-09
8.44e-10,-3.84466e-08
8.45e-10,-3.19968e-09
8.46e-10,-1.60898e-08
8.47e-10,1.07576e-09
8.48e-10,-9.97526e-07
8.49e-10,-9.05645e-09
8.5e-10,-4.13733e-10
8.51e-10,2.26411e-09
8.52e-10,2.67785e-09
8.53e-10,4.17083e-07
8.54e-10,-3.47664e-09
8.55e-10,9.19322e-09
8.56e-10,-7.34284e-09
8.57e-10,-7.85104e-07
8.58e-10,2.40088e-09
8.59e-10,-9.53707e-07
8.6e-10,-3.76382e-08
8.61e-10,3.85508e-08
8.62e-10,-6.69485e-07
8.63e-10,-4.10885e-08
8.64e-10,8.63991e-08
8.65e-10,-8.39265e-08
8.66e-10,-1.00452e-06
8.67e-10,-4.63243e-09
8.68e-10,-1.86145e-08
8.69e-10,-3.81371e-08
8.7e-10,2.33683e-07
8.71e-10,-5.05419e-08
8.72e-10,-3.86876e-08
8.73e-10,3.83064e-08
8.74e-10,-4.29063e-08
8.75e-10,2.12392e-09
8.76e-10,-1.10494e-06
8.77e-10,-9.19322e-09
8.78e-10,2.23154e-09
8.79e-10,-1.43665e-09
8.8e-10,4.69756e-09
8.81e-10,4.30465e-08
8.82e-10,-9.47018e-09
8.83e-10,-4.10559e-08
8.84e-10,-1.05034e-08
8.85e-10,4.83433e-09
8.86e-10,4.77262e-09
8.87e-10,-6.79234e-09
8.88e-10,-4.56167e-08
8.89e-10,-1.18835e-09
8.9e-10,-1.07576e-09
8.91e-10,-4.94196e-09
8.92e-10,4.39146e-09
8.93e-10,-6.65557e-09
8.94e-10,7.9723e-09
8.95e-10,-3.03034e-09
8.96e-10,-4.47137e-08
8.97e-10,3.2569e-11
8.98e-10,4.39904e-08
8.99e-10,-9.47018e-09
9e-10,-3.26959e-08
9.01e-10,-9.88392e-09
9.02e-10,4.94196e-09
9.03e-10,9.05645e-09
9.04e-10,-2.12734e-09
9.05e-10,-5.07873e-09
9.06e-10,1.98715e-09
9.07e-10,2.26411e-09
9.08e-10,-1.85038e-09
9.09e-10,-4.52823e-09
9.1e-10,-9.60695e-09
9.11e-10,-4.94196e-09
9.12e-10,1.6813e-08
9.13e-10,-6.92911e-09
9.14e-10,-4.24173e-10
9.15e-10,-3.86876e-08
9.16e-10,-5.49246e-09
9.17e-10,2.40088e-09
9.18e-10,-7.34284e-09
9.19e-10,2.81461e-09
9.2e-10,-2.26411e-09
9.21e-10,7.06588e-09
9.22e-10,3.61499e-08
9.23e-10,-4.37663e-08
9.24e-10,5.2155e-09
9.25e-10,-1.41352e-08
9.26e-10,0
9.27e-10,-1.36769e-10
9.28e-10,4.25126e-09
9.29e-10,4.13733e-10
9.3e-10,2.26411e-09
9.31e-10,-4.66499e-09
9.32e-10,-2.76964e-10
9.33e-10,4.66499e-09
9.34e-10,-1.85038e-09
9.35e-10,-9.74372e-09
9.36e-10,0
9.37e-10,2.26411e-09
9.38e-10,1.36769e-10
9.39e-10,-2.54108e-09
9.4e-10,4.80519e-09
9.41e-10,-5.07873e-09
9.42e-10,-1.36769e-10
9.43e-10,-4.39146e-09
9.44e-10,7.20607e-09
9.45e-10,-1.36769e-10
9.46e-10,-2.76964e-10
9.47e-10,-1.36769e-10
9.48e-10,2.40088e-09
9.49e-10,-6.79234e-09
9.5e-10,0
9.51e-10,4.52823e-09
9.52e-10,-2.26411e-09
9.53e-10,4.52823e-09
9.54e-10,-9.60695e-09
9.55e-10,6.79234e-09
9.56e-10,-2.26411e-09
9.57e-10,4.13733e-10
9.58e-10,2.40088e-09
9.59e-10,1.85038e-09
9.6e-10,-4.52823e-09
9.61e-10,-2.40088e-09
9.62e-10,1.36769e-10
9.63e-10,-2.53765e-09
9.64e-10,3.09158e-09
9.65e-10,-2.67785e-09
9.66e-10,6.92911e-09
9.67e-10,-4.11449e-09
9.68e-10,-5.07873e-09
9.69e-10,1.36769e-10
9.7e-10,-4.66499e-09
9.71e-10,-2.67785e-09
9.72e-10,2.67785e-09
9.73e-10,1.85038e-09
9.74e-10,-4.52823e-09
9.75e-10,2.12734e-09
9.76e-10,1.36769e-10
9.77e-10,4.52823e-09
9.78e-10,-9.60695e-09
9.79e-10,2.26411e-09
9.8e-10,1.36769e-10
9.81e-10,-2.53765e-09
9.82e-10,-4.52823e-09
9.83e-10,-2.26411e-09
9.84e-10,2.26411e-09
9.85e-10,-4.52823e-09
9.86e-10,-2.73538e-10
9.87e-10,1.36769e-10
9.88e-10,0
9.89e-10,-9.60353e-09
9.9e-10,9.46676e-09
9.91e-10,-4.66499e-09
9.92e-10,4.80519e-09
9.93e-10,-4.80519e-09
9.94e-10,5.07873e-09
9.95e-10,0
9.96e-10,-4.66499e-09
9.97e-10,6.92911e-09
9.98e-10,-7.06588e-09
9.99e-10,4.66499e-09
1e-09,-4.66499e-09
1.001e-09,2.26411e-09
1.002e-09,-6.92911e-09
1.003e-09,0
1.004e-09,-2.26411e-09
1.005e-09,-1.36769e-10
1.006e-09,0
1.007e-09,2.26411e-09
1.008e-09,2.40088e-09
1.009e-09,-9.05645e-09
1.01e-09,6.79234e-09
1.011e-09,-2.40088e-09
1.012e-09,-6.79234e-09
1.013e-09,2.26411e-09
1.014e-09,-1.36769e-10
1.015e-09,2.40088e-09
1.016e-09,-4.66499e-09
1.017e-09,-2.26411e-09
1.018e-09,2.26411e-09
1.019e-09,1.36769e-10
1.02e-09,2.12734e-09
1.021e-09,4.52823e-09
1.022e-09,-4.52823e-09
1.023e-09,-2.12734e-09
1.024e-09,2.26411e-09
1.025e-09,-4.39146e-09
1.026e-09,0
1.027e-09,-2.67785e-09
1.028e-09,-6.92911e-09
1.029e-09,-1.71361e-09
1.03e-09,2.26411e-09
1.031e-09,-4.94196e-09
1.032e-09,0
1.033e-09,6.92911e-09
1.034e-09,4.39146e-09
1.035e-09,1.36769e-10
1.036e-09,0
1.037e-09,-2.40088e-09
1.038e-09,2.40088e-09
1.039e-09,2.26411e-09
1.04e-09,0
1.041e-09,0
1.042e-09,0
1.043e-09,4.39146e-09
1.044e-09,-6.79234e-09
1.045e-09,2.12734e-09
1.046e-09,-6.79234e-09
1.047e-09,4.66499e-09
1.048e-09,-1.36769e-10
1.049e-09,-4.52823e-09
1.05e-09,-2.26411e-09
1.051e-09,6.65557e-09
1.052e-09,1.36769e-10
1.053e-09,2.26411e-09
1.054e-09,-4.66499e-09
1.055e-09,2.26411e-09
1.056e-09,-4.52823e-09
1.057e-09,-1.36769e-10
1.058e-09,-2.26411e-09
1.059e-09,0
1.06e-09,-2.26411e-09
1.061e-09,2.40088e-09
1.062e-09,-4.66499e-09
1.063e-09,2.40088e-09
1.064e-09,1.36769e-10
1.065e-09,2.26411e-09
1.066e-09,-2.40088e-09
1.067e-09,0
1.068e-09,4.66499e-09
1.069e-09,-2.26411e-09
1.07e-09,-2.40088e-09
1.071e-09,0
1.072e-09,2.26411e-09
1.073e-09,0
1.074e-09,-6.92911e-09
1.075e-09,2.26411e-09
1.076e-09,2.40088e-09
1.077e-09,2.40088e-09
1.078e-09,-2.40088e-09
1.079e-09,-1.36769e-10
1.08e-09,-4.52823e-09
1.081e-09,4.66499e-09
1.082e-09,9.19322e-09
1.083e-09,-6.79234e-09
1.084e-09,2.12734e-09
1.085e-09,2.40088e-09
1.086e-09,-2.26411e-09
1.087e-09,9.05645e-09
1.088e-09,-4.39146e-09
1.089e-09,-1.14573e-08
1.09e-09,0
1.091e-09,0
1.092e-09,2.26411e-09
1.093e-09,-6.79234e-09
1.094e-09,-1.36769e-10
1.095e-09,4.52823e-09
1.096e-09,4.66499e-09
1.097e-09,-4.52823e-09
1.098e-09,6.79234e-09
1.099e-09,-6.79234e-09
1.1e-09,2.26411e-09
1.101e-09,0
1.102e-09,9.05645e-09
1.103e-09,-9.19322e-09
1.104e-09,-1.36769e-10
1.105e-09,2.26411e-09
1.106e-09,0
1.107e-09,-9.05645e-09
1.108e-09,4.52823e-09
1.109e-09,6.79234e-09
1.11e-09,-9.19322e-09
1.111e-09,6.79234e-09
1.112e-09,-1.14573e-08
1.113e-09,4.66499e-09
1.114e-09,-6.92911e-09
1.115e-09,4.66499e-09
1.116e-09,-2.26411e-09
1.117e-09,-4.66499e-09
1.118e-09,0
1.119e-09,1.13206e-08
1.12e-09,-6.79234e-09
1.121e-09,0
1.122e-09,9.05645e-09
1.123e-09,-6.92911e-09
1.124e-09,2.26411e-09
1.125e-09,2.26411e-09
1.126e-09,-2.26411e-09
1.127e-09,2.53765e-09
1.128e-09,-4.66499e-09
1.129e-09,2.26411e-09
1.13e-09,4.52823e-09
1.131e-09,-9.05645e-09
1.132e-09,-2.26411e-09
1.133e-09,-2.26411e-09
1.134e-09,-4.52823e-09
1.135e-09,2.26411e-09
1.136e-09,4.52823e-09
1.137e-09,-6.92911e-09
1.138e-09,6.92911e-09
1.139e-09,1.36769e-10
1.14e-09,-4.80176e-09
1.141e-09,4.66499e-09
1.142e-09,-2.26411e-09
1.143e-09,-2.26411e-09
1.144e-09,0
1.145e-09,-4.94196e-09
1.146e-09,4.52823e-09
1.147e-09,0
1.148e-09,4.66499e-09
1.149e-09,-4.52823e-09
1.15e-09,-2.40088e-09
1.151e-09,6.79234e-09
1.152e-09,0
1.153e-09,-2.26411e-09
1.154e-09,2.26411e-09
1.155e-09,0
1.156e-09,2.43345e-09
1.157e-09,-2.26411e-09
1.158e-09,-1.36769e-10
1.159e-09,0
1.16e-09,-2.40088e-09
1.161e-09,1.36769e-10
1.162e-09,2.36831e-09
1.163e-09,-2.23154e-09
1.164e-09,-4.66499e-09
1.165e-09,-3.36122e-08
1.166e-09,-9.32999e-09
1.167e-09,2.26411e-09
1.168e-09,0
1.169e-09,2.26411e-09
1.17e-09,-2.26411e-09
1.171e-09,2.12734e-09
1.172e-09,2.73538e-10
1.173e-09,-1.36769e-10
1.174e-09,-9.49938e-09
1.175e-09,9.49938e-09
1.176e-09,-2.40088e-09
1.177e-09,-4.22596e-08
1.178e-09,4.66499e-09
1.179e-09,-1.27858e-09
1.18e-09,-2.12734e-09
1.181e-09,-4.80176e-09
1.182e-09,-4.52823e-09
1.183e-09,0
1.184e-09,6.79234e-09
1.185e-09,-2.26411e-09
1.186e-09,-2.26411e-09
1.187e-09,-3.38641e-09
1.188e-09,2.40088e-09
1.189e-09,4.52823e-09
1.19e-09,-5.94358e-09
1.191e-09,-4.33852e-08
1.192e-09,4.66499e-09
1.193e-09,2.26411e-09
1.194e-09,0
1.195e-09,6.79234e-09
1.196e-09,-6.79234e-09
1.197e-09,0
1.198e-09,0
1.199e-09,4.52823e-09
1.2e-09,-4.52823e-09
1.201e-09,-4.32162e-08
1.202e-09,-2.12715e-09
1.203e-09,-2.73735e-10
1.204e-09,0
1.205e-09,0
1.206e-09,2.73735e-10
1.207e-09,0
1.208e-09,-2.40088e-09
1.209e-09,-2.40108e-09
1.21e-09,-2.26411e-09
1.211e-09,-1.36769e-10
1.212e-09,-2.26411e-09
1.213e-09,-2.26411e-09
1.214e-09,-4.06427e-08
1.215e-09,2.26411e-09
1.216e-09,2.40088e-09
1.217e-09,-2.26411e-09
1.218e-09,6.79234e-09
1.219e-09,-2.12734e-09
1.22e-09,-4.66499e-09
1.221e-09,4.52823e-09
1.222e-09,-4.52823e-09
1.223e-09,6.92911e-09
1.224e-09,-2.40088e-09
1.225e-09,-3.82749e-08
1.226e-09,-1.3995e-08
1.227e-09,6.92911e-09
1.228e-09,-1.36769e-10
1.229e-09,-4.52823e-09
1.23e-09,0
1.231e-09,2.26411e-09
1.232e-09,-6.79234e-09
1.233e-09,-4.52823e-09
1.234e-09,-3.3817e-08
1.235e-09,-2.26411e-09
1.236e-09,2.26411e-09
1.237e-09,-2.26411e-09
1.238e-09,0
1.239e-09,0
1.24e-09,-4.52823e-09
1.241e-09,4.52823e-09
1.242e-09,0
1.243e-09,2.26411e-09
1.244e-09,0
1.245e-09,-4.52823e-09
1.246e-09,-4.34226e-08
1.247e-09,-1.36769e-10
1.248e-09,0
1.249e-09,-6.79234e-09
1.25e-09,4.52823e-09
1.251e-09,4.52823e-09
1.252e-09,-4.52823e-09
1.253e-09,4.52823e-09
1.254e-09,2.26411e-09
1.255e-09,2.26411e-09
1.256e-09,-4.52823e-09
1.257e-09,-3.42266e-08
1.258e-09,0
1.259e-09,-2.26411e-09
1.26e-09,0
1.261e-09,0
1.262e-09,0
1.263e-09,0
1.264e-09,0
1.265e-09,-2.12734e-09
1.266e-09,-1.36769e-10
1.267e-09,-4.65925e-08
1.268e-09,-4.52823e-09
1.269e-09,-4.52823e-09
1.27e-09,2.26411e-09
1.271e-09,4.52823e-09
1.272e-09,0
1.273e-09,0
1.274e-09,-4.06434e-08
1.275e-09,4.66499e-09
1.276e-09,-2.26411e-09
1.277e-09,0
1.278e-09,-2.26411e-09
1.279e-09,0
1.28e-09,2.40088e-09
1.281e-09,0
1.282e-09,-4.56164e-08
1.283e-09,-2.40088e-09
1.284e-09,4.66499e-09
1.285e-09,2.26411e-09
1.286e-09,-2.26411e-09
1.287e-09,0
1.288e-09,0
1.289e-09,0
1.29e-09,0
1.291e-09,-4.57532e-08
1.292e-09,2.26411e-09
1.293e-09,2.40088e-09
1.294e-09,0
1.295e-09,0
1.296e-09,-1.12711e-08
1.297e-09,-4.52823e-09
1.298e-09,2.26411e-09
1.299e-09,1.35352e-08
1.3e-09,0
1.301e-09,0
1.302e-09,-4.11054e-08
1.303e-09,0
1.304e-09,0
1.305e-09,2.26411e-09
1.306e-09,-6.92911e-09
1.307e-09,2.26411e-09
1.308e-09,-4.52823e-09
1.309e-09,-2.26411e-09
1.31e-09,2.40088e-09
1.311e-09,4.52823e-09
1.312e-09,2.26411e-09
1.313e-09,-5.01446e-08
1.314e-09,-4.52823e-09
1.315e-09,0
1.316e-09,2.26411e-09
1.317e-09,2.12734e-09
1.318e-09,-4.52823e-09
1.319e-09,2.40088e-09
1.32e-09,0
1.321e-09,4.52823e-09
1.322e-09,4.52823e-09
1.323e-09,-5.01453e-08
1.324e-09,-2.26411e-09
1.325e-09,6.79234e-09
1.326e-09,-4.52823e-09
1.327e-09,0
1.328e-09,-1.36769e-10
1.329e-09,2.40088e-09
1.33e-09,-6.79234e-09
1.331e-09,2.26411e-09
1.332e-09,-2.26411e-09
1.333e-09,-3.20529e-08
1.334e-09,-4.52823e-09
1.335e-09,1.36769e-10
1.336e-09,-4.66499e-09
1.337e-09,0
1.338e-09,2.26411e-09
1.339e-09,0
1.34e-09,-4.66499e-09
1.341e-09,2.40088e-09
1.342e-09,-4.66499e-09
1.343e-09,-5.0146e-08
1.344e-09,6.79234e-09
1.345e-09,-4.52823e-09
1.346e-09,2.26411e-09
1.347e-09,2.26411e-09
1.348e-09,2.26411e-09
1.349e-09,2.26411e-09
1.35e-09,-4.78819e-08
1.351e-09,4.52823e-09
1.352e-09,-4.52823e-09
1.353e-09,2.40088e-09
1.354e-09,-4.52823e-09
1.355e-09,2.26411e-09
1.356e-09,0
1.357e-09,4.52823e-09
1.358e-09,4.52823e-09
1.359e-09,-2.26411e-09
1.36e-09,-4.11061e-08
1.361e-09,0
1.362e-09,0
1.363e-09,-2.12734e-09
1.364e-09,2.26411e-09
1.365e-09,-6.79234e-09
1.366e-09,-6.92911e-09
1.367e-09,4.52823e-09
1.368e-09,2.12734e-09
1.369e-09,1.36769e-10
1.37e-09,-4.91972e-08
1.371e-09,-2.26411e-09
1.372e-09,-2.40088e-09
1.373e-09,2.26411e-09
1.374e-09,4.80176e-09
1.375e-09,-2.26411e-09
1.376e-09,2.26411e-09
1.377e-09,-4.32139e-08
1.378e-09,0
1.379e-09,2.26411e-09
1.38e-09,-2.40088e-09
1.381e-09,2.26411e-09
1.382e-09,1.36769e-10
1.383e-09,-6.92911e-09
1.384e-09,4.52823e-09
1.385e-09,-4.14386e-08
1.386e-09,4.52823e-09
1.387e-09,2.26411e-09
1.388e-09,-6.79234e-09
1.389e-09,6.92911e-09
1.39e-09,-6.92911e-09
1.391e-09,2.40088e-09
1.392e-09,2.26411e-09
1.393e-09,0
1.394e-09,-4.69361e-08
1.395e-09,-1.36769e-10
1.396e-09,4.66499e-09
1.397e-09,-2.40088e-09
1.398e-09,2.40088e-09
1.399e-09,-6.79234e-09
1.4e-09,2.26411e-09
1.401e-09,-4.66499e-09
1.402e-09,4.66499e-09
1.403e-09,-4.0931e-08
1.404e-09,0
1.405e-09,-2.26411e-09
1.406e-09,6.79234e-09
1.407e-09,2.26411e-09
1.408e-09,-2.40088e-09
1.409e-09,0
1.41e-09,-2.26411e-09
1.411e-09,2.26411e-09
1.412e-09,-5.49468e-08
1.413e-09,0
1.414e-09,-4.52823e-09
1.415e-09,6.79234e-09
1.416e-09,1.36769e-10
1.417e-09,2.26411e-09
1.418e-09,0
1.419e-09,-4.67657e-08
1.42e-09,0
1.421e-09,0
1.422e-09,0
1.423e-09,-2.26411e-09
1.424e-09,4.52823e-09
1.425e-09,4.52823e-09
1.426e-09,-4.52823e-09
1.427e-09,0
1.428e-09,-4.07748e-08
1.429e-09,-6.79234e-09
1.43e-09,4.52823e-09
1.431e-09,-2.26411e-09
1.432e-09,4.66499e-09
1.433e-09,4.39146e-09
1.434e-09,-6.92911e-09
1.435e-09,-2.26411e-09
1.436e-09,-3.86917e-08
1.437e-09,-6.92911e-09
1.438e-09,6.79234e-09
1.439e-09,-2.26411e-09
1.44e-09,2.12734e-09
1.441e-09,0
1.442e-09,-9.05645e-09
1.443e-09,0
1.444e-09,-4.57506e-08
1.445e-09,-2.26411e-09
1.446e-09,-2.26411e-09
1.447e-09,4.66499e-09
1.448e-09,0
1.449e-09,-4.80176e-09
1.45e-09,1.36769e-10
1.451e-09,-4.12624e-08
1.452e-09,2.26411e-09
1.453e-09,2.26411e-09
1.454e-09,-2.26411e-09
1.455e-09,2.73538e-10
1.456e-09,-1.36769e-10
1.457e-09,2.26411e-09
1.458e-09,2.26411e-09
1.459e-09,-2.26411e-09
1.46e-09,-4.80147e-08
1.461e-09,0
1.462e-09,-6.79234e-09
1.463e-09,2.40088e-09
1.464e-09,2.26411e-09
1.465e-09,-1.36769e-10
1.466e-09,0
1.467e-09,2.26411e-09
1.468e-09,-2.12734e-09
1.469e-09,-5.28164e-08
1.47e-09,-2.26411e-09
1.471e-09,0
1.472e-09,2.40088e-09
1.473e-09,-2.26411e-09
1.474e-09,-2.40088e-09
1.475e-09,2.26411e-09
1.476e-09,1.36769e-10
1.477e-09,-2.26411e-09
1.478e-09,-4.41203e-08
1.479e-09,4.52823e-09
1.48e-09,-2.40088e-09
1.481e-09,-4.52823e-09
1.482e-09,6.92911e-09
1.483e-09,-4.52823e-09
1.484e-09,6.79234e-09
1.485e-09,-4.66499e-09
1.486e-09,-2.12734e-09
1.487e-09,-4.81585e-08
1.488e-09,6.92911e-09
1.489e-09,-9.19322e-09
1.49e-09,0
1.491e-09,2.26411e-09
1.492e-09,0
1.493e-09,-2.26411e-09
1.494e-09,4.52823e-09
1.495e-09,4.52823e-09
1.496e-09,-9.05645e-09
1.497e-09,2.26411e-09
1.498e-09,0
1.499e-09,-4.94586e-08
1.5e-09,2.26411e-09
1.501e-09,0
1.502e-09,2.40088e-09
1.503e-09,0
1.504e-09,0
1.505e-09,-4.66499e-09
1.506e-09,4.52823e-09
1.507e-09,-2.26411e-09
1.508e-09,0
1.509e-09,-3.88232e-08
1.51e-09,2.26411e-09
1.511e-09,-2.26411e-09
1.512e-09,2.26411e-09
1.513e-09,2.26411e-09
1.514e-09,0
1.515e-09,0
1.516e-09,-2.26411e-09
1.517e-09,-5.05513e-08
1.518e-09,0
1.519e-09,0
1.52e-09,-4.52823e-09
1.521e-09,0
1.522e-09,0
1.523e-09,-2.26411e-09
1.524e-09,0
1.525e-09,-5.43405e-08
1.526e-09,2.26411e-09
1.527e-09,0
1.528e-09,4.52823e-09
1.529e-09,-2.26411e-09
1.53e-09,0
1.531e-09,0
1.532e-09,0
1.533e-09,2.26411e-09
1.534e-09,6.79234e-09
1.535e-09,-2.26411e-09
1.536e-09,-4.12565e-08
1.537e-09,6.79234e-09
1.538e-09,0
1.539e-09,-6.79234e-09
1.54e-09,4.52823e-09
1.541e-09,0
1.542e-09,-2.26411e-09
1.543e-09,-2.26411e-09
1.544e-09,-4.92201e-08
1.545e-09,2.26411e-09
1.546e-09,0
1.547e-09,-2.26411e-09
1.548e-09,9.05645e-09
1.549e-09,0
1.55e-09,-2.26411e-09
1.551e-09,-4.86761e-08
1.552e-09,-2.26411e-09
1.553e-09,-2.26411e-09
1.554e-09,0
1.555e-09,0
1.556e-09,2.26411e-09
1.557e-09,-6.79234e-09
1.558e-09,0
1.559e-09,2.26411e-09
1.56e-09,-3.85213e-08
1.561e-09,0
1.562e-09,6.79234e-09
1.563e-09,-4.52823e-09
1.564e-09,-2.26411e-09
1.565e-09,-4.52823e-09
1.566e-09,2.26411e-09
1.567e-09,0
1.568e-09,-2.26411e-09
1.569e-09,-4.88806e-08
1.57e-09,2.26411e-09
1.571e-09,0
1.572e-09,0
1.573e-09,0
1.574e-09,2.26411e-09
1.575e-09,-2.26411e-09
1.576e-09,0
1.577e-09,-5.31691e-08
1.578e-09,2.26411e-09
1.579e-09,-4.52823e-09
1.58e-09,0
1.581e-09,6.79234e-09
1.582e-09,-6.79234e-09
1.583e-09,0
1.584e-09,-2.53902e-08
1.585e-09,2.26411e-09
1.586e-09,-4.52823e-09
1.587e-09,0
1.588e-09,2.26411e-09
1.589e-09,-4.52823e-09
1.59e-09,0
1.591e-09,2.26411e-09
1.592e-09,0
1.593e-09,4.52823e-09
1.594e-09,-4.52823e-09
1.595e-09,-4.86056e-08
1.596e-09,2.26411e-09
1.597e-09,-2.26411e-09
1.598e-09,4.52823e-09
1.599e-09,-4.52823e-09
1.6e-09,0
1.601e-09,4.66499e-09
1.602e-09,-6.92911e-09
1.603e-09,-4.52742e-08
1.604e-09,0
1.605e-09,-2.26411e-09
1.606e-09,4.52823e-09
1.607e-09,-2.26411e-09
1.608e-09,-2.26411e-09
1.609e-09,2.26411e-09
1.61e-09,0
1.611e-09,2.26411e-09
1.612e-09,2.26411e-09
1.613e-09,-2.63102e-08
1.614e-09,2.26411e-09
1.615e-09,-6.79234e-09
1.616e-09,9.05645e-09
1.617e-09,0
1.618e-09,8.38676e-08
1.619e-09,-8.38676e-08
1.62e-09,8.61317e-08
1.621e-09,2.26411e-09
1.622e-09,-1.35874e-07
1.623e-09,1.2132e-07
1.624e-09,-4.52823e-09
1.625e-09,0
1.626e-09,0
1.627e-09,0
1.628e-09,-2.26411e-09
1.629e-09,-2.26411e-09
1.63e-09,0
1.631e-09,4.52823e-09
1.632e-09,-2.26411e-09
1.633e-09,-1.83184e-08
1.634e-09,0
1.635e-09,0
1.636e-09,-2.40088e-09
1.637e-09,0
1.638e-09,2.26411e-09
1.639e-09,2.40088e-09
1.64e-09,-5.9032e-08
1.641e-09,2.26411e-09
1.642e-09,-1.05505e-07
1.643e-09,1.05505e-07
1.644e-09,-1.10033e-07
1.645e-09,-2.26411e-09
1.646e-09,1.07769e-07
1.647e-09,-2.26411e-09
1.648e-09,-1.05505e-07
1.649e-09,0
1.65e-09,-4.71123e-08
1.651e-09,-4.52823e-09
1.652e-09,6.79234e-09
1.653e-09,2.26411e-09
1.654e-09,1.36823e-07
1.655e-09,-1.41351e-07
1.656e-09,-2.26411e-09
1.657e-09,2.26411e-09
1.658e-09,1.41624e-07
1.659e-09,0
1.66e-09,0
1.661e-09,2.26411e-09
1.662e-09,-2.26411e-09
1.663e-09,0
1.664e-09,2.26411e-09
1.665e-09,-2.26411e-09
1.666e-09,-6.08097e-08
1.667e-09,4.52823e-09
1.668e-09,2.26411e-09
1.669e-09,2.26411e-09
1.67e-09,-2.26411e-09
1.671e-09,2.26411e-09
1.672e-09,-2.26411e-09
1.673e-09,-2.26411e-09
1.674e-09,6.79234e-09
1.675e-09,2.45205e-09
1.676e-09,-2.26411e-09
1.677e-09,2.26411e-09
1.678e-09,0
1.679e-09,-4.52823e-09
1.68e-09,0
1.681e-09,0
1.682e-09,1.14016e-08
1.683e-09,-2.26411e-09
1.684e-09,-4.52823e-09
1.685e-09,0
1.686e-09,4.52823e-09
1.687e-09,-6.79234e-09
1.688e-09,2.26411e-09
1.689e-09,-4.52823e-09
1.69e-09,-1.44939e-08
1.691e-09,0
1.692e-09,4.52823e-09
1.693e-09,-4.52823e-09
1.694e-09,0
1.695e-09,2.26411e-09
1.696e-09,0
1.697e-09,4.51056e-08
1.698e-09,2.26411e-09
1.699e-09,-4.66499e-09
1.7e-09,2.40088e-09
1.701e-09,0
1.702e-09,-2.26411e-09
1.703e-09,-1.36769e-10
1.704e-09,-2.12734e-09
1.705e-09,3.89096e-08
1.706e-09,2.26411e-09
1.707e-09,-2.26411e-09
1.708e-09,2.26411e-09
1.709e-09,0
1.71e-09,-2.26411e-09
1.711e-09,-2.26411e-09
1.712e-09,9.05645e-09
1.713e-09,-4.52823e-09
1.714e-09,0
1.715e-09,4.80229e-08
1.716e-09,4.66499e-09
1.717e-09,0
1.718e-09,2.26411e-09
1.719e-09,2.26411e-09
1.72e-09,-2.26411e-09
1.721e-09,0
1.722e-09,-2.26411e-09
1.723e-09,-2.26411e-09
1.724e-09,7.28421e-08
1.725e-09,2.26411e-09
1.726e-09,0
1.727e-09,2.12734e-09
1.728e-09,-4.52823e-09
1.729e-09,0
1.73e-09,-2.26411e-09
1.731e-09,2.60109e-07
1.732e-09,0
1.733e-09,1.1705e-07
1.734e-09,6.79234e-09
1.735e-09,-3.17351e-09
1.736e-09,0
1.737e-09,9.09395e-10
1.738e-09,-9.09395e-10
1.739e-09,9.09395e-10
1.74e-09,-4.52823e-09
1.741e-09,1.47428e-07
1.742e-09,2.26411e-09
1.743e-09,-3.06071e-09
1.744e-09,0
1.745e-09,0
1.746e-09,-1.46751e-09
1.747e-09,2.26411e-09
1.748e-09,0
1.749e-09,-7.96602e-10
1.75e-09,0
1.751e-09,1.67082e-07
1.752e-09,2.26411e-09
1.753e-09,-4.52823e-09
1.754e-09,4.52823e-09
1.755e-09,2.98615e-07
1.756e-09,-6.79234e-09
1.757e-09,-2.26411e-09
1.758e-09,2.26411e-09
1.759e-09,0
1.76e-09,2.11105e-07
1.761e-09,-2.26411e-09
1.762e-09,2.26411e-09
1.763e-09,-4.52823e-09
1.764e-09,4.52823e-09
1.765e-09,-2.26411e-09
1.766e-09,0
1.767e-09,0
1.768e-09,-4.52823e-09
1.769e-09,2.95337e-07
1.77e-09,2.49973e-07
1.771e-09,-2.14497e-09
1.772e-09,2.26411e-09
1.773e-09,-4.52823e-09
1.774e-09,0
1.775e-09,2.26411e-09
1.776e-09,0
1.777e-09,4.52823e-09
1.778e-09,0
1.779e-09,-2.26411e-09
1.78e-09,1.84615e-07
1.781e-09,6.79234e-09
1.782e-09,2.26411e-09
1.783e-09,-4.52823e-09
1.784e-09,-2.26411e-09
1.785e-09,-4.52823e-09
1.786e-09,-2.26411e-09
1.787e-09,2.24578e-09
1.788e-09,2.26411e-09
1.789e-09,0
1.79e-09,-4.52823e-09
1.791e-09,1.10565e-07
1.792e-09,-4.52823e-09
1.793e-09,4.52823e-09
1.794e-09,-2.26411e-09
1.795e-09,4.52823e-09
1.796e-09,-1.08301e-07
1.797e-09,1.08301e-07
1.798e-09,6.79234e-09
1.799e-09,-4.52823e-09
1.8e-09,2.26411e-09
1.801e-09,-4.52823e-09
1.802e-09,-2.26411e-09
1.803e-09,-2.26411e-09
1.804e-09,2.26411e-09
1.805e-09,2.26411e-09
1.806e-09,-2.26411e-09
1.807e-09,4.52823e-09
1.808e-09,-2.26411e-09
1.809e-09,-2.26411e-09
1.81e-09,0
1.811e-09,-2.26411e-09
1.812e-09,2.26411e-09
1.813e-09,2.26411e-09
1.814e-09,6.79234e-09
1.815e-09,-6.79234e-09
1.816e-09,-2.26411e-09
1.817e-09,4.52823e-09
1.818e-09,0
1.819e-09,4.52823e-09
1.82e-09,0
1.821e-09,4.52823e-09
1.822e-09,-4.52823e-09
1.823e-09,0
1.824e-09,-4.52823e-09
1.825e-09,4.52823e-09
1.826e-09,4.52823e-09
1.827e-09,-2.26411e-09
1.828e-09,0
1.829e-09,0
1.83e-09,-4.52823e-09
1.831e-09,0
1.832e-09,2.26411e-09
1.833e-09,2.26411e-09
1.834e-09,-4.52823e-09
1.835e-09,-4.52823e-09
1.836e-09,2.26411e-09
1.837e-09,-7.31857e-10
1.838e-09,-2.26825e-09
1.839e-09,2.26411e-09
1.84e-09,2.26411e-09
1.841e-09,4.1381e-12
1.842e-09,2.25997e-09
1.843e-09,4.52823e-09
1.844e-09,-4.52823e-09
1.845e-09,4.52823e-09
1.846e-09,-2.33103e-08
1.847e-09,2.33103e-08
1.848e-09,-2.26411e-09
1.849e-09,-2.26411e-09
1.85e-09,2.26411e-09
1.851e-09,0
1.852e-09,-2.33103e-08
1.853e-09,0
1.854e-09,6.79234e-09
1.855e-09,0
1.856e-09,2.26411e-09
1.857e-09,2.26411e-09
1.858e-09,-2.26411e-09
1.859e-09,0
1.86e-09,0
1.861e-09,0
1.862e-09,2.26411e-09
1.863e-09,-4.52823e-09
1.864e-09,0
1.865e-09,-2.26411e-09
1.866e-09,-2.26411e-09
1.867e-09,0
1.868e-09,0
1.869e-09,-2.26411e-09
1.87e-09,4.52823e-09
1.871e-09,-6.79234e-09
1.872e-09,2.26411e-09
1.873e-09,2.26411e-09
1.874e-09,2.26411e-09
1.875e-09,-2.26411e-09
1.876e-09,-4.52823e-09
1.877e-09,0
1.878e-09,0
1.879e-09,2.26411e-09
1.88e-09,0
1.881e-09,0
1.882e-09,-4.52823e-09
1.883e-09,2.26411e-09
1.884e-09,0
1.885e-09,0
1.886e-09,0
1.887e-09,0
1.888e-09,2.26411e-09
1.889e-09,2.26411e-09
1.89e-09,-2.26411e-09
1.891e-09,-2.26411e-09
1.892e-09,2.26411e-09
1.893e-09,0
1.894e-09,0
1.895e-09,-4.52823e-09
1.896e-09,2.26411e-09
1.897e-09,0
1.898e-09,4.52823e-09
1.899e-09,-4.52823e-09
1.9e-09,-2.26411e-09
1.901e-09,2.26411e-09
1.902e-09,2.26411e-09
1.903e-09,0
1.904e-09,2.26411e-09
1.905e-09,-4.52823e-09
1.906e-09,-4.52823e-09
1.907e-09,6.79234e-09
1.908e-09,-4.52823e-09
1.909e-09,0
1.91e-09,4.52823e-09
1.911e-09,2.26411e-09
1.912e-09,-2.26411e-09
1.913e-09,-2.26411e-09
1.914e-09,-2.26411e-09
1.915e-09,2.26411e-09
1.916e-09,0
1.917e-09,2.26411e-09
1.918e-09,0
1.919e-09,0
1.92e-09,2.26411e-09
1.921e-09,0
1.922e-09,-2.26411e-09
1.923e-09,0
1.924e-09,2.26411e-09
1.925e-09,-2.26411e-09
1.926e-09,0
1.927e-09,2.26411e-09
1.928e-09,-2.26411e-09
1.929e-09,0
1.93e-09,-2.26411e-09
1.931e-09,-2.26411e-09
1.932e-09,0
1.933e-09,-2.26411e-09
1.934e-09,0
1.935e-09,0
1.936e-09,6.79234e-09
1.937e-09,-2.26411e-09
1.938e-09,1.36769e-10
1.939e-09,2.26411e-09
1.94e-09,-2.26411e-09
1.941e-09,0
1.942e-09,-2.26411e-09
1.943e-09,2.26411e-09
1.944e-09,2.26411e-09
1.945e-09,-4.52823e-09
1.946e-09,-1.36769e-10
1.947e-09,0
1.948e-09,0
1.949e-09,2.26411e-09
1.95e-09,2.40088e-09
1.951e-09,-4.52823e-09
1.952e-09,2.26411e-09
1.953e-09,2.26411e-09
1.954e-09,0
1.955e-09,-2.26411e-09
1.956e-09,-4.52823e-09
1.957e-09,2.26411e-09
1.958e-09,0
1.959e-09,2.26411e-09
1.96e-09,0
1.961e-09,-2.26411e-09
1.962e-09,0
1.963e-09,-4.52823e-09
1.964e-09,4.52823e-09
1.965e-09,-4.52823e-09
1.966e-09,-2.26411e-09
1.967e-09,2.26411e-09
1.968e-09,-2.26411e-09
1.969e-09,-2.26411e-09
1.97e-09,2.26411e-09
1.971e-09,0
1.972e-09,0
1.973e-09,2.12734e-09
1.974e-09,-2.12734e-09
1.975e-09,2.26411e-09
1.976e-09,-1.36769e-10
1.977e-09,2.40088e-09
1.978e-09,-1.36769e-10
1.979e-09,0
1.98e-09,-2.26411e-09
1.981e-09,0
1.982e-09,2.26411e-09
1.983e-09,2.40088e-09
1.984e-09,-6.92911e-09
1.985e-09,4.52823e-09
1.986e-09,-2.26411e-09
1.987e-09,2.26411e-09
1.988e-09,1.36769e-10
1.989e-09,0
1.99e-09,4.52823e-09
1.991e-09,-4.52823e-09
1.992e-09,2.26411e-09
1.993e-09,4.52823e-09
1.994e-09,0
1.995e-09,-2.26411e-09
1.996e-09,0
1.997e-09,-2.26411e-09
1.998e-09,0
1.999e-09,2.26411e-09
2e-09,-2.26411e-09
2.001e-09,-2.26411e-09
2.1e-09,0
