0,0
1e-12,-1.14202e-06
2e-12,-4.8452e-08
3e-12,-2.03044e-06
4e-12,6.75901e-07
5e-12,5.55464e-07
6e-12,-1.117e-06
7e-12,-2.18536e-06
8e-12,-1.55588e-06
9e-12,-5.65313e-08
1e-11,7.42295e-07
1.1e-11,-1.47144e-06
1.2e-11,2.28605e-07
1.3e-11,-6.77912e-07
1.4e-11,-4.45852e-07
1.5e-11,-9.91348e-08
1.6e-11,-4.0771e-07
1.7e-11,4.154e-07
1.8e-11,-1.33513e-07
1.9e-11,-1.62487e-06
2e-11,-1.1862e-06
2.1e-11,7.71339e-07
2.2e-11,3.11515e-07
2.3e-11,1.1696e-07
2.4e-11,-1.22227e-07
2.5e-11,-4.25127e-07
2.6e-11,3.75966e-07
2.7e-11,-6.40507e-07
2.8e-11,1.6483e-07
2.9e-11,-8.68678e-07
3e-11,-1.24003e-06
3.1e-11,-6.11293e-07
3.2e-11,5.87019e-07
3.3e-11,7.2842e-07
3.4e-11,-4.32512e-07
3.5e-11,-1.97606e-07
3.6e-11,-1.38255e-06
3.7e-11,-3.49255e-07
3.8e-11,-1.0161e-06
3.9e-11,-2.55943e-07
4e-11,-5.78349e-08
4.1e-11,-6.10868e-07
4.2e-11,-3.71141e-07
4.3e-11,-1.75068e-06
4.4e-11,-8.56402e-07
4.5e-11,-5.13834e-07
4.6e-11,-1.85083e-06
4.7e-11,-3.92312e-07
4.8e-11,-1.1753e-06
4.9e-11,-9.15366e-07
5e-11,9.38927e-07
5.1e-11,-1.46417e-06
5.2e-11,2.57982e-07
5.3e-11,-1.28995e-06
5.4e-11,-1.92383e-06
5.5e-11,-7.39178e-07
5.6e-11,-8.63182e-07
5.7e-11,-5.05898e-07
5.8e-11,-7.15842e-07
5.9e-11,-1.49241e-06
6e-11,2.84716e-07
6.1e-11,-1.36676e-06
6.2e-11,-7.9139e-07
6.3e-11,-1.85347e-06
6.4e-11,-2.96981e-07
6.5e-11,-9.55857e-07
6.6e-11,-3.95892e-07
6.7e-11,-7.15292e-07
6.8e-11,-1.07595e-06
6.9e-11,-4.32148e-07
7e-11,-1.18429e-06
7.1e-11,-1.07921e-06
7.2e-11,-1.27825e-06
7.3e-11,-1.5751e-07
7.4e-11,-1.71919e-06
7.5e-11,-1.4522e-07
7.6e-11,-1.79297e-06
7.7e-11,-8.065e-07
7.8e-11,-2.31949e-07
7.9e-11,-2.32355e-07
8e-11,1.87417e-07
8.1e-11,-1.1197e-06
8.2e-11,-3.68644e-07
8.3e-11,-1.80975e-06
8.4e-11,-1.84144e-06
8.5e-11,-1.73762e-06
8.6e-11,-4.79493e-07
8.7e-11,-8.03983e-08
8.8e-11,-7.70916e-07
8.9e-11,-6.39655e-07
9e-11,4.4934e-08
9.1e-11,-1.02185e-06
9.2e-11,-6.65931e-07
9.3e-11,-4.09716e-07
9.4e-11,-1.97928e-07
9.5e-11,-7.72002e-07
9.6e-11,-1.75614e-06
9.7e-11,-7.20654e-07
9.8e-11,-1.68137e-06
9.9e-11,-6.03865e-07
1e-10,-6.14617e-07
1.01e-10,-3.03671e-07
1.02e-10,-6.73622e-08
1.03e-10,-5.22393e-07
1.04e-10,-6.08257e-07
1.05e-10,-1.72218e-06
1.06e-10,-4.78585e-07
1.07e-10,-1.64931e-06
1.08e-10,-1.50608e-06
1.09e-10,5.01942e-08
1.1e-10,1.18017e-07
1.11e-10,-1.25271e-06
1.12e-10,-2.97287e-07
1.13e-10,-5.21255e-07
1.14e-10,-1.85078e-06
1.15e-10,-1.42069e-06
1.16e-10,-8.12865e-07
1.17e-10,-2.01003e-06
1.18e-10,-4.73641e-07
1.19e-10,-1.09079e-06
1.2e-10,-1.28697e-08
1.21e-10,-1.09886e-06
1.22e-10,-9.15937e-08
1.23e-10,-1.69595e-06
1.24e-10,-2.96202e-07
1.25e-10,-1.75749e-07
1.26e-10,-4.3392e-07
1.27e-10,-7.32202e-07
1.28e-10,-1.34829e-06
1.29e-10,-5.29668e-07
1.3e-10,-4.96558e-07
1.31e-10,-1.26436e-06
1.32e-10,-1.50752e-06
1.33e-10,-3.44792e-07
1.34e-10,-1.62617e-06
1.35e-10,-5.3644e-07
1.36e-10,-2.38619e-07
1.37e-10,-4.90143e-07
1.38e-10,1.64997e-07
1.39e-10,-7.38737e-08
1.4e-10,-4.74452e-07
1.41e-10,-1.91232e-06
1.42e-10,-5.22103e-07
1.43e-10,-1.96138e-06
1.44e-10,-5.71007e-07
1.45e-10,1.59997e-08
1.46e-10,-2.25018e-07
1.47e-10,-1.52343e-06
1.48e-10,-8.70771e-08
1.49e-10,-4.48649e-07
1.5e-10,-1.6577e-06
1.51e-10,-1.45388e-06
1.52e-10,-1.66843e-07
1.53e-10,-9.1432e-08
1.54e-10,-9.25652e-07
1.55e-10,-1.27344e-06
1.56e-10,1.45114e-07
1.57e-10,-3.7704e-07
1.58e-10,-1.0899e-06
1.59e-10,-1.84135e-06
1.6e-10,-1.10546e-06
1.61e-10,2.20985e-07
1.62e-10,-7.12335e-07
1.63e-10,-2.08029e-07
1.64e-10,-7.3685e-07
1.65e-10,-5.48901e-07
1.66e-10,-8.85721e-07
1.67e-10,-6.61607e-07
1.68e-10,1.65542e-07
1.69e-10,-1.38332e-06
1.7e-10,-6.4065e-07
1.71e-10,-3.28855e-07
1.72e-10,-1.14029e-06
1.73e-10,-7.20688e-08
1.74e-10,-1.51929e-06
1.75e-10,-4.73038e-07
1.76e-10,-2.79752e-07
1.77e-10,-9.42864e-07
1.78e-10,-1.74419e-07
1.79e-10,-3.85229e-07
1.8e-10,1.57684e-07
1.81e-10,-1.54611e-06
1.82e-10,-6.81145e-07
1.83e-10,-1.35925e-06
1.84e-10,-2.01536e-07
1.85e-10,-4.3604e-07
1.86e-10,-1.3754e-06
1.87e-10,-6.14428e-07
1.88e-10,1.26911e-07
1.89e-10,-9.01282e-07
1.9e-10,-5.03212e-07
1.91e-10,3.49762e-07
1.92e-10,-9.79919e-07
1.93e-10,5.30747e-07
1.94e-10,-2.84198e-07
1.95e-10,-6.98193e-07
1.96e-10,-4.54077e-07
1.97e-10,1.39336e-07
1.98e-10,-1.58531e-07
1.99e-10,-8.71432e-07
2e-10,-3.70664e-06
2.01e-10,-2.32962e-07
2.02e-10,4.8231e-07
2.03e-10,-6.17768e-07
2.04e-10,-1.63631e-07
2.05e-10,-6.77449e-07
2.06e-10,-2.53667e-07
2.07e-10,-8.13877e-07
2.08e-10,9.36431e-08
2.09e-10,-1.6021e-06
2.1e-10,-1.19661e-06
2.11e-10,-2.99528e-07
2.12e-10,-9.69496e-07
2.13e-10,-1.77534e-06
2.14e-10,-6.15863e-08
2.15e-10,-2.96448e-07
2.16e-10,-4.07586e-07
2.17e-10,-3.29655e-07
2.18e-10,-5.31958e-08
2.19e-10,-1.41917e-07
2.2e-10,-6.41035e-07
2.21e-10,-1.02129e-06
2.22e-10,-6.00926e-07
2.23e-10,-1.07336e-06
2.24e-10,-3.95752e-07
2.25e-10,-1.47106e-06
2.26e-10,-3.12635e-07
2.27e-10,-9.85851e-08
2.28e-10,-3.81074e-07
2.29e-10,-1.19449e-06
2.3e-10,-2.8236e-07
2.31e-10,-1.24153e-06
2.32e-10,-1.85502e-07
2.33e-10,-6.26195e-08
2.34e-10,-4.33934e-07
2.35e-10,-1.54836e-07
2.36e-10,-2.13513e-07
2.37e-10,-1.03723e-06
2.38e-10,-3.58532e-07
2.39e-10,-3.59127e-07
2.4e-10,3.1861e-07
2.41e-10,-2.60595e-07
2.42e-10,-1.35428e-06
2.43e-10,-7.91177e-07
2.44e-10,9.58931e-08
2.45e-10,1.44864e-08
2.46e-10,-2.07132e-07
2.47e-10,-3.88467e-07
2.48e-10,-9.69859e-07
2.49e-10,-2.927e-07
2.5e-10,-7.53066e-08
2.51e-10,-3.7957e-07
2.52e-10,-3.36664e-07
2.53e-10,-1.19608e-06
2.54e-10,-1.47996e-06
2.55e-10,2.48436e-07
2.56e-10,-9.8893e-07
2.57e-10,1.34702e-07
2.58e-10,-1.36813e-06
2.59e-10,-6.26085e-08
2.6e-10,-5.03217e-07
2.61e-10,-1.98616e-08
2.62e-10,-2.4008e-07
2.63e-10,-2.1614e-07
2.64e-10,-8.4097e-07
2.65e-10,1.84031e-08
2.66e-10,-1.10802e-06
2.67e-10,-8.48214e-08
2.68e-10,-8.45777e-07
2.69e-10,-1.14715e-06
2.7e-10,-1.52065e-07
2.71e-10,-3.58143e-07
2.72e-10,-4.86894e-08
2.73e-10,-5.06859e-07
2.74e-10,-1.25118e-06
2.75e-10,-2.17907e-07
2.76e-10,-6.62884e-08
2.77e-10,-1.3476e-06
2.78e-10,-1.31646e-06
2.79e-10,4.57834e-07
2.8e-10,-1.53233e-06
2.81e-10,1.17342e-07
2.82e-10,-1.21705e-07
2.83e-10,-4.01687e-07
2.84e-10,-9.69396e-07
2.85e-10,4.26155e-07
2.86e-10,-2.57864e-07
2.87e-10,-9.95279e-07
2.88e-10,1.24059e-07
2.89e-10,-1.31643e-07
2.9e-10,-4.38862e-07
2.91e-10,-2.51663e-07
2.92e-10,4.24363e-07
2.93e-10,5.36492e-07
2.94e-10,1.37633e-07
2.95e-10,-4.95717e-07
2.96e-10,-1.48614e-06
2.97e-10,-4.06733e-07
2.98e-10,-9.66523e-07
2.99e-10,-5.46446e-07
3e-10,-1.50598e-07
3.01e-10,-3.90624e-07
3.02e-10,2.14795e-07
3.03e-10,-6.90182e-07
3.04e-10,-1.1939e-07
3.05e-10,-8.6168e-07
3.06e-10,1.30598e-07
3.07e-10,-4.22454e-07
3.08e-10,-4.30822e-08
3.09e-10,-5.90314e-07
3.1e-10,2.62131e-08
3.11e-10,-9.01016e-08
3.12e-10,-6.9619e-07
3.13e-10,-1.2598e-06
3.14e-10,4.22648e-07
3.15e-10,-9.13417e-07
3.16e-10,-1.39189e-07
3.17e-10,-3.17141e-07
3.18e-10,-8.0627e-07
3.19e-10,7.5182e-09
3.2e-10,-1.32388e-07
3.21e-10,-1.82003e-06
3.22e-10,-3.2559e-07
3.23e-10,3.80166e-07
3.24e-10,-4.2547e-07
3.25e-10,-1.40569e-07
3.26e-10,-1.20282e-06
3.27e-10,-2.49478e-07
3.28e-10,-4.80176e-07
3.29e-10,-6.05048e-07
3.3e-10,8.95265e-07
3.31e-10,-2.32073e-06
3.32e-10,3.88165e-07
3.33e-10,-2.48454e-07
3.34e-10,-1.03308e-06
3.35e-10,-1.4156e-07
3.36e-10,-1.80503e-06
3.37e-10,-4.85791e-07
3.38e-10,9.59075e-08
3.39e-10,-1.93739e-07
3.4e-10,-2.07867e-07
3.41e-10,-2.04762e-07
3.42e-10,-6.50484e-09
3.43e-10,2.56524e-07
3.44e-10,-1.65456e-07
3.45e-10,-2.58225e-07
3.46e-10,-1.46627e-06
3.47e-10,-2.0058e-07
3.48e-10,4.09302e-07
3.49e-10,-1.46527e-06
3.5e-10,1.59591e-07
3.51e-10,1.81507e-09
3.52e-10,-4.3775e-07
3.53e-10,-1.45626e-06
3.54e-10,1.57846e-07
3.55e-10,1.75936e-07
3.56e-10,-4.0813e-07
3.57e-10,-3.23725e-07
3.58e-10,-1.18657e-06
3.59e-10,-1.15839e-07
3.6e-10,-1.22459e-06
3.61e-10,8.17615e-08
3.62e-10,-3.06539e-07
3.63e-10,6.34708e-08
3.64e-10,-2.11063e-07
3.65e-10,4.31046e-07
3.66e-10,-2.92708e-07
3.67e-10,1.81529e-07
3.68e-10,-1.50906e-07
3.69e-10,-8.76329e-07
3.7e-10,-1.37608e-06
3.71e-10,4.7736e-08
3.72e-10,-1.89073e-06
3.73e-10,-4.01603e-07
3.74e-10,9.6117e-07
3.75e-10,-1.17882e-06
3.76e-10,-4.29536e-07
3.77e-10,-1.73344e-07
3.78e-10,-1.51242e-07
3.79e-10,-5.15931e-07
3.8e-10,-3.04368e-07
3.81e-10,-6.32415e-08
3.82e-10,-2.24697e-07
3.83e-10,3.11414e-07
3.84e-10,-9.76511e-07
3.85e-10,-4.56627e-07
3.86e-10,-3.34355e-08
3.87e-10,-1.18077e-06
3.88e-10,-2.89559e-07
3.89e-10,-9.7092e-08
3.9e-10,-8.09524e-07
3.91e-10,-7.12721e-08
3.92e-10,-8.03433e-08
3.93e-10,-9.76121e-07
3.94e-10,3.70395e-07
3.95e-10,-1.89668e-07
3.96e-10,2.61812e-07
3.97e-10,-1.44267e-06
3.98e-10,-4.32042e-07
3.99e-10,-8.43851e-07
4e-10,-1.03902e-06
4.01e-10,7.70784e-08
4.02e-10,-1.41564e-06
4.03e-10,3.03195e-07
4.04e-10,-2.75915e-07
4.05e-10,-1.23346e-06
4.06e-10,4.3923e-09
4.07e-10,8.58049e-07
4.08e-10,-1.09074e-06
4.09e-10,-1.1351e-06
4.1e-10,-1.98202e-07
4.11e-10,-4.11506e-07
4.12e-10,-8.43256e-07
4.13e-10,-1.06423e-06
4.14e-10,-1.64003e-07
4.15e-10,3.77059e-07
4.16e-10,-1.87913e-07
4.17e-10,-2.26593e-07
4.18e-10,7.31688e-08
4.19e-10,-3.88152e-07
4.2e-10,-9.73532e-07
4.21e-10,-9.56198e-08
4.22e-10,2.408e-07
4.23e-10,3.83237e-07
4.24e-10,-8.29408e-07
4.25e-10,-7.90626e-07
4.26e-10,-1.2683e-06
4.27e-10,-2.19376e-07
4.28e-10,1.43441e-07
4.29e-10,-2.9607e-07
4.3e-10,-1.83809e-07
4.31e-10,5.06328e-07
4.32e-10,-7.60378e-08
4.33e-10,-1.29516e-06
4.34e-10,1.38344e-07
4.35e-10,2.99305e-07
4.36e-10,-4.03558e-07
4.37e-10,1.25401e-07
4.38e-10,2.70282e-07
4.39e-10,-3.7275e-07
4.4e-10,1.86049e-07
4.41e-10,-1.26659e-06
4.42e-10,-7.948e-07
4.43e-10,-1.95326e-07
4.44e-10,-1.06677e-07
4.45e-10,-4.67158e-07
4.46e-10,2.41451e-07
4.47e-10,4.95233e-08
4.48e-10,1.25751e-07
4.49e-10,-1.18378e-07
4.5e-10,-2.4761e-07
4.51e-10,-2.30986e-07
4.52e-10,-1.30127e-06
4.53e-10,2.68848e-07
4.54e-10,-2.95037e-07
4.55e-10,-6.74083e-07
4.56e-10,2.65783e-07
4.57e-10,-1.43243e-07
4.58e-10,-6.18874e-07
4.59e-10,1.04662e-07
4.6e-10,-4.43663e-08
4.61e-10,-9.79287e-07
4.62e-10,-2.99516e-07
4.63e-10,-4.95587e-08
4.64e-10,-7.92015e-07
4.65e-10,-2.72767e-07
4.66e-10,-1.40314e-07
4.67e-10,-2.60607e-07
4.68e-10,-1.73218e-06
4.69e-10,4.03432e-07
4.7e-10,5.35057e-07
4.71e-10,3.19097e-08
4.72e-10,-4.19088e-07
4.73e-10,-1.27869e-06
4.74e-10,-6.1723e-08
4.75e-10,-1.89013e-07
4.76e-10,-6.34376e-07
4.77e-10,-3.52441e-07
4.78e-10,-1.35091e-06
4.79e-10,4.14227e-07
4.8e-10,3.50838e-07
4.81e-10,2.08904e-07
4.82e-10,-8.19568e-07
4.83e-10,-1.75082e-07
4.84e-10,-7.97897e-07
4.85e-10,-1.10872e-06
4.86e-10,-2.8712e-08
4.87e-10,-1.57921e-07
4.88e-10,-3.85372e-08
4.89e-10,5.49841e-08
4.9e-10,8.01372e-07
4.91e-10,-6.13214e-07
4.92e-10,5.65111e-07
4.93e-10,9.57142e-08
4.94e-10,-3.42724e-07
4.95e-10,-1.43915e-06
4.96e-10,-8.35166e-08
4.97e-10,-4.10995e-08
4.98e-10,-1.26465e-06
4.99e-10,-1.071e-06
5e-10,2.40269e-07
5.01e-10,-1.9643e-07
5.02e-10,-1.98159e-07
5.03e-10,3.09297e-07
5.04e-10,-1.44519e-06
5.05e-10,-9.46253e-08
5.06e-10,-7.15464e-08
5.07e-10,-1.19495e-06
5.08e-10,1.80931e-07
5.09e-10,3.36724e-07
5.1e-10,-2.95753e-07
5.11e-10,-6.93948e-07
5.12e-10,-2.53404e-07
5.13e-10,-1.79898e-07
5.14e-10,2.0533e-07
5.15e-10,2.34972e-07
5.16e-10,-1.30402e-07
5.17e-10,-2.22134e-07
5.18e-10,1.4741e-07
5.19e-10,-6.86171e-08
5.2e-10,-5.54915e-08
5.21e-10,-1.47516e-06
5.22e-10,-2.79108e-08
5.23e-10,-1.34004e-08
5.24e-10,-9.38674e-08
5.25e-10,-9.0556e-08
5.26e-10,1.16521e-07
5.27e-10,1.28684e-07
5.28e-10,-1.45742e-07
5.29e-10,8.86861e-08
5.3e-10,-6.3756e-07
5.31e-10,1.80535e-07
5.32e-10,-2.18753e-08
5.33e-10,-1.91208e-07
5.34e-10,-7.12216e-08
5.35e-10,2.74994e-07
5.36e-10,-1.96195e-07
5.37e-10,-9.55578e-07
5.38e-10,2.33525e-07
5.39e-10,-1.51676e-07
5.4e-10,4.69053e-08
5.41e-10,-2.56077e-07
5.42e-10,2.32264e-07
5.43e-10,-1.50873e-07
5.44e-10,8.36766e-08
5.45e-10,3.9592e-08
5.46e-10,1.88153e-07
5.47e-10,-2.77586e-07
5.48e-10,4.26911e-08
5.49e-10,-9.73435e-09
5.5e-10,-1.36421e-08
5.51e-10,-4.58542e-08
5.52e-10,-1.92996e-07
5.53e-10,-7.98608e-08
5.54e-10,-5.08245e-07
5.55e-10,-2.35059e-07
5.56e-10,-7.86352e-07
5.57e-10,-5.52171e-08
5.58e-10,7.37586e-07
5.59e-10,-1.09438e-06
5.6e-10,-1.67411e-07
5.61e-10,-3.5765e-08
5.62e-10,-8.55977e-07
5.63e-10,-5.54983e-08
5.64e-10,-5.97349e-08
5.65e-10,-2.94602e-08
5.66e-10,4.86581e-08
5.67e-10,1.58309e-08
5.68e-10,-9.67955e-08
5.69e-10,-2.94656e-06
5.7e-10,-8.43858e-08
5.71e-10,-5.67221e-08
5.72e-10,-7.30047e-07
5.73e-10,-1.21229e-07
5.74e-10,-8.81317e-08
5.75e-10,-1.0176e-07
5.76e-10,-1.62312e-08
5.77e-10,-1.31402e-07
5.78e-10,4.73802e-07
5.79e-10,-2.48584e-06
5.8e-10,-1.14802e-06
5.81e-10,-2.57887e-07
5.82e-10,-8.87346e-08
5.83e-10,-1.32555e-06
5.84e-10,1.75837e-09
5.85e-10,-1.50446e-07
5.86e-10,9.83346e-08
5.87e-10,-1.34281e-07
5.88e-10,-2.33169e-06
5.89e-10,1.7011e-06
5.9e-10,-1.33815e-08
5.91e-10,-1.26133e-06
5.92e-10,-2.41988e-07
5.93e-10,-6.68478e-07
5.94e-10,-8.59626e-08
5.95e-10,-1.63054e-07
5.96e-10,-1.36749e-06
5.97e-10,-7.90765e-07
5.98e-10,-1.99789e-08
5.99e-10,8.64538e-08
6e-10,1.19375e-07
6.01e-10,-3.28348e-08
6.02e-10,-6.40003e-07
6.03e-10,2.42892e-07
6.04e-10,-1.44004e-06
6.05e-10,7.62212e-08
6.06e-10,-5.57739e-07
6.07e-10,-2.5663e-07
6.08e-10,-8.64396e-07
6.09e-10,-9.15957e-07
6.1e-10,-3.44975e-08
6.11e-10,5.29558e-08
6.12e-10,8.36573e-08
6.13e-10,-6.0216e-08
6.14e-10,4.50552e-07
6.15e-10,-8.37858e-08
6.16e-10,-4.59659e-07
6.17e-10,-2.16946e-06
6.18e-10,-8.50144e-08
6.19e-10,2.87868e-07
6.2e-10,-1.36769e-10
6.21e-10,-1.15245e-07
6.22e-10,-1.02865e-06
6.23e-10,4.25296e-07
6.24e-10,-2.32535e-07
6.25e-10,2.73977e-08
6.26e-10,-5.46704e-08
6.27e-10,-7.72312e-07
6.28e-10,-9.80493e-07
6.29e-10,6.33981e-08
6.3e-10,-2.99866e-07
6.31e-10,2.85709e-07
6.32e-10,-1.02962e-07
6.33e-10,-1.35399e-07
6.34e-10,-6.86374e-07
6.35e-10,-3.52471e-07
6.36e-10,-1.3842e-06
6.37e-10,-4.67436e-08
6.38e-10,2.31279e-07
6.39e-10,1.21776e-07
6.4e-10,-1.5122e-07
6.41e-10,-4.0427e-08
6.42e-10,-3.14508e-08
6.43e-10,-5.79447e-07
6.44e-10,-1.19209e-07
6.45e-10,-1.65694e-09
6.46e-10,-4.05822e-07
6.47e-10,-7.55569e-08
6.48e-10,1.76218e-07
6.49e-10,-1.04943e-07
6.5e-10,-2.80228e-08
6.51e-10,2.87939e-07
6.52e-10,-1.81464e-07
6.53e-10,5.03974e-08
6.54e-10,-2.71166e-07
6.55e-10,1.63474e-08
6.56e-10,1.63411e-07
6.57e-10,-7.64931e-07
6.58e-10,-3.62667e-08
6.59e-10,-2.01923e-07
6.6e-10,-1.56107e-08
6.61e-10,-9.44026e-08
6.62e-10,3.51126e-07
6.63e-10,-1.47312e-07
6.64e-10,2.7201e-08
6.65e-10,-6.80898e-09
6.66e-10,1.01056e-08
6.67e-10,-4.68303e-08
6.68e-10,-5.76484e-08
6.69e-10,5.92778e-07
6.7e-10,-4.48484e-08
6.71e-10,-4.18773e-08
6.72e-10,6.46179e-08
6.73e-10,-9.35064e-08
6.74e-10,-1.29388e-07
6.75e-10,-4.80658e-08
6.76e-10,-5.37261e-08
6.77e-10,-4.85292e-09
6.78e-10,1.14995e-07
6.79e-10,-3.61499e-08
6.8e-10,-5.78913e-08
6.81e-10,4.66499e-09
6.82e-10,-6.65214e-09
6.83e-10,5.03134e-08
6.84e-10,-9.88049e-09
6.85e-10,-6.15945e-08
6.86e-10,-4.1308e-08
6.87e-10,-7.01885e-08
6.88e-10,3.77487e-07
6.89e-10,-1.28759e-07
6.9e-10,-4.992e-08
6.91e-10,-8.518e-08
6.92e-10,5.41426e-07
6.93e-10,4.27235e-08
6.94e-10,-3.80966e-08
6.95e-10,-1.04505e-07
6.96e-10,-2.67786e-08
6.97e-10,1.05302e-07
6.98e-10,-5.50829e-08
6.99e-10,-1.3493e-09
7e-10,-3.37704e-08
7.01e-10,-9.30524e-09
7.02e-10,3.93669e-09
7.03e-10,1.25487e-07
7.04e-10,-4.20035e-08
7.05e-10,4.53162e-07
7.06e-10,-9.7257e-08
7.07e-10,-4.59016e-08
7.08e-10,2.14958e-07
7.09e-10,-2.09324e-09
7.1e-10,-6.4587e-09
7.11e-10,-1.85388e-07
7.12e-10,4.28917e-08
7.13e-10,-8.72304e-08
7.14e-10,-8.61764e-08
7.15e-10,3.21338e-07
7.16e-10,2.97696e-07
7.17e-10,1.84929e-07
7.18e-10,-5.69079e-08
7.19e-10,-7.97923e-08
7.2e-10,7.84571e-08
7.21e-10,4.51173e-09
7.22e-10,1.00867e-07
7.23e-10,-1.71214e-07
7.24e-10,2.2967e-07
7.25e-10,6.95594e-08
7.26e-10,2.28087e-07
7.27e-10,-4.81204e-09
7.28e-10,-1.38827e-07
7.29e-10,-3.38858e-08
7.3e-10,1.23988e-07
7.31e-10,-9.49381e-08
7.32e-10,0
7.33e-10,-8.64316e-08
7.34e-10,2.33234e-07
7.35e-10,-4.09517e-08
7.36e-10,-4.83841e-08
7.37e-10,-8.93792e-08
7.38e-10,-2.40088e-09
7.39e-10,-4.04453e-08
7.4e-10,-1.98715e-09
7.41e-10,1.5435e-07
7.42e-10,-4.3984e-08
7.43e-10,2.26411e-09
7.44e-10,-1.30895e-08
7.45e-10,-1.88163e-07
7.46e-10,-4.04453e-08
7.47e-10,2.42527e-07
7.48e-10,-6.79234e-09
7.49e-10,8.95564e-09
7.5e-10,-4.78803e-08
7.51e-10,3.87039e-08
7.52e-10,1.71337e-07
7.53e-10,-5.19e-08
7.54e-10,-4.63854e-08
7.55e-10,-3.9483e-08
7.56e-10,-6.55425e-09
7.57e-10,1.12192e-08
7.58e-10,-9.78365e-08
7.59e-10,-8.5142e-08
7.6e-10,-4.16104e-08
7.61e-10,3.88406e-08
7.62e-10,-9.20492e-08
7.63e-10,2.55887e-07
7.64e-10,-4.45747e-08
7.65e-10,2.60984e-07
7.66e-10,-9.16574e-08
7.67e-10,4.5203e-08
7.68e-10,-4.52823e-09
7.69e-10,-4.35256e-08
7.7e-10,-4.57535e-08
7.71e-10,-4.09449e-08
7.72e-10,-1.36769e-10
7.73e-10,-5.53605e-08
7.74e-10,-4.36295e-08
7.75e-10,1.55415e-07
7.76e-10,4.13733e-10
7.77e-10,-4.13733e-10
7.78e-10,-4.17651e-08
7.79e-10,-4.91554e-08
7.8e-10,-1.42686e-08
7.81e-10,-3.78069e-08
7.82e-10,4.01894e-08
7.83e-10,1.36769e-10
7.84e-10,-4.29391e-08
7.85e-10,3.8551e-08
7.86e-10,-3.9311e-08
7.87e-10,-2.30234e-08
7.88e-10,-6.72602e-08
7.89e-10,-7.43308e-09
7.9e-10,-1.00735e-07
7.91e-10,-2.24769e-09
7.92e-10,-1.82832e-07
7.93e-10,3.53227e-08
7.94e-10,-4.50664e-08
7.95e-10,2.1256e-08
7.96e-10,-4.70448e-08
7.97e-10,4.7744e-08
7.98e-10,-4.09517e-08
7.99e-10,-8.76072e-09
8e-10,4.28021e-08
8.01e-10,-3.82739e-08
8.02e-10,-5.47321e-08
8.03e-10,-5.01449e-08
8.04e-10,4.82945e-08
8.05e-10,-2.67785e-09
8.06e-10,-4.78803e-08
8.07e-10,-8.52999e-12
8.08e-10,-8.85504e-08
8.09e-10,5.04992e-08
8.1e-10,-1.44044e-08
8.11e-10,5.79475e-09
8.12e-10,2.40088e-09
8.13e-10,-4.77355e-08
8.14e-10,2.26411e-09
8.15e-10,-8.64318e-08
8.16e-10,0
8.17e-10,-4.58939e-08
8.18e-10,-4.7881e-08
8.19e-10,-5.46318e-08
8.2e-10,-7.60015e-10
8.21e-10,3.85508e-08
8.22e-10,2.26411e-09
8.23e-10,-2.26411e-09
8.24e-10,-2.26411e-09
8.25e-10,0
8.26e-10,4.52823e-09
8.27e-10,-4.52823e-09
8.28e-10,-2.26411e-09
8.29e-10,-1.20283e-07
8.3e-10,2.48206e-08
8.31e-10,-4.56169e-08
8.32e-10,-4.7728e-08
8.33e-10,-9.56248e-08
8.34e-10,2.12734e-09
8.35e-10,-4.33479e-09
8.36e-10,1.18711e-08
8.37e-10,-8.77545e-08
8.38e-10,4.13733e-10
8.39e-10,-6.08675e-08
8.4e-10,2.26411e-09
8.41e-10,-4.56167e-08
8.42e-10,-4.56169e-08
8.43e-10,-4.30793e-08
8.44e-10,-2.40088e-09
8.45e-10,-1.36769e-10
8.46e-10,2.26411e-09
8.47e-10,1.72928e-09
8.48e-10,-5.75686e-08
8.49e-10,2.35224e-09
8.5e-10,-2.26411e-09
8.51e-10,2.40088e-09
8.52e-10,-1.11995e-08
8.53e-10,-4.13733e-10
8.54e-10,-1.85038e-09
8.55e-10,-4.13733e-10
8.56e-10,-5.0953e-08
8.57e-10,-4.04365e-08
8.58e-10,-2.40088e-09
8.59e-10,2.1911e-09
8.6e-10,-4.58937e-08
8.61e-10,-4.17825e-09
8.62e-10,1.98715e-09
8.63e-10,-1.85038e-09
8.64e-10,-8.8679e-08
8.65e-10,7.76777e-08
8.66e-10,-1.34159e-07
8.67e-10,9.05645e-09
8.68e-10,4.29388e-08
8.69e-10,-4.52823e-09
8.7e-10,-4.78808e-08
8.71e-10,-4.94196e-09
8.72e-10,-4.25126e-09
8.73e-10,-4.84668e-08
8.74e-10,0
8.75e-10,4.07073e-08
8.76e-10,-2.26411e-09
8.77e-10,-4.32888e-08
8.78e-10,-8.8679e-08
8.79e-10,3.81164e-10
8.8e-10,-4.66499e-09
8.81e-10,4.13733e-10
8.82e-10,-5.1996e-08
8.83e-10,2.26411e-09
8.84e-10,-2.26411e-09
8.85e-10,0
8.86e-10,-4.66499e-09
8.87e-10,2.40088e-09
8.88e-10,4.54799e-08
8.89e-10,-1.042e-10
8.9e-10,-4.09843e-08
8.91e-10,-5.74509e-08
8.92e-10,4.54799e-08
8.93e-10,-4.81578e-08
8.94e-10,0
8.95e-10,2.23154e-09
8.96e-10,-4.94196e-09
8.97e-10,-1.85038e-09
8.98e-10,4.52823e-09
8.99e-10,-6.38341e-08
9e-10,-2.26411e-09
9.01e-10,3.2569e-11
9.02e-10,2.23154e-09
9.03e-10,-4.77262e-09
9.04e-10,1.85038e-09
9.05e-10,-2.73538e-10
9.06e-10,4.34893e-08
9.07e-10,-4.66499e-09
9.08e-10,-4.32158e-08
9.09e-10,-5.66081e-08
9.1e-10,-2.40088e-09
9.11e-10,0
9.12e-10,-4.54799e-08
9.13e-10,4.81578e-08
9.14e-10,-9.33933e-08
9.15e-10,4.33526e-08
9.16e-10,-4.58611e-08
9.17e-10,-5.50501e-10
9.18e-10,-2.67785e-09
9.19e-10,-1.04537e-07
9.2e-10,-4.52823e-09
9.21e-10,4.94196e-09
9.22e-10,-2.40088e-09
9.23e-10,-2.26411e-09
9.24e-10,-1.36769e-10
9.25e-10,-2.76964e-10
9.26e-10,-2.54108e-09
9.27e-10,4.80519e-09
9.28e-10,-5.52224e-08
9.29e-10,2.67785e-09
9.3e-10,-4.66499e-09
9.31e-10,1.85038e-09
9.32e-10,-2.40088e-09
9.33e-10,7.47961e-09
9.34e-10,-2.76964e-10
9.35e-10,2.40088e-09
9.36e-10,-5.07873e-09
9.37e-10,2.76964e-10
9.38e-10,-5.79002e-08
9.39e-10,-2.26411e-09
9.4e-10,-2.40088e-09
9.41e-10,-6.79234e-09
9.42e-10,0
9.43e-10,-4.66499e-09
9.44e-10,1.43665e-09
9.45e-10,-9.87792e-08
9.46e-10,3.61555e-08
9.47e-10,-1.45827e-09
9.48e-10,1.85038e-09
9.49e-10,0
9.5e-10,-3.00322e-08
9.51e-10,2.34569e-08
9.52e-10,5.35569e-09
9.53e-10,0
9.54e-10,-5.35569e-09
9.55e-10,-6.22882e-08
9.56e-10,4.13733e-10
9.57e-10,0
9.58e-10,3.49074e-09
9.59e-10,2.26411e-09
9.6e-10,2.26411e-09
9.61e-10,2.76964e-10
9.62e-10,4.25126e-09
9.63e-10,-2.78205e-09
9.64e-10,-1.98715e-09
9.65e-10,-1.10043e-07
9.66e-10,3.14192e-09
9.67e-10,1.85038e-09
9.68e-10,-4.52823e-09
9.69e-10,-7.41037e-10
9.7e-10,4.84713e-08
9.71e-10,-4.52823e-09
9.72e-10,-4.52823e-09
9.73e-10,0
9.74e-10,-4.60166e-08
9.75e-10,-2.59577e-08
9.76e-10,-2.26411e-09
9.77e-10,-3.40654e-08
9.78e-10,-1.36769e-10
9.79e-10,2.53765e-09
9.8e-10,-2.40088e-09
9.81e-10,-4.80176e-09
9.82e-10,1.36769e-10
9.83e-10,0
9.84e-10,0
9.85e-10,-7.09218e-08
9.86e-10,-2.40088e-09
9.87e-10,-2.12734e-09
9.88e-10,4.52823e-09
9.89e-10,4.73649e-08
9.9e-10,-4.9629e-08
9.91e-10,4.72281e-08
9.92e-10,-4.66499e-09
9.93e-10,-2.40088e-09
9.94e-10,-6.04332e-08
9.95e-10,0
9.96e-10,4.54799e-08
9.97e-10,-4.80176e-09
9.98e-10,-5.37472e-08
9.99e-10,5.37472e-08
1e-09,-4.44172e-08
1.001e-09,4.68181e-08
1.002e-09,-1.12187e-07
1.003e-09,0
1.004e-09,3.867e-08
1.005e-09,2.26411e-09
1.006e-09,-2.40088e-09
1.007e-09,-4.33349e-08
1.008e-09,-2.67442e-09
1.009e-09,4.80176e-09
1.01e-09,-8.37683e-08
1.011e-09,7.06588e-09
1.012e-09,-4.78808e-08
1.013e-09,2.40088e-09
1.014e-09,2.40088e-09
1.015e-09,-7.20264e-09
1.016e-09,6.26917e-08
1.017e-09,4.33526e-08
1.018e-09,-1.244e-07
1.019e-09,-2.40088e-09
1.02e-09,-3.86876e-08
1.021e-09,-9.19322e-09
1.022e-09,1.36769e-10
1.023e-09,2.26411e-09
1.024e-09,-9.46676e-09
1.025e-09,2.40088e-09
1.026e-09,4.66499e-09
1.027e-09,2.26411e-09
1.028e-09,-8.17074e-08
1.029e-09,2.40088e-09
1.03e-09,-9.46676e-09
1.031e-09,-4.097e-09
1.032e-09,-4.31223e-10
1.033e-09,0
1.034e-09,2.40088e-09
1.035e-09,-6.92911e-09
1.036e-09,-6.20099e-08
1.037e-09,0
1.038e-09,-2.40088e-09
1.039e-09,-2.26411e-09
1.04e-09,2.40088e-09
1.041e-09,-2.26411e-09
1.042e-09,-2.40088e-09
1.043e-09,1.36769e-10
1.044e-09,-6.77424e-08
1.045e-09,2.26411e-09
1.046e-09,-1.36769e-10
1.047e-09,4.66499e-09
1.048e-09,2.26411e-09
1.049e-09,-2.40088e-09
1.05e-09,0
1.051e-09,-2.26411e-09
1.052e-09,0
1.053e-09,-8.92124e-08
1.054e-09,3.28306e-10
1.055e-09,1.93581e-09
1.056e-09,0
1.057e-09,-2.26411e-09
1.058e-09,-4.47346e-09
1.059e-09,-2.12734e-09
1.06e-09,4.47346e-09
1.061e-09,-4.66499e-09
1.062e-09,-7.03548e-08
1.063e-09,6.92911e-09
1.064e-09,-2.40088e-09
1.065e-09,-2.12734e-09
1.066e-09,4.52823e-09
1.067e-09,-2.40088e-09
1.068e-09,4.66499e-09
1.069e-09,-8.14502e-08
1.07e-09,6.79234e-09
1.071e-09,-2.40088e-09
1.072e-09,-2.53765e-09
1.073e-09,2.40088e-09
1.074e-09,0
1.075e-09,2.40088e-09
1.076e-09,2.26411e-09
1.077e-09,-2.26411e-09
1.078e-09,-1.02823e-07
1.079e-09,1.36769e-10
1.08e-09,4.66499e-09
1.081e-09,-2.40088e-09
1.082e-09,-6.92911e-09
1.083e-09,0
1.084e-09,-2.26411e-09
1.085e-09,-4.52823e-09
1.086e-09,-1.36769e-10
1.087e-09,0
1.088e-09,-7.93806e-08
1.089e-09,2.26411e-09
1.09e-09,-2.40088e-09
1.091e-09,2.26411e-09
1.092e-09,6.92911e-09
1.093e-09,-2.26411e-09
1.094e-09,-4.52823e-09
1.095e-09,-2.40088e-09
1.096e-09,0
1.097e-09,-8.49498e-08
1.098e-09,6.92911e-09
1.099e-09,0
1.1e-09,-2.26411e-09
1.101e-09,4.52823e-09
1.102e-09,-6.79234e-09
1.103e-09,1.14573e-08
1.104e-09,-7.06588e-09
1.105e-09,-1.10161e-07
1.106e-09,2.26411e-09
1.107e-09,-3.50191e-10
1.108e-09,1.36769e-10
1.109e-09,-2.26411e-09
1.11e-09,0
1.111e-09,-4.52823e-09
1.112e-09,4.52823e-09
1.113e-09,4.52823e-09
1.114e-09,-2.26411e-09
1.115e-09,-7.88554e-08
1.116e-09,0
1.117e-09,-2.36831e-09
1.118e-09,1.36769e-10
1.119e-09,2.26411e-09
1.12e-09,0
1.121e-09,-1.36769e-10
1.122e-09,0
1.123e-09,2.40088e-09
1.124e-09,-9.16789e-08
1.125e-09,-1.45913e-07
1.126e-09,1.43649e-07
1.127e-09,-4.52823e-09
1.128e-09,2.12734e-09
1.129e-09,-6.79234e-09
1.13e-09,-4.52823e-09
1.131e-09,0
1.132e-09,6.92911e-09
1.133e-09,-1.24163e-07
1.134e-09,-4.52823e-09
1.135e-09,-1.36769e-10
1.136e-09,0
1.137e-09,0
1.138e-09,-2.26411e-09
1.139e-09,-2.26411e-09
1.14e-09,6.92911e-09
1.141e-09,-9.26608e-08
1.142e-09,-4.52823e-09
1.143e-09,2.26411e-09
1.144e-09,9.05645e-09
1.145e-09,-4.52823e-09
1.146e-09,-2.26411e-09
1.147e-09,-2.26411e-09
1.148e-09,2.40088e-09
1.149e-09,-1.51652e-07
1.15e-09,6.79234e-09
1.151e-09,-2.40088e-09
1.152e-09,0
1.153e-09,-2.26411e-09
1.154e-09,0
1.155e-09,0
1.156e-09,2.26411e-09
1.157e-09,-1.02862e-07
1.158e-09,2.26411e-09
1.159e-09,2.26411e-09
1.16e-09,0
1.161e-09,1.36769e-10
1.162e-09,-2.26411e-09
1.163e-09,0
1.164e-09,2.26411e-09
1.165e-09,-1.06311e-07
1.166e-09,1.36769e-10
1.167e-09,4.52823e-09
1.168e-09,-2.40088e-09
1.169e-09,2.12734e-09
1.17e-09,-4.52823e-09
1.171e-09,-2.26411e-09
1.172e-09,0
1.173e-09,-1.60351e-07
1.174e-09,-2.26411e-09
1.175e-09,-2.26411e-09
1.176e-09,-2.26411e-09
1.177e-09,0
1.178e-09,-2.26411e-09
1.179e-09,2.40088e-09
1.18e-09,-2.73538e-10
1.181e-09,0
1.182e-09,-1.60964e-07
1.183e-09,0
1.184e-09,-4.52823e-09
1.185e-09,4.52823e-09
1.186e-09,2.26411e-09
1.187e-09,0
1.188e-09,0
1.189e-09,-9.32999e-09
1.19e-09,-2.26411e-09
1.191e-09,-1.41506e-07
1.192e-09,4.66499e-09
1.193e-09,-2.26411e-09
1.194e-09,4.52823e-09
1.195e-09,-2.26411e-09
1.196e-09,4.66499e-09
1.197e-09,-2.26411e-09
1.198e-09,4.52823e-09
1.199e-09,2.40088e-09
1.2e-09,-2.26411e-09
1.201e-09,-4.52823e-09
1.202e-09,-1.79976e-07
1.203e-09,-6.79234e-09
1.204e-09,4.52823e-09
1.205e-09,-6.79234e-09
1.206e-09,2.40088e-09
1.207e-09,-1.36769e-10
1.208e-09,-2.26411e-09
1.209e-09,4.52823e-09
1.21e-09,-2.11324e-07
1.211e-09,-2.26411e-09
1.212e-09,-6.79234e-09
1.213e-09,-2.18464e-07
1.214e-09,2.26411e-09
1.215e-09,0
1.216e-09,-2.26411e-09
1.217e-09,2.26411e-09
1.218e-09,-2.26411e-09
1.219e-09,-2.68266e-07
1.22e-09,-4.52823e-09
1.221e-09,6.79234e-09
1.222e-09,-4.39146e-09
1.223e-09,-2.26411e-09
1.224e-09,2.40088e-09
1.225e-09,0
1.226e-09,-4.52823e-09
1.227e-09,-3.06956e-07
1.228e-09,0
1.229e-09,-2.26411e-09
1.23e-09,-4.52823e-09
1.231e-09,-1.36769e-10
1.232e-09,9.05645e-09
1.233e-09,2.26411e-09
1.234e-09,0
1.235e-09,2.26411e-09
1.236e-09,-2.26411e-09
1.237e-09,-3.84194e-07
1.238e-09,0
1.239e-09,-1.36769e-10
1.24e-09,0
1.241e-09,2.26411e-09
1.242e-09,1.36769e-10
1.243e-09,-4.66499e-09
1.244e-09,2.26411e-09
1.245e-09,-2.26411e-09
1.246e-09,2.26411e-09
1.247e-09,-4.83506e-07
1.248e-09,6.79234e-09
1.249e-09,7.06588e-09
1.25e-09,-1.76782e-07
1.251e-09,4.66499e-09
1.252e-09,-6.92911e-09
1.253e-09,-2.26411e-09
1.254e-09,2.40088e-09
1.255e-09,-5.3322e-07
1.256e-09,-2.40088e-09
1.257e-09,4.66499e-09
1.258e-09,-6.79234e-09
1.259e-09,6.79234e-09
1.26e-09,-4.52823e-09
1.261e-09,0
1.262e-09,-4.66499e-09
1.263e-09,-4.52823e-09
1.264e-09,0
1.265e-09,2.26411e-09
1.266e-09,-2.93615e-08
1.267e-09,2.26411e-09
1.268e-09,2.26411e-09
1.269e-09,0
1.27e-09,2.26411e-09
1.271e-09,-2.26411e-09
1.272e-09,0
1.273e-09,2.26411e-09
1.274e-09,-2.26411e-09
1.275e-09,-2.26411e-09
1.276e-09,6.92911e-09
1.277e-09,-6.79234e-09
1.278e-09,-1.36769e-10
1.279e-09,0
1.28e-09,4.52823e-09
1.281e-09,2.26411e-09
1.282e-09,-4.52823e-09
1.283e-09,-9.86941e-11
1.284e-09,2.26411e-09
1.285e-09,-2.16542e-09
1.286e-09,2.16542e-09
1.287e-09,2.36281e-09
1.288e-09,-2.26411e-09
1.289e-09,-2.40088e-09
1.29e-09,0
1.291e-09,2.40088e-09
1.292e-09,2.26411e-09
1.293e-09,-9.19322e-09
1.294e-09,2.26411e-09
1.295e-09,4.66499e-09
1.296e-09,-1.36769e-10
1.297e-09,3.80748e-11
1.298e-09,-4.66499e-09
1.299e-09,4.76369e-09
1.3e-09,-2.40088e-09
1.301e-09,-9.86941e-11
1.302e-09,-2.26411e-09
1.303e-09,2.26411e-09
1.304e-09,-6.79234e-09
1.305e-09,-2.26411e-09
1.306e-09,-4.52823e-09
1.307e-09,6.92911e-09
1.308e-09,-2.12734e-09
1.309e-09,-1.36769e-10
1.31e-09,9.19322e-09
1.311e-09,-2.26411e-09
1.312e-09,-2.26411e-09
1.313e-09,2.40088e-09
1.314e-09,4.52823e-09
1.315e-09,-4.66499e-09
1.316e-09,-2.73538e-10
1.317e-09,2.40088e-09
1.318e-09,-1.36769e-10
1.319e-09,-4.52823e-09
1.32e-09,4.80176e-09
1.321e-09,0
1.322e-09,0
1.323e-09,0
1.324e-09,-2.26411e-09
1.325e-09,-2.26411e-09
1.326e-09,-4.52823e-09
1.327e-09,0
1.328e-09,0
1.329e-09,-2.26411e-09
1.33e-09,-2.53765e-09
1.331e-09,0
1.332e-09,2.40088e-09
1.333e-09,2.26411e-09
1.334e-09,-4.52823e-09
1.335e-09,-2.26411e-09
1.336e-09,4.66499e-09
1.337e-09,2.26411e-09
1.338e-09,0
1.339e-09,4.52823e-09
1.34e-09,0
1.341e-09,0
1.342e-09,4.52823e-09
1.343e-09,0
1.344e-09,-6.79234e-09
1.345e-09,4.66499e-09
1.346e-09,6.92911e-09
1.347e-09,-4.52823e-09
1.348e-09,-4.66499e-09
1.349e-09,6.79234e-09
1.35e-09,-2.26411e-09
1.351e-09,-4.52823e-09
1.352e-09,1.36769e-10
1.353e-09,-1.36769e-10
1.354e-09,0
1.355e-09,1.36769e-10
1.356e-09,-2.26411e-09
1.357e-09,-4.66499e-09
1.358e-09,6.92911e-09
1.359e-09,-1.14573e-08
1.36e-09,6.65557e-09
1.361e-09,6.92911e-09
1.362e-09,-2.26411e-09
1.363e-09,-2.26411e-09
1.364e-09,0
1.365e-09,6.92911e-09
1.366e-09,-2.40088e-09
1.367e-09,-2.73538e-10
1.368e-09,1.36769e-10
1.369e-09,-2.40088e-09
1.37e-09,-4.39146e-09
1.371e-09,0
1.372e-09,-4.66499e-09
1.373e-09,2.26411e-09
1.374e-09,-4.39146e-09
1.375e-09,2.26411e-09
1.376e-09,2.26411e-09
1.377e-09,-2.26411e-09
1.378e-09,2.40088e-09
1.379e-09,-4.80176e-09
1.38e-09,4.52823e-09
1.381e-09,-4.52823e-09
1.382e-09,4.52823e-09
1.383e-09,-4.52823e-09
1.384e-09,4.66499e-09
1.385e-09,0
1.386e-09,2.26411e-09
1.387e-09,1.36769e-10
1.388e-09,-2.26411e-09
1.389e-09,-2.53765e-09
1.39e-09,4.66499e-09
1.391e-09,-2.26411e-09
1.392e-09,-1.36769e-10
1.393e-09,-4.66499e-09
1.394e-09,4.66499e-09
1.395e-09,0
1.396e-09,-2.26411e-09
1.397e-09,1.36769e-10
1.398e-09,0
1.399e-09,4.52823e-09
1.4e-09,-4.66499e-09
1.401e-09,4.66499e-09
1.402e-09,-1.36769e-10
1.403e-09,-2.40088e-09
1.404e-09,2.40088e-09
1.405e-09,0
1.406e-09,-2.26411e-09
1.407e-09,-2.26411e-09
1.408e-09,4.52823e-09
1.409e-09,-2.26411e-09
1.41e-09,0
1.411e-09,1.36769e-10
1.412e-09,2.26411e-09
1.413e-09,2.26411e-09
1.414e-09,0
1.415e-09,-2.26411e-09
1.416e-09,-6.79234e-09
1.417e-09,2.26411e-09
1.418e-09,-2.26411e-09
1.419e-09,1.14573e-08
1.42e-09,-6.92911e-09
1.421e-09,6.79234e-09
1.422e-09,4.66499e-09
1.423e-09,-9.19322e-09
1.424e-09,2.26411e-09
1.425e-09,2.40088e-09
1.426e-09,-2.26411e-09
1.427e-09,2.26411e-09
1.428e-09,0
1.429e-09,-4.66499e-09
1.43e-09,4.52823e-09
1.431e-09,6.79234e-09
1.432e-09,-2.12734e-09
1.433e-09,0
1.434e-09,0
1.435e-09,2.26411e-09
1.436e-09,-4.52823e-09
1.437e-09,0
1.438e-09,0
1.439e-09,-4.52823e-09
1.44e-09,4.52823e-09
1.441e-09,2.26411e-09
1.442e-09,2.26411e-09
1.443e-09,-2.26411e-09
1.444e-09,0
1.445e-09,0
1.446e-09,2.26411e-09
1.447e-09,-4.52823e-09
1.448e-09,-2.26411e-09
1.449e-09,-4.52823e-09
1.45e-09,2.26411e-09
1.451e-09,0
1.452e-09,-2.26411e-09
1.453e-09,4.52823e-09
1.454e-09,-4.52823e-09
1.455e-09,2.26411e-09
1.456e-09,-2.40088e-09
1.457e-09,0
1.458e-09,-2.26411e-09
1.459e-09,2.26411e-09
1.46e-09,2.26411e-09
1.461e-09,-2.26411e-09
1.462e-09,0
1.463e-09,6.79234e-09
1.464e-09,0
1.465e-09,-9.05645e-09
1.466e-09,4.52823e-09
1.467e-09,-6.79234e-09
1.468e-09,-2.26411e-09
1.469e-09,0
1.47e-09,2.53785e-10
1.471e-09,2.26411e-09
1.472e-09,2.26411e-09
1.473e-09,-2.26411e-09
1.474e-09,-2.26411e-09
1.475e-09,-4.52823e-09
1.476e-09,-1.36769e-10
1.477e-09,2.26411e-09
1.478e-09,-2.26411e-09
1.479e-09,2.26411e-09
1.48e-09,4.52823e-09
1.481e-09,0
1.482e-09,0
1.483e-09,-4.52823e-09
1.484e-09,0
1.485e-09,4.52823e-09
1.486e-09,2.26411e-09
1.487e-09,0
1.488e-09,4.66499e-09
1.489e-09,-4.52823e-09
1.49e-09,-4.66499e-09
1.491e-09,2.26411e-09
1.492e-09,-2.26411e-09
1.493e-09,4.52823e-09
1.494e-09,0
1.495e-09,2.40088e-09
1.496e-09,-4.66499e-09
1.497e-09,0
1.498e-09,2.40088e-09
1.499e-09,2.26411e-09
1.5e-09,-6.92911e-09
1.501e-09,0
1.502e-09,0
1.503e-09,2.40088e-09
1.504e-09,2.26411e-09
1.505e-09,4.52823e-09
1.506e-09,-2.26411e-09
1.507e-09,-2.26411e-09
1.508e-09,-1.36769e-10
1.509e-09,-9.05645e-09
1.51e-09,-2.40088e-09
1.511e-09,0
1.512e-09,2.26411e-09
1.513e-09,0
1.514e-09,2.26411e-09
1.515e-09,-2.26411e-09
1.516e-09,1.36769e-10
1.517e-09,4.52823e-09
1.518e-09,-2.26411e-09
1.519e-09,-1.36769e-10
1.52e-09,-2.26411e-09
1.521e-09,2.40088e-09
1.522e-09,0
1.523e-09,2.26411e-09
1.524e-09,-2.26411e-09
1.525e-09,2.26411e-09
1.526e-09,0
1.527e-09,2.26411e-09
1.528e-09,0
1.529e-09,2.26411e-09
1.53e-09,0
1.531e-09,0
1.532e-09,-4.52823e-09
1.533e-09,-2.26411e-09
1.534e-09,2.26411e-09
1.535e-09,0
1.536e-09,2.26411e-09
1.537e-09,4.52823e-09
1.538e-09,-4.52823e-09
1.539e-09,2.40088e-09
1.54e-09,2.26411e-09
1.541e-09,-2.26411e-09
1.542e-09,4.52823e-09
1.543e-09,-2.26411e-09
1.544e-09,0
1.545e-09,2.26411e-09
1.546e-09,0
1.547e-09,0
1.548e-09,-9.19322e-09
1.549e-09,2.26411e-09
1.55e-09,0
1.551e-09,-2.26411e-09
1.552e-09,6.92911e-09
1.553e-09,0
1.554e-09,-2.26411e-09
1.555e-09,0
1.556e-09,4.52823e-09
1.557e-09,0
1.558e-09,-9.19322e-09
1.559e-09,-4.52823e-09
1.56e-09,0
1.561e-09,0
1.562e-09,0
1.563e-09,0
1.564e-09,0
1.565e-09,0
1.566e-09,-2.26411e-09
1.567e-09,2.26411e-09
1.568e-09,4.66499e-09
1.569e-09,1.36769e-10
1.57e-09,-4.66499e-09
1.571e-09,6.92911e-09
1.572e-09,2.26411e-09
1.573e-09,-4.66499e-09
1.574e-09,-2.12734e-09
1.575e-09,-2.40088e-09
1.576e-09,0
1.577e-09,-2.40088e-09
1.578e-09,2.26411e-09
1.579e-09,-2.26411e-09
1.58e-09,0
1.581e-09,0
1.582e-09,-2.26411e-09
1.583e-09,0
1.584e-09,0
1.585e-09,0
1.586e-09,0
1.587e-09,2.40088e-09
1.588e-09,0
1.589e-09,0
1.59e-09,0
1.591e-09,0
1.592e-09,0
1.593e-09,0
1.594e-09,0
1.595e-09,-1.36769e-10
1.596e-09,4.66499e-09
1.597e-09,-4.52823e-09
1.598e-09,0
1.599e-09,0
1.6e-09,-2.26411e-09
1.601e-09,0
1.602e-09,2.26411e-09
1.603e-09,-4.52823e-09
1.604e-09,2.26411e-09
1.605e-09,2.26411e-09
1.606e-09,-4.52823e-09
1.607e-09,-2.26411e-09
1.608e-09,2.26411e-09
1.609e-09,-2.26411e-09
1.61e-09,2.26411e-09
1.611e-09,-2.26411e-09
1.612e-09,-2.40088e-09
1.613e-09,4.52823e-09
1.614e-09,2.26411e-09
1.615e-09,2.26411e-09
1.616e-09,-2.26411e-09
1.617e-09,-2.26411e-09
1.618e-09,0
1.619e-09,2.26411e-09
1.62e-09,-2.26411e-09
1.621e-09,0
1.622e-09,-2.26411e-09
1.623e-09,0
1.624e-09,2.26411e-09
1.625e-09,0
1.626e-09,4.52823e-09
1.627e-09,0
1.628e-09,-2.40088e-09
1.629e-09,2.26411e-09
1.63e-09,0
1.631e-09,4.66499e-09
1.632e-09,-4.66499e-09
1.633e-09,-2.26411e-09
1.634e-09,0
1.635e-09,0
1.636e-09,-2.26411e-09
1.637e-09,0
1.638e-09,-2.26411e-09
1.639e-09,2.26411e-09
1.64e-09,0
1.641e-09,-2.26411e-09
1.642e-09,2.40088e-09
1.643e-09,-2.40088e-09
1.644e-09,4.66499e-09
1.645e-09,0
1.646e-09,0
1.647e-09,-2.26411e-09
1.648e-09,0
1.649e-09,4.52823e-09
1.65e-09,0
1.651e-09,-2.40088e-09
1.652e-09,6.92911e-09
1.653e-09,-6.92911e-09
1.654e-09,2.26411e-09
1.655e-09,-2.26411e-09
1.656e-09,2.26411e-09
1.657e-09,-2.26411e-09
1.658e-09,2.26411e-09
1.659e-09,4.66499e-09
1.66e-09,-1.36769e-10
1.661e-09,2.40088e-09
1.662e-09,-1.36769e-10
1.663e-09,1.36769e-10
1.664e-09,-9.19322e-09
1.665e-09,2.40088e-09
1.666e-09,0
1.667e-09,0
1.668e-09,-2.26411e-09
1.669e-09,0
1.67e-09,2.12734e-09
1.671e-09,2.26411e-09
1.672e-09,0
1.673e-09,1.36769e-10
1.674e-09,-2.40088e-09
1.675e-09,0
1.676e-09,2.40088e-09
1.677e-09,2.26411e-09
1.678e-09,0
1.679e-09,0
1.68e-09,-2.26411e-09
1.681e-09,-2.26411e-09
1.682e-09,-2.26411e-09
1.683e-09,0
1.684e-09,0
1.685e-09,0
1.686e-09,2.26411e-09
1.687e-09,-2.26411e-09
1.688e-09,4.52823e-09
1.689e-09,-2.26411e-09
1.69e-09,-2.26411e-09
1.691e-09,0
1.692e-09,0
1.693e-09,0
1.694e-09,-2.26411e-09
1.695e-09,0
1.696e-09,0
1.697e-09,2.26411e-09
1.698e-09,0
1.699e-09,0
1.7e-09,-1.36769e-10
1.701e-09,1.36769e-10
1.702e-09,2.26411e-09
1.703e-09,-4.66499e-09
1.704e-09,2.26411e-09
1.705e-09,-2.26411e-09
1.706e-09,0
1.707e-09,-2.26411e-09
1.708e-09,0
1.709e-09,-2.26411e-09
1.71e-09,0
1.711e-09,0
1.712e-09,-2.26411e-09
1.713e-09,-4.52823e-09
1.714e-09,2.26411e-09
1.715e-09,0
1.716e-09,2.26411e-09
1.717e-09,-2.26411e-09
1.718e-09,4.52823e-09
1.719e-09,2.26411e-09
1.72e-09,0
1.721e-09,-2.26411e-09
1.722e-09,-2.26411e-09
1.723e-09,0
1.724e-09,-4.52823e-09
1.725e-09,4.52823e-09
1.726e-09,2.26411e-09
1.727e-09,1.36769e-10
1.728e-09,2.26411e-09
1.729e-09,0
1.73e-09,0
1.731e-09,-2.26411e-09
1.732e-09,2.26411e-09
1.733e-09,0
1.734e-09,-2.26411e-09
1.735e-09,2.26411e-09
1.736e-09,0
1.737e-09,0
1.738e-09,0
1.739e-09,2.26411e-09
1.74e-09,2.26411e-09
1.741e-09,0
1.742e-09,0
1.743e-09,-2.40088e-09
1.744e-09,0
1.745e-09,-2.26411e-09
1.746e-09,-2.26411e-09
1.747e-09,2.26411e-09
1.748e-09,-2.26411e-09
1.749e-09,4.52823e-09
1.75e-09,-2.26411e-09
1.751e-09,-2.26411e-09
1.752e-09,0
1.753e-09,2.26411e-09
1.754e-09,-2.26411e-09
1.755e-09,0
1.756e-09,0
1.757e-09,0
1.758e-09,0
1.759e-09,2.26411e-09
1.76e-09,0
1.761e-09,0
1.762e-09,-2.26411e-09
1.763e-09,0
1.764e-09,-2.26411e-09
1.765e-09,0
1.766e-09,0
1.767e-09,-2.26411e-09
1.768e-09,2.26411e-09
1.769e-09,0
1.77e-09,-2.26411e-09
1.771e-09,0
1.772e-09,0
1.773e-09,-2.26411e-09
1.774e-09,0
1.775e-09,0
1.776e-09,-2.26411e-09
1.777e-09,2.26411e-09
1.778e-09,0
1.779e-09,2.26411e-09
1.78e-09,-2.26411e-09
1.781e-09,-2.26411e-09
1.782e-09,4.52823e-09
1.783e-09,-4.52823e-09
1.784e-09,2.26411e-09
1.785e-09,2.26411e-09
1.786e-09,1.36769e-10
1.787e-09,-2.26411e-09
1.788e-09,0
1.789e-09,0
1.79e-09,0
1.791e-09,0
1.792e-09,-2.40088e-09
1.793e-09,0
1.794e-09,2.40088e-09
1.795e-09,-1.36769e-10
1.796e-09,0
1.797e-09,0
1.798e-09,0
1.799e-09,-2.26411e-09
1.8e-09,2.26411e-09
1.801e-09,-2.26411e-09
1.802e-09,0
1.803e-09,0
1.804e-09,0
1.805e-09,-2.26411e-09
1.806e-09,2.26411e-09
1.807e-09,-4.52823e-09
1.808e-09,2.26411e-09
1.809e-09,0
1.81e-09,6.79234e-09
1.811e-09,-4.52823e-09
1.812e-09,2.26411e-09
1.813e-09,-2.26411e-09
1.814e-09,-2.26411e-09
1.815e-09,2.26411e-09
1.816e-09,2.26411e-09
1.817e-09,-2.26411e-09
1.818e-09,2.26411e-09
1.819e-09,-2.26411e-09
1.82e-09,2.26411e-09
1.821e-09,0
1.822e-09,0
1.823e-09,0
1.824e-09,2.26411e-09
1.825e-09,0
1.826e-09,2.26411e-09
1.827e-09,0
1.828e-09,0
1.829e-09,0
1.83e-09,4.66499e-09
1.831e-09,-2.40088e-09
1.832e-09,2.26411e-09
1.833e-09,-6.79234e-09
1.834e-09,2.26411e-09
1.835e-09,-2.26411e-09
1.836e-09,0
1.837e-09,0
1.838e-09,2.26411e-09
1.839e-09,0
1.84e-09,4.52823e-09
1.841e-09,-4.52823e-09
1.842e-09,0
1.843e-09,4.52823e-09
1.844e-09,-2.26411e-09
1.845e-09,-4.52823e-09
1.846e-09,4.52823e-09
1.847e-09,2.26411e-09
1.848e-09,2.26411e-09
1.849e-09,-4.52823e-09
1.85e-09,0
1.851e-09,2.26411e-09
1.852e-09,0
1.853e-09,-2.26411e-09
1.854e-09,-2.26411e-09
1.855e-09,0
1.856e-09,4.52823e-09
1.857e-09,0
1.858e-09,-4.52823e-09
1.859e-09,-4.52823e-09
1.86e-09,2.26411e-09
1.861e-09,4.52823e-09
1.862e-09,-2.26411e-09
1.863e-09,0
1.864e-09,-2.26411e-09
1.865e-09,2.26411e-09
1.866e-09,2.26411e-09
1.867e-09,1.36769e-10
1.868e-09,-2.40088e-09
1.869e-09,2.26411e-09
1.87e-09,0
1.871e-09,0
1.872e-09,0
1.873e-09,0
1.874e-09,0
1.875e-09,-4.52823e-09
1.876e-09,0
1.877e-09,2.26411e-09
1.878e-09,0
1.879e-09,-2.26411e-09
1.88e-09,6.79234e-09
1.881e-09,4.66499e-09
1.882e-09,-2.26411e-09
1.883e-09,-2.26411e-09
1.884e-09,2.26411e-09
1.885e-09,-2.26411e-09
1.886e-09,2.26411e-09
1.887e-09,-2.26411e-09
1.888e-09,-4.52823e-09
1.889e-09,4.52823e-09
1.89e-09,-2.40088e-09
1.891e-09,0
1.892e-09,-2.26411e-09
1.893e-09,-2.26411e-09
1.894e-09,4.52823e-09
1.895e-09,0
1.896e-09,0
1.897e-09,0
1.898e-09,2.26411e-09
1.899e-09,4.66499e-09
1.9e-09,-1.36769e-10
1.901e-09,-4.52823e-09
1.902e-09,4.52823e-09
1.903e-09,-2.26411e-09
1.904e-09,2.26411e-09
1.905e-09,-2.26411e-09
1.906e-09,2.26411e-09
1.907e-09,-2.12734e-09
1.908e-09,-4.52823e-09
1.909e-09,-2.40088e-09
1.91e-09,4.66499e-09
1.911e-09,0
1.912e-09,-1.36769e-10
1.913e-09,-2.26411e-09
1.914e-09,2.26411e-09
1.915e-09,-2.26411e-09
1.916e-09,0
1.917e-09,-2.26411e-09
1.918e-09,2.26411e-09
1.919e-09,-2.26411e-09
1.92e-09,2.26411e-09
1.921e-09,-4.52823e-09
1.922e-09,6.92911e-09
1.923e-09,0
1.924e-09,-2.26411e-09
1.925e-09,0
1.926e-09,-2.40088e-09
1.927e-09,0
1.928e-09,0
1.929e-09,0
1.93e-09,0
1.931e-09,0
1.932e-09,-6.79234e-09
1.933e-09,0
1.934e-09,-2.26411e-09
1.935e-09,2.26411e-09
1.936e-09,-2.26411e-09
1.937e-09,0
1.938e-09,2.26411e-09
1.939e-09,-2.26411e-09
1.94e-09,6.79234e-09
1.941e-09,2.26411e-09
1.942e-09,-6.79234e-09
1.943e-09,4.52823e-09
1.944e-09,-2.26411e-09
1.945e-09,-2.26411e-09
1.946e-09,6.79234e-09
1.947e-09,4.52823e-09
1.948e-09,-2.26411e-09
1.949e-09,-2.26411e-09
1.95e-09,0
1.951e-09,0
1.952e-09,2.26411e-09
1.953e-09,2.26411e-09
1.954e-09,4.66499e-09
1.955e-09,-4.66499e-09
1.956e-09,2.40088e-09
1.957e-09,-1.36769e-10
1.958e-09,1.36769e-10
1.959e-09,-2.40088e-09
1.96e-09,0
1.961e-09,-2.12734e-09
1.962e-09,0
1.963e-09,4.39146e-09
1.964e-09,0
1.965e-09,0
1.966e-09,0
1.967e-09,-2.26411e-09
1.968e-09,0
1.969e-09,0
1.97e-09,-6.79234e-09
1.971e-09,4.52823e-09
1.972e-09,4.52823e-09
1.973e-09,-2.26411e-09
1.974e-09,-2.26411e-09
1.975e-09,-6.79234e-09
1.976e-09,2.26411e-09
1.977e-09,-2.26411e-09
1.978e-09,0
1.979e-09,0
1.98e-09,0
1.981e-09,4.66499e-09
1.982e-09,0
1.983e-09,-4.52823e-09
1.984e-09,-6.79234e-09
1.985e-09,4.39146e-09
1.986e-09,2.26411e-09
1.987e-09,-2.26411e-09
1.988e-09,2.26411e-09
1.989e-09,0
1.99e-09,4.52823e-09
1.991e-09,2.26411e-09
1.992e-09,-2.26411e-09
1.993e-09,-2.26411e-09
1.994e-09,0
1.995e-09,2.26411e-09
1.996e-09,-2.26411e-09
1.997e-09,-2.26411e-09
1.998e-09,0
1.999e-09,2.26411e-09
2e-09,-2.26411e-09
2.001e-09,0
2.1e-09,0
