0,0
1e-12,-1.72306e-06
2e-12,-2.61465e-06
3e-12,-4.65012e-07
4e-12,-1.27565e-06
5e-12,2.128e-07
6e-12,-8.1692e-07
7e-12,1.39048e-07
8e-12,-3.6444e-07
9e-12,-1.63333e-06
1e-11,-1.03886e-06
1.1e-11,-1.36702e-06
1.2e-11,2.24162e-06
1.3e-11,-1.71357e-07
1.4e-11,-1.25425e-06
1.5e-11,-5.41579e-07
1.6e-11,-7.45097e-07
1.7e-11,-6.52951e-07
1.8e-11,-8.30917e-08
1.9e-11,-1.01228e-06
2e-11,-3.70526e-09
2.1e-11,-2.82909e-06
2.2e-11,6.0895e-07
2.3e-11,7.43512e-08
2.4e-11,-9.3127e-07
2.5e-11,-5.32498e-07
2.6e-11,-1.2071e-06
2.7e-11,-5.37987e-07
2.8e-11,5.9664e-07
2.9e-11,-7.6936e-07
3e-11,4.25661e-07
3.1e-11,-9.90947e-07
3.2e-11,-2.06886e-06
3.3e-11,1.13173e-06
3.4e-11,-1.17322e-06
3.5e-11,-1.33724e-06
3.6e-11,7.67926e-07
3.7e-11,-1.46643e-06
3.8e-11,-2.60624e-07
3.9e-11,-2.31539e-06
4e-11,1.79351e-07
4.1e-11,-1.61784e-07
4.2e-11,-3.82158e-07
4.3e-11,-4.14401e-07
4.4e-11,-1.94427e-09
4.5e-11,-4.35921e-07
4.6e-11,-3.68691e-07
4.7e-11,-1.43324e-06
4.8e-11,-2.47923e-06
4.9e-11,1.06355e-06
5e-11,-2.51563e-06
5.1e-11,2.98814e-07
5.2e-11,-9.35515e-07
5.3e-11,-1.61562e-06
5.4e-11,-6.11513e-07
5.5e-11,8.24112e-07
5.6e-11,-2.31423e-07
5.7e-11,3.00151e-09
5.8e-11,-2.46596e-07
5.9e-11,-2.14398e-06
6e-11,-9.0806e-07
6.1e-11,-6.84872e-07
6.2e-11,-1.43003e-06
6.3e-11,-4.48525e-07
6.4e-11,-1.33029e-06
6.5e-11,-6.20012e-07
6.6e-11,4.27294e-07
6.7e-11,-1.51103e-06
6.8e-11,-5.69165e-07
6.9e-11,-1.44461e-06
7e-11,-2.57053e-07
7.1e-11,-1.5323e-06
7.2e-11,-7.56513e-07
7.3e-11,-1.12967e-06
7.4e-11,-2.94345e-07
7.5e-11,-1.43224e-06
7.6e-11,-7.88289e-07
7.7e-11,-4.44887e-07
7.8e-11,-1.54752e-06
7.9e-11,-8.41651e-08
8e-11,-4.58787e-07
8.1e-11,-1.08407e-06
8.2e-11,-2.21242e-06
8.3e-11,-1.227e-06
8.4e-11,-1.64246e-06
8.5e-11,-1.29784e-06
8.6e-11,-5.32913e-07
8.7e-11,2.63051e-07
8.8e-11,-1.03236e-06
8.9e-11,-5.41161e-07
9e-11,-7.79502e-07
9.1e-11,-4.29204e-07
9.2e-11,3.27743e-07
9.3e-11,-3.66756e-06
9.4e-11,-3.91712e-07
9.5e-11,-3.23167e-08
9.6e-11,-2.03496e-06
9.7e-11,-9.20018e-07
9.8e-11,-2.39159e-08
9.9e-11,-5.93849e-07
1e-10,-1.14963e-06
1.01e-10,-1.38457e-06
1.02e-10,-9.68727e-07
1.03e-10,-1.63968e-06
1.04e-10,-1.24634e-07
1.05e-10,-1.84554e-06
1.06e-10,-1.2862e-06
1.07e-10,-1.31153e-06
1.08e-10,-9.21583e-07
1.09e-10,-2.31119e-07
1.1e-10,-1.05377e-06
1.11e-10,-8.21642e-08
1.12e-10,-5.6771e-07
1.13e-10,-1.41398e-07
1.14e-10,-1.31469e-06
1.15e-10,-1.70082e-06
1.16e-10,-1.53855e-06
1.17e-10,8.89913e-07
1.18e-10,-4.82334e-07
1.19e-10,-2.39683e-06
1.2e-10,-5.43767e-07
1.21e-10,-2.2846e-06
1.22e-10,-3.62938e-07
1.23e-10,-2.28651e-07
1.24e-10,-8.39091e-07
1.25e-10,-6.42266e-07
1.26e-10,-1.85147e-07
1.27e-10,-4.34319e-07
1.28e-10,-1.80851e-06
1.29e-10,-2.10687e-06
1.3e-10,-8.46873e-07
1.31e-10,-1.57976e-06
1.32e-10,-3.00907e-07
1.33e-10,-2.23709e-07
1.34e-10,-2.77012e-07
1.35e-10,-1.92903e-07
1.36e-10,-3.24429e-07
1.37e-10,-4.90133e-07
1.38e-10,-1.52927e-06
1.39e-10,-1.1716e-06
1.4e-10,-1.44713e-06
1.41e-10,-5.66639e-07
1.42e-10,1.1665e-07
1.43e-10,-1.55962e-07
1.44e-10,-1.14199e-06
1.45e-10,-2.09882e-07
1.46e-10,2.2399e-07
1.47e-10,-6.92147e-07
1.48e-10,-8.32167e-07
1.49e-10,-2.08844e-06
1.5e-10,1.07855e-07
1.51e-10,-9.78354e-07
1.52e-10,-4.21496e-07
1.53e-10,-4.34032e-07
1.54e-10,-9.07044e-07
1.55e-10,-2.40996e-07
1.56e-10,-3.58532e-08
1.57e-10,-4.28886e-07
1.58e-10,-2.9224e-07
1.59e-10,-4.75513e-07
1.6e-10,-2.59043e-06
1.61e-10,-1.00188e-06
1.62e-10,-5.92972e-07
1.63e-10,-4.91788e-08
1.64e-10,-4.63751e-07
1.65e-10,-3.16414e-07
1.66e-10,-4.31484e-07
1.67e-10,-4.16428e-07
1.68e-10,-1.35473e-06
1.69e-10,3.23898e-07
1.7e-10,-4.68096e-07
1.71e-10,3.42692e-07
1.72e-10,-5.09934e-07
1.73e-10,-1.06099e-06
1.74e-10,-6.5321e-07
1.75e-10,-5.23972e-07
1.76e-10,-5.49788e-07
1.77e-10,-1.1392e-06
1.78e-10,-6.67048e-07
1.79e-10,-2.85306e-07
1.8e-10,-2.64572e-07
1.81e-10,-8.74404e-07
1.82e-10,-2.8691e-07
1.83e-10,-1.43458e-06
1.84e-10,-4.26423e-07
1.85e-10,-4.72593e-07
1.86e-10,-4.32721e-07
1.87e-10,-1.20803e-06
1.88e-10,-8.65794e-07
1.89e-10,2.66983e-07
1.9e-10,-9.92061e-07
1.91e-10,-1.1382e-06
1.92e-10,-1.22596e-07
1.93e-10,-3.8894e-07
1.94e-10,-9.26912e-08
1.95e-10,-2.80564e-07
1.96e-10,-4.58972e-07
1.97e-10,-4.7143e-07
1.98e-10,-4.78638e-07
1.99e-10,-1.04813e-06
2e-10,-4.69761e-07
2.01e-10,-7.60062e-07
2.02e-10,3.47147e-07
2.03e-10,-8.07622e-07
2.04e-10,-1.22918e-06
2.05e-10,-3.53449e-07
2.06e-10,-6.15867e-07
2.07e-10,-1.38901e-07
2.08e-10,-3.71829e-07
2.09e-10,-8.15014e-08
2.1e-10,-6.01865e-07
2.11e-10,-3.81351e-07
2.12e-10,-6.29201e-08
2.13e-10,-1.50632e-06
2.14e-10,-6.24176e-07
2.15e-10,-2.45745e-07
2.16e-10,-1.52486e-06
2.17e-10,-3.44314e-07
2.18e-10,1.28447e-07
2.19e-10,-6.80952e-07
2.2e-10,-1.06698e-06
2.21e-10,-5.76596e-07
2.22e-10,-3.71481e-07
2.23e-10,-3.95197e-07
2.24e-10,-9.88972e-07
2.25e-10,-6.40884e-07
2.26e-10,-1.13217e-06
2.27e-10,-9.18523e-08
2.28e-10,-4.6409e-07
2.29e-10,-2.37367e-06
2.3e-10,-5.27446e-07
2.31e-10,-3.20225e-07
2.32e-10,-9.70117e-07
2.33e-10,-5.36345e-07
2.34e-10,-1.00157e-06
2.35e-10,-3.80825e-07
2.36e-10,-1.72531e-06
2.37e-10,-2.95686e-07
2.38e-10,-2.36061e-06
2.39e-10,-1.33176e-06
2.4e-10,-2.19209e-07
2.41e-10,8.87626e-08
2.42e-10,-2.36992e-08
2.43e-10,-1.19672e-06
2.44e-10,5.65447e-08
2.45e-10,-4.10689e-06
2.46e-10,-4.22146e-07
2.47e-10,-3.50192e-07
2.48e-10,-1.29142e-06
2.49e-10,-1.2145e-06
2.5e-10,-1.41878e-06
2.51e-10,-6.1814e-07
2.52e-10,-1.78572e-07
2.53e-10,3.97301e-07
2.54e-10,-1.23864e-06
2.55e-10,-6.3738e-07
2.56e-10,-3.12699e-06
2.57e-10,-5.95311e-07
2.58e-10,-1.37072e-06
2.59e-10,-6.57368e-07
2.6e-10,-8.94352e-07
2.61e-10,-4.55785e-07
2.62e-10,-4.09679e-07
2.63e-10,-3.82509e-07
2.64e-10,3.76526e-07
2.65e-10,-1.91654e-06
2.66e-10,-1.16207e-06
2.67e-10,-1.59483e-07
2.68e-10,-1.08529e-07
2.69e-10,-1.64514e-06
2.7e-10,-1.20006e-06
2.71e-10,-3.7667e-07
2.72e-10,-3.52097e-07
2.73e-10,-2.89402e-07
2.74e-10,-9.82077e-08
2.75e-10,-2.93511e-06
2.76e-10,-2.77876e-07
2.77e-10,-2.93758e-07
2.78e-10,1.83687e-07
2.79e-10,8.23186e-09
2.8e-10,-1.25426e-06
2.81e-10,-1.79886e-06
2.82e-10,5.82519e-08
2.83e-10,-4.8697e-07
2.84e-10,-1.01477e-06
2.85e-10,-1.30147e-06
2.86e-10,-3.29299e-07
2.87e-10,2.83284e-07
2.88e-10,-7.06909e-07
2.89e-10,-9.53328e-08
2.9e-10,-1.29744e-06
2.91e-10,8.57169e-08
2.92e-10,-4.16741e-07
2.93e-10,-3.42449e-07
2.94e-10,1.27546e-07
2.95e-10,-1.02454e-06
2.96e-10,-4.45535e-07
2.97e-10,1.37629e-07
2.98e-10,-3.96296e-07
2.99e-10,-4.58506e-07
3e-10,-4.07598e-07
3.01e-10,-2.2817e-07
3.02e-10,-1.59139e-06
3.03e-10,-1.64522e-07
3.04e-10,1.81435e-09
3.05e-10,-1.43918e-07
3.06e-10,-1.46541e-07
3.07e-10,-3.08357e-07
3.08e-10,-2.0241e-07
3.09e-10,-1.05142e-07
3.1e-10,-1.00599e-06
3.11e-10,1.91356e-08
3.12e-10,-1.44642e-06
3.13e-10,-5.18011e-07
3.14e-10,-4.69357e-07
3.15e-10,1.07584e-07
3.16e-10,-2.39486e-07
3.17e-10,-4.90868e-07
3.18e-10,1.20931e-07
3.19e-10,-3.45212e-07
3.2e-10,-9.50419e-07
3.21e-10,-4.08062e-07
3.22e-10,-7.97935e-07
3.23e-10,-4.36409e-07
3.24e-10,-1.85273e-07
3.25e-10,-3.69465e-07
3.26e-10,-1.40823e-07
3.27e-10,-4.0315e-07
3.28e-10,-4.20579e-07
3.29e-10,1.73447e-07
3.3e-10,-2.99608e-07
3.31e-10,-6.06289e-07
3.32e-10,-3.36202e-07
3.33e-10,-1.29083e-06
3.34e-10,-2.10346e-07
3.35e-10,1.32581e-08
3.36e-10,-7.98062e-07
3.37e-10,6.12524e-07
3.38e-10,5.07298e-07
3.39e-10,2.31296e-07
3.4e-10,2.71271e-07
3.41e-10,-3.71617e-07
3.42e-10,-1.6502e-07
3.43e-10,1.3533e-07
3.44e-10,-5.24063e-07
3.45e-10,1.50526e-07
3.46e-10,-1.86287e-07
3.47e-10,4.22352e-08
3.48e-10,-6.8916e-08
3.49e-10,-2.70635e-08
3.5e-10,-1.1035e-07
3.51e-10,-3.08225e-08
3.52e-10,-8.21513e-08
3.53e-10,4.56922e-07
3.54e-10,-2.40153e-07
3.55e-10,3.57739e-07
3.56e-10,-2.39119e-07
3.57e-10,-3.44257e-07
3.58e-10,-2.32476e-07
3.59e-10,-2.60034e-07
3.6e-10,-3.94026e-08
3.61e-10,-1.65695e-07
3.62e-10,7.13092e-07
3.63e-10,1.1537e-07
3.64e-10,-2.88342e-07
3.65e-10,6.70649e-07
3.66e-10,-2.70557e-07
3.67e-10,-4.75782e-07
3.68e-10,-1.11233e-07
3.69e-10,3.35191e-07
3.7e-10,6.63596e-08
3.71e-10,-1.56509e-07
3.72e-10,-3.12618e-07
3.73e-10,1.08406e-06
3.74e-10,-3.73909e-07
3.75e-10,-1.84414e-07
3.76e-10,-5.43118e-08
3.77e-10,-2.52021e-07
3.78e-10,-1.70825e-07
3.79e-10,2.29145e-07
3.8e-10,-1.78355e-07
3.81e-10,-2.7863e-07
3.82e-10,1.01461e-06
3.83e-10,2.95452e-07
3.84e-10,-2.95567e-07
3.85e-10,-6.10742e-07
3.86e-10,4.11308e-07
3.87e-10,-2.39423e-07
3.88e-10,2.75609e-07
3.89e-10,-5.01159e-07
3.9e-10,1.37928e-07
3.91e-10,2.13277e-07
3.92e-10,3.31748e-07
3.93e-10,-1.28381e-07
3.94e-10,-4.15191e-07
3.95e-10,-2.4824e-07
3.96e-10,2.25254e-07
3.97e-10,9.05984e-08
3.98e-10,-1.62492e-06
3.99e-10,-2.79878e-07
4e-10,-1.6432e-07
4.01e-10,5.51052e-08
4.02e-10,-1.22347e-07
4.03e-10,-2.87725e-07
4.04e-10,-7.08007e-08
4.05e-10,-8.53212e-07
4.06e-10,-5.90379e-08
4.07e-10,-2.57658e-07
4.08e-10,-1.85862e-07
4.09e-10,-6.31909e-07
4.1e-10,-3.79604e-08
4.11e-10,-5.47934e-07
4.12e-10,6.5938e-08
4.13e-10,-1.19499e-06
4.14e-10,1.14944e-07
4.15e-10,-1.0678e-07
4.16e-10,-6.87762e-08
4.17e-10,-7.99683e-07
4.18e-10,1.51121e-07
4.19e-10,2.49887e-07
4.2e-10,-1.81466e-06
4.21e-10,1.70807e-07
4.22e-10,-7.43642e-07
4.23e-10,-5.94263e-07
4.24e-10,-1.49012e-06
4.25e-10,-2.06238e-07
4.26e-10,-1.99554e-07
4.27e-10,-3.87355e-07
4.28e-10,-2.37994e-09
4.29e-10,2.21229e-07
4.3e-10,-1.39055e-06
4.31e-10,-1.67276e-07
4.32e-10,-2.05453e-07
4.33e-10,-9.50971e-07
4.34e-10,-1.52778e-07
4.35e-10,-1.82219e-07
4.36e-10,4.81286e-07
4.37e-10,-4.47515e-07
4.38e-10,-6.11408e-07
4.39e-10,-1.32564e-06
4.4e-10,1.89844e-07
4.41e-10,-6.05046e-07
4.42e-10,-2.24843e-07
4.43e-10,-9.00776e-08
4.44e-10,-9.86363e-07
4.45e-10,-2.3688e-07
4.46e-10,-2.70985e-07
4.47e-10,-2.42535e-08
4.48e-10,-2.58652e-06
4.49e-10,7.45201e-08
4.5e-10,-6.58155e-08
4.51e-10,-1.92004e-07
4.52e-10,-2.48544e-07
4.53e-10,-8.26064e-07
4.54e-10,-8.02684e-08
4.55e-10,-4.6146e-08
4.56e-10,-1.32317e-06
4.57e-10,-6.24642e-07
4.58e-10,-2.04019e-06
4.59e-10,-6.23016e-07
4.6e-10,-9.00464e-08
4.61e-10,-1.58986e-08
4.62e-10,-7.19898e-07
4.63e-10,-1.21776e-06
4.64e-10,2.37565e-07
4.65e-10,-4.23515e-07
4.66e-10,-2.50591e-08
4.67e-10,-2.36466e-07
4.68e-10,-1.60232e-06
4.69e-10,-4.52733e-07
4.7e-10,5.59053e-07
4.71e-10,-1.14594e-06
4.72e-10,-8.44302e-08
4.73e-10,-4.10828e-09
4.74e-10,-1.74976e-07
4.75e-10,3.06782e-07
4.76e-10,-3.59612e-07
4.77e-10,2.14334e-07
4.78e-10,-8.74492e-07
4.79e-10,-1.66171e-07
4.8e-10,-1.78277e-07
4.81e-10,-1.06825e-06
4.82e-10,7.89863e-08
4.83e-10,-2.66466e-07
4.84e-10,-7.44822e-08
4.85e-10,7.34089e-08
4.86e-10,-9.20949e-07
4.87e-10,-2.60523e-09
4.88e-10,-3.27071e-07
4.89e-10,-2.62387e-07
4.9e-10,1.77107e-07
4.91e-10,-3.55024e-07
4.92e-10,2.70992e-07
4.93e-10,2.95784e-08
4.94e-10,-2.21294e-07
4.95e-10,-4.73519e-07
4.96e-10,-6.46383e-08
4.97e-10,-3.98694e-08
4.98e-10,-1.27771e-06
4.99e-10,4.66971e-08
5e-10,8.31601e-09
5.01e-10,-1.19326e-07
5.02e-10,2.56367e-07
5.03e-10,8.12816e-10
5.04e-10,5.17631e-07
5.05e-10,-2.70892e-07
5.06e-10,-1.08472e-06
5.07e-10,2.21473e-07
5.08e-10,-1.06905e-06
5.09e-10,-1.982e-07
5.1e-10,-3.26237e-08
5.11e-10,-7.92365e-08
5.12e-10,-4.23257e-08
5.13e-10,2.89188e-07
5.14e-10,1.82254e-07
5.15e-10,3.8008e-07
5.16e-10,-5.48206e-07
5.17e-10,1.54338e-06
5.18e-10,-1.51186e-06
5.19e-10,-4.64976e-07
5.2e-10,-1.56919e-08
5.21e-10,4.34955e-07
5.22e-10,-2.21102e-07
5.23e-10,-8.63258e-08
5.24e-10,-1.67218e-08
5.25e-10,-3.80913e-07
5.26e-10,2.43624e-07
5.27e-10,-8.22027e-08
5.28e-10,7.59434e-08
5.29e-10,-1.42461e-06
5.3e-10,-2.35357e-07
5.31e-10,-2.03028e-08
5.32e-10,-7.40612e-08
5.33e-10,-7.41679e-07
5.34e-10,-2.70397e-07
5.35e-10,1.01e-07
5.36e-10,-2.52114e-08
5.37e-10,6.48163e-08
5.38e-10,-7.36789e-07
5.39e-10,-6.12545e-08
5.4e-10,-1.03684e-06
5.41e-10,-2.40389e-07
5.42e-10,9.81372e-08
5.43e-10,-4.68757e-07
5.44e-10,-1.02806e-06
5.45e-10,-9.10624e-08
5.46e-10,4.9962e-08
5.47e-10,-1.35054e-07
5.48e-10,-2.48864e-07
5.49e-10,5.94504e-07
5.5e-10,-9.65718e-07
5.51e-10,7.59206e-07
5.52e-10,-5.493e-07
5.53e-10,-1.40397e-06
5.54e-10,-9.33905e-07
5.55e-10,1.21339e-08
5.56e-10,4.63077e-07
5.57e-10,-9.80351e-08
5.58e-10,-1.30509e-07
5.59e-10,-1.52204e-06
5.6e-10,5.96521e-07
5.61e-10,-1.33265e-07
5.62e-10,-3.77749e-07
5.63e-10,-1.32923e-06
5.64e-10,-1.46281e-06
5.65e-10,-9.17412e-08
5.66e-10,3.20266e-07
5.67e-10,-5.26476e-07
5.68e-10,-1.19606e-06
5.69e-10,3.46211e-07
5.7e-10,5.07435e-07
5.71e-10,-5.69549e-08
5.72e-10,-1.00243e-07
5.73e-10,1.74561e-07
5.74e-10,-1.52686e-07
5.75e-10,5.31575e-08
5.76e-10,4.3333e-08
5.77e-10,4.54134e-09
5.78e-10,3.14017e-07
5.79e-10,-2.01246e-07
5.8e-10,-3.5509e-08
5.81e-10,-1.23197e-07
5.82e-10,-1.01955e-07
5.83e-10,2.13729e-07
5.84e-10,3.66734e-07
5.85e-10,2.83054e-08
5.86e-10,-2.43227e-07
5.87e-10,1.21079e-07
5.88e-10,3.0992e-07
5.89e-10,-5.02167e-07
5.9e-10,-2.41406e-07
5.91e-10,-1.75873e-07
5.92e-10,3.83991e-08
5.93e-10,-2.09656e-07
5.94e-10,1.24786e-07
5.95e-10,7.28372e-08
5.96e-10,-2.08663e-07
5.97e-10,3.83063e-07
5.98e-10,4.8211e-08
5.99e-10,-2.26102e-07
6e-10,1.21104e-07
6.01e-10,-1.73865e-07
6.02e-10,-1.92945e-07
6.03e-10,2.10759e-07
6.04e-10,-8.7928e-08
6.05e-10,-8.29227e-08
6.06e-10,2.14338e-07
6.07e-10,3.93137e-07
6.08e-10,-1.38439e-06
6.09e-10,2.19658e-07
6.1e-10,2.08695e-07
6.11e-10,-5.32362e-08
6.12e-10,3.67117e-07
6.13e-10,1.62367e-07
6.14e-10,-1.31114e-07
6.15e-10,-8.5239e-08
6.16e-10,-3.01905e-08
6.17e-10,-1.24524e-07
6.18e-10,1.94665e-07
6.19e-10,-9.53415e-07
6.2e-10,-8.93439e-08
6.21e-10,1.62148e-07
6.22e-10,-1.92241e-07
6.23e-10,-4.57537e-08
6.24e-10,3.40757e-07
6.25e-10,-6.21525e-08
6.26e-10,-2.6005e-07
6.27e-10,-1.44617e-07
6.28e-10,2.64451e-07
6.29e-10,-9.41048e-08
6.3e-10,-3.9998e-08
6.31e-10,-1.21339e-06
6.32e-10,-1.26074e-07
6.33e-10,3.27986e-07
6.34e-10,-6.09373e-10
6.35e-10,-1.81087e-07
6.36e-10,-1.28788e-07
6.37e-10,-1.89514e-09
6.38e-10,9.83451e-08
6.39e-10,-1.3862e-07
6.4e-10,-3.76743e-08
6.41e-10,-1.31238e-07
6.42e-10,3.86143e-07
6.43e-10,5.13243e-08
6.44e-10,-1.42524e-08
6.45e-10,-7.95805e-08
6.46e-10,-1.0417e-07
6.47e-10,2.85955e-07
6.48e-10,-2.29956e-07
6.49e-10,5.06597e-08
6.5e-10,-1.09504e-07
6.51e-10,-1.31129e-07
6.52e-10,-3.17833e-08
6.53e-10,-6.52034e-07
6.54e-10,-3.74346e-08
6.55e-10,-4.1398e-08
6.56e-10,-4.3216e-08
6.57e-10,-7.55603e-08
6.58e-10,1.668e-08
6.59e-10,-4.68436e-08
6.6e-10,5.75486e-07
6.61e-10,-5.5276e-07
6.62e-10,-4.66938e-08
6.63e-10,-2.18739e-07
6.64e-10,-4.6112e-08
6.65e-10,-1.53333e-07
6.66e-10,-1.07146e-07
6.67e-10,-5.37289e-09
6.68e-10,-4.20722e-08
6.69e-10,-1.20311e-07
6.7e-10,-7.9672e-08
6.71e-10,1.4386e-07
6.72e-10,4.06782e-08
6.73e-10,-5.66997e-10
6.74e-10,-4.46823e-08
6.75e-10,-2.14844e-07
6.76e-10,-2.60153e-08
6.77e-10,-8.18203e-07
6.78e-10,-1.36769e-10
6.79e-10,-1.18789e-07
6.8e-10,-4.01415e-08
6.81e-10,-1.90575e-07
6.82e-10,3.0304e-08
6.83e-10,-3.11847e-08
6.84e-10,-9.3072e-07
6.85e-10,-7.68641e-08
6.86e-10,-1.04092e-07
6.87e-10,-3.02084e-07
6.88e-10,1.87748e-07
6.89e-10,-1.02231e-07
6.9e-10,3.14482e-09
6.91e-10,-8.88959e-10
6.92e-10,-1.6852e-07
6.93e-10,-7.77986e-08
6.94e-10,2.52284e-09
6.95e-10,-1.12598e-06
6.96e-10,-2.04044e-07
6.97e-10,6.4648e-08
6.98e-10,-3.41635e-08
6.99e-10,-1.24343e-08
7e-10,-5.95147e-08
7.01e-10,5.53185e-08
7.02e-10,-8.63505e-08
7.03e-10,-3.51462e-08
7.04e-10,-5.47297e-08
7.05e-10,-1.22276e-06
7.06e-10,7.47466e-09
7.07e-10,-4.85233e-08
7.08e-10,-3.79367e-09
7.09e-10,-4.69015e-08
7.1e-10,-8.04095e-08
7.11e-10,-4.38314e-08
7.12e-10,-1.29622e-07
7.13e-10,1.49826e-07
7.14e-10,-4.34731e-08
7.15e-10,1.41445e-08
7.16e-10,-4.93764e-08
7.17e-10,-5.27217e-09
7.18e-10,-1.43596e-07
7.19e-10,-5.50501e-10
7.2e-10,-8.54029e-08
7.21e-10,2.22548e-10
7.22e-10,-7.77803e-08
7.23e-10,-5.53086e-08
7.24e-10,2.00617e-07
7.25e-10,-9.36345e-08
7.26e-10,-4.59465e-07
7.27e-10,-2.26411e-09
7.28e-10,-2.80785e-09
7.29e-10,2.87774e-07
7.3e-10,-9.80614e-08
7.31e-10,-5.50165e-08
7.32e-10,-4.3114e-08
7.33e-10,-9.33602e-08
7.34e-10,-2.9518e-09
7.35e-10,-4.3079e-08
7.36e-10,2.67785e-09
7.37e-10,-5.28223e-08
7.38e-10,1.4533e-07
7.39e-10,-1.56538e-08
7.4e-10,-3.79441e-08
7.41e-10,2.9316e-07
7.42e-10,-1.1806e-09
7.43e-10,-1.54924e-08
7.44e-10,-2.12734e-09
7.45e-10,9.91996e-09
7.46e-10,-4.2132e-08
7.47e-10,-1.36329e-07
7.48e-10,-1.0882e-06
7.49e-10,-7.82854e-09
7.5e-10,1.68926e-07
7.51e-10,3.12078e-09
7.52e-10,3.36233e-07
7.53e-10,-1.16503e-07
7.54e-10,-4.14595e-08
7.55e-10,-4.5472e-08
7.56e-10,-1.33071e-07
7.57e-10,7.51696e-10
7.58e-10,-5.50501e-10
7.59e-10,-4.19718e-08
7.6e-10,-5.33666e-09
7.61e-10,-8.83484e-09
7.62e-10,-3.58122e-07
7.63e-10,-9.2453e-07
7.64e-10,-4.37595e-08
7.65e-10,4.87608e-08
7.66e-10,-1.32001e-08
7.67e-10,-8.57205e-08
7.68e-10,-4.21884e-09
7.69e-10,-7.34284e-09
7.7e-10,4.66499e-09
7.71e-10,-4.21869e-08
7.72e-10,-8.67724e-07
7.73e-10,1.36769e-10
7.74e-10,-1.15913e-06
7.75e-10,-7.96475e-08
7.76e-10,-5.01444e-08
7.77e-10,1.89261e-08
7.78e-10,-1.11916e-07
7.79e-10,-4.32073e-08
7.8e-10,-2.26411e-09
7.81e-10,0
7.82e-10,-1.52472e-06
7.83e-10,-6.92911e-09
7.84e-10,-1.09598e-06
7.85e-10,-8.92132e-08
7.86e-10,4.34928e-08
7.87e-10,-2.12734e-09
7.88e-10,4.66499e-09
7.89e-10,-4.77442e-08
7.9e-10,-4.73652e-08
7.91e-10,-4.04338e-08
7.92e-10,-1.62888e-07
7.93e-10,-2.20657e-09
7.94e-10,-2.26411e-09
7.95e-10,-4.33526e-08
7.96e-10,-4.66499e-09
7.97e-10,-6.36807e-08
7.98e-10,-3.97211e-08
7.99e-10,2.12392e-09
8e-10,2.76964e-10
8.01e-10,-1.99052e-09
8.02e-10,-8.71189e-08
8.03e-10,-8.16298e-08
8.04e-10,-2.8715e-09
8.05e-10,-3.80804e-08
8.06e-10,4.08149e-08
8.07e-10,-4.83512e-08
8.08e-10,2.26411e-09
8.09e-10,-4.95377e-08
8.1e-10,-3.42179e-09
8.11e-10,-4.63768e-08
8.12e-10,2.67785e-09
8.13e-10,2.26411e-09
8.14e-10,5.08042e-08
8.15e-10,3.30209e-10
8.16e-10,-3.00805e-09
8.17e-10,-1.27662e-07
8.18e-10,-5.07873e-09
8.19e-10,-4.08151e-08
8.2e-10,-4.66499e-09
8.21e-10,4.66499e-09
8.22e-10,0
8.23e-10,-2.26411e-09
8.24e-10,3.14849e-08
8.25e-10,-7.51273e-08
8.26e-10,-7.20607e-09
8.27e-10,2.67785e-09
8.28e-10,7.0985e-09
8.29e-10,-4.59262e-08
8.3e-10,-4.32642e-08
8.31e-10,2.67785e-09
8.32e-10,-5.30684e-09
8.33e-10,-2.7267e-09
8.34e-10,4.13733e-10
8.35e-10,3.84268e-08
8.36e-10,2.67785e-09
8.37e-10,-2.67785e-09
8.38e-10,-4.77603e-08
8.39e-10,2.26363e-09
8.4e-10,6.79234e-09
8.41e-10,-2.26411e-09
8.42e-10,-2.81461e-09
8.43e-10,-3.64397e-08
8.44e-10,-4.52823e-09
8.45e-10,-2.67785e-09
8.46e-10,4.94196e-09
8.47e-10,-9.36261e-09
8.48e-10,4.52823e-09
8.49e-10,8.8119e-10
8.5e-10,-8.35777e-08
8.51e-10,4.52823e-09
8.52e-10,-4.52823e-09
8.53e-10,-4.94196e-09
8.54e-10,2.54108e-09
8.55e-10,-3.86876e-08
8.56e-10,-4.6984e-08
8.57e-10,-2.26411e-09
8.58e-10,-2.67785e-09
8.59e-10,-4.05542e-08
8.6e-10,5.07873e-09
8.61e-10,3.37618e-08
8.62e-10,-4.09679e-08
8.63e-10,-3.86876e-08
8.64e-10,3.85508e-08
8.65e-10,6.51537e-09
8.66e-10,-4.78808e-08
8.67e-10,2.53765e-09
8.68e-10,3.38858e-08
8.69e-10,-4.54799e-08
8.7e-10,-9.60695e-09
8.71e-10,1.39984e-08
8.72e-10,-1.13206e-08
8.73e-10,9.05645e-09
8.74e-10,-9.85135e-09
8.75e-10,0
8.76e-10,7.37547e-09
8.77e-10,-4.94196e-09
8.78e-10,4.94196e-09
8.79e-10,-4.45345e-08
8.8e-10,2.54108e-09
8.81e-10,-4.80519e-09
8.82e-10,4.52823e-09
8.83e-10,-4.13733e-10
8.84e-10,-4.80176e-09
8.85e-10,9.60695e-09
8.86e-10,-4.58937e-08
8.87e-10,8.03354e-09
8.88e-10,1.98715e-09
8.89e-10,-1.18711e-08
8.9e-10,2.12734e-09
8.91e-10,-4.08149e-08
8.92e-10,-5.07873e-09
8.93e-10,-2.67785e-09
8.94e-10,-7.65915e-08
8.95e-10,-1.45489e-08
8.96e-10,1.2591e-08
8.97e-10,4.81578e-08
8.98e-10,-1.3995e-08
8.99e-10,6.92911e-09
9e-10,1.36769e-10
9.01e-10,-1.98715e-09
9.02e-10,-4.47235e-08
9.03e-10,-2.69165e-08
9.04e-10,-1.89771e-08
9.05e-10,2.26411e-09
9.06e-10,-2.67785e-09
9.07e-10,-4.10885e-08
9.08e-10,4.81945e-08
9.09e-10,-4.32158e-08
9.1e-10,2.26411e-09
9.11e-10,-7.20607e-09
9.12e-10,-3.40696e-08
9.13e-10,-7.10605e-09
9.14e-10,7.06588e-09
9.15e-10,-1.42719e-08
9.16e-10,-5.07873e-09
9.17e-10,-3.09158e-09
9.18e-10,-6.79234e-09
9.19e-10,6.79234e-09
9.2e-10,-4.13733e-10
9.21e-10,-4.29606e-08
9.22e-10,-1.36769e-10
9.23e-10,-2.12734e-09
9.24e-10,4.94196e-09
9.25e-10,-2.67785e-09
9.26e-10,4.80519e-09
9.27e-10,2.95138e-09
9.28e-10,-2.26411e-09
9.29e-10,-5.24806e-09
9.3e-10,-4.39146e-09
9.31e-10,-4.80519e-09
9.32e-10,-4.08147e-08
9.33e-10,-7.20607e-09
9.34e-10,1.00207e-08
9.35e-10,-7.20607e-09
9.36e-10,4.11449e-09
9.37e-10,-4.25126e-09
9.38e-10,0
9.39e-10,-2.67785e-09
9.4e-10,-3.61524e-08
9.41e-10,-4.52823e-09
9.42e-10,-4.66499e-09
9.43e-10,4.52823e-09
9.44e-10,-4.66499e-09
9.45e-10,2.26411e-09
9.46e-10,6.79234e-09
9.47e-10,-4.80519e-09
9.48e-10,-4.66499e-09
9.49e-10,2.26411e-09
9.5e-10,-4.0678e-08
9.51e-10,-4.66499e-09
9.52e-10,2.67785e-09
9.53e-10,0
9.54e-10,7.6198e-09
9.55e-10,-5.32312e-09
9.56e-10,-2.76964e-10
9.57e-10,0
9.58e-10,-6.92911e-09
9.59e-10,6.79234e-09
9.6e-10,-3.82771e-08
9.61e-10,-2.81461e-09
9.62e-10,-6.79234e-09
9.63e-10,4.90939e-09
9.64e-10,4.52823e-09
9.65e-10,2.26411e-09
9.66e-10,1.3672e-08
9.67e-10,-2.40088e-09
9.68e-10,1.88295e-09
9.69e-10,-4.66499e-09
9.7e-10,-4.04822e-08
9.71e-10,4.66499e-09
9.72e-10,-2.12734e-09
9.73e-10,-9.47018e-09
9.74e-10,6.79234e-09
9.75e-10,-2.12734e-09
9.76e-10,2.12734e-09
9.77e-10,-2.40088e-09
9.78e-10,-1.40195e-10
9.79e-10,-3.78501e-08
9.8e-10,-4.38803e-09
9.81e-10,1.36769e-10
9.82e-10,-4.94196e-09
9.83e-10,2.40088e-09
9.84e-10,-2.40088e-09
9.85e-10,-2.73538e-10
9.86e-10,2.76964e-10
9.87e-10,-2.40431e-09
9.88e-10,-3.6423e-08
9.89e-10,-9.19322e-09
9.9e-10,-2.26411e-09
9.91e-10,-2.26411e-09
9.92e-10,2.26411e-09
9.93e-10,2.40088e-09
9.94e-10,2.53765e-09
9.95e-10,-1.36769e-10
9.96e-10,6.92911e-09
9.97e-10,-4.7701e-08
9.98e-10,2.26411e-09
9.99e-10,-4.66499e-09
1e-09,1.36769e-10
1.001e-09,-2.40088e-09
1.002e-09,-2.53765e-09
1.003e-09,2.26411e-09
1.004e-09,-3.68515e-08
1.005e-09,-1.48509e-08
1.006e-09,1.03553e-08
1.007e-09,-1.48835e-08
1.008e-09,0
1.009e-09,-4.56079e-09
1.01e-09,2.26411e-09
1.011e-09,1.26194e-08
1.012e-09,-4.10584e-08
1.013e-09,2.26411e-09
1.014e-09,-1.50203e-08
1.015e-09,1.36769e-10
1.016e-09,1.48835e-08
1.017e-09,-4.52823e-09
1.018e-09,-1.36769e-10
1.019e-09,0
1.02e-09,9.19322e-09
1.021e-09,-4.30318e-08
1.022e-09,-7.20264e-09
1.023e-09,-2.40088e-09
1.024e-09,1.14573e-08
1.025e-09,-6.79234e-09
1.026e-09,-4.52823e-09
1.027e-09,7.06588e-09
1.028e-09,-4.09508e-08
1.029e-09,-9.05645e-09
1.03e-09,-2.40088e-09
1.031e-09,4.52823e-09
1.032e-09,-4.52823e-09
1.033e-09,-2.16593e-08
1.034e-09,4.66499e-09
1.035e-09,-4.52823e-09
1.036e-09,-4.0814e-08
1.037e-09,0
1.038e-09,5.04616e-09
1.039e-09,0
1.04e-09,2.12734e-09
1.041e-09,-9.32999e-09
1.042e-09,2.73538e-10
1.043e-09,-4.93853e-09
1.044e-09,4.66499e-09
1.045e-09,-4.36341e-08
1.046e-09,-4.80176e-09
1.047e-09,1.36769e-10
1.048e-09,-3.81164e-10
1.049e-09,5.04616e-09
1.05e-09,0
1.051e-09,-4.66499e-09
1.052e-09,-4.90939e-09
1.053e-09,-4.0814e-08
1.054e-09,-4.66499e-09
1.055e-09,4.13733e-10
1.056e-09,-2.54108e-09
1.057e-09,2.67785e-09
1.058e-09,4.39146e-09
1.059e-09,-6.92911e-09
1.06e-09,1.36769e-10
1.061e-09,-4.3711e-08
1.062e-09,4.66499e-09
1.063e-09,-1.98715e-09
1.064e-09,-4.13733e-10
1.065e-09,-2.26411e-09
1.066e-09,-2.26411e-09
1.067e-09,4.39146e-09
1.068e-09,2.40088e-09
1.069e-09,2.26411e-09
1.07e-09,2.73538e-10
1.071e-09,-3.6149e-08
1.072e-09,2.12734e-09
1.073e-09,0
1.074e-09,-4.66499e-09
1.075e-09,4.66499e-09
1.076e-09,-6.92911e-09
1.077e-09,-3.45923e-08
1.078e-09,-4.66499e-09
1.079e-09,4.15214e-08
1.08e-09,0
1.081e-09,-4.34689e-08
1.082e-09,-1.36769e-10
1.083e-09,0
1.084e-09,0
1.085e-09,2.40088e-09
1.086e-09,2.26411e-09
1.087e-09,2.26411e-09
1.088e-09,-4.52823e-09
1.089e-09,2.12734e-09
1.09e-09,-4.52794e-08
1.091e-09,-4.52823e-09
1.092e-09,6.79234e-09
1.093e-09,-1.85038e-09
1.094e-09,-2.67785e-09
1.095e-09,-3.9104e-08
1.096e-09,3.9104e-08
1.097e-09,-4.34955e-08
1.098e-09,-4.17123e-08
1.099e-09,-2.26411e-09
1.1e-09,-1.36769e-10
1.101e-09,1.36769e-10
1.102e-09,4.21307e-08
1.103e-09,-3.76024e-08
1.104e-09,0
1.105e-09,2.26411e-09
1.106e-09,0
1.107e-09,-4.46474e-08
1.108e-09,-4.66499e-09
1.109e-09,1.36769e-10
1.11e-09,2.26411e-09
1.111e-09,4.52823e-09
1.112e-09,-6.79234e-09
1.113e-09,4.52823e-09
1.114e-09,-4.52823e-09
1.115e-09,0
1.116e-09,0
1.117e-09,-4.93106e-08
1.118e-09,0
1.119e-09,4.66499e-09
1.12e-09,0
1.121e-09,4.66499e-09
1.122e-09,-4.66499e-09
1.123e-09,6.92911e-09
1.124e-09,4.13516e-08
1.125e-09,-2.26411e-09
1.126e-09,-3.40217e-08
1.127e-09,0
1.128e-09,-4.52823e-09
1.129e-09,-2.26411e-09
1.13e-09,-2.26411e-09
1.131e-09,2.26411e-09
1.132e-09,-2.40088e-09
1.133e-09,-3.84202e-08
1.134e-09,6.92911e-09
1.135e-09,-4.52823e-09
1.136e-09,-2.40088e-09
1.137e-09,4.52823e-09
1.138e-09,-4.52823e-09
1.139e-09,2.26411e-09
1.14e-09,0
1.141e-09,-4.52823e-09
1.142e-09,4.52823e-09
1.143e-09,6.79234e-09
1.144e-09,-4.65824e-08
1.145e-09,-4.52823e-09
1.146e-09,2.26411e-09
1.147e-09,-2.26411e-09
1.148e-09,2.26411e-09
1.149e-09,-2.26411e-09
1.15e-09,0
1.151e-09,-2.26411e-09
1.152e-09,-6.92911e-09
1.153e-09,7.06588e-09
1.154e-09,-4.09508e-08
1.155e-09,-4.52823e-09
1.156e-09,-6.92911e-09
1.157e-09,4.66499e-09
1.158e-09,0
1.159e-09,-4.52823e-09
1.16e-09,4.52823e-09
1.161e-09,6.79234e-09
1.162e-09,-6.79234e-09
1.163e-09,4.52823e-09
1.164e-09,-4.10873e-08
1.165e-09,2.26411e-09
1.166e-09,-5.33947e-08
1.167e-09,4.52823e-09
1.168e-09,0
1.169e-09,0
1.17e-09,6.79234e-09
1.171e-09,-4.52823e-09
1.172e-09,-6.02833e-08
1.173e-09,4.52823e-09
1.174e-09,-2.26411e-09
1.175e-09,2.26411e-09
1.176e-09,-4.52823e-09
1.177e-09,0
1.178e-09,2.26411e-09
1.179e-09,0
1.18e-09,2.26411e-09
1.181e-09,-6.79234e-09
1.182e-09,-4.66499e-09
1.183e-09,-2.92169e-08
1.184e-09,4.52823e-09
1.185e-09,0
1.186e-09,-2.12734e-09
1.187e-09,0
1.188e-09,-4.52823e-09
1.189e-09,4.52823e-09
1.19e-09,-6.79234e-09
1.191e-09,-4.52823e-09
1.192e-09,0
1.193e-09,-3.68199e-08
1.194e-09,0
1.195e-09,0
1.196e-09,2.26411e-09
1.197e-09,-4.52823e-09
1.198e-09,2.26411e-09
1.199e-09,-2.26411e-09
1.2e-09,-2.40088e-09
1.201e-09,4.52823e-09
1.202e-09,6.79234e-09
1.203e-09,-6.3881e-08
1.204e-09,2.26411e-09
1.205e-09,-2.26411e-09
1.206e-09,4.52823e-09
1.207e-09,1.36769e-10
1.208e-09,-4.66499e-09
1.209e-09,1.36769e-10
1.21e-09,6.79234e-09
1.211e-09,-4.52823e-09
1.212e-09,0
1.213e-09,-4.61795e-08
1.214e-09,2.26411e-09
1.215e-09,2.26411e-09
1.216e-09,-1.36769e-10
1.217e-09,4.66499e-09
1.218e-09,-2.40088e-09
1.219e-09,-2.26411e-09
1.22e-09,0
1.221e-09,1.36769e-10
1.222e-09,-3.35207e-08
1.223e-09,2.26411e-09
1.224e-09,-2.26411e-09
1.225e-09,4.52823e-09
1.226e-09,-2.26411e-09
1.227e-09,-1.36769e-10
1.228e-09,1.36769e-10
1.229e-09,-4.52823e-09
1.23e-09,-1.36769e-10
1.231e-09,-5.52111e-08
1.232e-09,2.40088e-09
1.233e-09,-4.66499e-09
1.234e-09,-4.52823e-09
1.235e-09,0
1.236e-09,-2.26411e-09
1.237e-09,2.26411e-09
1.238e-09,-9.19322e-09
1.239e-09,6.92911e-09
1.24e-09,-3.07138e-08
1.241e-09,2.40088e-09
1.242e-09,-2.26411e-09
1.243e-09,-2.73538e-10
1.244e-09,-2.26411e-09
1.245e-09,2.40088e-09
1.246e-09,-4.52823e-09
1.247e-09,2.26411e-09
1.248e-09,-5.01056e-08
1.249e-09,2.26411e-09
1.25e-09,-4.80176e-09
1.251e-09,-2.26411e-09
1.252e-09,-2.26411e-09
1.253e-09,4.66499e-09
1.254e-09,-2.26411e-09
1.255e-09,9.05645e-09
1.256e-09,-2.26411e-09
1.257e-09,-2.40088e-09
1.258e-09,-8.91412e-09
1.259e-09,1.36769e-10
1.26e-09,-4.52823e-09
1.261e-09,6.79234e-09
1.262e-09,-9.05645e-09
1.263e-09,2.12734e-09
1.264e-09,-4.52823e-09
1.265e-09,6.79234e-09
1.266e-09,-5.23937e-08
1.267e-09,-2.26411e-09
1.268e-09,-2.26411e-09
1.269e-09,2.26411e-09
1.27e-09,4.52823e-09
1.271e-09,-2.26411e-09
1.272e-09,6.79234e-09
1.273e-09,0
1.274e-09,0
1.275e-09,-5.29506e-08
1.276e-09,4.52823e-09
1.277e-09,-2.26411e-09
1.278e-09,2.26411e-09
1.279e-09,2.26411e-09
1.28e-09,-9.05645e-09
1.281e-09,0
1.282e-09,4.52823e-09
1.283e-09,-2.95365e-08
1.284e-09,-4.52823e-09
1.285e-09,4.52823e-09
1.286e-09,6.79234e-09
1.287e-09,-4.52823e-09
1.288e-09,-2.26411e-09
1.289e-09,-1.13206e-08
1.29e-09,2.26411e-09
1.291e-09,0
1.292e-09,-2.33987e-08
1.293e-09,6.79234e-09
1.294e-09,-2.26411e-09
1.295e-09,-2.26411e-09
1.296e-09,-2.26411e-09
1.297e-09,2.26411e-09
1.298e-09,0
1.299e-09,-2.26411e-09
1.3e-09,-1.1371e-08
1.301e-09,0
1.302e-09,2.26411e-09
1.303e-09,0
1.304e-09,-4.52823e-09
1.305e-09,-6.79234e-09
1.306e-09,4.52823e-09
1.307e-09,2.26411e-09
1.308e-09,-6.36166e-08
1.309e-09,0
1.31e-09,4.52823e-09
1.311e-09,-2.26411e-09
1.312e-09,2.26411e-09
1.313e-09,-2.26411e-09
1.314e-09,-4.52823e-09
1.315e-09,4.52823e-09
1.316e-09,-9.00231e-09
1.317e-09,-6.79234e-09
1.318e-09,4.52823e-09
1.319e-09,-6.79234e-09
1.32e-09,2.26411e-09
1.321e-09,2.26411e-09
1.322e-09,2.26411e-09
1.323e-09,4.52823e-09
1.324e-09,4.9488e-09
1.325e-09,-9.05645e-09
1.326e-09,-4.52823e-09
1.327e-09,2.26411e-09
1.328e-09,-2.26411e-09
1.329e-09,-4.52823e-09
1.33e-09,2.26411e-09
1.331e-09,-2.26411e-09
1.332e-09,0
1.333e-09,2.26411e-09
1.334e-09,-4.52823e-09
1.335e-09,-5.40244e-08
1.336e-09,2.26411e-09
1.337e-09,0
1.338e-09,0
1.339e-09,0
1.34e-09,0
1.341e-09,-2.26411e-09
1.342e-09,0
1.343e-09,0
1.344e-09,5.35063e-09
1.345e-09,-4.52823e-09
1.346e-09,-4.52823e-09
1.347e-09,4.52823e-09
1.348e-09,2.26411e-09
1.349e-09,-2.26411e-09
1.35e-09,-6.79234e-09
1.351e-09,-2.26411e-09
1.352e-09,9.05645e-09
1.353e-09,0
1.354e-09,4.91236e-09
1.355e-09,-2.26411e-09
1.356e-09,2.26411e-09
1.357e-09,0
1.358e-09,4.52823e-09
1.359e-09,2.26411e-09
1.36e-09,0
1.361e-09,-4.52823e-09
1.362e-09,2.93486e-08
1.363e-09,-6.79234e-09
1.364e-09,1.69148e-07
1.365e-09,-1.66884e-07
1.366e-09,-2.26411e-09
1.367e-09,0
1.368e-09,1.62219e-07
1.369e-09,4.52823e-09
1.37e-09,4.52823e-09
1.371e-09,3.59363e-08
1.372e-09,0
1.373e-09,0
1.374e-09,-2.26411e-09
1.375e-09,-2.26411e-09
1.376e-09,0
1.377e-09,0
1.378e-09,4.52823e-09
1.379e-09,5.11646e-08
1.38e-09,2.26411e-09
1.381e-09,4.52823e-09
1.382e-09,0
1.383e-09,-2.26411e-09
1.384e-09,0
1.385e-09,-4.52823e-09
1.386e-09,2.26411e-09
1.387e-09,6.80637e-08
1.388e-09,2.26411e-09
1.389e-09,0
1.39e-09,0
1.391e-09,-2.26411e-09
1.392e-09,9.05645e-09
1.393e-09,0
1.394e-09,-2.26411e-09
1.395e-09,0
1.396e-09,9.98585e-08
1.397e-09,0
1.398e-09,0
1.399e-09,0
1.4e-09,-2.26411e-09
1.401e-09,-2.26411e-09
1.402e-09,-2.26411e-09
1.403e-09,0
1.404e-09,1.22065e-07
1.405e-09,-2.26411e-09
1.406e-09,-2.26411e-09
1.407e-09,2.26411e-09
1.408e-09,0
1.409e-09,2.26411e-09
1.41e-09,-2.26411e-09
1.411e-09,-1.36769e-10
1.412e-09,0
1.413e-09,1.45276e-07
1.414e-09,2.26411e-09
1.415e-09,0
1.416e-09,2.26411e-09
1.417e-09,0
1.418e-09,0
1.419e-09,0
1.42e-09,2.63483e-07
1.421e-09,1.91585e-07
1.422e-09,2.26411e-09
1.423e-09,2.26411e-09
1.424e-09,2.26411e-09
1.425e-09,2.26411e-09
1.426e-09,-2.26411e-09
1.427e-09,2.26411e-09
1.428e-09,-2.26411e-09
1.429e-09,2.26411e-09
1.43e-09,0
1.431e-09,-7.20607e-09
1.432e-09,2.66818e-07
1.433e-09,2.47528e-07
1.434e-09,0
1.435e-09,-2.26411e-09
1.436e-09,2.26411e-09
1.437e-09,2.26411e-09
1.438e-09,0
1.439e-09,2.26411e-09
1.44e-09,0
1.441e-09,-6.79234e-09
1.442e-09,3.19443e-07
1.443e-09,1.76037e-07
1.444e-09,-4.52823e-09
1.445e-09,0
1.446e-09,-2.26411e-09
1.447e-09,0
1.448e-09,-4.32158e-08
1.449e-09,4.09517e-08
1.45e-09,-4.09517e-08
1.451e-09,2.26411e-09
1.452e-09,4.52823e-09
1.453e-09,0
1.454e-09,0
1.455e-09,-4.52823e-09
1.456e-09,0
1.457e-09,0
1.458e-09,2.26411e-09
1.459e-09,3.63518e-08
1.46e-09,0
1.461e-09,-3.8616e-08
1.462e-09,4.31442e-08
1.463e-09,-3.8616e-08
1.464e-09,-2.26411e-09
1.465e-09,3.8616e-08
1.466e-09,-2.26411e-09
1.467e-09,-4.52823e-09
1.468e-09,-3.64149e-08
1.469e-09,0
1.47e-09,-4.52823e-09
1.471e-09,0
1.472e-09,4.52823e-09
1.473e-09,-2.26411e-09
1.474e-09,-2.26411e-09
1.475e-09,-4.52823e-09
1.476e-09,4.52823e-09
1.477e-09,-2.26411e-09
1.478e-09,-4.52823e-09
1.479e-09,-3.8857e-08
1.48e-09,-2.26411e-09
1.481e-09,2.26411e-09
1.482e-09,2.76365e-09
1.483e-09,-4.99537e-10
1.484e-09,2.26411e-09
1.485e-09,-2.26411e-09
1.486e-09,4.52823e-09
1.487e-09,-4.56171e-08
1.488e-09,0
1.489e-09,1.13206e-08
1.49e-09,-6.79234e-09
1.491e-09,-4.52823e-09
1.492e-09,2.26411e-09
1.493e-09,0
1.494e-09,0
1.495e-09,7.29188e-09
1.496e-09,-6.79234e-09
1.497e-09,-4.43303e-08
1.498e-09,0
1.499e-09,-2.26411e-09
1.5e-09,-6.65557e-09
1.501e-09,4.52823e-09
1.502e-09,-4.02869e-09
1.503e-09,0
1.504e-09,0
1.505e-09,4.52823e-09
1.506e-09,2.26411e-09
1.507e-09,-4.11746e-08
1.508e-09,6.79234e-09
1.509e-09,-2.26411e-09
1.51e-09,-4.76581e-09
1.511e-09,4.76581e-09
1.512e-09,-2.26411e-09
1.513e-09,0
1.514e-09,-2.37581e-10
1.515e-09,-2.26411e-09
1.516e-09,0
1.517e-09,-2.26411e-09
1.518e-09,0
1.519e-09,0
1.52e-09,-4.88463e-08
1.521e-09,-2.26411e-09
1.522e-09,0
1.523e-09,4.52823e-09
1.524e-09,-2.26411e-09
1.525e-09,2.26411e-09
1.526e-09,-2.26411e-09
1.527e-09,4.52823e-09
1.528e-09,-2.26411e-09
1.529e-09,-4.79508e-08
1.53e-09,-4.52823e-09
1.531e-09,6.79234e-09
1.532e-09,-4.52823e-09
1.533e-09,2.26411e-09
1.534e-09,2.26411e-09
1.535e-09,-2.26411e-09
1.536e-09,0
1.537e-09,0
1.538e-09,-4.72665e-08
1.539e-09,-2.26411e-09
1.54e-09,0
1.541e-09,2.26411e-09
1.542e-09,-2.26411e-09
1.543e-09,2.26411e-09
1.544e-09,0
1.545e-09,-4.52823e-09
1.546e-09,-4.10889e-08
1.547e-09,0
1.548e-09,4.66499e-09
1.549e-09,-4.66499e-09
1.55e-09,4.52823e-09
1.551e-09,-2.26411e-09
1.552e-09,-2.26411e-09
1.553e-09,-4.86327e-08
1.554e-09,6.79234e-09
1.555e-09,0
1.556e-09,0
1.557e-09,-2.26411e-09
1.558e-09,4.52823e-09
1.559e-09,-2.26411e-09
1.56e-09,0
1.561e-09,-4.52823e-09
1.562e-09,-4.80173e-08
1.563e-09,4.66499e-09
1.564e-09,2.26411e-09
1.565e-09,4.52823e-09
1.566e-09,0
1.567e-09,-4.66499e-09
1.568e-09,1.36769e-10
1.569e-09,-2.26411e-09
1.57e-09,-2.40088e-09
1.571e-09,-4.78805e-08
1.572e-09,0
1.573e-09,-2.26411e-09
1.574e-09,-4.52823e-09
1.575e-09,4.66499e-09
1.576e-09,2.26411e-09
1.577e-09,2.26411e-09
1.578e-09,-2.26411e-09
1.579e-09,0
1.58e-09,2.26411e-09
1.581e-09,-4.53351e-08
1.582e-09,4.52823e-09
1.583e-09,2.40088e-09
1.584e-09,-4.52823e-09
1.585e-09,0
1.586e-09,0
1.587e-09,-4.66499e-09
1.588e-09,0
1.589e-09,4.66499e-09
1.59e-09,-4.56164e-08
1.591e-09,-4.52823e-09
1.592e-09,2.26411e-09
1.593e-09,0
1.594e-09,-2.40088e-09
1.595e-09,0
1.596e-09,2.26411e-09
1.597e-09,0
1.598e-09,-4.56192e-08
1.599e-09,0
1.6e-09,2.26411e-09
1.601e-09,2.26411e-09
1.602e-09,0
1.603e-09,-4.66499e-09
1.604e-09,6.92911e-09
1.605e-09,0
1.606e-09,-2.26411e-09
1.607e-09,0
1.608e-09,4.52823e-09
1.609e-09,-5.19213e-08
1.61e-09,0
1.611e-09,-4.52823e-09
1.612e-09,0
1.613e-09,-2.26411e-09
1.614e-09,2.40088e-09
1.615e-09,-1.36769e-10
1.616e-09,4.66499e-09
1.617e-09,0
1.618e-09,-5.25469e-08
1.619e-09,2.26411e-09
1.62e-09,0
1.621e-09,0
1.622e-09,-2.26411e-09
1.623e-09,2.26411e-09
1.624e-09,-4.56178e-08
1.625e-09,0
1.626e-09,0
1.627e-09,-2.26411e-09
1.628e-09,0
1.629e-09,-4.52823e-09
1.63e-09,-1.36769e-10
1.631e-09,2.26411e-09
1.632e-09,1.36769e-10
1.633e-09,-4.78666e-08
1.634e-09,-2.26411e-09
1.635e-09,-2.26411e-09
1.636e-09,2.26411e-09
1.637e-09,-2.26411e-09
1.638e-09,-2.26411e-09
1.639e-09,0
1.64e-09,2.26411e-09
1.641e-09,-4.45322e-08
1.642e-09,0
1.643e-09,0
1.644e-09,2.26411e-09
1.645e-09,2.26411e-09
1.646e-09,0
1.647e-09,0
1.648e-09,0
1.649e-09,-4.52823e-09
1.65e-09,2.26411e-09
1.651e-09,2.26411e-09
1.652e-09,-4.5478e-08
1.653e-09,2.26411e-09
1.654e-09,-6.79234e-09
1.655e-09,6.79234e-09
1.656e-09,-4.66499e-09
1.657e-09,0
1.658e-09,2.26411e-09
1.659e-09,-2.26411e-09
1.66e-09,0
1.661e-09,2.26411e-09
1.662e-09,-4.87619e-08
1.663e-09,-6.79234e-09
1.664e-09,2.26411e-09
1.665e-09,0
1.666e-09,2.26411e-09
1.667e-09,-4.52823e-09
1.668e-09,2.40088e-09
1.669e-09,4.52823e-09
1.67e-09,-4.66499e-09
1.671e-09,4.66499e-09
1.672e-09,-4.66499e-09
1.673e-09,-4.92002e-08
1.674e-09,0
1.675e-09,4.52823e-09
1.676e-09,-2.78164e-08
1.677e-09,2.55523e-08
1.678e-09,2.26411e-09
1.679e-09,4.52823e-09
1.68e-09,-9.05645e-09
1.681e-09,-3.00805e-08
1.682e-09,-1.93088e-08
1.683e-09,2.26411e-09
1.684e-09,0
1.685e-09,0
1.686e-09,-2.26411e-09
1.687e-09,2.26411e-09
1.688e-09,-2.26411e-09
1.689e-09,-3.40495e-09
1.69e-09,0
1.691e-09,7.93317e-09
1.692e-09,-5.14267e-08
1.693e-09,0
1.694e-09,0
1.695e-09,0
1.696e-09,4.52823e-09
1.697e-09,-2.26411e-09
1.698e-09,-4.80147e-08
1.699e-09,0
1.7e-09,2.26411e-09
1.701e-09,-2.26411e-09
1.702e-09,0
1.703e-09,-2.26411e-09
1.704e-09,0
1.705e-09,0
1.706e-09,-4.52823e-09
1.707e-09,4.52823e-09
1.708e-09,-2.26411e-09
1.709e-09,-5.55531e-08
1.71e-09,-2.26411e-09
1.711e-09,0
1.712e-09,0
1.713e-09,2.26411e-09
1.714e-09,0
1.715e-09,-2.26411e-09
1.716e-09,-2.26411e-09
1.717e-09,-4.80147e-08
1.718e-09,0
1.719e-09,0
1.72e-09,-2.26411e-09
1.721e-09,0
1.722e-09,2.26411e-09
1.723e-09,-2.26411e-09
1.724e-09,4.52823e-09
1.725e-09,2.26411e-09
1.726e-09,0
1.727e-09,-4.57576e-08
1.728e-09,0
1.729e-09,2.26411e-09
1.73e-09,0
1.731e-09,-2.26411e-09
1.732e-09,0
1.733e-09,-2.26411e-09
1.734e-09,2.26411e-09
1.735e-09,-2.26411e-09
1.736e-09,-3.9097e-08
1.737e-09,-4.80217e-08
1.738e-09,0
1.739e-09,-2.26411e-09
1.74e-09,0
1.741e-09,-2.26411e-09
1.742e-09,4.52823e-09
1.743e-09,-2.26411e-09
1.744e-09,0
1.745e-09,-2.26411e-09
1.746e-09,-5.70381e-08
1.747e-09,0
1.748e-09,0
1.749e-09,4.73814e-08
1.75e-09,-4.51173e-08
1.751e-09,-2.26411e-09
1.752e-09,0
1.753e-09,2.40088e-09
1.754e-09,0
1.755e-09,-5.04226e-08
1.756e-09,0
1.757e-09,0
1.758e-09,0
1.759e-09,0
1.76e-09,0
1.761e-09,2.26411e-09
1.762e-09,0
1.763e-09,-2.26411e-09
1.764e-09,-5.05525e-08
1.765e-09,0
1.766e-09,2.26411e-09
1.767e-09,0
1.768e-09,-2.26411e-09
1.769e-09,0
1.77e-09,0
1.771e-09,0
1.772e-09,-5.92928e-08
1.773e-09,0
1.774e-09,0
1.775e-09,0
1.776e-09,0
1.777e-09,0
1.778e-09,-2.26411e-09
1.779e-09,0
1.78e-09,0
1.781e-09,-4.71945e-08
1.782e-09,0
1.783e-09,-2.26411e-09
1.784e-09,0
1.785e-09,2.26411e-09
1.786e-09,-2.26411e-09
1.787e-09,-4.52823e-09
1.788e-09,2.26411e-09
1.789e-09,-5.02776e-08
1.79e-09,9.19322e-09
1.791e-09,2.26411e-09
1.792e-09,-4.52823e-09
1.793e-09,-2.26411e-09
1.794e-09,2.26411e-09
1.795e-09,2.26411e-09
1.796e-09,0
1.797e-09,2.26411e-09
1.798e-09,-5.7326e-08
1.799e-09,-6.92911e-09
1.8e-09,0
1.801e-09,0
1.802e-09,-2.26411e-09
1.803e-09,0
1.804e-09,2.40088e-09
1.805e-09,2.26411e-09
1.806e-09,-6.92911e-09
1.807e-09,-4.98053e-08
1.808e-09,2.26411e-09
1.809e-09,2.26411e-09
1.81e-09,4.66499e-09
1.811e-09,-2.26411e-09
1.812e-09,2.26411e-09
1.813e-09,-2.26411e-09
1.814e-09,0
1.815e-09,-2.40088e-09
1.816e-09,2.26411e-09
1.817e-09,-4.8342e-08
1.818e-09,-4.52823e-09
1.819e-09,2.26411e-09
1.82e-09,2.26411e-09
1.821e-09,-2.26411e-09
1.822e-09,4.52823e-09
1.823e-09,-4.52823e-09
1.824e-09,-1.36769e-10
1.825e-09,-2.26411e-09
1.826e-09,-6.45518e-08
1.827e-09,2.26411e-09
1.828e-09,-2.26411e-09
1.829e-09,0
1.83e-09,-6.79234e-09
1.831e-09,2.26411e-09
1.832e-09,0
1.833e-09,0
1.834e-09,0
1.835e-09,-5.09473e-08
1.836e-09,2.26411e-09
1.837e-09,0
1.838e-09,0
1.839e-09,0
1.84e-09,0
1.841e-09,-2.26411e-09
1.842e-09,0
1.843e-09,0
1.844e-09,-6.89519e-08
1.845e-09,-2.26411e-09
1.846e-09,-2.26411e-09
1.847e-09,0
1.848e-09,2.26411e-09
1.849e-09,2.26411e-09
1.85e-09,0
1.851e-09,-2.26411e-09
1.852e-09,-2.26411e-09
1.853e-09,0
1.854e-09,-5.08909e-08
1.855e-09,4.52823e-09
1.856e-09,0
1.857e-09,0
1.858e-09,0
1.859e-09,-4.52823e-09
1.86e-09,2.26411e-09
1.861e-09,4.52823e-09
1.862e-09,-6.79234e-09
1.863e-09,0
1.864e-09,-5.0905e-08
1.865e-09,-2.26411e-09
1.866e-09,4.52823e-09
1.867e-09,-1.0719e-07
1.868e-09,0
1.869e-09,1.04926e-07
1.87e-09,-1.04926e-07
1.871e-09,-2.26411e-09
1.872e-09,6.79234e-09
1.873e-09,-3.99206e-08
1.874e-09,6.73128e-08
1.875e-09,2.26411e-09
1.876e-09,2.26411e-09
1.877e-09,2.26411e-09
1.878e-09,-4.52823e-09
1.879e-09,2.26411e-09
1.88e-09,0
1.881e-09,-2.26411e-09
1.882e-09,0
1.883e-09,-4.86127e-08
1.884e-09,-2.26411e-09
1.885e-09,0
1.886e-09,0
1.887e-09,2.26411e-09
1.888e-09,-2.26411e-09
1.889e-09,-2.26411e-09
1.89e-09,0
1.891e-09,2.26411e-09
1.892e-09,-4.5411e-08
1.893e-09,0
1.894e-09,-4.52823e-09
1.895e-09,2.26411e-09
1.896e-09,0
1.897e-09,2.26411e-09
1.898e-09,0
1.899e-09,-8.12969e-08
1.9e-09,0
1.901e-09,4.66499e-09
1.902e-09,0
1.903e-09,-2.26411e-09
1.904e-09,6.79234e-09
1.905e-09,0
1.906e-09,2.26411e-09
1.907e-09,0
1.908e-09,-2.26411e-09
1.909e-09,-4.97489e-08
1.91e-09,-2.26411e-09
1.911e-09,2.26411e-09
1.912e-09,-2.26411e-09
1.913e-09,0
1.914e-09,2.26411e-09
1.915e-09,-2.26411e-09
1.916e-09,2.26411e-09
1.917e-09,-2.26411e-09
1.918e-09,-4.7775e-08
1.919e-09,0
1.92e-09,2.26411e-09
1.921e-09,-2.26411e-09
1.922e-09,2.26411e-09
1.923e-09,-2.26411e-09
1.924e-09,2.26411e-09
1.925e-09,4.52823e-09
1.926e-09,0
1.927e-09,0
1.928e-09,-8.86144e-08
1.929e-09,-6.79234e-09
1.93e-09,2.26411e-09
1.931e-09,2.26411e-09
1.932e-09,0
1.933e-09,0
1.934e-09,2.26411e-09
1.935e-09,-4.95132e-08
1.936e-09,0
1.937e-09,0
1.938e-09,-2.26411e-09
1.939e-09,0
1.94e-09,0
1.941e-09,-2.26411e-09
1.942e-09,0
1.943e-09,-2.26411e-09
1.944e-09,-9.71432e-08
1.945e-09,2.26411e-09
1.946e-09,-2.26411e-09
1.947e-09,2.26411e-09
1.948e-09,2.26411e-09
1.949e-09,-4.52823e-09
1.95e-09,0
1.951e-09,0
1.952e-09,-4.29531e-08
1.953e-09,4.66499e-09
1.954e-09,0
1.955e-09,0
1.956e-09,0
1.957e-09,-4.52823e-09
1.958e-09,4.52823e-09
1.959e-09,0
1.96e-09,0
1.961e-09,-1.76154e-07
1.962e-09,1.23055e-07
1.963e-09,0
1.964e-09,2.26411e-09
1.965e-09,2.26411e-09
1.966e-09,0
1.967e-09,-2.26411e-09
1.968e-09,-2.26411e-09
1.969e-09,4.52823e-09
1.97e-09,-6.92911e-09
1.971e-09,-1.04214e-07
1.972e-09,2.26411e-09
1.973e-09,2.26411e-09
1.974e-09,0
1.975e-09,-1.53167e-07
1.976e-09,-2.26411e-09
1.977e-09,9.05645e-09
1.978e-09,0
1.979e-09,-1.1457e-07
1.98e-09,0
1.981e-09,0
1.982e-09,-4.52823e-09
1.983e-09,0
1.984e-09,0
1.985e-09,-2.26411e-09
1.986e-09,-2.26411e-09
1.987e-09,-3.97125e-08
1.988e-09,0
1.989e-09,-6.79234e-09
1.99e-09,2.26411e-09
1.991e-09,-2.26411e-09
1.992e-09,-2.26411e-09
1.993e-09,0
1.994e-09,0
1.995e-09,-9.36971e-08
1.996e-09,0
1.997e-09,0
1.998e-09,2.26411e-09
1.999e-09,4.66499e-09
2e-09,2.26411e-09
2.001e-09,0
2.1e-09,0
