0,0
1e-12,-1.52069e-07
2e-12,-8.79732e-07
3e-12,9.93476e-08
4e-12,-4.05295e-07
5e-12,1.43843e-06
6e-12,-7.57662e-07
7e-12,-1.90592e-06
8e-12,-9.92776e-07
9e-12,4.7598e-08
1e-11,-1.39446e-06
1.1e-11,1.91977e-07
1.2e-11,1.91762e-07
1.3e-11,-4.34298e-07
1.4e-11,-3.03623e-07
1.5e-11,-2.42696e-06
1.6e-11,7.97338e-07
1.7e-11,-1.31709e-07
1.8e-11,-3.88157e-07
1.9e-11,4.97577e-07
2e-11,-4.00725e-07
2.1e-11,3.61514e-07
2.2e-11,-1.23625e-06
2.3e-11,-3.98378e-07
2.4e-11,-1.82881e-07
2.5e-11,-1.37889e-06
2.6e-11,8.42098e-07
2.7e-11,3.70845e-08
2.8e-11,-1.15708e-06
2.9e-11,4.83281e-07
3e-11,-9.01042e-07
3.1e-11,-7.59797e-07
3.2e-11,7.5053e-07
3.3e-11,-8.30274e-07
3.4e-11,9.32329e-07
3.5e-11,-2.05673e-06
3.6e-11,8.22405e-07
3.7e-11,-8.83498e-07
3.8e-11,4.03424e-07
3.9e-11,-7.72304e-07
4e-11,-5.05979e-07
4.1e-11,-4.1238e-07
4.2e-11,-5.60258e-07
4.3e-11,-8.7181e-07
4.4e-11,-1.79705e-08
4.5e-11,-8.17413e-07
4.6e-11,-5.85614e-07
4.7e-11,1.48579e-07
4.8e-11,2.04245e-07
4.9e-11,-6.18775e-07
5e-11,-2.74979e-06
5.1e-11,-1.29083e-06
5.2e-11,5.04573e-07
5.3e-11,2.7345e-07
5.4e-11,-1.00064e-06
5.5e-11,-2.27256e-07
5.6e-11,-4.38459e-07
5.7e-11,-3.001e-07
5.8e-11,-1.0022e-06
5.9e-11,-2.4505e-06
6e-11,-2.34116e-08
6.1e-11,-1.83883e-06
6.2e-11,-8.23622e-07
6.3e-11,2.75495e-07
6.4e-11,-6.28826e-07
6.5e-11,-4.68095e-07
6.6e-11,9.14935e-07
6.7e-11,-5.84232e-07
6.8e-11,-7.77363e-07
6.9e-11,-1.58898e-06
7e-11,-3.65879e-06
7.1e-11,-3.3312e-07
7.2e-11,-1.46574e-07
7.3e-11,-2.98738e-07
7.4e-11,-6.28345e-07
7.5e-11,1.92568e-07
7.6e-11,-1.84614e-07
7.7e-11,-3.52207e-07
7.8e-11,-1.37309e-06
7.9e-11,-5.87818e-07
8e-11,-2.10987e-06
8.1e-11,3.86009e-07
8.2e-11,-1.67499e-06
8.3e-11,-2.0171e-07
8.4e-11,-4.22714e-07
8.5e-11,8.65764e-07
8.6e-11,-4.58221e-07
8.7e-11,-2.85992e-06
8.8e-11,4.62904e-09
8.9e-11,-1.12688e-06
9e-11,-3.31758e-08
9.1e-11,-7.77031e-07
9.2e-11,-4.8411e-07
9.3e-11,-9.72484e-07
9.4e-11,-1.01531e-06
9.5e-11,2.01756e-07
9.6e-11,-1.12546e-06
9.7e-11,-2.1082e-07
9.8e-11,-4.31369e-07
9.9e-11,-6.56461e-07
1e-10,-1.18096e-06
1.01e-10,3.94226e-08
1.02e-10,1.339e-08
1.03e-10,-8.91646e-07
1.04e-10,-3.61523e-07
1.05e-10,-1.43718e-06
1.06e-10,-1.38558e-06
1.07e-10,-1.13576e-09
1.08e-10,-8.61346e-09
1.09e-10,-8.80986e-07
1.1e-10,-7.72806e-07
1.11e-10,-2.26271e-07
1.12e-10,-8.84853e-07
1.13e-10,-2.17478e-07
1.14e-10,-2.0568e-06
1.15e-10,-1.51413e-06
1.16e-10,2.16208e-07
1.17e-10,-4.29674e-07
1.18e-10,-3.20106e-07
1.19e-10,-6.68063e-07
1.2e-10,-4.25966e-07
1.21e-10,-1.93822e-07
1.22e-10,-6.91478e-07
1.23e-10,-3.67005e-07
1.24e-10,-2.75767e-06
1.25e-10,-7.55685e-07
1.26e-10,-1.98901e-06
1.27e-10,4.58553e-07
1.28e-10,-4.78329e-07
1.29e-10,1.49403e-07
1.3e-10,-8.22879e-07
1.31e-10,-3.7395e-07
1.32e-10,-1.0595e-06
1.33e-10,-7.30866e-07
1.34e-10,-9.36812e-07
1.35e-10,-1.6205e-06
1.36e-10,-7.30682e-08
1.37e-10,-1.23888e-06
1.38e-10,-4.1846e-07
1.39e-10,5.23956e-08
1.4e-10,2.92459e-08
1.41e-10,-1.00065e-06
1.42e-10,-1.50752e-06
1.43e-10,-2.71173e-07
1.44e-10,-5.15744e-07
1.45e-10,-1.37115e-06
1.46e-10,6.56057e-08
1.47e-10,-4.33752e-07
1.48e-10,-5.0599e-07
1.49e-10,-1.02917e-06
1.5e-10,-4.5256e-07
1.51e-10,2.88199e-07
1.52e-10,-3.2922e-07
1.53e-10,-6.73611e-07
1.54e-10,-1.66885e-07
1.55e-10,1.04021e-08
1.56e-10,-2.34271e-06
1.57e-10,-3.10153e-08
1.58e-10,-6.19467e-07
1.59e-10,-1.46572e-06
1.6e-10,1.03428e-07
1.61e-10,-4.00811e-07
1.62e-10,1.38393e-07
1.63e-10,-4.12019e-07
1.64e-10,-5.09534e-07
1.65e-10,-3.72884e-07
1.66e-10,-1.84877e-06
1.67e-10,-4.60894e-08
1.68e-10,-1.76298e-07
1.69e-10,-5.48698e-07
1.7e-10,-9.58038e-08
1.71e-10,-1.6045e-06
1.72e-10,-1.34895e-06
1.73e-10,-4.03516e-07
1.74e-10,3.0815e-07
1.75e-10,-3.87811e-07
1.76e-10,-1.99724e-07
1.77e-10,4.33081e-07
1.78e-10,-3.79456e-07
1.79e-10,-1.49962e-06
1.8e-10,-2.16993e-06
1.81e-10,-3.04264e-07
1.82e-10,-6.29158e-07
1.83e-10,-8.62592e-07
1.84e-10,4.44903e-07
1.85e-10,-7.18063e-07
1.86e-10,-2.6069e-07
1.87e-10,-4.32546e-08
1.88e-10,-7.93935e-07
1.89e-10,-7.15577e-07
1.9e-10,-1.67758e-06
1.91e-10,-7.564e-07
1.92e-10,-5.63518e-08
1.93e-10,-1.28541e-07
1.94e-10,-2.0109e-06
1.95e-10,6.70936e-08
1.96e-10,6.81222e-07
1.97e-10,-7.00849e-07
1.98e-10,-5.04393e-07
1.99e-10,-1.02456e-06
2e-10,-1.561e-06
2.01e-10,-1.41996e-06
2.02e-10,5.27413e-07
2.03e-10,-1.37471e-07
2.04e-10,-4.60277e-07
2.05e-10,-6.11373e-07
2.06e-10,-1.13517e-08
2.07e-10,1.72167e-07
2.08e-10,-1.42981e-07
2.09e-10,-2.21222e-07
2.1e-10,-6.75217e-07
2.11e-10,7.51496e-07
2.12e-10,-5.87921e-07
2.13e-10,-8.87584e-08
2.14e-10,-1.40851e-06
2.15e-10,-6.03002e-07
2.16e-10,-3.12387e-07
2.17e-10,7.08111e-08
2.18e-10,-2.08871e-07
2.19e-10,-7.12693e-07
2.2e-10,-1.76138e-07
2.21e-10,-5.83752e-07
2.22e-10,2.01317e-07
2.23e-10,-4.10468e-09
2.24e-10,-5.31044e-07
2.25e-10,-4.804e-07
2.26e-10,-4.77045e-08
2.27e-10,-8.27023e-07
2.28e-10,-5.14245e-07
2.29e-10,-2.27399e-07
2.3e-10,-3.94056e-07
2.31e-10,-3.71873e-07
2.32e-10,-1.17276e-06
2.33e-10,-5.00515e-07
2.34e-10,-1.21563e-06
2.35e-10,-1.03936e-07
2.36e-10,-4.25632e-07
2.37e-10,-2.11881e-08
2.38e-10,-2.50135e-07
2.39e-10,-2.2743e-07
2.4e-10,-5.28851e-07
2.41e-10,-5.20426e-07
2.42e-10,-1.99366e-06
2.43e-10,-2.64695e-08
2.44e-10,-1.22705e-08
2.45e-10,-3.12139e-07
2.46e-10,-4.933e-07
2.47e-10,-1.55383e-06
2.48e-10,-6.04441e-08
2.49e-10,-5.79494e-07
2.5e-10,-5.34883e-07
2.51e-10,-2.79472e-07
2.52e-10,-1.51822e-06
2.53e-10,-2.89136e-07
2.54e-10,-1.24461e-06
2.55e-10,-4.79545e-07
2.56e-10,-1.95754e-07
2.57e-10,-3.80802e-07
2.58e-10,-3.60039e-07
2.59e-10,-2.41281e-07
2.6e-10,-6.86803e-07
2.61e-10,-1.15361e-06
2.62e-10,-1.84169e-07
2.63e-10,-1.79844e-06
2.64e-10,-3.44323e-07
2.65e-10,2.3867e-07
2.66e-10,-9.21103e-07
2.67e-10,-9.40909e-08
2.68e-10,1.33681e-07
2.69e-10,-1.34647e-07
2.7e-10,-1.35978e-06
2.71e-10,-4.13784e-07
2.72e-10,-4.47466e-07
2.73e-10,-1.29443e-06
2.74e-10,-1.57915e-07
2.75e-10,1.27136e-07
2.76e-10,-3.25057e-07
2.77e-10,-3.51892e-07
2.78e-10,-1.19878e-07
2.79e-10,-8.45458e-08
2.8e-10,-3.71694e-07
2.81e-10,-4.21545e-07
2.82e-10,-1.37797e-06
2.83e-10,-5.17945e-07
2.84e-10,-1.72057e-07
2.85e-10,-1.04131e-07
2.86e-10,-4.35757e-07
2.87e-10,4.30937e-07
2.88e-10,-5.79105e-07
2.89e-10,-1.705e-09
2.9e-10,-5.3169e-07
2.91e-10,-1.09464e-06
2.92e-10,-2.28286e-07
2.93e-10,-4.2717e-07
2.94e-10,-1.61367e-08
2.95e-10,-3.56301e-07
2.96e-10,-1.30418e-07
2.97e-10,-3.33787e-07
2.98e-10,2.21638e-07
2.99e-10,-5.67209e-07
3e-10,9.18268e-08
3.01e-10,-2.5736e-07
3.02e-10,-4.06359e-07
3.03e-10,-7.83283e-07
3.04e-10,5.63404e-07
3.05e-10,3.12574e-07
3.06e-10,-2.45313e-07
3.07e-10,-3.72804e-07
3.08e-10,-6.02195e-07
3.09e-10,5.32239e-08
3.1e-10,-8.42632e-07
3.11e-10,-4.41593e-10
3.12e-10,-1.89555e-07
3.13e-10,-6.55805e-07
3.14e-10,-1.74994e-07
3.15e-10,-7.90584e-07
3.16e-10,-4.53175e-07
3.17e-10,-1.98275e-07
3.18e-10,1.57133e-07
3.19e-10,4.88529e-07
3.2e-10,1.94474e-07
3.21e-10,3.43252e-07
3.22e-10,-5.06298e-07
3.23e-10,-1.09406e-06
3.24e-10,-8.03356e-07
3.25e-10,-1.36311e-06
3.26e-10,-2.47686e-07
3.27e-10,-1.65823e-06
3.28e-10,4.97749e-07
3.29e-10,-1.55818e-07
3.3e-10,-1.76301e-07
3.31e-10,1.48911e-07
3.32e-10,-1.27484e-06
3.33e-10,-4.79445e-07
3.34e-10,-5.69057e-08
3.35e-10,-1.8783e-06
3.36e-10,-2.28831e-07
3.37e-10,-2.06942e-06
3.38e-10,-5.38851e-07
3.39e-10,9.27714e-08
3.4e-10,-2.45803e-07
3.41e-10,-4.06233e-07
3.42e-10,3.67076e-07
3.43e-10,-1.87144e-06
3.44e-10,1.88799e-07
3.45e-10,-3.35005e-08
3.46e-10,-1.33711e-06
3.47e-10,-3.55092e-07
3.48e-10,-1.01622e-06
3.49e-10,-1.00937e-07
3.5e-10,-3.6961e-07
3.51e-10,-1.14118e-07
3.52e-10,-6.44264e-07
3.53e-10,-3.09715e-07
3.54e-10,2.66094e-07
3.55e-10,2.33858e-07
3.56e-10,-7.84468e-07
3.57e-10,-1.40439e-06
3.58e-10,-2.28348e-07
3.59e-10,-9.81294e-07
3.6e-10,-2.64255e-07
3.61e-10,-1.76509e-06
3.62e-10,5.71801e-07
3.63e-10,-3.77738e-07
3.64e-10,-2.83574e-07
3.65e-10,-4.45618e-08
3.66e-10,-8.87218e-07
3.67e-10,-2.20303e-07
3.68e-10,-1.95088e-07
3.69e-10,-7.36715e-07
3.7e-10,-4.0953e-07
3.71e-10,-4.60348e-07
3.72e-10,-1.08223e-06
3.73e-10,-1.27138e-06
3.74e-10,-7.92293e-08
3.75e-10,-1.34534e-06
3.76e-10,1.57292e-07
3.77e-10,-2.31671e-07
3.78e-10,-6.67313e-07
3.79e-10,5.30897e-08
3.8e-10,-7.35466e-07
3.81e-10,2.13322e-07
3.82e-10,-1.26405e-06
3.83e-10,-2.06771e-07
3.84e-10,-7.08823e-07
3.85e-10,-1.15673e-06
3.86e-10,-1.37842e-06
3.87e-10,-2.88913e-07
3.88e-10,-1.04298e-06
3.89e-10,-2.70359e-07
3.9e-10,-2.03998e-07
3.91e-10,-1.16336e-06
3.92e-10,-1.24596e-06
3.93e-10,-2.95912e-07
3.94e-10,-1.04308e-06
3.95e-10,-1.86479e-07
3.96e-10,-3.3371e-07
3.97e-10,2.57209e-07
3.98e-10,-7.22251e-07
3.99e-10,-5.04693e-07
4e-10,-1.64417e-06
4.01e-10,-3.55731e-07
4.02e-10,-2.96557e-07
4.03e-10,-1.07637e-07
4.04e-10,-2.69531e-07
4.05e-10,9.39921e-09
4.06e-10,-2.56371e-07
4.07e-10,-1.24889e-07
4.08e-10,-1.51264e-06
4.09e-10,-1.59075e-06
4.1e-10,-2.44307e-07
4.11e-10,-3.76469e-07
4.12e-10,-1.11666e-07
4.13e-10,-1.9634e-07
4.14e-10,-1.11805e-06
4.15e-10,-1.8311e-07
4.16e-10,-4.53024e-07
4.17e-10,-1.31809e-07
4.18e-10,1.93614e-07
4.19e-10,-1.8987e-07
4.2e-10,-7.84283e-07
4.21e-10,-9.90691e-07
4.22e-10,-7.48775e-07
4.23e-10,-4.01657e-07
4.24e-10,7.27279e-08
4.25e-10,1.17569e-07
4.26e-10,-2.84153e-07
4.27e-10,-2.15659e-07
4.28e-10,1.4508e-07
4.29e-10,-1.33018e-06
4.3e-10,5.09795e-08
4.31e-10,-9.00045e-07
4.32e-10,-1.58619e-07
4.33e-10,2.17545e-07
4.34e-10,-2.36429e-07
4.35e-10,-2.91175e-07
4.36e-10,-1.00569e-06
4.37e-10,2.45845e-07
4.38e-10,-1.17105e-06
4.39e-10,-1.68793e-08
4.4e-10,-8.75479e-07
4.41e-10,-8.59718e-07
4.42e-10,-3.30648e-07
4.43e-10,1.86507e-07
4.44e-10,-1.54308e-07
4.45e-10,-1.18141e-06
4.46e-10,1.7084e-07
4.47e-10,-3.2488e-07
4.48e-10,-1.5603e-07
4.49e-10,-6.83457e-08
4.5e-10,-2.94953e-07
4.51e-10,-1.34879e-06
4.52e-10,-3.05597e-07
4.53e-10,1.78643e-07
4.54e-10,4.3449e-07
4.55e-10,-3.04482e-07
4.56e-10,1.42158e-07
4.57e-10,-1.17458e-07
4.58e-10,-4.39726e-07
4.59e-10,-2.46854e-07
4.6e-10,-6.52963e-07
4.61e-10,-4.67158e-07
4.62e-10,-3.83811e-07
4.63e-10,3.91803e-07
4.64e-10,-2.63599e-07
4.65e-10,1.12536e-07
4.66e-10,-5.41278e-07
4.67e-10,4.21964e-08
4.68e-10,1.84711e-07
4.69e-10,-5.06314e-07
4.7e-10,-7.19543e-08
4.71e-10,-3.54019e-07
4.72e-10,3.79702e-07
4.73e-10,-2.50319e-07
4.74e-10,2.87809e-07
4.75e-10,5.27001e-08
4.76e-10,-1.31285e-06
4.77e-10,-7.58241e-07
4.78e-10,-2.85812e-07
4.79e-10,-7.42479e-07
4.8e-10,-1.1577e-07
4.81e-10,-7.80118e-08
4.82e-10,2.17192e-07
4.83e-10,-1.25956e-08
4.84e-10,-7.01465e-07
4.85e-10,-6.79068e-07
4.86e-10,-4.18925e-07
4.87e-10,8.40332e-08
4.88e-10,-4.06501e-08
4.89e-10,-1.98908e-08
4.9e-10,-6.71074e-07
4.91e-10,3.48442e-07
4.92e-10,-8.84573e-07
4.93e-10,-3.40426e-07
4.94e-10,1.75384e-08
4.95e-10,-1.19347e-06
4.96e-10,-1.59585e-06
4.97e-10,-1.00831e-06
4.98e-10,-7.05273e-07
4.99e-10,4.28154e-07
5e-10,-9.58233e-07
5.01e-10,3.13478e-07
5.02e-10,8.2727e-08
5.03e-10,-1.14628e-07
5.04e-10,-3.94968e-07
5.05e-10,-1.12917e-06
5.06e-10,2.12061e-07
5.07e-10,-9.06996e-08
5.08e-10,-1.5659e-07
5.09e-10,-1.15329e-06
5.1e-10,-2.76478e-07
5.11e-10,-1.2645e-07
5.12e-10,9.27069e-08
5.13e-10,-9.26589e-08
5.14e-10,-1.67644e-07
5.15e-10,-1.19908e-06
5.16e-10,-2.12686e-07
5.17e-10,-1.96324e-07
5.18e-10,-1.81342e-07
5.19e-10,-2.06966e-07
5.2e-10,-2.10465e-07
5.21e-10,-9.14253e-07
5.22e-10,-1.55697e-06
5.23e-10,-1.44502e-07
5.24e-10,2.33265e-07
5.25e-10,-1.01508e-06
5.26e-10,-1.50703e-07
5.27e-10,-2.50108e-08
5.28e-10,-7.78111e-09
5.29e-10,-3.24805e-07
5.3e-10,-4.07166e-08
5.31e-10,-1.19345e-06
5.32e-10,-1.77499e-07
5.33e-10,-4.25899e-08
5.34e-10,-1.05081e-06
5.35e-10,2.78864e-07
5.36e-10,-2.95262e-07
5.37e-10,-4.24382e-08
5.38e-10,-4.10302e-07
5.39e-10,-1.87467e-07
5.4e-10,-4.48774e-08
5.41e-10,-7.90462e-08
5.42e-10,-2.39034e-06
5.43e-10,-8.38328e-07
5.44e-10,1.45473e-07
5.45e-10,-3.33328e-07
5.46e-10,3.1221e-07
5.47e-10,5.2908e-08
5.48e-10,-3.83409e-07
5.49e-10,-1.46502e-08
5.5e-10,-1.31885e-07
5.51e-10,3.48828e-08
5.52e-10,-2.91372e-08
5.53e-10,-1.83862e-07
5.54e-10,-9.81589e-07
5.55e-10,-1.20099e-07
5.56e-10,-9.6845e-07
5.57e-10,2.02047e-07
5.58e-10,-8.23022e-07
5.59e-10,3.42934e-07
5.6e-10,-3.86001e-07
5.61e-10,2.53211e-08
5.62e-10,4.85633e-08
5.63e-10,-2.21417e-06
5.64e-10,-5.93892e-07
5.65e-10,3.07383e-07
5.66e-10,-1.2897e-07
5.67e-10,-1.51445e-07
5.68e-10,-1.09166e-06
5.69e-10,2.35532e-07
5.7e-10,-1.23741e-07
5.71e-10,5.49952e-08
5.72e-10,-5.84387e-08
5.73e-10,-3.55287e-07
5.74e-10,-2.22607e-07
5.75e-10,-1.65111e-07
5.76e-10,-4.9332e-08
5.77e-10,-9.6609e-07
5.78e-10,-6.50441e-07
5.79e-10,2.44077e-07
5.8e-10,6.18808e-08
5.81e-10,-7.34667e-07
5.82e-10,-2.75313e-07
5.83e-10,-8.40396e-08
5.84e-10,-2.03055e-07
5.85e-10,-1.07132e-07
5.86e-10,2.61102e-07
5.87e-10,-5.35833e-07
5.88e-10,-5.76739e-08
5.89e-10,-2.68744e-08
5.9e-10,-5.51503e-08
5.91e-10,-2.60828e-07
5.92e-10,-6.65879e-07
5.93e-10,-2.05959e-06
5.94e-10,9.77537e-08
5.95e-10,-5.19578e-08
5.96e-10,-9.10862e-08
5.97e-10,1.95228e-07
5.98e-10,2.39367e-07
5.99e-10,-1.47005e-08
6e-10,-1.7598e-07
6.01e-10,-2.31771e-07
6.02e-10,-1.22617e-07
6.03e-10,-9.87351e-07
6.04e-10,5.04949e-08
6.05e-10,-1.26624e-06
6.06e-10,2.27636e-07
6.07e-10,-4.02203e-07
6.08e-10,-1.83079e-07
6.09e-10,-1.31938e-07
6.1e-10,-8.29129e-07
6.11e-10,-1.33951e-07
6.12e-10,-9.95105e-08
6.13e-10,4.4397e-08
6.14e-10,-1.25127e-06
6.15e-10,-1.12771e-07
6.16e-10,-1.38755e-06
6.17e-10,-1.02522e-07
6.18e-10,-3.95928e-08
6.19e-10,-2.38001e-07
6.2e-10,-1.33855e-07
6.21e-10,-4.75148e-08
6.22e-10,-9.6256e-07
6.23e-10,-7.88164e-08
6.24e-10,-1.41363e-07
6.25e-10,-1.10385e-06
6.26e-10,3.58803e-09
6.27e-10,-4.82461e-08
6.28e-10,-8.74042e-08
6.29e-10,-7.30524e-08
6.3e-10,-3.16001e-07
6.31e-10,-1.38483e-07
6.32e-10,-2.52443e-07
6.33e-10,-9.07092e-08
6.34e-10,-1.43939e-06
6.35e-10,-8.30705e-08
6.36e-10,1.96081e-07
6.37e-10,-1.29905e-07
6.38e-10,-9.8782e-08
6.39e-10,-1.28558e-07
6.4e-10,-1.32132e-08
6.41e-10,-1.77365e-07
6.42e-10,-4.32994e-08
6.43e-10,-8.75743e-08
6.44e-10,3.3293e-10
6.45e-10,-8.86955e-08
6.46e-10,-1.33111e-07
6.47e-10,2.45582e-07
6.48e-10,-9.24524e-08
6.49e-10,-1.31636e-07
6.5e-10,-3.84376e-08
6.51e-10,-9.55323e-08
6.52e-10,-1.30067e-07
6.53e-10,-4.08975e-09
6.54e-10,-7.47833e-07
6.55e-10,-8.936e-08
6.56e-10,-2.37091e-07
6.57e-10,-1.36368e-07
6.58e-10,-8.69018e-08
6.59e-10,4.03233e-08
6.6e-10,-9.55866e-08
6.61e-10,-4.60301e-08
6.62e-10,-4.83982e-09
6.63e-10,2.38715e-07
6.64e-10,3.45906e-07
6.65e-10,4.94196e-09
6.66e-10,1.2233e-07
6.67e-10,-1.05535e-06
6.68e-10,-7.36582e-08
6.69e-10,-1.88954e-07
6.7e-10,-3.50893e-08
6.71e-10,-1.00963e-07
6.72e-10,-1.35435e-07
6.73e-10,-2.12392e-09
6.74e-10,-8.45145e-08
6.75e-10,-1.32186e-07
6.76e-10,2.1915e-07
6.77e-10,5.26413e-09
6.78e-10,-1.02018e-06
6.79e-10,1.36769e-10
6.8e-10,-2.04408e-07
6.81e-10,2.32114e-08
6.82e-10,-3.96325e-08
6.83e-10,-1.58579e-07
6.84e-10,-1.01606e-07
6.85e-10,-3.8442e-08
6.86e-10,3.4936e-08
6.87e-10,-9.91284e-08
6.88e-10,-6.46084e-07
6.89e-10,1.5191e-07
6.9e-10,7.78679e-08
6.91e-10,-1.41578e-07
6.92e-10,-9.27771e-08
6.93e-10,-2.53765e-09
6.94e-10,-1.23902e-07
6.95e-10,-8.88128e-08
6.96e-10,4.66499e-09
6.97e-10,-2.41034e-07
6.98e-10,-1.25695e-06
6.99e-10,1.86807e-07
7e-10,1.64059e-07
7.01e-10,-9.69666e-08
7.02e-10,3.14482e-09
7.03e-10,4.58937e-08
7.04e-10,-5.80175e-08
7.05e-10,-7.92348e-08
7.06e-10,-3.13768e-08
7.07e-10,1.79024e-07
7.08e-10,8.69364e-08
7.09e-10,3.40356e-08
7.1e-10,-5.3422e-08
7.11e-10,-1.05392e-07
7.12e-10,2.26411e-09
7.13e-10,-6.11065e-07
7.14e-10,5.03817e-07
7.15e-10,-4.7559e-07
7.16e-10,-5.12129e-08
7.17e-10,8.115e-09
7.18e-10,1.67667e-07
7.19e-10,3.24653e-09
7.2e-10,-2.85408e-09
7.21e-10,-4.52349e-08
7.22e-10,-9.00522e-08
7.23e-10,-4.68585e-10
7.24e-10,-8.95164e-08
7.25e-10,-9.80188e-07
7.26e-10,0
7.27e-10,-3.66456e-08
7.28e-10,-4.81162e-09
7.29e-10,-5.46713e-07
7.3e-10,-1.27375e-07
7.31e-10,-5.84531e-08
7.32e-10,7.91153e-09
7.33e-10,-9.16768e-08
7.34e-10,-4.52418e-08
7.35e-10,-8.25516e-08
7.36e-10,-1.02289e-06
7.37e-10,-8.7933e-08
7.38e-10,-5.61242e-08
7.39e-10,-8.51166e-08
7.4e-10,9.01918e-08
7.41e-10,4.50758e-09
7.42e-10,-9.1559e-08
7.43e-10,-4.66499e-09
7.44e-10,-4.13733e-10
7.45e-10,-7.81348e-07
7.46e-10,-1.85166e-07
7.47e-10,-1.18007e-06
7.48e-10,-4.33458e-08
7.49e-10,-4.19888e-08
7.5e-10,4.21487e-10
7.51e-10,-8.8553e-08
7.52e-10,-4.89179e-08
7.53e-10,-9.74372e-09
7.54e-10,-4.45747e-08
7.55e-10,-1.08801e-06
7.56e-10,-9.03503e-07
7.57e-10,2.70103e-08
7.58e-10,-1.29379e-07
7.59e-10,4.47362e-08
7.6e-10,-1.36571e-07
7.61e-10,-4.09512e-08
7.62e-10,-2.7929e-07
7.63e-10,1.92453e-08
7.64e-10,6.0154e-09
7.65e-10,4.50095e-08
7.66e-10,-1.30297e-06
7.67e-10,-9.1453e-08
7.68e-10,-5.764e-07
7.69e-10,-1.30429e-08
7.7e-10,3.76807e-09
7.71e-10,1.36668e-08
7.72e-10,-5.04219e-08
7.73e-10,-4.47192e-08
7.74e-10,-4.35786e-08
7.75e-10,-5.04616e-09
7.76e-10,-3.8806e-08
7.77e-10,-6.2882e-08
7.78e-10,-9.00212e-08
7.79e-10,-1.31092e-08
7.8e-10,-6.71291e-07
7.81e-10,-9.95124e-08
7.82e-10,8.80006e-10
7.83e-10,3.47312e-08
7.84e-10,4.79162e-08
7.85e-10,-2.74511e-07
7.86e-10,1.32861e-07
7.87e-10,-9.4138e-08
7.88e-10,-9.42939e-08
7.89e-10,-9.10385e-07
7.9e-10,3.00735e-09
7.91e-10,7.66742e-09
7.92e-10,-1.29977e-07
7.93e-10,-8.65396e-08
7.94e-10,-1.79371e-09
7.95e-10,-3.8414e-08
7.96e-10,-5.77587e-08
7.97e-10,3.83771e-08
7.98e-10,-4.44429e-08
7.99e-10,0
8e-10,2.81461e-09
8.01e-10,-2.62749e-07
8.02e-10,2.19412e-07
8.03e-10,-2.57203e-07
8.04e-10,-1.09483e-06
8.05e-10,-4.93849e-08
8.06e-10,2.26411e-09
8.07e-10,2.43345e-09
8.08e-10,-1.20078e-08
8.09e-10,-4.41127e-08
8.1e-10,-2.97668e-08
8.11e-10,1.36769e-10
8.12e-10,-6.76753e-08
8.13e-10,6.30103e-08
8.14e-10,-2.81461e-09
8.15e-10,-4.39146e-09
8.16e-10,6.65557e-09
8.17e-10,-2.15553e-07
8.18e-10,2.40088e-09
8.19e-10,9.03995e-09
8.2e-10,1.94642e-07
8.21e-10,-2.59258e-07
8.22e-10,-1.36769e-10
8.23e-10,4.80176e-09
8.24e-10,-4.94196e-09
8.25e-10,-4.67071e-08
8.26e-10,-1.64607e-07
8.27e-10,3.68934e-08
8.28e-10,-5.10418e-08
8.29e-10,2.54158e-09
8.3e-10,-4.10885e-08
8.31e-10,1.36769e-10
8.32e-10,-2.26411e-09
8.33e-10,4.52823e-09
8.34e-10,-5.06546e-09
8.35e-10,-1.14573e-08
8.36e-10,5.2686e-08
8.37e-10,-3.90484e-09
8.38e-10,-8.24942e-08
8.39e-10,-4.41628e-08
8.4e-10,-4.69756e-09
8.41e-10,4.46302e-10
8.42e-10,-4.67211e-08
8.43e-10,2.26411e-09
8.44e-10,4.13733e-10
8.45e-10,0
8.46e-10,9.32999e-09
8.47e-10,-9.49599e-08
8.48e-10,-2.73538e-10
8.49e-10,3.65602e-08
8.5e-10,-4.32158e-08
8.51e-10,4.78808e-08
8.52e-10,-5.50501e-10
8.53e-10,-4.54799e-08
8.54e-10,-5.07873e-09
8.55e-10,-6.92911e-09
8.56e-10,-3.4859e-08
8.57e-10,-2.76964e-10
8.58e-10,2.76964e-10
8.59e-10,-2.26411e-09
8.6e-10,0
8.61e-10,2.67785e-09
8.62e-10,-5.07873e-09
8.63e-10,0
8.64e-10,-7.20716e-08
8.65e-10,2.26411e-09
8.66e-10,4.52823e-09
8.67e-10,4.80176e-08
8.68e-10,-5.49246e-09
8.69e-10,-1.29647e-07
8.7e-10,0
8.71e-10,-4.0538e-08
8.72e-10,-5.50743e-08
8.73e-10,3.62867e-08
8.74e-10,0
8.75e-10,2.26411e-09
8.76e-10,-5.04185e-08
8.77e-10,4.56167e-08
8.78e-10,-4.32158e-08
8.79e-10,0
8.8e-10,-2.81762e-08
8.81e-10,-4.52823e-09
8.82e-10,8.64316e-08
8.83e-10,-9.36342e-08
8.84e-10,-4.80176e-09
8.85e-10,-5.50501e-10
8.86e-10,-2.40088e-09
8.87e-10,2.40088e-09
8.88e-10,-5.25064e-08
8.89e-10,-4.09517e-08
8.9e-10,-2.40088e-09
8.91e-10,2.40088e-09
8.92e-10,2.40088e-09
8.93e-10,0
8.94e-10,4.09517e-08
8.95e-10,-4.32158e-08
8.96e-10,-1.57065e-08
8.97e-10,4.57535e-08
8.98e-10,-2.26411e-09
8.99e-10,-2.40088e-09
9e-10,8.88325e-08
9.01e-10,-4.56167e-08
9.02e-10,-4.32158e-08
9.03e-10,-4.46302e-10
9.04e-10,2.57365e-09
9.05e-10,2.40088e-09
9.06e-10,2.26411e-09
9.07e-10,-5.7505e-08
9.08e-10,2.40088e-09
9.09e-10,-1.15941e-08
9.1e-10,-3.86876e-08
9.11e-10,6.92911e-09
9.12e-10,5.83071e-10
9.13e-10,-1.36769e-10
9.14e-10,-1.19989e-08
9.15e-10,0
9.16e-10,2.26411e-09
9.17e-10,-4.7744e-08
9.18e-10,-4.13733e-10
9.19e-10,4.94196e-09
9.2e-10,-7.65237e-09
9.21e-10,0
9.22e-10,6.61341e-09
9.23e-10,-4.3079e-08
9.24e-10,4.66499e-09
9.25e-10,2.26411e-09
9.26e-10,2.76964e-10
9.27e-10,2.40088e-09
9.28e-10,-5.07873e-09
9.29e-10,2.76964e-10
9.3e-10,-2.76964e-10
9.31e-10,4.13733e-10
9.32e-10,-2.62134e-08
9.33e-10,2.67785e-09
9.34e-10,-4.13733e-10
9.35e-10,4.46302e-10
9.36e-10,2.67785e-09
9.37e-10,-2.76964e-10
9.38e-10,-2.40088e-09
9.39e-10,-5.07873e-09
9.4e-10,-2.53765e-09
9.41e-10,-1.12342e-08
9.42e-10,6.65557e-09
9.43e-10,4.80176e-09
9.44e-10,-3.2569e-11
9.45e-10,-1.2148e-08
9.46e-10,-2.5865e-09
9.47e-10,1.85622e-10
9.48e-10,-1.20567e-08
9.49e-10,5.07873e-09
9.5e-10,-6.86953e-08
9.51e-10,4.97453e-09
9.52e-10,2.40088e-09
9.53e-10,-2.67785e-09
9.54e-10,0
9.55e-10,-2.26411e-09
9.56e-10,2.40088e-09
9.57e-10,0
9.58e-10,2.26411e-09
9.59e-10,4.13733e-10
9.6e-10,-1.12664e-08
9.61e-10,1.33733e-07
9.62e-10,-5.83071e-10
9.63e-10,2.26411e-09
9.64e-10,-4.52823e-09
9.65e-10,4.94196e-09
9.66e-10,-4.13733e-10
9.67e-10,0
9.68e-10,5.07873e-09
9.69e-10,-4.13733e-10
9.7e-10,2.53665e-09
9.71e-10,4.46302e-10
9.72e-10,4.94196e-09
9.73e-10,0
9.74e-10,-5.07873e-09
9.75e-10,-4.11449e-09
9.76e-10,-7.20607e-09
9.77e-10,-4.39146e-09
9.78e-10,-3.3137e-08
9.79e-10,0
9.8e-10,-4.20241e-09
9.81e-10,-2.7267e-09
9.82e-10,-4.97453e-09
9.83e-10,5.1113e-09
9.84e-10,-2.84718e-09
9.85e-10,2.40088e-09
9.86e-10,0
9.87e-10,-4.52823e-09
9.88e-10,7.78556e-09
9.89e-10,4.66499e-09
9.9e-10,0
9.91e-10,-4.66499e-09
9.92e-10,-1.36769e-10
9.93e-10,0
9.94e-10,6.92911e-09
9.95e-10,-6.92911e-09
9.96e-10,4.98123e-10
9.97e-10,2.26411e-09
9.98e-10,4.52823e-09
9.99e-10,-4.52823e-09
1e-09,-4.66499e-09
1.001e-09,-2.26411e-09
1.002e-09,6.79234e-09
1.003e-09,-2.26411e-09
1.004e-09,-5.50501e-10
1.005e-09,2.05483e-08
1.006e-09,4.80176e-09
1.007e-09,2.40088e-09
1.008e-09,-2.53765e-09
1.009e-09,-2.40088e-09
1.01e-09,2.54108e-09
1.011e-09,2.12392e-09
1.012e-09,-2.40088e-09
1.013e-09,2.53765e-09
1.014e-09,-2.73538e-10
1.015e-09,3.83372e-08
1.016e-09,-2.73538e-10
1.017e-09,2.53765e-09
1.018e-09,-7.34284e-09
1.019e-09,2.81461e-09
1.02e-09,4.66499e-09
1.021e-09,-4.52823e-09
1.022e-09,5.56929e-08
1.023e-09,-2.40088e-09
1.024e-09,-7.34284e-09
1.025e-09,2.26411e-09
1.026e-09,1.36769e-10
1.027e-09,0
1.028e-09,-4.93853e-09
1.029e-09,-2.26411e-09
1.03e-09,4.66499e-09
1.031e-09,2.40088e-09
1.032e-09,6.56628e-08
1.033e-09,5.07873e-09
1.034e-09,-5.07873e-09
1.035e-09,5.50501e-10
1.036e-09,2.12734e-09
1.037e-09,2.26411e-09
1.038e-09,-2.26411e-09
1.039e-09,2.26411e-09
1.04e-09,-4.94196e-09
1.041e-09,2.26411e-09
1.042e-09,9.75943e-08
1.043e-09,-4.66499e-09
1.044e-09,-2.26411e-09
1.045e-09,-2.40088e-09
1.046e-09,-4.66499e-09
1.047e-09,2.40088e-09
1.048e-09,-6.92911e-09
1.049e-09,-2.26411e-09
1.05e-09,2.40088e-09
1.051e-09,2.12734e-09
1.052e-09,1.17536e-07
1.053e-09,2.49294e-07
1.054e-09,4.52823e-09
1.055e-09,0
1.056e-09,4.52823e-09
1.057e-09,-4.52823e-09
1.058e-09,2.26411e-09
1.059e-09,0
1.06e-09,1.36769e-10
1.061e-09,1.66257e-07
1.062e-09,-2.26411e-09
1.063e-09,-2.26411e-09
1.064e-09,0
1.065e-09,4.39146e-09
1.066e-09,1.36769e-10
1.067e-09,0
1.068e-09,-2.40088e-09
1.069e-09,0
1.07e-09,1.89321e-07
1.071e-09,0
1.072e-09,6.79234e-09
1.073e-09,4.66499e-09
1.074e-09,-4.52823e-09
1.075e-09,4.39146e-09
1.076e-09,-9.05645e-09
1.077e-09,7.06588e-09
1.078e-09,2.71483e-07
1.079e-09,-2.26411e-09
1.08e-09,0
1.081e-09,2.45127e-07
1.082e-09,-7.06588e-09
1.083e-09,2.40088e-09
1.084e-09,4.94196e-09
1.085e-09,-2.67785e-09
1.086e-09,0
1.087e-09,2.26411e-09
1.088e-09,-2.26411e-09
1.089e-09,3.24108e-07
1.09e-09,-2.40088e-09
1.091e-09,-4.66499e-09
1.092e-09,1.78438e-07
1.093e-09,2.53765e-09
1.094e-09,-1.17309e-08
1.095e-09,4.66499e-09
1.096e-09,-2.40088e-09
1.097e-09,-4.52823e-09
1.098e-09,2.40088e-09
1.099e-09,4.52823e-09
1.1e-09,-2.26411e-09
1.101e-09,-1.36769e-10
1.102e-09,0
1.103e-09,-9.32999e-09
1.104e-09,2.40088e-09
1.105e-09,-2.26411e-09
1.106e-09,-2.26411e-09
1.107e-09,4.13733e-10
1.108e-09,0
1.109e-09,4.52823e-09
1.11e-09,3.59381e-08
1.111e-09,2.76365e-09
1.112e-09,-2.40088e-09
1.113e-09,-2.26411e-09
1.114e-09,0
1.115e-09,-2.26411e-09
1.116e-09,4.02869e-09
1.117e-09,2.26411e-09
1.118e-09,-2.40088e-09
1.119e-09,2.40088e-09
1.12e-09,2.26411e-09
1.121e-09,0
1.122e-09,-2.26411e-09
1.123e-09,0
1.124e-09,0
1.125e-09,4.99537e-10
1.126e-09,-4.99537e-10
1.127e-09,-4.02869e-09
1.128e-09,7.20607e-09
1.129e-09,0
1.13e-09,-2.54108e-09
1.131e-09,-2.62688e-09
1.132e-09,2.26411e-09
1.133e-09,2.12734e-09
1.134e-09,-1.90134e-09
1.135e-09,-2.26411e-09
1.136e-09,2.12734e-09
1.137e-09,-2.26411e-09
1.138e-09,1.36769e-10
1.139e-09,-4.66499e-09
1.14e-09,0
1.141e-09,2.26411e-09
1.142e-09,2.40088e-09
1.143e-09,0
1.144e-09,-2.26411e-09
1.145e-09,2.26411e-09
1.146e-09,-1.36769e-10
1.147e-09,-9.05645e-09
1.148e-09,2.40088e-09
1.149e-09,-6.92911e-09
1.15e-09,2.12734e-09
1.151e-09,-2.26411e-09
1.152e-09,6.79234e-09
1.153e-09,-8.91968e-09
1.154e-09,-2.40088e-09
1.155e-09,0
1.156e-09,0
1.157e-09,0
1.158e-09,0
1.159e-09,0
1.16e-09,0
1.161e-09,7.20607e-09
1.162e-09,-2.26411e-09
1.163e-09,0
1.164e-09,-4.52823e-09
1.165e-09,0
1.166e-09,6.79234e-09
1.167e-09,-2.26411e-09
1.168e-09,4.66499e-09
1.169e-09,2.26411e-09
1.17e-09,-4.66499e-09
1.171e-09,-4.52823e-09
1.172e-09,0
1.173e-09,-4.13733e-10
1.174e-09,2.26411e-09
1.175e-09,-2.26411e-09
1.176e-09,4.52823e-09
1.177e-09,0
1.178e-09,-2.26411e-09
1.179e-09,-2.26411e-09
1.18e-09,2.26411e-09
1.181e-09,2.26411e-09
1.182e-09,6.79234e-09
1.183e-09,-6.79234e-09
1.184e-09,-2.26411e-09
1.185e-09,2.26411e-09
1.186e-09,0
1.187e-09,-2.26411e-09
1.188e-09,4.52823e-09
1.189e-09,-4.52823e-09
1.19e-09,2.26411e-09
1.191e-09,-1.13206e-08
1.192e-09,6.79234e-09
1.193e-09,2.26411e-09
1.194e-09,-2.26411e-09
1.195e-09,4.52823e-09
1.196e-09,2.12734e-09
1.197e-09,2.26411e-09
1.198e-09,-6.65557e-09
1.199e-09,0
1.2e-09,2.26411e-09
1.201e-09,-2.26411e-09
1.202e-09,4.52823e-09
1.203e-09,-2.26411e-09
1.204e-09,-2.26411e-09
1.205e-09,4.52823e-09
1.206e-09,-1.36769e-10
1.207e-09,-4.52823e-09
1.208e-09,-4.52823e-09
1.209e-09,4.52823e-09
1.21e-09,-4.52823e-09
1.211e-09,4.52823e-09
1.212e-09,2.26411e-09
1.213e-09,-2.26411e-09
1.214e-09,2.26411e-09
1.215e-09,0
1.216e-09,0
1.217e-09,2.26411e-09
1.218e-09,-6.79234e-09
1.219e-09,-4.80176e-09
1.22e-09,0
1.221e-09,6.69768e-09
1.222e-09,7.06588e-09
1.223e-09,0
1.224e-09,2.26411e-09
1.225e-09,4.52823e-09
1.226e-09,-1.14573e-08
1.227e-09,0
1.228e-09,-1.36769e-10
1.229e-09,0
1.23e-09,1.36769e-10
1.231e-09,-6.79234e-09
1.232e-09,-4.66499e-09
1.233e-09,0
1.234e-09,6.92911e-09
1.235e-09,4.52823e-09
1.236e-09,0
1.237e-09,-2.26411e-09
1.238e-09,-4.52823e-09
1.239e-09,1.36769e-10
1.24e-09,-2.26411e-09
1.241e-09,6.92911e-09
1.242e-09,-1.15941e-08
1.243e-09,1.99058e-09
1.244e-09,-2.12734e-09
1.245e-09,-2.26411e-09
1.246e-09,-4.52823e-09
1.247e-09,-5.1113e-09
1.248e-09,2.26411e-09
1.249e-09,-2.26411e-09
1.25e-09,-2.26411e-09
1.251e-09,6.92911e-09
1.252e-09,2.26411e-09
1.253e-09,-6.79234e-09
1.254e-09,2.26411e-09
1.255e-09,0
1.256e-09,6.92911e-09
1.257e-09,-4.66499e-09
1.258e-09,9.32999e-09
1.259e-09,-7.06588e-09
1.26e-09,-4.52823e-09
1.261e-09,-2.26411e-09
1.262e-09,0
1.263e-09,4.52823e-09
1.264e-09,1.36769e-10
1.265e-09,-2.26411e-09
1.266e-09,-4.57534e-08
1.267e-09,-4.66499e-09
1.268e-09,2.26411e-09
1.269e-09,-2.26411e-09
1.27e-09,2.26411e-09
1.271e-09,4.52823e-09
1.272e-09,-4.39146e-09
1.273e-09,2.26411e-09
1.274e-09,2.26411e-09
1.275e-09,-4.80176e-09
1.276e-09,5.55867e-25
1.277e-09,-4.73e-08
1.278e-09,2.26411e-09
1.279e-09,-1.14573e-08
1.28e-09,-2.26411e-09
1.281e-09,9.05645e-09
1.282e-09,-2.12734e-09
1.283e-09,2.26411e-09
1.284e-09,0
1.285e-09,-1.14573e-08
1.286e-09,4.52823e-09
1.287e-09,4.52823e-09
1.288e-09,-4.81874e-08
1.289e-09,-2.26411e-09
1.29e-09,-1.36769e-10
1.291e-09,2.26411e-09
1.292e-09,-2.26411e-09
1.293e-09,2.12392e-09
1.294e-09,-7.06588e-09
1.295e-09,2.40088e-09
1.296e-09,-4.52823e-09
1.297e-09,2.26411e-09
1.298e-09,-4.52823e-09
1.299e-09,2.26411e-09
1.3e-09,4.52823e-09
1.301e-09,-4.52823e-09
1.302e-09,-5.05546e-08
1.303e-09,2.26411e-09
1.304e-09,-2.12734e-09
1.305e-09,6.79234e-09
1.306e-09,-2.26411e-09
1.307e-09,0
1.308e-09,-2.40088e-09
1.309e-09,2.53765e-09
1.31e-09,-4.32158e-08
1.311e-09,2.12734e-09
1.312e-09,2.26411e-09
1.313e-09,-6.15939e-08
1.314e-09,6.3858e-08
1.315e-09,-5.22639e-08
1.316e-09,-2.40088e-09
1.317e-09,-2.40088e-09
1.318e-09,4.52823e-09
1.319e-09,-2.26411e-09
1.32e-09,1.36769e-10
1.321e-09,-2.40088e-09
1.322e-09,-2.26411e-09
1.323e-09,0
1.324e-09,4.52823e-09
1.325e-09,-2.26411e-09
1.326e-09,-5.45238e-08
1.327e-09,0
1.328e-09,0
1.329e-09,1.36769e-10
1.33e-09,4.52823e-09
1.331e-09,-2.26411e-09
1.332e-09,-2.26411e-09
1.333e-09,-4.17119e-08
1.334e-09,0
1.335e-09,0
1.336e-09,-4.44228e-08
1.337e-09,-4.66499e-09
1.338e-09,2.26411e-09
1.339e-09,0
1.34e-09,-2.26411e-09
1.341e-09,0
1.342e-09,-4.52823e-09
1.343e-09,4.66499e-09
1.344e-09,-4.83841e-08
1.345e-09,0
1.346e-09,0
1.347e-09,-2.26411e-09
1.348e-09,4.52823e-09
1.349e-09,-4.52823e-09
1.35e-09,4.52823e-09
1.351e-09,2.26411e-09
1.352e-09,-4.52823e-09
1.353e-09,-4.47654e-08
1.354e-09,-9.05645e-09
1.355e-09,4.52823e-09
1.356e-09,-2.26411e-09
1.357e-09,-4.52823e-09
1.358e-09,0
1.359e-09,-4.56493e-08
1.36e-09,1.36769e-10
1.361e-09,-1.36769e-10
1.362e-09,6.79234e-09
1.363e-09,-4.34895e-08
1.364e-09,2.26411e-09
1.365e-09,2.26411e-09
1.366e-09,-1.13206e-08
1.367e-09,-2.40088e-09
1.368e-09,-2.12734e-09
1.369e-09,-1.36769e-10
1.37e-09,4.52823e-09
1.371e-09,-2.26411e-09
1.372e-09,-9.47106e-08
1.373e-09,-4.52823e-09
1.374e-09,2.26411e-09
1.375e-09,2.26411e-09
1.376e-09,0
1.377e-09,2.40088e-09
1.378e-09,2.26411e-09
1.379e-09,0
1.38e-09,-5.04186e-08
1.381e-09,0
1.382e-09,0
1.383e-09,-4.66499e-09
1.384e-09,0
1.385e-09,0
1.386e-09,-4.52823e-09
1.387e-09,-4.73945e-08
1.388e-09,4.50348e-09
1.389e-09,-5.02818e-08
1.39e-09,-2.40088e-09
1.391e-09,2.26411e-09
1.392e-09,-2.26411e-09
1.393e-09,0
1.394e-09,-2.26411e-09
1.395e-09,-4.74674e-08
1.396e-09,2.26411e-09
1.397e-09,-5.7855e-08
1.398e-09,0
1.399e-09,2.26411e-09
1.4e-09,-2.26411e-09
1.401e-09,0
1.402e-09,-2.26411e-09
1.403e-09,-4.07468e-08
1.404e-09,2.26411e-09
1.405e-09,0
1.406e-09,0
1.407e-09,-5.79837e-08
1.408e-09,8.27127e-09
1.409e-09,-2.26411e-09
1.41e-09,-2.26411e-09
1.411e-09,0
1.412e-09,5.52222e-09
1.413e-09,-4.11585e-08
1.414e-09,-4.52823e-09
1.415e-09,-2.26411e-09
1.416e-09,0
1.417e-09,-5.04186e-08
1.418e-09,4.52823e-09
1.419e-09,-5.79475e-09
1.42e-09,0
1.421e-09,3.53064e-09
1.422e-09,-4.80269e-08
1.423e-09,-3.53064e-09
1.424e-09,4.52823e-09
1.425e-09,1.26653e-09
1.426e-09,0
1.427e-09,-5.68959e-08
1.428e-09,-2.26411e-09
1.429e-09,2.26411e-09
1.43e-09,2.26411e-09
1.431e-09,-4.78805e-08
1.432e-09,0
1.433e-09,0
1.434e-09,0
1.435e-09,0
1.436e-09,-2.26411e-09
1.437e-09,-4.68209e-08
1.438e-09,0
1.439e-09,0
1.44e-09,-2.26411e-09
1.441e-09,-2.26411e-09
1.442e-09,-4.51552e-08
1.443e-09,4.52823e-09
1.444e-09,0
1.445e-09,2.26411e-09
1.446e-09,-2.26411e-09
1.447e-09,-4.52823e-09
1.448e-09,-5.87524e-08
1.449e-09,0
1.45e-09,0
1.451e-09,-5.01446e-08
1.452e-09,2.26411e-09
1.453e-09,-2.26411e-09
1.454e-09,4.52823e-09
1.455e-09,0
1.456e-09,2.26411e-09
1.457e-09,-5.50795e-08
1.458e-09,0
1.459e-09,-2.26411e-09
1.46e-09,-4.56164e-08
1.461e-09,4.66499e-09
1.462e-09,0
1.463e-09,-4.66499e-09
1.464e-09,4.52823e-09
1.465e-09,2.40088e-09
1.466e-09,-2.26411e-09
1.467e-09,-5.28225e-08
1.468e-09,-4.66499e-09
1.469e-09,0
1.47e-09,2.40088e-09
1.471e-09,-2.40088e-09
1.472e-09,-4.41134e-08
1.473e-09,2.40088e-09
1.474e-09,0
1.475e-09,-5.64812e-08
1.476e-09,2.26411e-09
1.477e-09,-4.52823e-09
1.478e-09,6.79234e-09
1.479e-09,-2.26411e-09
1.48e-09,0
1.481e-09,0
1.482e-09,-5.02846e-08
1.483e-09,-4.80173e-08
1.484e-09,2.40088e-09
1.485e-09,2.12734e-09
1.486e-09,0
1.487e-09,2.40088e-09
1.488e-09,0
1.489e-09,-1.36769e-10
1.49e-09,-2.26411e-09
1.491e-09,-2.26411e-09
1.492e-09,-4.78784e-08
1.493e-09,-5.63203e-08
1.494e-09,0
1.495e-09,0
1.496e-09,2.26411e-09
1.497e-09,-2.26411e-09
1.498e-09,0
1.499e-09,4.52823e-09
1.5e-09,-4.52823e-09
1.501e-09,0
1.502e-09,-5.52193e-08
1.503e-09,-4.10978e-08
1.504e-09,-4.52823e-09
1.505e-09,0
1.506e-09,0
1.507e-09,0
1.508e-09,4.52823e-09
1.509e-09,-2.26411e-09
1.51e-09,0
1.511e-09,0
1.512e-09,-1.0451e-07
1.513e-09,0
1.514e-09,0
1.515e-09,0
1.516e-09,1.36769e-10
1.517e-09,2.26411e-09
1.518e-09,-4.66499e-09
1.519e-09,0
1.52e-09,-2.26411e-09
1.521e-09,-5.20799e-08
1.522e-09,2.73538e-10
1.523e-09,-2.40088e-09
1.524e-09,-4.33537e-08
1.525e-09,4.66499e-09
1.526e-09,4.52823e-09
1.527e-09,-4.66499e-09
1.528e-09,2.40088e-09
1.529e-09,-6.82181e-08
1.53e-09,0
1.531e-09,0
1.532e-09,-4.41092e-08
1.533e-09,-2.26411e-09
1.534e-09,2.26411e-09
1.535e-09,0
1.536e-09,0
1.537e-09,-2.26411e-09
1.538e-09,2.26411e-09
1.539e-09,-2.26411e-09
1.54e-09,-2.26411e-09
1.541e-09,-5.53591e-08
1.542e-09,-4.52823e-09
1.543e-09,-4.46689e-08
1.544e-09,2.26411e-09
1.545e-09,-2.12734e-09
1.546e-09,2.40088e-09
1.547e-09,0
1.548e-09,-2.40088e-09
1.549e-09,-5.29582e-08
1.55e-09,4.52823e-09
1.551e-09,0
1.552e-09,0
1.553e-09,-4.32139e-08
1.554e-09,0
1.555e-09,4.52823e-09
1.556e-09,-4.52823e-09
1.557e-09,0
1.558e-09,-6.26454e-08
1.559e-09,-2.26411e-09
1.56e-09,0
1.561e-09,2.26411e-09
1.562e-09,-2.40088e-09
1.563e-09,-3.99206e-08
1.564e-09,1.36769e-10
1.565e-09,0
1.566e-09,4.52823e-09
1.567e-09,0
1.568e-09,-5.98803e-08
1.569e-09,-2.26411e-09
1.57e-09,-4.24079e-08
1.571e-09,-6.79234e-09
1.572e-09,6.79234e-09
1.573e-09,-2.26411e-09
1.574e-09,-2.40088e-09
1.575e-09,-5.62194e-08
1.576e-09,2.26411e-09
1.577e-09,-4.80196e-09
1.578e-09,-3.95951e-08
1.579e-09,-6.32002e-09
1.58e-09,-4.72322e-10
1.581e-09,2.26411e-09
1.582e-09,4.72322e-10
1.583e-09,0
1.584e-09,-7.26466e-09
1.585e-09,-1.79179e-09
1.586e-09,-1.08671e-07
1.587e-09,-6.79234e-09
1.588e-09,6.79234e-09
1.589e-09,0
1.59e-09,-1.14573e-08
1.591e-09,0
1.592e-09,0
1.593e-09,-4.44945e-08
1.594e-09,0
1.595e-09,-1.36769e-10
1.596e-09,-2.26411e-09
1.597e-09,-6.2424e-08
1.598e-09,0
1.599e-09,-2.26411e-09
1.6e-09,-4.52935e-08
1.601e-09,4.52823e-09
1.602e-09,1.36769e-10
1.603e-09,0
1.604e-09,0
1.605e-09,2.26411e-09
1.606e-09,-1.36769e-10
1.607e-09,-5.5905e-08
1.608e-09,-4.66499e-09
1.609e-09,0
1.61e-09,-2.26411e-09
1.611e-09,-4.34864e-08
1.612e-09,0
1.613e-09,2.26411e-09
1.614e-09,-2.26411e-09
1.615e-09,0
1.616e-09,2.26411e-09
1.617e-09,-7.56444e-08
1.618e-09,-4.34935e-08
1.619e-09,0
1.62e-09,4.52823e-09
1.621e-09,0
1.622e-09,-5.46582e-09
1.623e-09,0
1.624e-09,1.13206e-08
1.625e-09,-1.08622e-07
1.626e-09,6.79234e-09
1.627e-09,-3.20171e-09
1.628e-09,-2.26411e-09
1.629e-09,-2.26411e-09
1.63e-09,-5.85474e-09
1.631e-09,6.79234e-09
1.632e-09,-5.02788e-08
1.633e-09,0
1.634e-09,-6.89038e-08
1.635e-09,-2.26411e-09
1.636e-09,-2.26411e-09
1.637e-09,-4.52823e-09
1.638e-09,6.79234e-09
1.639e-09,-2.26411e-09
1.64e-09,9.05645e-09
1.641e-09,-4.52823e-09
1.642e-09,-5.25429e-08
1.643e-09,-7.27869e-08
1.644e-09,-2.26411e-09
1.645e-09,0
1.646e-09,6.92911e-09
1.647e-09,-6.92911e-09
1.648e-09,1.36769e-10
1.649e-09,4.39146e-09
1.65e-09,-4.84952e-08
1.651e-09,-6.32788e-08
1.652e-09,2.26411e-09
1.653e-09,-2.26411e-09
1.654e-09,-4.52823e-09
1.655e-09,2.40088e-09
1.656e-09,-2.40088e-09
1.657e-09,2.26411e-09
1.658e-09,-5.02858e-08
1.659e-09,-7.21536e-08
1.66e-09,-2.26411e-09
1.661e-09,7.04476e-08
1.662e-09,-6.83203e-08
1.663e-09,0
1.664e-09,6.92911e-09
1.665e-09,-4.52823e-09
1.666e-09,0
1.667e-09,-5.63877e-08
1.668e-09,6.81835e-08
1.669e-09,-1.47216e-07
1.67e-09,-2.26411e-09
1.671e-09,6.79234e-09
1.672e-09,1.36769e-10
1.673e-09,-2.26411e-09
1.674e-09,7.45539e-08
1.675e-09,-7.6818e-08
1.676e-09,-4.49568e-08
1.677e-09,2.40088e-09
1.678e-09,1.12453e-08
1.679e-09,-2.26411e-09
1.68e-09,2.26411e-09
1.681e-09,0
1.682e-09,0
1.683e-09,0
1.684e-09,-5.29593e-08
1.685e-09,0
1.686e-09,-7.65314e-08
1.687e-09,4.66499e-09
1.688e-09,-2.26411e-09
1.689e-09,-1.36769e-10
1.69e-09,-4.52823e-09
1.691e-09,-9.37594e-10
1.692e-09,2.26411e-09
1.693e-09,2.40088e-09
1.694e-09,-5.43405e-08
1.695e-09,-7.20566e-08
1.696e-09,0
1.697e-09,0
1.698e-09,4.66499e-09
1.699e-09,0
1.7e-09,0
1.701e-09,0
1.702e-09,-9.48674e-08
1.703e-09,6.79234e-09
1.704e-09,-3.30508e-08
1.705e-09,-9.48674e-08
1.706e-09,0
1.707e-09,-2.26411e-09
1.708e-09,0
1.709e-09,2.26411e-09
1.71e-09,-4.66499e-09
1.711e-09,4.66499e-09
1.712e-09,-4.66499e-09
1.713e-09,-3.98902e-08
1.714e-09,0
1.715e-09,-7.63868e-08
1.716e-09,-4.52823e-09
1.717e-09,-2.26411e-09
1.718e-09,-4.66499e-09
1.719e-09,4.52823e-09
1.72e-09,-2.12734e-09
1.721e-09,-5.32114e-08
1.722e-09,2.26411e-09
1.723e-09,0
1.724e-09,-9.33505e-08
1.725e-09,-2.26411e-09
1.726e-09,-2.40088e-09
1.727e-09,0
1.728e-09,0
1.729e-09,-4.29025e-08
1.73e-09,0
1.731e-09,2.26411e-09
1.732e-09,0
1.733e-09,-8.61553e-08
1.734e-09,-4.66499e-09
1.735e-09,4.66499e-09
1.736e-09,6.59375e-09
1.737e-09,-5.35385e-08
1.738e-09,-4.52823e-09
1.739e-09,-2.26411e-09
1.74e-09,1.98587e-10
1.741e-09,-8.88317e-08
1.742e-09,-1.98587e-10
1.743e-09,2.26411e-09
1.744e-09,-2.26411e-09
1.745e-09,1.98587e-10
1.746e-09,-2.26411e-09
1.747e-09,-4.61103e-08
1.748e-09,0
1.749e-09,1.93581e-09
1.75e-09,-1.12504e-07
1.751e-09,-4.33669e-09
1.752e-09,4.33669e-09
1.753e-09,-2.12734e-09
1.754e-09,0
1.755e-09,0
1.756e-09,0
1.757e-09,-4.39048e-08
1.758e-09,0
1.759e-09,-9.06505e-08
1.76e-09,0
1.761e-09,0
1.762e-09,2.26411e-09
1.763e-09,1.36769e-10
1.764e-09,4.52823e-09
1.765e-09,0
1.766e-09,-5.31409e-08
1.767e-09,0
1.768e-09,-2.40088e-09
1.769e-09,-9.36684e-08
1.77e-09,-6.59375e-09
1.771e-09,4.32964e-09
1.772e-09,-1.36769e-10
1.773e-09,4.66499e-09
1.774e-09,-2.294e-07
1.775e-09,1.7706e-07
1.776e-09,-4.66499e-09
1.777e-09,-1.178e-07
1.778e-09,-2.40088e-09
1.779e-09,-4.52823e-09
1.78e-09,-1.55055e-07
1.781e-09,1.59584e-07
1.782e-09,-1.55055e-07
1.783e-09,-2.26411e-09
1.784e-09,-3.68034e-08
1.785e-09,-4.52823e-09
1.786e-09,0
1.787e-09,2.26411e-09
1.788e-09,-1.15368e-07
1.789e-09,2.26411e-09
1.79e-09,-2.26411e-09
1.791e-09,0
1.792e-09,-4.97489e-08
1.793e-09,-2.26411e-09
1.794e-09,4.52823e-09
1.795e-09,0
1.796e-09,0
1.797e-09,-1.58087e-07
1.798e-09,4.52823e-09
1.799e-09,2.26411e-09
1.8e-09,0
1.801e-09,-5.00391e-08
1.802e-09,0
1.803e-09,0
1.804e-09,-2.26411e-09
1.805e-09,-1.60964e-07
1.806e-09,2.26411e-09
1.807e-09,-6.79234e-09
1.808e-09,9.05645e-09
1.809e-09,-2.26411e-09
1.81e-09,-3.19392e-08
1.811e-09,2.26411e-09
1.812e-09,-2.26411e-09
1.813e-09,-2.26411e-09
1.814e-09,0
1.815e-09,-1.4377e-07
1.816e-09,0
1.817e-09,-4.52823e-09
1.818e-09,-2.26411e-09
1.819e-09,2.26411e-09
1.82e-09,-2.26411e-09
1.821e-09,-4.25841e-08
1.822e-09,-4.52823e-09
1.823e-09,7.86387e-09
1.824e-09,-1.84438e-07
1.825e-09,-1.00104e-09
1.826e-09,2.26411e-09
1.827e-09,-2.26411e-09
1.828e-09,4.66499e-09
1.829e-09,-9.19322e-09
1.83e-09,-3.41236e-08
1.831e-09,-2.26411e-09
1.832e-09,-2.18253e-07
1.833e-09,-4.66499e-09
1.834e-09,-2.26411e-09
1.835e-09,1.37214e-08
1.836e-09,-4.52823e-09
1.837e-09,-2.40088e-09
1.838e-09,6.92911e-09
1.839e-09,-3.3103e-08
1.84e-09,2.26411e-09
1.841e-09,-2.54557e-07
1.842e-09,0
1.843e-09,2.12734e-09
1.844e-09,1.36769e-10
1.845e-09,-4.66499e-09
1.846e-09,-1.45989e-09
1.847e-09,4.52823e-09
1.848e-09,-4.52823e-09
1.849e-09,-2.31899e-07
1.85e-09,-3.11484e-07
1.851e-09,-2.40088e-09
1.852e-09,-1.5956e-09
1.853e-09,-5.19674e-09
1.854e-09,2.93262e-09
1.855e-09,2.12734e-09
1.856e-09,-4.84201e-08
1.857e-09,0
1.858e-09,0
1.859e-09,-3.84862e-07
1.86e-09,1.45632e-08
1.861e-09,-2.26411e-09
1.862e-09,-1.68273e-08
1.863e-09,4.52823e-09
1.864e-09,-4.52823e-09
1.865e-09,-4.78489e-07
1.866e-09,-3.46839e-08
1.867e-09,-4.66499e-09
1.868e-09,2.61659e-09
1.869e-09,-2.61659e-09
1.87e-09,0
1.871e-09,4.52823e-09
1.872e-09,0
1.873e-09,0
1.874e-09,6.79234e-09
1.875e-09,-7.11805e-07
1.876e-09,4.52823e-09
1.877e-09,-2.26411e-09
1.878e-09,-4.52823e-09
1.879e-09,0
1.88e-09,4.52823e-09
1.881e-09,-2.26411e-09
1.882e-09,0
1.883e-09,0
1.884e-09,-4.15444e-08
1.885e-09,-5.63966e-11
1.886e-09,5.63966e-11
1.887e-09,0
1.888e-09,0
1.889e-09,2.26411e-09
1.89e-09,-5.63966e-11
1.891e-09,0
1.892e-09,-1.27962e-08
1.893e-09,2.26411e-09
1.894e-09,2.40088e-09
1.895e-09,-4.66499e-09
1.896e-09,-2.26411e-09
1.897e-09,2.26411e-09
1.898e-09,0
1.899e-09,0
1.9e-09,-2.67785e-09
1.901e-09,0
1.902e-09,2.11346e-08
1.903e-09,2.67785e-09
1.904e-09,-2.67785e-09
1.905e-09,2.26411e-09
1.906e-09,0
1.907e-09,-2.26411e-09
1.908e-09,0
1.909e-09,-2.26411e-09
1.91e-09,6.79234e-09
1.911e-09,-4.52823e-09
1.912e-09,2.26411e-09
1.913e-09,-2.26411e-09
1.914e-09,5.41619e-08
1.915e-09,4.52823e-09
1.916e-09,2.26411e-09
1.917e-09,-4.52823e-09
1.918e-09,-2.26411e-09
1.919e-09,-9.86941e-11
1.92e-09,-3.64235e-08
1.921e-09,7.02819e-08
1.922e-09,0
1.923e-09,2.26411e-09
1.924e-09,-2.26411e-09
1.925e-09,4.52823e-09
1.926e-09,0
1.927e-09,-2.26411e-09
1.928e-09,2.26411e-09
1.929e-09,0
1.93e-09,0
1.931e-09,0
1.932e-09,1.2948e-07
1.933e-09,0
1.934e-09,0
1.935e-09,-2.26411e-09
1.936e-09,-2.26411e-09
1.937e-09,0
1.938e-09,-2.26411e-09
1.939e-09,-2.26411e-09
1.94e-09,4.52823e-09
1.941e-09,-2.26411e-09
1.942e-09,-4.52823e-09
1.943e-09,2.26411e-09
1.944e-09,-2.26411e-09
1.945e-09,0
1.946e-09,1.80886e-07
1.947e-09,-3.87038e-08
1.948e-09,0
1.949e-09,0
1.95e-09,0
1.951e-09,0
1.952e-09,0
1.953e-09,3.97597e-07
1.954e-09,0
1.955e-09,-2.26411e-09
1.956e-09,2.64423e-07
1.957e-09,-2.26411e-09
1.958e-09,0
1.959e-09,0
1.96e-09,0
1.961e-09,-4.52823e-09
1.962e-09,2.26411e-09
1.963e-09,-4.54801e-08
1.964e-09,-2.26411e-09
1.965e-09,2.94498e-07
1.966e-09,-2.26411e-09
1.967e-09,0
1.968e-09,0
1.969e-09,2.26411e-09
1.97e-09,-4.52823e-09
1.971e-09,-4.3216e-08
1.972e-09,0
1.973e-09,2.10148e-07
1.974e-09,2.26411e-09
1.975e-09,0
1.976e-09,0
1.977e-09,2.52058e-07
1.978e-09,0
1.979e-09,0
1.98e-09,0
1.981e-09,2.26411e-09
1.982e-09,-3.79356e-08
1.983e-09,-4.52823e-09
1.984e-09,0
1.985e-09,3.36484e-07
1.986e-09,2.26411e-09
1.987e-09,1.19843e-10
1.988e-09,-2.38396e-09
1.989e-09,2.26411e-09
1.99e-09,0
1.991e-09,0
1.992e-09,6.67313e-08
1.993e-09,-1.6926e-11
1.994e-09,0
1.995e-09,6.90796e-09
1.996e-09,-6.92911e-09
1.997e-09,2.98204e-07
1.998e-09,-6.79234e-09
1.999e-09,2.26411e-09
2e-09,-2.26411e-09
2.001e-09,4.52823e-09
2.1e-09,0
