[7mlsetup              [0m lsetup <tool1> [ <tool2> ...] (see lsetup -h):
[7m lsetup asetup      [0m  (or asetup) to setup an Athena release
[7m lsetup astyle      [0m  ATLAS style macros
[7m lsetup atlantis    [0m  Atlantis: event display
[7m lsetup eiclient    [0m  Event Index 
[7m lsetup emi         [0m  EMI: grid middleware user interface 
[7m lsetup lcgenv      [0m  lcgenv: setup tools from cvmfs SFT repository
[7m lsetup panda       [0m  Panda: Production ANd Distributed Analysis
[7m lsetup pyami       [0m  pyAMI: ATLAS Metadata Interface python client
[7m lsetup root        [0m  ROOT data processing framework
[7m lsetup rucio       [0m  distributed data management system client
[7m lsetup scikit      [0m  python data analysis ecosystem
[7m lsetup views       [0m  Set up a full LCG release
[7m lsetup xcache      [0m  XRootD local proxy cache
[7m lsetup xrootd      [0m  XRootD data access
[7madvancedTools       [0m advanced tools menu
[7mdiagnostics         [0m diagnostic tools menu
[7mhelpMe              [0m more help
[7minstallPip          [0m install relocatable pip modules locally
[7minstallRpm          [0m install relocatable rpms locally
[7mprintMenu           [0m show this menu
[7mqueryC              [0m find / whatis container query
[7mshowVersions        [0m show versions of installed software

Detected Red Hat Enterprise Linux 9
No explicit LCG version set, using LCG_104.
Compiler type set to LLVM, version clang16.
|14:55:58.964|    (INFO) Setting provided option output_directory=output/
|14:55:58.965|    (INFO) Setting provided option random_seed=9
|14:55:58.965|    (INFO) Setting provided option root_file=transient_modules_laser_gamma905nm_okuto_100photons_9
|14:55:58.965|    (INFO) Setting provided option number_of_photons=100 for DepositionLaser
|14:55:58.965|    (INFO) Setting provided option multiplication_model=okuto for TransientPropagation
|14:55:58.965|    (INFO) Setting provided option file_name=transient_data_laser_gamma905nm_okuto_100photons_9 for ROOTObjectWriter
|14:55:58.979|  (STATUS) Welcome to Allpix^2 v3.0.3
|14:55:58.980|  (STATUS) Initialized PRNG with configured seed 9
|14:56:06.808|  (STATUS) Loading module GeometryBuilderGeant4
|14:56:06.809|    (INFO) [C:GeometryBuilderGeant4] Detected Geant4 multithreading capabilities, enabling multithreading support
|14:56:06.810|  (STATUS) Loading module DepositionLaser
|14:56:06.810|    (INFO) Setting provided option number_of_photons=100 for DepositionLaser
|14:56:06.823|  (STATUS) Loading module ElectricFieldReader
|14:56:06.882|  (STATUS) Loading module WeightingPotentialReader
|14:56:06.882|  (STATUS) Loading module DopingProfileReader      
|14:56:06.882|  (STATUS) Loading module TransientPropagation
|14:56:06.883|  (STATUS) Loading module PulseTransfer        
|14:56:06.883|  (STATUS) Loading module ROOTObjectWriter
|14:56:06.883|    (INFO) Setting provided option file_name=transient_data_laser_gamma905nm_okuto_100photons_9 for ROOTObjectWriter
|14:56:06.883|  (STATUS) Loaded 8 modules
|14:56:06.883|  (STATUS) Multithreading enabled, processing events in parallel on 4 worker threads
|14:56:06.883|  (STATUS) Allocating a total of 1024 event slots for buffered modules
|14:56:06.883|  (STATUS) Initializing 8 module instantiations
|14:56:07.083|    (INFO) [I:GeometryBuilderGeant4] No overlapping volumes detected.
|14:56:07.772|    (INFO) [I:ElectricFieldReader:detector1] Reading field data: 0%
|14:56:11.054|    (INFO) [I:ElectricFieldReader:detector1] Reading field data: 1%
|14:56:14.665|    (INFO) [I:ElectricFieldReader:detector1] Reading field data: 2% 
|14:56:19.275|    (INFO) [I:ElectricFieldReader:detector1] Reading field data: 3% 
|14:56:23.666|    (INFO) [I:ElectricFieldReader:detector1] Reading field data: 4% 
|14:56:27.063|    (INFO) [I:ElectricFieldReader:detector1] Reading field data: 5% 
|14:56:30.816|    (INFO) [I:ElectricFieldReader:detector1] Reading field data: 6% 
|14:56:35.864|    (INFO) [I:ElectricFieldReader:detector1] Reading field data: 7% 
|14:56:41.772|    (INFO) [I:ElectricFieldReader:detector1] Reading field data: 8% 
|14:56:47.213|    (INFO) [I:ElectricFieldReader:detector1] Reading field data: 9% 
|14:56:52.997|    (INFO) [I:ElectricFieldReader:detector1] Reading field data: 10%
|14:56:59.022|    (INFO) [I:ElectricFieldReader:detector1] Reading field data: 11% 
|14:57:05.191|    (INFO) [I:ElectricFieldReader:detector1] Reading field data: 12% 
|14:57:10.022|    (INFO) [I:ElectricFieldReader:detector1] Reading field data: 13% 
|14:57:15.203|    (INFO) [I:ElectricFieldReader:detector1] Reading field data: 14% 
|14:57:19.676|    (INFO) [I:ElectricFieldReader:detector1] Reading field data: 15% 
|14:57:23.894|    (INFO) [I:ElectricFieldReader:detector1] Reading field data: 16% 
|14:57:29.485|    (INFO) [I:ElectricFieldReader:detector1] Reading field data: 17% 
|14:57:36.024|    (INFO) [I:ElectricFieldReader:detector1] Reading field data: 18% 
|14:57:40.943|    (INFO) [I:ElectricFieldReader:detector1] Reading field data: 19% 
|14:57:44.910|    (INFO) [I:ElectricFieldReader:detector1] Reading field data: 20% 
|14:57:48.590|    (INFO) [I:ElectricFieldReader:detector1] Reading field data: 21% 
|14:57:52.475|    (INFO) [I:ElectricFieldReader:detector1] Reading field data: 22% 
|14:57:56.233|    (INFO) [I:ElectricFieldReader:detector1] Reading field data: 23% 
|14:57:59.948|    (INFO) [I:ElectricFieldReader:detector1] Reading field data: 24% 
|14:58:03.876|    (INFO) [I:ElectricFieldReader:detector1] Reading field data: 25% 
|14:58:07.876|    (INFO) [I:ElectricFieldReader:detector1] Reading field data: 26% 
|14:58:12.459|    (INFO) [I:ElectricFieldReader:detector1] Reading field data: 27% 
|14:58:17.415|    (INFO) [I:ElectricFieldReader:detector1] Reading field data: 28% 
|14:58:22.645|    (INFO) [I:ElectricFieldReader:detector1] Reading field data: 29% 
|14:58:26.472|    (INFO) [I:ElectricFieldReader:detector1] Reading field data: 30% 
|14:58:30.391|    (INFO) [I:ElectricFieldReader:detector1] Reading field data: 31% 
|14:58:34.554|    (INFO) [I:ElectricFieldReader:detector1] Reading field data: 32% 
|14:58:39.890|    (INFO) [I:ElectricFieldReader:detector1] Reading field data: 33% 
|14:58:46.370|    (INFO) [I:ElectricFieldReader:detector1] Reading field data: 34% 
|14:58:50.881|    (INFO) [I:ElectricFieldReader:detector1] Reading field data: 35% 
|14:58:55.750|    (INFO) [I:ElectricFieldReader:detector1] Reading field data: 36% 
|14:58:59.958|    (INFO) [I:ElectricFieldReader:detector1] Reading field data: 37% 
|14:59:03.117|    (INFO) [I:ElectricFieldReader:detector1] Reading field data: 38% 
|14:59:06.778|    (INFO) [I:ElectricFieldReader:detector1] Reading field data: 39% 
|14:59:10.032|    (INFO) [I:ElectricFieldReader:detector1] Reading field data: 40% 
|14:59:13.207|    (INFO) [I:ElectricFieldReader:detector1] Reading field data: 41% 
|14:59:16.356|    (INFO) [I:ElectricFieldReader:detector1] Reading field data: 42% 
|14:59:19.217|    (INFO) [I:ElectricFieldReader:detector1] Reading field data: 43% 
|14:59:22.544|    (INFO) [I:ElectricFieldReader:detector1] Reading field data: 44% 
|14:59:25.914|    (INFO) [I:ElectricFieldReader:detector1] Reading field data: 45% 
|14:59:28.857|    (INFO) [I:ElectricFieldReader:detector1] Reading field data: 46% 
|14:59:31.860|    (INFO) [I:ElectricFieldReader:detector1] Reading field data: 47% 
|14:59:35.680|    (INFO) [I:ElectricFieldReader:detector1] Reading field data: 48% 
|14:59:38.301|    (INFO) [I:ElectricFieldReader:detector1] Reading field data: 49% 
|14:59:41.061|    (INFO) [I:ElectricFieldReader:detector1] Reading field data: 50% 
|14:59:44.047|    (INFO) [I:ElectricFieldReader:detector1] Reading field data: 51% 
|14:59:46.754|    (INFO) [I:ElectricFieldReader:detector1] Reading field data: 52% 
|14:59:49.488|    (INFO) [I:ElectricFieldReader:detector1] Reading field data: 53% 
|14:59:52.108|    (INFO) [I:ElectricFieldReader:detector1] Reading field data: 54% 
|14:59:54.772|    (INFO) [I:ElectricFieldReader:detector1] Reading field data: 55% 
|14:59:57.507|    (INFO) [I:ElectricFieldReader:detector1] Reading field data: 56% 
|15:00:00.515|    (INFO) [I:ElectricFieldReader:detector1] Reading field data: 57% 
|15:00:04.359|    (INFO) [I:ElectricFieldReader:detector1] Reading field data: 58% 
|15:00:08.220|    (INFO) [I:ElectricFieldReader:detector1] Reading field data: 59% 
|15:00:11.013|    (INFO) [I:ElectricFieldReader:detector1] Reading field data: 60% 
|15:00:13.997|    (INFO) [I:ElectricFieldReader:detector1] Reading field data: 61% 
|15:00:19.469|    (INFO) [I:ElectricFieldReader:detector1] Reading field data: 62% 
|15:00:23.654|    (INFO) [I:ElectricFieldReader:detector1] Reading field data: 63% 
|15:00:27.088|    (INFO) [I:ElectricFieldReader:detector1] Reading field data: 64% 
|15:00:30.568|    (INFO) [I:ElectricFieldReader:detector1] Reading field data: 65% 
|15:00:34.318|    (INFO) [I:ElectricFieldReader:detector1] Reading field data: 66% 
|15:00:37.699|    (INFO) [I:ElectricFieldReader:detector1] Reading field data: 67% 
|15:00:40.935|    (INFO) [I:ElectricFieldReader:detector1] Reading field data: 68% 
|15:00:45.271|    (INFO) [I:ElectricFieldReader:detector1] Reading field data: 69% 
|15:00:50.389|    (INFO) [I:ElectricFieldReader:detector1] Reading field data: 70% 
|15:00:53.723|    (INFO) [I:ElectricFieldReader:detector1] Reading field data: 71% 
|15:00:57.309|    (INFO) [I:ElectricFieldReader:detector1] Reading field data: 72% 
|15:01:00.670|    (INFO) [I:ElectricFieldReader:detector1] Reading field data: 73% 
|15:01:04.320|    (INFO) [I:ElectricFieldReader:detector1] Reading field data: 74% 
|15:01:09.140|    (INFO) [I:ElectricFieldReader:detector1] Reading field data: 75% 
|15:01:13.109|    (INFO) [I:ElectricFieldReader:detector1] Reading field data: 76% 
|15:01:17.898|    (INFO) [I:ElectricFieldReader:detector1] Reading field data: 77% 
|15:01:21.776|    (INFO) [I:ElectricFieldReader:detector1] Reading field data: 78% 
|15:01:25.528|    (INFO) [I:ElectricFieldReader:detector1] Reading field data: 79% 
|15:01:30.023|    (INFO) [I:ElectricFieldReader:detector1] Reading field data: 80% 
|15:01:33.708|    (INFO) [I:ElectricFieldReader:detector1] Reading field data: 81% 
|15:01:37.122|    (INFO) [I:ElectricFieldReader:detector1] Reading field data: 82% 
|15:01:40.030|    (INFO) [I:ElectricFieldReader:detector1] Reading field data: 83% 
|15:01:42.592|    (INFO) [I:ElectricFieldReader:detector1] Reading field data: 84% 
|15:01:45.310|    (INFO) [I:ElectricFieldReader:detector1] Reading field data: 85% 
|15:01:48.164|    (INFO) [I:ElectricFieldReader:detector1] Reading field data: 86% 
|15:01:51.322|    (INFO) [I:ElectricFieldReader:detector1] Reading field data: 87% 
|15:01:55.181|    (INFO) [I:ElectricFieldReader:detector1] Reading field data: 88% 
|15:01:58.688|    (INFO) [I:ElectricFieldReader:detector1] Reading field data: 89% 
|15:02:02.461|    (INFO) [I:ElectricFieldReader:detector1] Reading field data: 90% 
|15:02:05.652|    (INFO) [I:ElectricFieldReader:detector1] Reading field data: 91% 
|15:02:09.002|    (INFO) [I:ElectricFieldReader:detector1] Reading field data: 92% 
|15:02:13.409|    (INFO) [I:ElectricFieldReader:detector1] Reading field data: 93% 
|15:02:17.650|    (INFO) [I:ElectricFieldReader:detector1] Reading field data: 94% 
|15:02:21.843|    (INFO) [I:ElectricFieldReader:detector1] Reading field data: 95% 
|15:02:27.667|    (INFO) [I:ElectricFieldReader:detector1] Reading field data: 96% 
|15:02:32.246|    (INFO) [I:ElectricFieldReader:detector1] Reading field data: 97% 
|15:02:37.257|    (INFO) [I:ElectricFieldReader:detector1] Reading field data: 98% 
|15:02:41.001|    (INFO) [I:ElectricFieldReader:detector1] Reading field data: 99% 
|15:02:44.182|    (INFO) [I:ElectricFieldReader:detector1] Reading field data: finished.
|15:02:44.395|    (INFO) [I:ElectricFieldReader:detector1] Set electric field with 300x300x300 cells
|15:02:44.395|    (INFO) [I:ElectricFieldReader:detector1] Pixels of this detector are not rectangular, will not perform further field matching checks
|15:02:44.396|   (DEBUG) [I:WeightingPotentialReader:detector1] Weighting potential maps to PIXEL_FULL
|15:02:44.396|   (TRACE) [I:WeightingPotentialReader:detector1] Fetching weighting potential from init file
|15:02:44.563|   (DEBUG) [I:WeightingPotentialReader:detector1] Assuming file type "INIT"
|15:02:44.563| (WARNING) [I:WeightingPotentialReader:detector1] No field units provided, interpreting field data in internal units, this might lead to unexpected results.
|15:02:44.564|   (TRACE) [I:WeightingPotentialReader:detector1] Header of file "/afs/cern.ch/work/j/jsabater/unige/FASER/allpix-squared_new/allpix-squared/run/gamma905nm/mesh_converter/gamma905nm_ElectrostaticPotential.init" is 
                                                                Allpix Squared v3.0.0-274-g5b1c4631c-dirty TCAD Mesh Converter, observable: ElectrostaticPotential
|15:02:44.564|   (DEBUG) [I:WeightingPotentialReader:detector1] INIT file states internal units, so does the parser
|15:02:44.600|    (INFO) [I:WeightingPotentialReader:detector1] Reading field data: 0%
|15:02:44.928|    (INFO) [I:WeightingPotentialReader:detector1] Reading field data: 1%
|15:02:45.399|    (INFO) [I:WeightingPotentialReader:detector1] Reading field data: 2% 
|15:02:45.884|    (INFO) [I:WeightingPotentialReader:detector1] Reading field data: 3% 
|15:02:46.553|    (INFO) [I:WeightingPotentialReader:detector1] Reading field data: 4% 
|15:02:47.025|    (INFO) [I:WeightingPotentialReader:detector1] Reading field data: 5% 
|15:02:47.657|    (INFO) [I:WeightingPotentialReader:detector1] Reading field data: 6% 
|15:02:48.137|    (INFO) [I:WeightingPotentialReader:detector1] Reading field data: 7% 
|15:02:48.597|    (INFO) [I:WeightingPotentialReader:detector1] Reading field data: 8% 
|15:02:49.050|    (INFO) [I:WeightingPotentialReader:detector1] Reading field data: 9% 
|15:02:49.530|    (INFO) [I:WeightingPotentialReader:detector1] Reading field data: 10%
|15:02:50.011|    (INFO) [I:WeightingPotentialReader:detector1] Reading field data: 11% 
|15:02:50.495|    (INFO) [I:WeightingPotentialReader:detector1] Reading field data: 12% 
|15:02:51.021|    (INFO) [I:WeightingPotentialReader:detector1] Reading field data: 13% 
|15:02:51.515|    (INFO) [I:WeightingPotentialReader:detector1] Reading field data: 14% 
|15:02:52.020|    (INFO) [I:WeightingPotentialReader:detector1] Reading field data: 15% 
|15:02:52.514|    (INFO) [I:WeightingPotentialReader:detector1] Reading field data: 16% 
|15:02:53.034|    (INFO) [I:WeightingPotentialReader:detector1] Reading field data: 17% 
|15:02:53.534|    (INFO) [I:WeightingPotentialReader:detector1] Reading field data: 18% 
|15:02:54.019|    (INFO) [I:WeightingPotentialReader:detector1] Reading field data: 19% 
|15:02:54.545|    (INFO) [I:WeightingPotentialReader:detector1] Reading field data: 20% 
|15:02:55.019|    (INFO) [I:WeightingPotentialReader:detector1] Reading field data: 21% 
|15:02:55.520|    (INFO) [I:WeightingPotentialReader:detector1] Reading field data: 22% 
|15:02:56.007|    (INFO) [I:WeightingPotentialReader:detector1] Reading field data: 23% 
|15:02:56.522|    (INFO) [I:WeightingPotentialReader:detector1] Reading field data: 24% 
|15:02:57.003|    (INFO) [I:WeightingPotentialReader:detector1] Reading field data: 25% 
|15:02:57.607|    (INFO) [I:WeightingPotentialReader:detector1] Reading field data: 26% 
|15:02:58.213|    (INFO) [I:WeightingPotentialReader:detector1] Reading field data: 27% 
|15:02:58.969|    (INFO) [I:WeightingPotentialReader:detector1] Reading field data: 28% 
|15:02:59.701|    (INFO) [I:WeightingPotentialReader:detector1] Reading field data: 29% 
|15:03:00.521|    (INFO) [I:WeightingPotentialReader:detector1] Reading field data: 30% 
|15:03:01.309|    (INFO) [I:WeightingPotentialReader:detector1] Reading field data: 31% 
|15:03:02.105|    (INFO) [I:WeightingPotentialReader:detector1] Reading field data: 32% 
|15:03:02.929|    (INFO) [I:WeightingPotentialReader:detector1] Reading field data: 33% 
|15:03:03.771|    (INFO) [I:WeightingPotentialReader:detector1] Reading field data: 34% 
|15:03:04.233|    (INFO) [I:WeightingPotentialReader:detector1] Reading field data: 35% 
|15:03:04.776|    (INFO) [I:WeightingPotentialReader:detector1] Reading field data: 36% 
|15:03:05.453|    (INFO) [I:WeightingPotentialReader:detector1] Reading field data: 37% 
|15:03:06.081|    (INFO) [I:WeightingPotentialReader:detector1] Reading field data: 38% 
|15:03:06.811|    (INFO) [I:WeightingPotentialReader:detector1] Reading field data: 39% 
|15:03:07.531|    (INFO) [I:WeightingPotentialReader:detector1] Reading field data: 40% 
|15:03:08.256|    (INFO) [I:WeightingPotentialReader:detector1] Reading field data: 41% 
|15:03:08.837|    (INFO) [I:WeightingPotentialReader:detector1] Reading field data: 42% 
|15:03:09.494|    (INFO) [I:WeightingPotentialReader:detector1] Reading field data: 43% 
|15:03:10.176|    (INFO) [I:WeightingPotentialReader:detector1] Reading field data: 44% 
|15:03:10.999|    (INFO) [I:WeightingPotentialReader:detector1] Reading field data: 45% 
|15:03:11.776|    (INFO) [I:WeightingPotentialReader:detector1] Reading field data: 46% 
|15:03:12.600|    (INFO) [I:WeightingPotentialReader:detector1] Reading field data: 47% 
|15:03:13.345|    (INFO) [I:WeightingPotentialReader:detector1] Reading field data: 48% 
|15:03:14.166|    (INFO) [I:WeightingPotentialReader:detector1] Reading field data: 49% 
|15:03:14.923|    (INFO) [I:WeightingPotentialReader:detector1] Reading field data: 50% 
|15:03:16.008|    (INFO) [I:WeightingPotentialReader:detector1] Reading field data: 51% 
|15:03:16.826|    (INFO) [I:WeightingPotentialReader:detector1] Reading field data: 52% 
|15:03:17.505|    (INFO) [I:WeightingPotentialReader:detector1] Reading field data: 53% 
|15:03:17.994|    (INFO) [I:WeightingPotentialReader:detector1] Reading field data: 54% 
|15:03:18.475|    (INFO) [I:WeightingPotentialReader:detector1] Reading field data: 55% 
|15:03:18.968|    (INFO) [I:WeightingPotentialReader:detector1] Reading field data: 56% 
|15:03:19.687|    (INFO) [I:WeightingPotentialReader:detector1] Reading field data: 57% 
|15:03:20.338|    (INFO) [I:WeightingPotentialReader:detector1] Reading field data: 58% 
|15:03:21.046|    (INFO) [I:WeightingPotentialReader:detector1] Reading field data: 59% 
|15:03:21.860|    (INFO) [I:WeightingPotentialReader:detector1] Reading field data: 60% 
|15:03:22.764|    (INFO) [I:WeightingPotentialReader:detector1] Reading field data: 61% 
|15:03:23.545|    (INFO) [I:WeightingPotentialReader:detector1] Reading field data: 62% 
|15:03:24.504|    (INFO) [I:WeightingPotentialReader:detector1] Reading field data: 63% 
|15:03:25.233|    (INFO) [I:WeightingPotentialReader:detector1] Reading field data: 64% 
|15:03:26.030|    (INFO) [I:WeightingPotentialReader:detector1] Reading field data: 65% 
|15:03:26.693|    (INFO) [I:WeightingPotentialReader:detector1] Reading field data: 66% 
|15:03:27.522|    (INFO) [I:WeightingPotentialReader:detector1] Reading field data: 67% 
|15:03:28.454|    (INFO) [I:WeightingPotentialReader:detector1] Reading field data: 68% 
|15:03:29.153|    (INFO) [I:WeightingPotentialReader:detector1] Reading field data: 69% 
|15:03:29.917|    (INFO) [I:WeightingPotentialReader:detector1] Reading field data: 70% 
|15:03:30.495|    (INFO) [I:WeightingPotentialReader:detector1] Reading field data: 71% 
|15:03:31.105|    (INFO) [I:WeightingPotentialReader:detector1] Reading field data: 72% 
|15:03:31.899|    (INFO) [I:WeightingPotentialReader:detector1] Reading field data: 73% 
|15:03:32.391|    (INFO) [I:WeightingPotentialReader:detector1] Reading field data: 74% 
|15:03:32.875|    (INFO) [I:WeightingPotentialReader:detector1] Reading field data: 75% 
|15:03:33.307|    (INFO) [I:WeightingPotentialReader:detector1] Reading field data: 76% 
|15:03:33.756|    (INFO) [I:WeightingPotentialReader:detector1] Reading field data: 77% 
|15:03:34.303|    (INFO) [I:WeightingPotentialReader:detector1] Reading field data: 78% 
|15:03:34.808|    (INFO) [I:WeightingPotentialReader:detector1] Reading field data: 79% 
|15:03:35.255|    (INFO) [I:WeightingPotentialReader:detector1] Reading field data: 80% 
|15:03:35.727|    (INFO) [I:WeightingPotentialReader:detector1] Reading field data: 81% 
|15:03:36.207|    (INFO) [I:WeightingPotentialReader:detector1] Reading field data: 82% 
|15:03:36.783|    (INFO) [I:WeightingPotentialReader:detector1] Reading field data: 83% 
|15:03:37.333|    (INFO) [I:WeightingPotentialReader:detector1] Reading field data: 84% 
|15:03:37.759|    (INFO) [I:WeightingPotentialReader:detector1] Reading field data: 85% 
|15:03:38.190|    (INFO) [I:WeightingPotentialReader:detector1] Reading field data: 86% 
|15:03:38.623|    (INFO) [I:WeightingPotentialReader:detector1] Reading field data: 87% 
|15:03:39.079|    (INFO) [I:WeightingPotentialReader:detector1] Reading field data: 88% 
|15:03:39.686|    (INFO) [I:WeightingPotentialReader:detector1] Reading field data: 89% 
|15:03:40.124|    (INFO) [I:WeightingPotentialReader:detector1] Reading field data: 90% 
|15:03:40.563|    (INFO) [I:WeightingPotentialReader:detector1] Reading field data: 91% 
|15:03:41.009|    (INFO) [I:WeightingPotentialReader:detector1] Reading field data: 92% 
|15:03:41.464|    (INFO) [I:WeightingPotentialReader:detector1] Reading field data: 93% 
|15:03:41.956|    (INFO) [I:WeightingPotentialReader:detector1] Reading field data: 94% 
|15:03:42.582|    (INFO) [I:WeightingPotentialReader:detector1] Reading field data: 95% 
|15:03:43.070|    (INFO) [I:WeightingPotentialReader:detector1] Reading field data: 96% 
|15:03:43.543|    (INFO) [I:WeightingPotentialReader:detector1] Reading field data: 97% 
|15:03:43.999|    (INFO) [I:WeightingPotentialReader:detector1] Reading field data: 98% 
|15:03:44.594|    (INFO) [I:WeightingPotentialReader:detector1] Reading field data: 99% 
|15:03:44.979|    (INFO) [I:WeightingPotentialReader:detector1] Reading field data: finished.
|15:03:44.999|    (INFO) [I:WeightingPotentialReader:detector1] Set weighting field with 300x300x93 cells
|15:03:44.999|   (DEBUG) [I:WeightingPotentialReader:detector1] Weighting potential has offset of (0,0) fractions of the field size
|15:03:44.999|    (INFO) [I:WeightingPotentialReader:detector1] Pixels of this detector are not rectangular, will not perform further field matching checks
|15:03:45.266|    (INFO) [I:DopingProfileReader:detector1] Reading field data: 0%
|15:03:46.973|    (INFO) [I:DopingProfileReader:detector1] Reading field data: 1%
|15:03:48.911|    (INFO) [I:DopingProfileReader:detector1] Reading field data: 2% 
|15:03:51.158|    (INFO) [I:DopingProfileReader:detector1] Reading field data: 3% 
|15:03:53.756|    (INFO) [I:DopingProfileReader:detector1] Reading field data: 4% 
|15:03:56.918|    (INFO) [I:DopingProfileReader:detector1] Reading field data: 5% 
|15:03:59.296|    (INFO) [I:DopingProfileReader:detector1] Reading field data: 6% 
|15:04:02.323|    (INFO) [I:DopingProfileReader:detector1] Reading field data: 7% 
|15:04:05.193|    (INFO) [I:DopingProfileReader:detector1] Reading field data: 8% 
|15:04:07.398|    (INFO) [I:DopingProfileReader:detector1] Reading field data: 9% 
|15:04:09.319|    (INFO) [I:DopingProfileReader:detector1] Reading field data: 10%
|15:04:11.236|    (INFO) [I:DopingProfileReader:detector1] Reading field data: 11% 
|15:04:13.208|    (INFO) [I:DopingProfileReader:detector1] Reading field data: 12% 
|15:04:15.372|    (INFO) [I:DopingProfileReader:detector1] Reading field data: 13% 
|15:04:18.384|    (INFO) [I:DopingProfileReader:detector1] Reading field data: 14% 
|15:04:22.071|    (INFO) [I:DopingProfileReader:detector1] Reading field data: 15% 
|15:04:25.100|    (INFO) [I:DopingProfileReader:detector1] Reading field data: 16% 
|15:04:27.564|    (INFO) [I:DopingProfileReader:detector1] Reading field data: 17% 
|15:04:30.230|    (INFO) [I:DopingProfileReader:detector1] Reading field data: 18% 
|15:04:32.324|    (INFO) [I:DopingProfileReader:detector1] Reading field data: 19% 
|15:04:34.369|    (INFO) [I:DopingProfileReader:detector1] Reading field data: 20% 
|15:04:36.542|    (INFO) [I:DopingProfileReader:detector1] Reading field data: 21% 
|15:04:38.617|    (INFO) [I:DopingProfileReader:detector1] Reading field data: 22% 
|15:04:40.574|    (INFO) [I:DopingProfileReader:detector1] Reading field data: 23% 
|15:04:43.109|    (INFO) [I:DopingProfileReader:detector1] Reading field data: 24% 
|15:04:45.520|    (INFO) [I:DopingProfileReader:detector1] Reading field data: 25% 
|15:04:47.710|    (INFO) [I:DopingProfileReader:detector1] Reading field data: 26% 
|15:04:50.335|    (INFO) [I:DopingProfileReader:detector1] Reading field data: 27% 
|15:04:52.969|    (INFO) [I:DopingProfileReader:detector1] Reading field data: 28% 
|15:04:55.334|    (INFO) [I:DopingProfileReader:detector1] Reading field data: 29% 
|15:04:57.754|    (INFO) [I:DopingProfileReader:detector1] Reading field data: 30% 
|15:05:00.534|    (INFO) [I:DopingProfileReader:detector1] Reading field data: 31% 
|15:05:03.315|    (INFO) [I:DopingProfileReader:detector1] Reading field data: 32% 
|15:05:05.398|    (INFO) [I:DopingProfileReader:detector1] Reading field data: 33% 
|15:05:07.402|    (INFO) [I:DopingProfileReader:detector1] Reading field data: 34% 
|15:05:09.496|    (INFO) [I:DopingProfileReader:detector1] Reading field data: 35% 
|15:05:11.958|    (INFO) [I:DopingProfileReader:detector1] Reading field data: 36% 
|15:05:14.493|    (INFO) [I:DopingProfileReader:detector1] Reading field data: 37% 
|15:05:17.033|    (INFO) [I:DopingProfileReader:detector1] Reading field data: 38% 
|15:05:20.008|    (INFO) [I:DopingProfileReader:detector1] Reading field data: 39% 
|15:05:22.501|    (INFO) [I:DopingProfileReader:detector1] Reading field data: 40% 
|15:05:24.649|    (INFO) [I:DopingProfileReader:detector1] Reading field data: 41% 
|15:05:26.882|    (INFO) [I:DopingProfileReader:detector1] Reading field data: 42% 
|15:05:29.310|    (INFO) [I:DopingProfileReader:detector1] Reading field data: 43% 
|15:05:31.413|    (INFO) [I:DopingProfileReader:detector1] Reading field data: 44% 
|15:05:33.538|    (INFO) [I:DopingProfileReader:detector1] Reading field data: 45% 
|15:05:36.065|    (INFO) [I:DopingProfileReader:detector1] Reading field data: 46% 
|15:05:38.935|    (INFO) [I:DopingProfileReader:detector1] Reading field data: 47% 
|15:05:42.688|    (INFO) [I:DopingProfileReader:detector1] Reading field data: 48% 
|15:05:46.899|    (INFO) [I:DopingProfileReader:detector1] Reading field data: 49% 
|15:05:50.546|    (INFO) [I:DopingProfileReader:detector1] Reading field data: 50% 
|15:05:52.977|    (INFO) [I:DopingProfileReader:detector1] Reading field data: 51% 
|15:05:55.047|    (INFO) [I:DopingProfileReader:detector1] Reading field data: 52% 
|15:05:57.563|    (INFO) [I:DopingProfileReader:detector1] Reading field data: 53% 
|15:06:00.608|    (INFO) [I:DopingProfileReader:detector1] Reading field data: 54% 
|15:06:03.648|    (INFO) [I:DopingProfileReader:detector1] Reading field data: 55% 
|15:06:06.829|    (INFO) [I:DopingProfileReader:detector1] Reading field data: 56% 
|15:06:09.163|    (INFO) [I:DopingProfileReader:detector1] Reading field data: 57% 
|15:06:11.346|    (INFO) [I:DopingProfileReader:detector1] Reading field data: 58% 
|15:06:14.813|    (INFO) [I:DopingProfileReader:detector1] Reading field data: 59% 
|15:06:17.585|    (INFO) [I:DopingProfileReader:detector1] Reading field data: 60% 
|15:06:19.993|    (INFO) [I:DopingProfileReader:detector1] Reading field data: 61% 
|15:06:23.730|    (INFO) [I:DopingProfileReader:detector1] Reading field data: 62% 
|15:06:27.117|    (INFO) [I:DopingProfileReader:detector1] Reading field data: 63% 
|15:06:30.483|    (INFO) [I:DopingProfileReader:detector1] Reading field data: 64% 
|15:06:33.632|    (INFO) [I:DopingProfileReader:detector1] Reading field data: 65% 
|15:06:35.901|    (INFO) [I:DopingProfileReader:detector1] Reading field data: 66% 
|15:06:38.054|    (INFO) [I:DopingProfileReader:detector1] Reading field data: 67% 
|15:06:40.144|    (INFO) [I:DopingProfileReader:detector1] Reading field data: 68% 
|15:06:42.721|    (INFO) [I:DopingProfileReader:detector1] Reading field data: 69% 
|15:06:45.323|    (INFO) [I:DopingProfileReader:detector1] Reading field data: 70% 
|15:06:47.889|    (INFO) [I:DopingProfileReader:detector1] Reading field data: 71% 
|15:06:51.151|    (INFO) [I:DopingProfileReader:detector1] Reading field data: 72% 
|15:06:54.917|    (INFO) [I:DopingProfileReader:detector1] Reading field data: 73% 
|15:06:58.305|    (INFO) [I:DopingProfileReader:detector1] Reading field data: 74% 
|15:07:01.286|    (INFO) [I:DopingProfileReader:detector1] Reading field data: 75% 
|15:07:04.711|    (INFO) [I:DopingProfileReader:detector1] Reading field data: 76% 
|15:07:08.440|    (INFO) [I:DopingProfileReader:detector1] Reading field data: 77% 
|15:07:12.022|    (INFO) [I:DopingProfileReader:detector1] Reading field data: 78% 
|15:07:14.963|    (INFO) [I:DopingProfileReader:detector1] Reading field data: 79% 
|15:07:17.663|    (INFO) [I:DopingProfileReader:detector1] Reading field data: 80% 
|15:07:20.174|    (INFO) [I:DopingProfileReader:detector1] Reading field data: 81% 
|15:07:22.938|    (INFO) [I:DopingProfileReader:detector1] Reading field data: 82% 
|15:07:25.081|    (INFO) [I:DopingProfileReader:detector1] Reading field data: 83% 
|15:07:27.176|    (INFO) [I:DopingProfileReader:detector1] Reading field data: 84% 
|15:07:29.193|    (INFO) [I:DopingProfileReader:detector1] Reading field data: 85% 
|15:07:31.232|    (INFO) [I:DopingProfileReader:detector1] Reading field data: 86% 
|15:07:33.451|    (INFO) [I:DopingProfileReader:detector1] Reading field data: 87% 
|15:07:36.077|    (INFO) [I:DopingProfileReader:detector1] Reading field data: 88% 
|15:07:38.654|    (INFO) [I:DopingProfileReader:detector1] Reading field data: 89% 
|15:07:41.242|    (INFO) [I:DopingProfileReader:detector1] Reading field data: 90% 
|15:07:43.502|    (INFO) [I:DopingProfileReader:detector1] Reading field data: 91% 
|15:07:45.804|    (INFO) [I:DopingProfileReader:detector1] Reading field data: 92% 
|15:07:48.076|    (INFO) [I:DopingProfileReader:detector1] Reading field data: 93% 
|15:07:50.305|    (INFO) [I:DopingProfileReader:detector1] Reading field data: 94% 
|15:07:52.223|    (INFO) [I:DopingProfileReader:detector1] Reading field data: 95% 
|15:07:54.163|    (INFO) [I:DopingProfileReader:detector1] Reading field data: 96% 
|15:07:56.216|    (INFO) [I:DopingProfileReader:detector1] Reading field data: 97% 
|15:07:58.330|    (INFO) [I:DopingProfileReader:detector1] Reading field data: 98% 
|15:08:00.209|    (INFO) [I:DopingProfileReader:detector1] Reading field data: 99% 
|15:08:02.205|    (INFO) [I:DopingProfileReader:detector1] Reading field data: finished.
|15:08:02.205|    (INFO) [I:DopingProfileReader:detector1] Set doping concentration map with 300x300x300 cells
|15:08:02.205|    (INFO) [I:DopingProfileReader:detector1] Pixels of this detector are not rectangular, will not perform further field matching checks
|15:08:02.288|  (STATUS) Initialized 8 module instantiations
|15:08:02.290|   (TRACE) [T:WeightingPotentialReader:detector1] Initializing thread 22951805396544
|15:08:02.290|   (TRACE) [T:WeightingPotentialReader:detector1] Initializing thread 22951803295296
|15:08:02.291|   (TRACE) [T:WeightingPotentialReader:detector1] Initializing thread 22951801194048
|15:08:02.292|   (TRACE) [T:WeightingPotentialReader:detector1] Initializing thread 22951799092800
|15:08:02.292|  (STATUS) Starting event loop
|15:08:02.292|    (INFO) Starting event 1 with seed 9564989169851117143
|15:08:02.292|    (INFO) Starting event 2 with seed 9216123640673850126
|15:08:02.292|    (INFO) Starting event 4 with seed 15271652894435344899
|15:08:02.292|    (INFO) Starting event 3 with seed 16131130373544109587
|15:08:02.292|    (INFO) (Event 1) [R:DepositionLaser] Event 1: photon 1 of 1
|15:08:02.292|    (INFO) (Event 3) [R:DepositionLaser] Event 3: photon 1 of 1
|15:08:02.292|    (INFO) (Event 4) [R:DepositionLaser] Event 4: photon 1 of 1 
|15:08:02.292|    (INFO) (Event 2) [R:DepositionLaser] Event 2: photon 1 of 1 
|15:08:02.292|    (INFO) (Event 3) [R:DepositionLaser] Registered hits in 1 detectors
|15:08:02.292|    (INFO) (Event 2) [R:DepositionLaser] Registered hits in 1 detectors
|15:08:02.292|    (INFO) (Event 3) [R:DepositionLaser]     detector1: 1 hits
|15:08:02.292|    (INFO) (Event 1) [R:DepositionLaser] Registered hits in 1 detectors
|15:08:02.292|    (INFO) (Event 2) [R:DepositionLaser]     detector1: 1 hits
|15:08:02.292|    (INFO) (Event 4) [R:DepositionLaser] Registered hits in 1 detectors
|15:08:02.293|    (INFO) (Event 1) [R:DepositionLaser]     detector1: 1 hits
|15:08:02.293|    (INFO) (Event 4) [R:DepositionLaser]     detector1: 1 hits
|15:08:17.635|    (INFO) (Event 2) [R:PulseTransfer:detector1] [further messages suppressed] Pulses available - settings "timestep", "max_depth_distance" and "collect_from_implant" have no effect
|15:08:17.790|    (INFO) (Event 2) [R:PulseTransfer:detector1] Total charge induced on all pixels: -339e
|15:08:17.790|  (STATUS) Buffered 1, finished 0 of 10 events
|15:08:17.790|    (INFO) Starting event 5 with seed 4352328545201414233
|15:08:17.790|    (INFO) (Event 5) [R:DepositionLaser] Event 5: photon 1 of 1
|15:08:17.790|    (INFO) (Event 5) [R:DepositionLaser] Registered hits in 1 detectors
|15:08:17.790|    (INFO) (Event 5) [R:DepositionLaser]     detector1: 1 hits
|15:09:46.742|    (INFO) (Event 5) [R:PulseTransfer:detector1] Total charge induced on all pixels: -1889e
|15:09:46.743|  (STATUS) Buffered 2, finished 0 of 10 events
|15:09:46.743|    (INFO) Starting event 6 with seed 327431547706047100
|15:09:46.743|    (INFO) (Event 6) [R:DepositionLaser] Event 6: photon 1 of 1
|15:09:46.743|    (INFO) (Event 6) [R:DepositionLaser] Registered hits in 1 detectors
|15:09:46.743|    (INFO) (Event 6) [R:DepositionLaser]     detector1: 1 hits
|15:10:27.132|    (INFO) (Event 4) [R:PulseTransfer:detector1] Total charge induced on all pixels: -281e
|15:10:27.133|  (STATUS) Buffered 3, finished 0 of 10 events
|15:10:27.133|    (INFO) Starting event 7 with seed 16606884217743022943
|15:10:27.133|    (INFO) (Event 7) [R:DepositionLaser] Event 7: photon 1 of 1
|15:10:27.133|    (INFO) (Event 7) [R:DepositionLaser] Registered hits in 1 detectors
|15:10:27.133|    (INFO) (Event 7) [R:DepositionLaser]     detector1: 1 hits
|15:10:37.037|    (INFO) (Event 1) [R:PulseTransfer:detector1] Total charge induced on all pixels: -2912e
|15:10:37.128|    (INFO) Finished event 1 with seed 9564989169851117143
|15:10:37.128|  (STATUS) Buffered 3, finished 1 of 10 events
|15:10:37.166|    (INFO) Finished event 2 with seed 9216123640673850126
|15:10:37.166|  (STATUS) Buffered 2, finished 2 of 10 events
|15:10:37.176|    (INFO) Starting event 8 with seed 2711129259375962099
|15:10:37.176|    (INFO) (Event 8) [R:DepositionLaser] Event 8: photon 1 of 1
|15:10:37.176|    (INFO) (Event 8) [R:DepositionLaser] Registered hits in 1 detectors
|15:10:37.176|    (INFO) (Event 8) [R:DepositionLaser]     detector1: 1 hits
|15:10:46.888|    (INFO) (Event 3) [R:PulseTransfer:detector1] Total charge induced on all pixels: -1987e
|15:10:47.033|    (INFO) Finished event 3 with seed 16131130373544109587
|15:10:47.034|  (STATUS) Buffered 2, finished 3 of 10 events
|15:10:47.174|    (INFO) Finished event 4 with seed 15271652894435344899
|15:10:47.175|  (STATUS) Buffered 1, finished 4 of 10 events
|15:10:47.270|    (INFO) Finished event 5 with seed 4352328545201414233
|15:10:47.270|  (STATUS) Buffered 0, finished 5 of 10 events
|15:10:47.294|    (INFO) Starting event 9 with seed 16244941314975946790
|15:10:47.294|    (INFO) (Event 9) [R:DepositionLaser] Event 9: photon 1 of 1
|15:10:47.294|    (INFO) (Event 9) [R:DepositionLaser] Registered hits in 1 detectors
|15:10:47.294|    (INFO) (Event 9) [R:DepositionLaser]     detector1: 1 hits
|15:10:55.626| (WARNING) (Event 8) [R:TransientPropagation:detector1] Detected gain of 51, local electric field of 322.054kV/cm, diode seems to be in breakdown
|15:10:55.626| (WARNING) (Event 8) [R:TransientPropagation:detector1] Detected gain of 51, local electric field of 322.054kV/cm, diode seems to be in breakdown
|15:10:55.626| (WARNING) (Event 8) [R:TransientPropagation:detector1] Detected gain of 51, local electric field of 322.054kV/cm, diode seems to be in breakdown
|15:10:55.675| (WARNING) (Event 8) [R:TransientPropagation:detector1] Detected gain of 52, local electric field of 322.054kV/cm, diode seems to be in breakdown
|15:10:55.884| (WARNING) (Event 8) [R:TransientPropagation:detector1] Detected gain of 53, local electric field of 322.054kV/cm, diode seems to be in breakdown
|15:10:55.884| (WARNING) (Event 8) [R:TransientPropagation:detector1] Detected gain of 53, local electric field of 322.054kV/cm, diode seems to be in breakdown
|15:10:55.929| (WARNING) (Event 8) [R:TransientPropagation:detector1] Detected gain of 55, local electric field of 322.054kV/cm, diode seems to be in breakdown
|15:10:55.985| (WARNING) (Event 8) [R:TransientPropagation:detector1] Detected gain of 56, local electric field of 322.054kV/cm, diode seems to be in breakdown
|15:10:55.985| (WARNING) (Event 8) [R:TransientPropagation:detector1] Detected gain of 56, local electric field of 69.2441kV/cm, diode seems to be in breakdown
|15:11:27.484| (WARNING) (Event 7) [R:TransientPropagation:detector1] Found impact ionization shower with level larger than 30, interrupting
|15:11:27.485| (WARNING) (Event 7) [R:TransientPropagation:detector1] Found impact ionization shower with level larger than 30, interrupting
|15:11:27.485| (WARNING) (Event 7) [R:TransientPropagation:detector1] Found impact ionization shower with level larger than 30, interrupting
|15:11:27.485| (WARNING) (Event 7) [R:TransientPropagation:detector1] Found impact ionization shower with level larger than 30, interrupting
|15:11:27.569| (WARNING) (Event 7) [R:TransientPropagation:detector1] Found impact ionization shower with level larger than 30, interrupting
|15:11:27.570| (WARNING) (Event 7) [R:TransientPropagation:detector1] Found impact ionization shower with level larger than 30, interrupting
|15:11:27.570| (WARNING) (Event 7) [R:TransientPropagation:detector1] Found impact ionization shower with level larger than 30, interrupting
|15:11:27.570| (WARNING) (Event 7) [R:TransientPropagation:detector1] Found impact ionization shower with level larger than 30, interrupting
|15:11:27.570| (WARNING) (Event 7) [R:TransientPropagation:detector1] Found impact ionization shower with level larger than 30, interrupting
|15:11:27.718| (WARNING) (Event 7) [R:TransientPropagation:detector1] Found impact ionization shower with level larger than 30, interrupting
|15:11:27.718| (WARNING) (Event 7) [R:TransientPropagation:detector1] Found impact ionization shower with level larger than 30, interrupting
|15:12:31.038|    (INFO) (Event 7) [R:PulseTransfer:detector1] Total charge induced on all pixels: -2982e
|15:12:31.038|  (STATUS) Buffered 1, finished 5 of 10 events
|15:12:31.038|    (INFO) Starting event 10 with seed 406445274952594068
|15:12:31.038|    (INFO) (Event 10) [R:DepositionLaser] Event 10: photon 1 of 1
|15:12:31.038|    (INFO) (Event 10) [R:DepositionLaser] Registered hits in 0 detectors
|15:12:31.038|  (STATUS) Buffered 2, finished 5 of 10 events
|15:12:46.290|    (INFO) (Event 6) [R:PulseTransfer:detector1] Total charge induced on all pixels: -3386e
|15:12:46.373|    (INFO) Finished event 6 with seed 327431547706047100
|15:12:46.373|  (STATUS) Buffered 1, finished 6 of 10 events
|15:12:46.428|    (INFO) Finished event 7 with seed 16606884217743022943
|15:12:46.428|  (STATUS) Buffered 1, finished 7 of 10 events
|15:13:26.616|    (INFO) (Event 8) [R:PulseTransfer:detector1] Total charge induced on all pixels: -3112e
|15:13:26.704|    (INFO) Finished event 8 with seed 2711129259375962099
|15:13:26.705|  (STATUS) Buffered 1, finished 8 of 10 events
|15:14:06.510|    (INFO) (Event 9) [R:PulseTransfer:detector1] Total charge induced on all pixels: -2935e
|15:14:06.570|    (INFO) Finished event 9 with seed 16244941314975946790
|15:14:06.570|  (STATUS) Buffered 1, finished 9 of 10 events
|15:14:06.573|    (INFO) Finished event 10 with seed 406445274952594068
|15:14:06.573|  (STATUS) Buffered 0, finished 10 of 10 events
|15:14:06.574|  (STATUS) Finished run of 10 events           
|15:14:06.574|   (TRACE) [T:WeightingPotentialReader:detector1] Finalizing thread 22951805396544
|15:14:06.574|   (TRACE) [T:WeightingPotentialReader:detector1] Finalizing thread 22951801194048
|15:14:06.574|   (TRACE) [T:WeightingPotentialReader:detector1] Finalizing thread 22951803295296
|15:14:06.574|   (TRACE) [T:WeightingPotentialReader:detector1] Finalizing thread 22951799092800
|15:14:09.413|  (STATUS) [F:ROOTObjectWriter] Wrote 63 objects to 4 branches in file:
                                              /afs/cern.ch/work/j/jsabater/unige/FASER/allpix-squared_3p03/allpix-squared/run/gamma905nm/allpix/output/transient_data_laser_gamma905nm_okuto_100photons_9.root
|15:14:09.448|  (STATUS) Finalization completed
|15:14:09.448| (WARNING) Unused configuration keys in section ElectricFieldReader:detector1:
                         output_plots_project
                         output_plots_single_pixel
                         output_plots_steps
|15:14:09.448| (WARNING) Unused configuration keys in section WeightingPotentialReader:detector1:
                         output_plots_single_pixel
                         output_plots_steps
|15:14:09.448| (WARNING) Unused configuration keys in section DopingProfileReader:detector1:
                         output_plots_single_pixel
                         output_plots_steps
|15:14:09.448| (WARNING) Unused configuration keys in section TransientPropagation:detector1:
                         ignore_magnetic_field
|15:14:09.448|  (STATUS) Executed 8 instantiations in 18 minutes 2 seconds, spending 63% of time in slowest instantiation TransientPropagation:detector1
|15:14:09.448|    (INFO)  Module GeometryBuilderGeant4 took 194.8ms
|15:14:09.448|    (INFO)  Module DepositionLaser took 28.2516ms
|15:14:09.448|    (INFO)  Module ElectricFieldReader:detector1 took 397.3s
|15:14:09.448|    (INFO)  Module WeightingPotentialReader:detector1 took 60.6032s
|15:14:09.449|    (INFO)  Module DopingProfileReader:detector1 took 257.206s
|15:14:09.449|    (INFO)  Module TransientPropagation:detector1 took 1234.9s
|15:14:09.449|    (INFO)  Module PulseTransfer:detector1 took 5.84244s
|15:14:09.449|    (INFO)  Module ROOTObjectWriter took 3.52211s
|15:14:09.449|  (STATUS) Average processing time is 36428.2ms/event, event generation at 0 Hz
|15:14:09.449|  (STATUS) This corresponds to a processing time of 145713ms/event per worker
'/afs/cern.ch/work/j/jsabater/unige/FASER/allpix-squared_3p03/allpix-squared/run/gamma905nm/allpix/output/transient_data_laser_gamma905nm_okuto_100photons_9.root' -> '/eos/user/j/jsabater/unige/gamma905nm/allpix/transient_data_laser_gamma905nm_okuto_100photons_9.root'
'/afs/cern.ch/work/j/jsabater/unige/FASER/allpix-squared_3p03/allpix-squared/run/gamma905nm/allpix/output/transient_modules_laser_gamma905nm_okuto_100photons_9.root' -> '/eos/user/j/jsabater/unige/gamma905nm/allpix/transient_modules_laser_gamma905nm_okuto_100photons_9.root'
removed '/afs/cern.ch/work/j/jsabater/unige/FASER/allpix-squared_3p03/allpix-squared/run/gamma905nm/allpix/output/transient_data_laser_gamma905nm_okuto_100photons_9.root'
removed '/afs/cern.ch/work/j/jsabater/unige/FASER/allpix-squared_3p03/allpix-squared/run/gamma905nm/allpix/output/transient_modules_laser_gamma905nm_okuto_100photons_9.root'
