[7mlsetup              [0m lsetup <tool1> [ <tool2> ...] (see lsetup -h):
[7m lsetup asetup      [0m  (or asetup) to setup an Athena release
[7m lsetup astyle      [0m  ATLAS style macros
[7m lsetup atlantis    [0m  Atlantis: event display
[7m lsetup eiclient    [0m  Event Index 
[7m lsetup emi         [0m  EMI: grid middleware user interface 
[7m lsetup lcgenv      [0m  lcgenv: setup tools from cvmfs SFT repository
[7m lsetup panda       [0m  Panda: Production ANd Distributed Analysis
[7m lsetup pyami       [0m  pyAMI: ATLAS Metadata Interface python client
[7m lsetup root        [0m  ROOT data processing framework
[7m lsetup rucio       [0m  distributed data management system client
[7m lsetup scikit      [0m  python data analysis ecosystem
[7m lsetup views       [0m  Set up a full LCG release
[7m lsetup xcache      [0m  XRootD local proxy cache
[7m lsetup xrootd      [0m  XRootD data access
[7madvancedTools       [0m advanced tools menu
[7mdiagnostics         [0m diagnostic tools menu
[7mhelpMe              [0m more help
[7minstallPip          [0m install relocatable pip modules locally
[7minstallRpm          [0m install relocatable rpms locally
[7mprintMenu           [0m show this menu
[7mqueryC              [0m find / whatis container query
[7mshowVersions        [0m show versions of installed software

Detected Red Hat Enterprise Linux 9
No explicit LCG version set, using LCG_104.
Compiler type set to LLVM, version clang16.
|14:25:45.043|    (INFO) Setting provided option output_directory=output/
|14:25:45.044|    (INFO) Setting provided option random_seed=10
|14:25:45.044|    (INFO) Setting provided option root_file=transient_modules_laser_gamma905nm_okuto_1000photons_10
|14:25:45.044|    (INFO) Setting provided option number_of_photons=1000 for DepositionLaser
|14:25:45.044|    (INFO) Setting provided option multiplication_model=okuto for TransientPropagation
|14:25:45.044|    (INFO) Setting provided option file_name=transient_data_laser_gamma905nm_okuto_1000photons_10 for ROOTObjectWriter
|14:25:45.065|  (STATUS) Welcome to Allpix^2 v3.0.3
|14:25:45.066|  (STATUS) Initialized PRNG with configured seed 10
|14:25:51.729|  (STATUS) Loading module GeometryBuilderGeant4
|14:25:51.730|    (INFO) [C:GeometryBuilderGeant4] Detected Geant4 multithreading capabilities, enabling multithreading support
|14:25:51.730|  (STATUS) Loading module DepositionLaser
|14:25:51.730|    (INFO) Setting provided option number_of_photons=1000 for DepositionLaser
|14:25:51.770|  (STATUS) Loading module ElectricFieldReader
|14:25:51.877|  (STATUS) Loading module WeightingPotentialReader
|14:25:51.877|  (STATUS) Loading module DopingProfileReader      
|14:25:51.877|  (STATUS) Loading module TransientPropagation
|14:25:51.878|  (STATUS) Loading module PulseTransfer        
|14:25:51.878|  (STATUS) Loading module ROOTObjectWriter
|14:25:51.878|    (INFO) Setting provided option file_name=transient_data_laser_gamma905nm_okuto_1000photons_10 for ROOTObjectWriter
|14:25:51.878|  (STATUS) Loaded 8 modules
|14:25:51.878|  (STATUS) Multithreading enabled, processing events in parallel on 4 worker threads
|14:25:51.878|  (STATUS) Allocating a total of 1024 event slots for buffered modules
|14:25:51.878|  (STATUS) Initializing 8 module instantiations
|14:25:51.995|    (INFO) [I:GeometryBuilderGeant4] No overlapping volumes detected.
|14:25:52.486|    (INFO) [I:ElectricFieldReader:detector1] Reading field data: 0%
|14:25:55.983|    (INFO) [I:ElectricFieldReader:detector1] Reading field data: 1%
|14:25:59.838|    (INFO) [I:ElectricFieldReader:detector1] Reading field data: 2% 
|14:26:03.775|    (INFO) [I:ElectricFieldReader:detector1] Reading field data: 3% 
|14:26:08.011|    (INFO) [I:ElectricFieldReader:detector1] Reading field data: 4% 
|14:26:11.400|    (INFO) [I:ElectricFieldReader:detector1] Reading field data: 5% 
|14:26:15.281|    (INFO) [I:ElectricFieldReader:detector1] Reading field data: 6% 
|14:26:19.975|    (INFO) [I:ElectricFieldReader:detector1] Reading field data: 7% 
|14:26:23.366|    (INFO) [I:ElectricFieldReader:detector1] Reading field data: 8% 
|14:26:27.349|    (INFO) [I:ElectricFieldReader:detector1] Reading field data: 9% 
|14:26:31.564|    (INFO) [I:ElectricFieldReader:detector1] Reading field data: 10%
|14:26:35.574|    (INFO) [I:ElectricFieldReader:detector1] Reading field data: 11% 
|14:26:39.892|    (INFO) [I:ElectricFieldReader:detector1] Reading field data: 12% 
|14:26:43.375|    (INFO) [I:ElectricFieldReader:detector1] Reading field data: 13% 
|14:26:46.682|    (INFO) [I:ElectricFieldReader:detector1] Reading field data: 14% 
|14:26:50.178|    (INFO) [I:ElectricFieldReader:detector1] Reading field data: 15% 
|14:26:53.909|    (INFO) [I:ElectricFieldReader:detector1] Reading field data: 16% 
|14:26:57.268|    (INFO) [I:ElectricFieldReader:detector1] Reading field data: 17% 
|14:27:01.055|    (INFO) [I:ElectricFieldReader:detector1] Reading field data: 18% 
|14:27:05.024|    (INFO) [I:ElectricFieldReader:detector1] Reading field data: 19% 
|14:27:09.434|    (INFO) [I:ElectricFieldReader:detector1] Reading field data: 20% 
|14:27:14.947|    (INFO) [I:ElectricFieldReader:detector1] Reading field data: 21% 
|14:27:18.776|    (INFO) [I:ElectricFieldReader:detector1] Reading field data: 22% 
|14:27:22.832|    (INFO) [I:ElectricFieldReader:detector1] Reading field data: 23% 
|14:27:26.382|    (INFO) [I:ElectricFieldReader:detector1] Reading field data: 24% 
|14:27:29.680|    (INFO) [I:ElectricFieldReader:detector1] Reading field data: 25% 
|14:27:33.575|    (INFO) [I:ElectricFieldReader:detector1] Reading field data: 26% 
|14:27:37.039|    (INFO) [I:ElectricFieldReader:detector1] Reading field data: 27% 
|14:27:40.938|    (INFO) [I:ElectricFieldReader:detector1] Reading field data: 28% 
|14:27:44.978|    (INFO) [I:ElectricFieldReader:detector1] Reading field data: 29% 
|14:27:48.544|    (INFO) [I:ElectricFieldReader:detector1] Reading field data: 30% 
|14:27:52.321|    (INFO) [I:ElectricFieldReader:detector1] Reading field data: 31% 
|14:27:55.812|    (INFO) [I:ElectricFieldReader:detector1] Reading field data: 32% 
|14:27:59.267|    (INFO) [I:ElectricFieldReader:detector1] Reading field data: 33% 
|14:28:02.960|    (INFO) [I:ElectricFieldReader:detector1] Reading field data: 34% 
|14:28:06.612|    (INFO) [I:ElectricFieldReader:detector1] Reading field data: 35% 
|14:28:10.474|    (INFO) [I:ElectricFieldReader:detector1] Reading field data: 36% 
|14:28:14.159|    (INFO) [I:ElectricFieldReader:detector1] Reading field data: 37% 
|14:28:18.094|    (INFO) [I:ElectricFieldReader:detector1] Reading field data: 38% 
|14:28:22.297|    (INFO) [I:ElectricFieldReader:detector1] Reading field data: 39% 
|14:28:27.491|    (INFO) [I:ElectricFieldReader:detector1] Reading field data: 40% 
|14:28:30.690|    (INFO) [I:ElectricFieldReader:detector1] Reading field data: 41% 
|14:28:33.393|    (INFO) [I:ElectricFieldReader:detector1] Reading field data: 42% 
|14:28:37.297|    (INFO) [I:ElectricFieldReader:detector1] Reading field data: 43% 
|14:28:40.055|    (INFO) [I:ElectricFieldReader:detector1] Reading field data: 44% 
|14:28:43.012|    (INFO) [I:ElectricFieldReader:detector1] Reading field data: 45% 
|14:28:45.642|    (INFO) [I:ElectricFieldReader:detector1] Reading field data: 46% 
|14:28:48.747|    (INFO) [I:ElectricFieldReader:detector1] Reading field data: 47% 
|14:28:51.829|    (INFO) [I:ElectricFieldReader:detector1] Reading field data: 48% 
|14:28:54.603|    (INFO) [I:ElectricFieldReader:detector1] Reading field data: 49% 
|14:28:57.209|    (INFO) [I:ElectricFieldReader:detector1] Reading field data: 50% 
|14:28:59.782|    (INFO) [I:ElectricFieldReader:detector1] Reading field data: 51% 
|14:29:02.426|    (INFO) [I:ElectricFieldReader:detector1] Reading field data: 52% 
|14:29:05.071|    (INFO) [I:ElectricFieldReader:detector1] Reading field data: 53% 
|14:29:07.581|    (INFO) [I:ElectricFieldReader:detector1] Reading field data: 54% 
|14:29:10.255|    (INFO) [I:ElectricFieldReader:detector1] Reading field data: 55% 
|14:29:12.737|    (INFO) [I:ElectricFieldReader:detector1] Reading field data: 56% 
|14:29:15.884|    (INFO) [I:ElectricFieldReader:detector1] Reading field data: 57% 
|14:29:18.877|    (INFO) [I:ElectricFieldReader:detector1] Reading field data: 58% 
|14:29:21.551|    (INFO) [I:ElectricFieldReader:detector1] Reading field data: 59% 
|14:29:24.611|    (INFO) [I:ElectricFieldReader:detector1] Reading field data: 60% 
|14:29:29.065|    (INFO) [I:ElectricFieldReader:detector1] Reading field data: 61% 
|14:29:31.841|    (INFO) [I:ElectricFieldReader:detector1] Reading field data: 62% 
|14:29:34.305|    (INFO) [I:ElectricFieldReader:detector1] Reading field data: 63% 
|14:29:38.403|    (INFO) [I:ElectricFieldReader:detector1] Reading field data: 64% 
|14:29:42.506|    (INFO) [I:ElectricFieldReader:detector1] Reading field data: 65% 
|14:29:46.440|    (INFO) [I:ElectricFieldReader:detector1] Reading field data: 66% 
|14:29:50.676|    (INFO) [I:ElectricFieldReader:detector1] Reading field data: 67% 
|14:29:54.932|    (INFO) [I:ElectricFieldReader:detector1] Reading field data: 68% 
|14:29:59.051|    (INFO) [I:ElectricFieldReader:detector1] Reading field data: 69% 
|14:30:02.648|    (INFO) [I:ElectricFieldReader:detector1] Reading field data: 70% 
|14:30:06.655|    (INFO) [I:ElectricFieldReader:detector1] Reading field data: 71% 
|14:30:11.669|    (INFO) [I:ElectricFieldReader:detector1] Reading field data: 72% 
|14:30:15.595|    (INFO) [I:ElectricFieldReader:detector1] Reading field data: 73% 
|14:30:19.237|    (INFO) [I:ElectricFieldReader:detector1] Reading field data: 74% 
|14:30:23.208|    (INFO) [I:ElectricFieldReader:detector1] Reading field data: 75% 
|14:30:27.386|    (INFO) [I:ElectricFieldReader:detector1] Reading field data: 76% 
|14:30:30.926|    (INFO) [I:ElectricFieldReader:detector1] Reading field data: 77% 
|14:30:34.419|    (INFO) [I:ElectricFieldReader:detector1] Reading field data: 78% 
|14:30:38.801|    (INFO) [I:ElectricFieldReader:detector1] Reading field data: 79% 
|14:30:43.666|    (INFO) [I:ElectricFieldReader:detector1] Reading field data: 80% 
|14:30:47.887|    (INFO) [I:ElectricFieldReader:detector1] Reading field data: 81% 
|14:30:52.111|    (INFO) [I:ElectricFieldReader:detector1] Reading field data: 82% 
|14:30:57.397|    (INFO) [I:ElectricFieldReader:detector1] Reading field data: 83% 
|14:31:02.521|    (INFO) [I:ElectricFieldReader:detector1] Reading field data: 84% 
|14:31:07.582|    (INFO) [I:ElectricFieldReader:detector1] Reading field data: 85% 
|14:31:12.050|    (INFO) [I:ElectricFieldReader:detector1] Reading field data: 86% 
|14:31:15.728|    (INFO) [I:ElectricFieldReader:detector1] Reading field data: 87% 
|14:31:19.337|    (INFO) [I:ElectricFieldReader:detector1] Reading field data: 88% 
|14:31:22.762|    (INFO) [I:ElectricFieldReader:detector1] Reading field data: 89% 
|14:31:26.216|    (INFO) [I:ElectricFieldReader:detector1] Reading field data: 90% 
|14:31:29.701|    (INFO) [I:ElectricFieldReader:detector1] Reading field data: 91% 
|14:31:33.171|    (INFO) [I:ElectricFieldReader:detector1] Reading field data: 92% 
|14:31:36.712|    (INFO) [I:ElectricFieldReader:detector1] Reading field data: 93% 
|14:31:40.840|    (INFO) [I:ElectricFieldReader:detector1] Reading field data: 94% 
|14:31:45.091|    (INFO) [I:ElectricFieldReader:detector1] Reading field data: 95% 
|14:31:49.369|    (INFO) [I:ElectricFieldReader:detector1] Reading field data: 96% 
|14:31:52.791|    (INFO) [I:ElectricFieldReader:detector1] Reading field data: 97% 
|14:31:56.307|    (INFO) [I:ElectricFieldReader:detector1] Reading field data: 98% 
|14:32:00.258|    (INFO) [I:ElectricFieldReader:detector1] Reading field data: 99% 
|14:32:04.625|    (INFO) [I:ElectricFieldReader:detector1] Reading field data: finished.
|14:32:04.683|    (INFO) [I:ElectricFieldReader:detector1] Set electric field with 300x300x300 cells
|14:32:04.683|    (INFO) [I:ElectricFieldReader:detector1] Pixels of this detector are not rectangular, will not perform further field matching checks
|14:32:04.684|   (DEBUG) [I:WeightingPotentialReader:detector1] Weighting potential maps to PIXEL_FULL
|14:32:04.684|   (TRACE) [I:WeightingPotentialReader:detector1] Fetching weighting potential from init file
|14:32:04.922|   (DEBUG) [I:WeightingPotentialReader:detector1] Assuming file type "INIT"
|14:32:04.922| (WARNING) [I:WeightingPotentialReader:detector1] No field units provided, interpreting field data in internal units, this might lead to unexpected results.
|14:32:04.923|   (TRACE) [I:WeightingPotentialReader:detector1] Header of file "/afs/cern.ch/work/j/jsabater/unige/FASER/allpix-squared_new/allpix-squared/run/gamma905nm/mesh_converter/gamma905nm_ElectrostaticPotential.init" is 
                                                                Allpix Squared v3.0.0-274-g5b1c4631c-dirty TCAD Mesh Converter, observable: ElectrostaticPotential
|14:32:04.923|   (DEBUG) [I:WeightingPotentialReader:detector1] INIT file states internal units, so does the parser
|14:32:04.930|    (INFO) [I:WeightingPotentialReader:detector1] Reading field data: 0%
|14:32:05.344|    (INFO) [I:WeightingPotentialReader:detector1] Reading field data: 1%
|14:32:06.032|    (INFO) [I:WeightingPotentialReader:detector1] Reading field data: 2% 
|14:32:06.665|    (INFO) [I:WeightingPotentialReader:detector1] Reading field data: 3% 
|14:32:07.308|    (INFO) [I:WeightingPotentialReader:detector1] Reading field data: 4% 
|14:32:07.865|    (INFO) [I:WeightingPotentialReader:detector1] Reading field data: 5% 
|14:32:08.537|    (INFO) [I:WeightingPotentialReader:detector1] Reading field data: 6% 
|14:32:09.082|    (INFO) [I:WeightingPotentialReader:detector1] Reading field data: 7% 
|14:32:09.574|    (INFO) [I:WeightingPotentialReader:detector1] Reading field data: 8% 
|14:32:10.107|    (INFO) [I:WeightingPotentialReader:detector1] Reading field data: 9% 
|14:32:10.626|    (INFO) [I:WeightingPotentialReader:detector1] Reading field data: 10%
|14:32:11.219|    (INFO) [I:WeightingPotentialReader:detector1] Reading field data: 11% 
|14:32:11.868|    (INFO) [I:WeightingPotentialReader:detector1] Reading field data: 12% 
|14:32:12.463|    (INFO) [I:WeightingPotentialReader:detector1] Reading field data: 13% 
|14:32:13.259|    (INFO) [I:WeightingPotentialReader:detector1] Reading field data: 14% 
|14:32:13.872|    (INFO) [I:WeightingPotentialReader:detector1] Reading field data: 15% 
|14:32:14.392|    (INFO) [I:WeightingPotentialReader:detector1] Reading field data: 16% 
|14:32:14.902|    (INFO) [I:WeightingPotentialReader:detector1] Reading field data: 17% 
|14:32:15.375|    (INFO) [I:WeightingPotentialReader:detector1] Reading field data: 18% 
|14:32:15.898|    (INFO) [I:WeightingPotentialReader:detector1] Reading field data: 19% 
|14:32:16.428|    (INFO) [I:WeightingPotentialReader:detector1] Reading field data: 20% 
|14:32:16.921|    (INFO) [I:WeightingPotentialReader:detector1] Reading field data: 21% 
|14:32:17.429|    (INFO) [I:WeightingPotentialReader:detector1] Reading field data: 22% 
|14:32:17.974|    (INFO) [I:WeightingPotentialReader:detector1] Reading field data: 23% 
|14:32:18.496|    (INFO) [I:WeightingPotentialReader:detector1] Reading field data: 24% 
|14:32:19.069|    (INFO) [I:WeightingPotentialReader:detector1] Reading field data: 25% 
|14:32:19.648|    (INFO) [I:WeightingPotentialReader:detector1] Reading field data: 26% 
|14:32:20.120|    (INFO) [I:WeightingPotentialReader:detector1] Reading field data: 27% 
|14:32:20.624|    (INFO) [I:WeightingPotentialReader:detector1] Reading field data: 28% 
|14:32:21.157|    (INFO) [I:WeightingPotentialReader:detector1] Reading field data: 29% 
|14:32:21.697|    (INFO) [I:WeightingPotentialReader:detector1] Reading field data: 30% 
|14:32:22.217|    (INFO) [I:WeightingPotentialReader:detector1] Reading field data: 31% 
|14:32:22.732|    (INFO) [I:WeightingPotentialReader:detector1] Reading field data: 32% 
|14:32:23.278|    (INFO) [I:WeightingPotentialReader:detector1] Reading field data: 33% 
|14:32:24.083|    (INFO) [I:WeightingPotentialReader:detector1] Reading field data: 34% 
|14:32:24.758|    (INFO) [I:WeightingPotentialReader:detector1] Reading field data: 35% 
|14:32:25.343|    (INFO) [I:WeightingPotentialReader:detector1] Reading field data: 36% 
|14:32:26.022|    (INFO) [I:WeightingPotentialReader:detector1] Reading field data: 37% 
|14:32:26.724|    (INFO) [I:WeightingPotentialReader:detector1] Reading field data: 38% 
|14:32:27.439|    (INFO) [I:WeightingPotentialReader:detector1] Reading field data: 39% 
|14:32:28.214|    (INFO) [I:WeightingPotentialReader:detector1] Reading field data: 40% 
|14:32:28.934|    (INFO) [I:WeightingPotentialReader:detector1] Reading field data: 41% 
|14:32:29.510|    (INFO) [I:WeightingPotentialReader:detector1] Reading field data: 42% 
|14:32:30.123|    (INFO) [I:WeightingPotentialReader:detector1] Reading field data: 43% 
|14:32:30.767|    (INFO) [I:WeightingPotentialReader:detector1] Reading field data: 44% 
|14:32:31.636|    (INFO) [I:WeightingPotentialReader:detector1] Reading field data: 45% 
|14:32:32.310|    (INFO) [I:WeightingPotentialReader:detector1] Reading field data: 46% 
|14:32:33.017|    (INFO) [I:WeightingPotentialReader:detector1] Reading field data: 47% 
|14:32:33.637|    (INFO) [I:WeightingPotentialReader:detector1] Reading field data: 48% 
|14:32:34.206|    (INFO) [I:WeightingPotentialReader:detector1] Reading field data: 49% 
|14:32:34.828|    (INFO) [I:WeightingPotentialReader:detector1] Reading field data: 50% 
|14:32:35.667|    (INFO) [I:WeightingPotentialReader:detector1] Reading field data: 51% 
|14:32:36.306|    (INFO) [I:WeightingPotentialReader:detector1] Reading field data: 52% 
|14:32:36.941|    (INFO) [I:WeightingPotentialReader:detector1] Reading field data: 53% 
|14:32:37.500|    (INFO) [I:WeightingPotentialReader:detector1] Reading field data: 54% 
|14:32:37.959|    (INFO) [I:WeightingPotentialReader:detector1] Reading field data: 55% 
|14:32:38.453|    (INFO) [I:WeightingPotentialReader:detector1] Reading field data: 56% 
|14:32:39.107|    (INFO) [I:WeightingPotentialReader:detector1] Reading field data: 57% 
|14:32:39.606|    (INFO) [I:WeightingPotentialReader:detector1] Reading field data: 58% 
|14:32:40.094|    (INFO) [I:WeightingPotentialReader:detector1] Reading field data: 59% 
|14:32:40.759|    (INFO) [I:WeightingPotentialReader:detector1] Reading field data: 60% 
|14:32:41.333|    (INFO) [I:WeightingPotentialReader:detector1] Reading field data: 61% 
|14:32:41.905|    (INFO) [I:WeightingPotentialReader:detector1] Reading field data: 62% 
|14:32:42.787|    (INFO) [I:WeightingPotentialReader:detector1] Reading field data: 63% 
|14:32:43.455|    (INFO) [I:WeightingPotentialReader:detector1] Reading field data: 64% 
|14:32:44.139|    (INFO) [I:WeightingPotentialReader:detector1] Reading field data: 65% 
|14:32:44.783|    (INFO) [I:WeightingPotentialReader:detector1] Reading field data: 66% 
|14:32:45.268|    (INFO) [I:WeightingPotentialReader:detector1] Reading field data: 67% 
|14:32:45.952|    (INFO) [I:WeightingPotentialReader:detector1] Reading field data: 68% 
|14:32:46.583|    (INFO) [I:WeightingPotentialReader:detector1] Reading field data: 69% 
|14:32:47.185|    (INFO) [I:WeightingPotentialReader:detector1] Reading field data: 70% 
|14:32:47.795|    (INFO) [I:WeightingPotentialReader:detector1] Reading field data: 71% 
|14:32:48.404|    (INFO) [I:WeightingPotentialReader:detector1] Reading field data: 72% 
|14:32:49.200|    (INFO) [I:WeightingPotentialReader:detector1] Reading field data: 73% 
|14:32:49.823|    (INFO) [I:WeightingPotentialReader:detector1] Reading field data: 74% 
|14:32:50.373|    (INFO) [I:WeightingPotentialReader:detector1] Reading field data: 75% 
|14:32:50.820|    (INFO) [I:WeightingPotentialReader:detector1] Reading field data: 76% 
|14:32:51.298|    (INFO) [I:WeightingPotentialReader:detector1] Reading field data: 77% 
|14:32:51.908|    (INFO) [I:WeightingPotentialReader:detector1] Reading field data: 78% 
|14:32:52.513|    (INFO) [I:WeightingPotentialReader:detector1] Reading field data: 79% 
|14:32:53.018|    (INFO) [I:WeightingPotentialReader:detector1] Reading field data: 80% 
|14:32:53.673|    (INFO) [I:WeightingPotentialReader:detector1] Reading field data: 81% 
|14:32:54.148|    (INFO) [I:WeightingPotentialReader:detector1] Reading field data: 82% 
|14:32:54.780|    (INFO) [I:WeightingPotentialReader:detector1] Reading field data: 83% 
|14:32:55.570|    (INFO) [I:WeightingPotentialReader:detector1] Reading field data: 84% 
|14:32:56.169|    (INFO) [I:WeightingPotentialReader:detector1] Reading field data: 85% 
|14:32:56.728|    (INFO) [I:WeightingPotentialReader:detector1] Reading field data: 86% 
|14:32:57.330|    (INFO) [I:WeightingPotentialReader:detector1] Reading field data: 87% 
|14:32:57.819|    (INFO) [I:WeightingPotentialReader:detector1] Reading field data: 88% 
|14:32:58.412|    (INFO) [I:WeightingPotentialReader:detector1] Reading field data: 89% 
|14:32:58.960|    (INFO) [I:WeightingPotentialReader:detector1] Reading field data: 90% 
|14:32:59.488|    (INFO) [I:WeightingPotentialReader:detector1] Reading field data: 91% 
|14:33:00.044|    (INFO) [I:WeightingPotentialReader:detector1] Reading field data: 92% 
|14:33:00.661|    (INFO) [I:WeightingPotentialReader:detector1] Reading field data: 93% 
|14:33:01.332|    (INFO) [I:WeightingPotentialReader:detector1] Reading field data: 94% 
|14:33:02.596|    (INFO) [I:WeightingPotentialReader:detector1] Reading field data: 95% 
|14:33:03.206|    (INFO) [I:WeightingPotentialReader:detector1] Reading field data: 96% 
|14:33:03.735|    (INFO) [I:WeightingPotentialReader:detector1] Reading field data: 97% 
|14:33:04.180|    (INFO) [I:WeightingPotentialReader:detector1] Reading field data: 98% 
|14:33:04.735|    (INFO) [I:WeightingPotentialReader:detector1] Reading field data: 99% 
|14:33:05.129|    (INFO) [I:WeightingPotentialReader:detector1] Reading field data: finished.
|14:33:05.146|    (INFO) [I:WeightingPotentialReader:detector1] Set weighting field with 300x300x93 cells
|14:33:05.146|   (DEBUG) [I:WeightingPotentialReader:detector1] Weighting potential has offset of (0,0) fractions of the field size
|14:33:05.146|    (INFO) [I:WeightingPotentialReader:detector1] Pixels of this detector are not rectangular, will not perform further field matching checks
|14:33:05.311|    (INFO) [I:DopingProfileReader:detector1] Reading field data: 0%
|14:33:07.114|    (INFO) [I:DopingProfileReader:detector1] Reading field data: 1%
|14:33:08.869|    (INFO) [I:DopingProfileReader:detector1] Reading field data: 2% 
|14:33:10.724|    (INFO) [I:DopingProfileReader:detector1] Reading field data: 3% 
|14:33:12.600|    (INFO) [I:DopingProfileReader:detector1] Reading field data: 4% 
|14:33:14.428|    (INFO) [I:DopingProfileReader:detector1] Reading field data: 5% 
|14:33:16.135|    (INFO) [I:DopingProfileReader:detector1] Reading field data: 6% 
|14:33:18.007|    (INFO) [I:DopingProfileReader:detector1] Reading field data: 7% 
|14:33:20.216|    (INFO) [I:DopingProfileReader:detector1] Reading field data: 8% 
|14:33:22.818|    (INFO) [I:DopingProfileReader:detector1] Reading field data: 9% 
|14:33:25.311|    (INFO) [I:DopingProfileReader:detector1] Reading field data: 10%
|14:33:27.314|    (INFO) [I:DopingProfileReader:detector1] Reading field data: 11% 
|14:33:29.594|    (INFO) [I:DopingProfileReader:detector1] Reading field data: 12% 
|14:33:32.099|    (INFO) [I:DopingProfileReader:detector1] Reading field data: 13% 
|14:33:35.222|    (INFO) [I:DopingProfileReader:detector1] Reading field data: 14% 
|14:33:38.155|    (INFO) [I:DopingProfileReader:detector1] Reading field data: 15% 
|14:33:40.020|    (INFO) [I:DopingProfileReader:detector1] Reading field data: 16% 
|14:33:41.260|    (INFO) [I:DopingProfileReader:detector1] Reading field data: 17% 
|14:33:42.612|    (INFO) [I:DopingProfileReader:detector1] Reading field data: 18% 
|14:33:43.865|    (INFO) [I:DopingProfileReader:detector1] Reading field data: 19% 
|14:33:45.347|    (INFO) [I:DopingProfileReader:detector1] Reading field data: 20% 
|14:33:47.134|    (INFO) [I:DopingProfileReader:detector1] Reading field data: 21% 
|14:33:48.432|    (INFO) [I:DopingProfileReader:detector1] Reading field data: 22% 
|14:33:49.852|    (INFO) [I:DopingProfileReader:detector1] Reading field data: 23% 
|14:33:51.546|    (INFO) [I:DopingProfileReader:detector1] Reading field data: 24% 
|14:33:52.794|    (INFO) [I:DopingProfileReader:detector1] Reading field data: 25% 
|14:33:53.879|    (INFO) [I:DopingProfileReader:detector1] Reading field data: 26% 
|14:33:54.997|    (INFO) [I:DopingProfileReader:detector1] Reading field data: 27% 
|14:33:56.754|    (INFO) [I:DopingProfileReader:detector1] Reading field data: 28% 
|14:33:59.215|    (INFO) [I:DopingProfileReader:detector1] Reading field data: 29% 
|14:34:01.108|    (INFO) [I:DopingProfileReader:detector1] Reading field data: 30% 
|14:34:02.333|    (INFO) [I:DopingProfileReader:detector1] Reading field data: 31% 
|14:34:03.387|    (INFO) [I:DopingProfileReader:detector1] Reading field data: 32% 
|14:34:04.400|    (INFO) [I:DopingProfileReader:detector1] Reading field data: 33% 
|14:34:05.319|    (INFO) [I:DopingProfileReader:detector1] Reading field data: 34% 
|14:34:06.266|    (INFO) [I:DopingProfileReader:detector1] Reading field data: 35% 
|14:34:07.950|    (INFO) [I:DopingProfileReader:detector1] Reading field data: 36% 
|14:34:10.186|    (INFO) [I:DopingProfileReader:detector1] Reading field data: 37% 
|14:34:11.194|    (INFO) [I:DopingProfileReader:detector1] Reading field data: 38% 
|14:34:12.180|    (INFO) [I:DopingProfileReader:detector1] Reading field data: 39% 
|14:34:13.085|    (INFO) [I:DopingProfileReader:detector1] Reading field data: 40% 
|14:34:14.056|    (INFO) [I:DopingProfileReader:detector1] Reading field data: 41% 
|14:34:15.072|    (INFO) [I:DopingProfileReader:detector1] Reading field data: 42% 
|14:34:16.083|    (INFO) [I:DopingProfileReader:detector1] Reading field data: 43% 
|14:34:17.142|    (INFO) [I:DopingProfileReader:detector1] Reading field data: 44% 
|14:34:18.142|    (INFO) [I:DopingProfileReader:detector1] Reading field data: 45% 
|14:34:19.342|    (INFO) [I:DopingProfileReader:detector1] Reading field data: 46% 
|14:34:20.226|    (INFO) [I:DopingProfileReader:detector1] Reading field data: 47% 
|14:34:21.185|    (INFO) [I:DopingProfileReader:detector1] Reading field data: 48% 
|14:34:22.097|    (INFO) [I:DopingProfileReader:detector1] Reading field data: 49% 
|14:34:23.050|    (INFO) [I:DopingProfileReader:detector1] Reading field data: 50% 
|14:34:24.023|    (INFO) [I:DopingProfileReader:detector1] Reading field data: 51% 
|14:34:25.200|    (INFO) [I:DopingProfileReader:detector1] Reading field data: 52% 
|14:34:26.699|    (INFO) [I:DopingProfileReader:detector1] Reading field data: 53% 
|14:34:28.332|    (INFO) [I:DopingProfileReader:detector1] Reading field data: 54% 
|14:34:30.246|    (INFO) [I:DopingProfileReader:detector1] Reading field data: 55% 
|14:34:32.383|    (INFO) [I:DopingProfileReader:detector1] Reading field data: 56% 
|14:34:33.982|    (INFO) [I:DopingProfileReader:detector1] Reading field data: 57% 
|14:34:35.435|    (INFO) [I:DopingProfileReader:detector1] Reading field data: 58% 
|14:34:36.982|    (INFO) [I:DopingProfileReader:detector1] Reading field data: 59% 
|14:34:38.553|    (INFO) [I:DopingProfileReader:detector1] Reading field data: 60% 
|14:34:40.136|    (INFO) [I:DopingProfileReader:detector1] Reading field data: 61% 
|14:34:41.749|    (INFO) [I:DopingProfileReader:detector1] Reading field data: 62% 
|14:34:43.373|    (INFO) [I:DopingProfileReader:detector1] Reading field data: 63% 
|14:34:44.953|    (INFO) [I:DopingProfileReader:detector1] Reading field data: 64% 
|14:34:46.492|    (INFO) [I:DopingProfileReader:detector1] Reading field data: 65% 
|14:34:47.706|    (INFO) [I:DopingProfileReader:detector1] Reading field data: 66% 
|14:34:49.162|    (INFO) [I:DopingProfileReader:detector1] Reading field data: 67% 
|14:34:50.497|    (INFO) [I:DopingProfileReader:detector1] Reading field data: 68% 
|14:34:51.418|    (INFO) [I:DopingProfileReader:detector1] Reading field data: 69% 
|14:34:52.333|    (INFO) [I:DopingProfileReader:detector1] Reading field data: 70% 
|14:34:53.163|    (INFO) [I:DopingProfileReader:detector1] Reading field data: 71% 
|14:34:54.156|    (INFO) [I:DopingProfileReader:detector1] Reading field data: 72% 
|14:34:55.180|    (INFO) [I:DopingProfileReader:detector1] Reading field data: 73% 
|14:34:56.172|    (INFO) [I:DopingProfileReader:detector1] Reading field data: 74% 
|14:34:57.105|    (INFO) [I:DopingProfileReader:detector1] Reading field data: 75% 
|14:34:58.169|    (INFO) [I:DopingProfileReader:detector1] Reading field data: 76% 
|14:34:59.154|    (INFO) [I:DopingProfileReader:detector1] Reading field data: 77% 
|14:35:00.186|    (INFO) [I:DopingProfileReader:detector1] Reading field data: 78% 
|14:35:01.115|    (INFO) [I:DopingProfileReader:detector1] Reading field data: 79% 
|14:35:02.124|    (INFO) [I:DopingProfileReader:detector1] Reading field data: 80% 
|14:35:03.110|    (INFO) [I:DopingProfileReader:detector1] Reading field data: 81% 
|14:35:04.089|    (INFO) [I:DopingProfileReader:detector1] Reading field data: 82% 
|14:35:05.099|    (INFO) [I:DopingProfileReader:detector1] Reading field data: 83% 
|14:35:06.137|    (INFO) [I:DopingProfileReader:detector1] Reading field data: 84% 
|14:35:07.146|    (INFO) [I:DopingProfileReader:detector1] Reading field data: 85% 
|14:35:08.109|    (INFO) [I:DopingProfileReader:detector1] Reading field data: 86% 
|14:35:09.056|    (INFO) [I:DopingProfileReader:detector1] Reading field data: 87% 
|14:35:09.994|    (INFO) [I:DopingProfileReader:detector1] Reading field data: 88% 
|14:35:11.055|    (INFO) [I:DopingProfileReader:detector1] Reading field data: 89% 
|14:35:12.029|    (INFO) [I:DopingProfileReader:detector1] Reading field data: 90% 
|14:35:13.033|    (INFO) [I:DopingProfileReader:detector1] Reading field data: 91% 
|14:35:14.220|    (INFO) [I:DopingProfileReader:detector1] Reading field data: 92% 
|14:35:15.191|    (INFO) [I:DopingProfileReader:detector1] Reading field data: 93% 
|14:35:16.194|    (INFO) [I:DopingProfileReader:detector1] Reading field data: 94% 
|14:35:17.099|    (INFO) [I:DopingProfileReader:detector1] Reading field data: 95% 
|14:35:18.012|    (INFO) [I:DopingProfileReader:detector1] Reading field data: 96% 
|14:35:18.945|    (INFO) [I:DopingProfileReader:detector1] Reading field data: 97% 
|14:35:19.867|    (INFO) [I:DopingProfileReader:detector1] Reading field data: 98% 
|14:35:20.775|    (INFO) [I:DopingProfileReader:detector1] Reading field data: 99% 
|14:35:21.756|    (INFO) [I:DopingProfileReader:detector1] Reading field data: finished.
|14:35:21.756|    (INFO) [I:DopingProfileReader:detector1] Set doping concentration map with 300x300x300 cells
|14:35:21.756|    (INFO) [I:DopingProfileReader:detector1] Pixels of this detector are not rectangular, will not perform further field matching checks
|14:35:21.794|  (STATUS) Initialized 8 module instantiations
|14:35:21.796|   (TRACE) [T:WeightingPotentialReader:detector1] Initializing thread 22683998021184
|14:35:21.796|   (TRACE) [T:WeightingPotentialReader:detector1] Initializing thread 22683995919936
|14:35:21.797|   (TRACE) [T:WeightingPotentialReader:detector1] Initializing thread 22683993818688
|14:35:21.798|  (STATUS) Starting event loop
|14:35:21.798|   (TRACE) [T:WeightingPotentialReader:detector1] Initializing thread 22683991717440
|14:35:21.798|    (INFO) Starting event 3 with seed 4920336000975477112
|14:35:21.798|    (INFO) Starting event 2 with seed 16854870552729211698
|14:35:21.798|    (INFO) Starting event 1 with seed 11091715596963791794
|14:35:21.798|    (INFO) Starting event 4 with seed 11203921008588677798
|14:35:21.798|    (INFO) (Event 2) [R:DepositionLaser] Event 2: photon 1 of 10
|14:35:21.798|    (INFO) (Event 4) [R:DepositionLaser] Event 4: photon 1 of 10
|14:35:21.798|    (INFO) (Event 3) [R:DepositionLaser] Event 3: photon 1 of 10 
|14:35:21.798|    (INFO) (Event 1) [R:DepositionLaser] Event 1: photon 1 of 10 
|14:35:21.798|    (INFO) (Event 3) [R:DepositionLaser] Event 3: photon 2 of 10 
|14:35:21.798|    (INFO) (Event 2) [R:DepositionLaser] Event 2: photon 2 of 10 
|14:35:21.798|    (INFO) (Event 2) [R:DepositionLaser] Event 2: photon 3 of 10 
|14:35:21.798|    (INFO) (Event 3) [R:DepositionLaser] Event 3: photon 3 of 10 
|14:35:21.798|    (INFO) (Event 1) [R:DepositionLaser] Event 1: photon 2 of 10 
|14:35:21.798|    (INFO) (Event 4) [R:DepositionLaser] Event 4: photon 2 of 10 
|14:35:21.798|    (INFO) (Event 3) [R:DepositionLaser] Event 3: photon 4 of 10 
|14:35:21.798|    (INFO) (Event 4) [R:DepositionLaser] Event 4: photon 3 of 10 
|14:35:21.798|    (INFO) (Event 2) [R:DepositionLaser] Event 2: photon 4 of 10 
|14:35:21.798|    (INFO) (Event 3) [R:DepositionLaser] Event 3: photon 5 of 10 
|14:35:21.798|    (INFO) (Event 2) [R:DepositionLaser] Event 2: photon 5 of 10 
|14:35:21.799|    (INFO) (Event 3) [R:DepositionLaser] Event 3: photon 6 of 10 
|14:35:21.798|    (INFO) (Event 4) [R:DepositionLaser] Event 4: photon 4 of 10 
|14:35:21.798|    (INFO) (Event 1) [R:DepositionLaser] Event 1: photon 3 of 10 
|14:35:21.799|    (INFO) (Event 3) [R:DepositionLaser] Event 3: photon 7 of 10 
|14:35:21.799|    (INFO) (Event 2) [R:DepositionLaser] Event 2: photon 6 of 10 
|14:35:21.799|    (INFO) (Event 4) [R:DepositionLaser] Event 4: photon 5 of 10 
|14:35:21.799|    (INFO) (Event 1) [R:DepositionLaser] Event 1: photon 4 of 10 
|14:35:21.799|    (INFO) (Event 4) [R:DepositionLaser] Event 4: photon 6 of 10 
|14:35:21.799|    (INFO) (Event 2) [R:DepositionLaser] Event 2: photon 7 of 10 
|14:35:21.799|    (INFO) (Event 4) [R:DepositionLaser] Event 4: photon 7 of 10 
|14:35:21.799|    (INFO) (Event 1) [R:DepositionLaser] Event 1: photon 5 of 10 
|14:35:21.799|    (INFO) (Event 3) [R:DepositionLaser] Event 3: photon 8 of 10 
|14:35:21.799|    (INFO) (Event 2) [R:DepositionLaser] Event 2: photon 8 of 10 
|14:35:21.799|    (INFO) (Event 3) [R:DepositionLaser] Event 3: photon 9 of 10 
|14:35:21.799|    (INFO) (Event 2) [R:DepositionLaser] Event 2: photon 9 of 10 
|14:35:21.799|    (INFO) (Event 4) [R:DepositionLaser] Event 4: photon 8 of 10 
|14:35:21.799|    (INFO) (Event 1) [R:DepositionLaser] Event 1: photon 6 of 10 
|14:35:21.799|    (INFO) (Event 3) [R:DepositionLaser] Event 3: photon 10 of 10
|14:35:21.799|    (INFO) (Event 1) [R:DepositionLaser] Event 1: photon 7 of 10  
|14:35:21.799|    (INFO) (Event 2) [R:DepositionLaser] Event 2: photon 10 of 10
|14:35:21.799|    (INFO) (Event 1) [R:DepositionLaser] Event 1: photon 8 of 10  
|14:35:21.799|    (INFO) (Event 4) [R:DepositionLaser] Event 4: photon 9 of 10 
|14:35:21.799|    (INFO) (Event 3) [R:DepositionLaser] Registered hits in 1 detectors
|14:35:21.799|    (INFO) (Event 4) [R:DepositionLaser] Event 4: photon 10 of 10
|14:35:21.799|    (INFO) (Event 3) [R:DepositionLaser]     detector1: 8 hits
|14:35:21.799|    (INFO) (Event 2) [R:DepositionLaser] Registered hits in 1 detectors
|14:35:21.799|    (INFO) (Event 1) [R:DepositionLaser] Event 1: photon 9 of 10
|14:35:21.799|    (INFO) (Event 4) [R:DepositionLaser] Registered hits in 1 detectors
|14:35:21.799|    (INFO) (Event 2) [R:DepositionLaser]     detector1: 5 hits
|14:35:21.799|    (INFO) (Event 1) [R:DepositionLaser] Event 1: photon 10 of 10
|14:35:21.799|    (INFO) (Event 4) [R:DepositionLaser]     detector1: 9 hits
|14:35:21.799|    (INFO) (Event 1) [R:DepositionLaser] Registered hits in 1 detectors
|14:35:21.799|    (INFO) (Event 1) [R:DepositionLaser]     detector1: 7 hits
|14:38:15.463| (WARNING) (Event 3) [R:TransientPropagation:detector1] Detected gain of 51, local electric field of 321.988kV/cm, diode seems to be in breakdown
|14:38:15.463| (WARNING) (Event 3) [R:TransientPropagation:detector1] Detected gain of 51, local electric field of 321.988kV/cm, diode seems to be in breakdown
|14:38:15.550| (WARNING) (Event 3) [R:TransientPropagation:detector1] Detected gain of 52, local electric field of 321.988kV/cm, diode seems to be in breakdown
|14:38:15.598| (WARNING) (Event 3) [R:TransientPropagation:detector1] Detected gain of 54, local electric field of 321.988kV/cm, diode seems to be in breakdown
|14:38:15.598| (WARNING) (Event 3) [R:TransientPropagation:detector1] Detected gain of 54, local electric field of 321.988kV/cm, diode seems to be in breakdown
|14:38:15.645| (WARNING) (Event 3) [R:TransientPropagation:detector1] Detected gain of 56, local electric field of 321.988kV/cm, diode seems to be in breakdown
|14:38:15.692| (WARNING) (Event 3) [R:TransientPropagation:detector1] Detected gain of 57, local electric field of 321.988kV/cm, diode seems to be in breakdown
|14:38:15.740| (WARNING) (Event 3) [R:TransientPropagation:detector1] Detected gain of 58, local electric field of 321.988kV/cm, diode seems to be in breakdown
|14:38:15.786| (WARNING) (Event 3) [R:TransientPropagation:detector1] Detected gain of 60, local electric field of 321.988kV/cm, diode seems to be in breakdown
|14:38:15.786| (WARNING) (Event 3) [R:TransientPropagation:detector1] Detected gain of 60, local electric field of 321.988kV/cm, diode seems to be in breakdown
|14:38:15.786| (WARNING) (Event 3) [R:TransientPropagation:detector1] Detected gain of 60, local electric field of 69.1743kV/cm, diode seems to be in breakdown
|14:40:36.220| (WARNING) (Event 1) [R:TransientPropagation:detector1] Found impact ionization shower with level larger than 30, interrupting
|14:40:36.220| (WARNING) (Event 1) [R:TransientPropagation:detector1] Found impact ionization shower with level larger than 30, interrupting
|14:40:36.408| (WARNING) (Event 1) [R:TransientPropagation:detector1] Found impact ionization shower with level larger than 30, interrupting
|14:40:36.408| (WARNING) (Event 1) [R:TransientPropagation:detector1] Found impact ionization shower with level larger than 30, interrupting
|14:40:36.569| (WARNING) (Event 1) [R:TransientPropagation:detector1] Found impact ionization shower with level larger than 30, interrupting
|14:40:36.569| (WARNING) (Event 1) [R:TransientPropagation:detector1] Found impact ionization shower with level larger than 30, interrupting
|14:40:36.569| (WARNING) (Event 1) [R:TransientPropagation:detector1] Found impact ionization shower with level larger than 30, interrupting
|14:40:36.569| (WARNING) (Event 1) [R:TransientPropagation:detector1] Found impact ionization shower with level larger than 30, interrupting
|14:40:36.847| (WARNING) (Event 1) [R:TransientPropagation:detector1] Found impact ionization shower with level larger than 30, interrupting
|14:40:36.847| (WARNING) (Event 1) [R:TransientPropagation:detector1] Found impact ionization shower with level larger than 30, interrupting
|14:40:36.847| (WARNING) (Event 1) [R:TransientPropagation:detector1] Found impact ionization shower with level larger than 30, interrupting
|14:40:36.847| (WARNING) (Event 1) [R:TransientPropagation:detector1] Found impact ionization shower with level larger than 30, interrupting
|14:40:36.847| (WARNING) (Event 1) [R:TransientPropagation:detector1] Found impact ionization shower with level larger than 30, interrupting
|14:40:36.847| (WARNING) (Event 1) [R:TransientPropagation:detector1] Found impact ionization shower with level larger than 30, interrupting
|14:40:36.847| (WARNING) (Event 1) [R:TransientPropagation:detector1] Found impact ionization shower with level larger than 30, interrupting
|14:40:36.847| (WARNING) (Event 1) [R:TransientPropagation:detector1] Found impact ionization shower with level larger than 30, interrupting
|14:40:43.087| (WARNING) (Event 1) [R:TransientPropagation:detector1] Found impact ionization shower with level larger than 30, interrupting
|14:40:43.087| (WARNING) (Event 1) [R:TransientPropagation:detector1] Found impact ionization shower with level larger than 30, interrupting
|14:40:43.243| (WARNING) (Event 1) [R:TransientPropagation:detector1] Found impact ionization shower with level larger than 30, interrupting
|14:40:44.057| (WARNING) (Event 1) [R:TransientPropagation:detector1] Found impact ionization shower with level larger than 30, interrupting
|14:41:04.377| (WARNING) (Event 1) [R:TransientPropagation:detector1] Found impact ionization shower with level larger than 30, interrupting
|14:41:06.191| (WARNING) (Event 1) [R:TransientPropagation:detector1] Found impact ionization shower with level larger than 30, interrupting
|14:41:06.228| (WARNING) (Event 1) [R:TransientPropagation:detector1] Found impact ionization shower with level larger than 30, interrupting
|14:41:06.228| (WARNING) (Event 1) [R:TransientPropagation:detector1] Found impact ionization shower with level larger than 30, interrupting
|14:41:06.229| (WARNING) (Event 1) [R:TransientPropagation:detector1] Found impact ionization shower with level larger than 30, interrupting
|14:41:06.229| (WARNING) (Event 1) [R:TransientPropagation:detector1] Found impact ionization shower with level larger than 30, interrupting
|14:41:06.229| (WARNING) (Event 1) [R:TransientPropagation:detector1] Found impact ionization shower with level larger than 30, interrupting
|14:47:13.590|    (INFO) (Event 2) [R:PulseTransfer:detector1] [further messages suppressed] Pulses available - settings "timestep", "max_depth_distance" and "collect_from_implant" have no effect
|14:47:16.242|    (INFO) (Event 2) [R:PulseTransfer:detector1] Total charge induced on all pixels: -12887e
|14:47:16.245|  (STATUS) Buffered 1, finished 0 of 10 events
|14:47:16.245|    (INFO) Starting event 5 with seed 665441777603363039
|14:47:16.245|    (INFO) (Event 5) [R:DepositionLaser] Event 5: photon 1 of 10
|14:47:16.245|    (INFO) (Event 5) [R:DepositionLaser] Event 5: photon 2 of 10
|14:47:16.245|    (INFO) (Event 5) [R:DepositionLaser] Event 5: photon 3 of 10 
|14:47:16.245|    (INFO) (Event 5) [R:DepositionLaser] Event 5: photon 4 of 10 
|14:47:16.245|    (INFO) (Event 5) [R:DepositionLaser] Event 5: photon 5 of 10 
|14:47:16.245|    (INFO) (Event 5) [R:DepositionLaser] Event 5: photon 6 of 10 
|14:47:16.245|    (INFO) (Event 5) [R:DepositionLaser] Event 5: photon 7 of 10 
|14:47:16.245|    (INFO) (Event 5) [R:DepositionLaser] Event 5: photon 8 of 10 
|14:47:16.245|    (INFO) (Event 5) [R:DepositionLaser] Event 5: photon 9 of 10 
|14:47:16.245|    (INFO) (Event 5) [R:DepositionLaser] Event 5: photon 10 of 10
|14:47:16.245|    (INFO) (Event 5) [R:DepositionLaser] Registered hits in 1 detectors
|14:47:16.245|    (INFO) (Event 5) [R:DepositionLaser]     detector1: 8 hits
|14:49:19.571|    (INFO) (Event 1) [R:PulseTransfer:detector1] Total charge induced on all pixels: -12435e
|14:49:19.762|    (INFO) Finished event 1 with seed 11091715596963791794
|14:49:19.762|  (STATUS) Buffered 1, finished 1 of 10 events
|14:49:19.928|    (INFO) Finished event 2 with seed 16854870552729211698
|14:49:19.929|  (STATUS) Buffered 0, finished 2 of 10 events
|14:49:20.224|    (INFO) Starting event 6 with seed 13893719512177866254
|14:49:20.224|    (INFO) (Event 6) [R:DepositionLaser] Event 6: photon 1 of 10
|14:49:20.224|    (INFO) (Event 6) [R:DepositionLaser] Event 6: photon 2 of 10
|14:49:20.224|    (INFO) (Event 6) [R:DepositionLaser] Event 6: photon 3 of 10 
|14:49:20.224|    (INFO) (Event 6) [R:DepositionLaser] Event 6: photon 4 of 10 
|14:49:20.224|    (INFO) (Event 6) [R:DepositionLaser] Event 6: photon 5 of 10 
|14:49:20.224|    (INFO) (Event 6) [R:DepositionLaser] Event 6: photon 6 of 10 
|14:49:20.224|    (INFO) (Event 6) [R:DepositionLaser] Event 6: photon 7 of 10 
|14:49:20.225|    (INFO) (Event 6) [R:DepositionLaser] Event 6: photon 8 of 10 
|14:49:20.225|    (INFO) (Event 6) [R:DepositionLaser] Event 6: photon 9 of 10 
|14:49:20.225|    (INFO) (Event 6) [R:DepositionLaser] Event 6: photon 10 of 10
|14:49:20.225|    (INFO) (Event 6) [R:DepositionLaser] Registered hits in 1 detectors
|14:49:20.225|    (INFO) (Event 6) [R:DepositionLaser]     detector1: 9 hits
|14:52:11.844|    (INFO) (Event 3) [R:PulseTransfer:detector1] Total charge induced on all pixels: -19048e
|14:52:11.948|    (INFO) Finished event 3 with seed 4920336000975477112
|14:52:11.948|  (STATUS) Buffered 0, finished 3 of 10 events
|14:52:11.989|    (INFO) Starting event 7 with seed 8470240466365376417
|14:52:11.989|    (INFO) (Event 7) [R:DepositionLaser] Event 7: photon 1 of 10
|14:52:11.990|    (INFO) (Event 7) [R:DepositionLaser] Event 7: photon 2 of 10
|14:52:11.990|    (INFO) (Event 7) [R:DepositionLaser] Event 7: photon 3 of 10 
|14:52:11.990|    (INFO) (Event 7) [R:DepositionLaser] Event 7: photon 4 of 10 
|14:52:11.990|    (INFO) (Event 7) [R:DepositionLaser] Event 7: photon 5 of 10 
|14:52:11.990|    (INFO) (Event 7) [R:DepositionLaser] Event 7: photon 6 of 10 
|14:52:11.990|    (INFO) (Event 7) [R:DepositionLaser] Event 7: photon 7 of 10 
|14:52:11.990|    (INFO) (Event 7) [R:DepositionLaser] Event 7: photon 8 of 10 
|14:52:11.990|    (INFO) (Event 7) [R:DepositionLaser] Event 7: photon 9 of 10 
|14:52:11.990|    (INFO) (Event 7) [R:DepositionLaser] Event 7: photon 10 of 10
|14:52:11.991|    (INFO) (Event 7) [R:DepositionLaser] Registered hits in 1 detectors
|14:52:11.991|    (INFO) (Event 7) [R:DepositionLaser]     detector1: 9 hits
|14:52:37.209|    (INFO) (Event 4) [R:PulseTransfer:detector1] Total charge induced on all pixels: -16406e
|14:52:37.365|    (INFO) Finished event 4 with seed 11203921008588677798
|14:52:37.365|  (STATUS) Buffered 0, finished 4 of 10 events
|14:52:37.567|    (INFO) Starting event 8 with seed 16707204194369177152
|14:52:37.567|    (INFO) (Event 8) [R:DepositionLaser] Event 8: photon 1 of 10
|14:52:37.568|    (INFO) (Event 8) [R:DepositionLaser] Event 8: photon 2 of 10
|14:52:37.568|    (INFO) (Event 8) [R:DepositionLaser] Event 8: photon 3 of 10 
|14:52:37.568|    (INFO) (Event 8) [R:DepositionLaser] Event 8: photon 4 of 10 
|14:52:37.568|    (INFO) (Event 8) [R:DepositionLaser] Event 8: photon 5 of 10 
|14:52:37.568|    (INFO) (Event 8) [R:DepositionLaser] Event 8: photon 6 of 10 
|14:52:37.568|    (INFO) (Event 8) [R:DepositionLaser] Event 8: photon 7 of 10 
|14:52:37.568|    (INFO) (Event 8) [R:DepositionLaser] Event 8: photon 8 of 10 
|14:52:37.568|    (INFO) (Event 8) [R:DepositionLaser] Event 8: photon 9 of 10 
|14:52:37.568|    (INFO) (Event 8) [R:DepositionLaser] Event 8: photon 10 of 10
|14:52:37.568|    (INFO) (Event 8) [R:DepositionLaser] Registered hits in 1 detectors
|14:52:37.568|    (INFO) (Event 8) [R:DepositionLaser]     detector1: 10 hits
|14:53:26.814| (WARNING) (Event 7) [R:TransientPropagation:detector1] Found impact ionization shower with level larger than 30, interrupting
|14:53:26.814| (WARNING) (Event 7) [R:TransientPropagation:detector1] Found impact ionization shower with level larger than 30, interrupting
|14:53:26.814| (WARNING) (Event 7) [R:TransientPropagation:detector1] Found impact ionization shower with level larger than 30, interrupting
|14:53:26.814| (WARNING) (Event 7) [R:TransientPropagation:detector1] Found impact ionization shower with level larger than 30, interrupting
|14:53:26.814| (WARNING) (Event 7) [R:TransientPropagation:detector1] Found impact ionization shower with level larger than 30, interrupting
|14:53:26.814| (WARNING) (Event 7) [R:TransientPropagation:detector1] Found impact ionization shower with level larger than 30, interrupting
|14:53:26.814| (WARNING) (Event 7) [R:TransientPropagation:detector1] Found impact ionization shower with level larger than 30, interrupting
|14:53:26.814| (WARNING) (Event 7) [R:TransientPropagation:detector1] Found impact ionization shower with level larger than 30, interrupting
|14:53:26.814| (WARNING) (Event 7) [R:TransientPropagation:detector1] Found impact ionization shower with level larger than 30, interrupting
|14:53:26.815| (WARNING) (Event 7) [R:TransientPropagation:detector1] Found impact ionization shower with level larger than 30, interrupting
|14:53:26.815| (WARNING) (Event 7) [R:TransientPropagation:detector1] Found impact ionization shower with level larger than 30, interrupting
|14:53:26.815| (WARNING) (Event 7) [R:TransientPropagation:detector1] Found impact ionization shower with level larger than 30, interrupting
|14:53:26.815| (WARNING) (Event 7) [R:TransientPropagation:detector1] Found impact ionization shower with level larger than 30, interrupting
|14:53:26.815| (WARNING) (Event 7) [R:TransientPropagation:detector1] Found impact ionization shower with level larger than 30, interrupting
|14:53:27.369| (WARNING) (Event 7) [R:TransientPropagation:detector1] Found impact ionization shower with level larger than 30, interrupting
|14:53:27.370| (WARNING) (Event 7) [R:TransientPropagation:detector1] Found impact ionization shower with level larger than 30, interrupting
|14:53:27.370| (WARNING) (Event 7) [R:TransientPropagation:detector1] Found impact ionization shower with level larger than 30, interrupting
|14:53:27.370| (WARNING) (Event 7) [R:TransientPropagation:detector1] Found impact ionization shower with level larger than 30, interrupting
|14:53:27.370| (WARNING) (Event 7) [R:TransientPropagation:detector1] Found impact ionization shower with level larger than 30, interrupting
|14:53:27.370| (WARNING) (Event 7) [R:TransientPropagation:detector1] Found impact ionization shower with level larger than 30, interrupting
|14:53:27.370| (WARNING) (Event 7) [R:TransientPropagation:detector1] Found impact ionization shower with level larger than 30, interrupting
|14:53:27.370| (WARNING) (Event 7) [R:TransientPropagation:detector1] Found impact ionization shower with level larger than 30, interrupting
|14:53:27.370| (WARNING) (Event 7) [R:TransientPropagation:detector1] Found impact ionization shower with level larger than 30, interrupting
|14:53:27.370| (WARNING) (Event 7) [R:TransientPropagation:detector1] Found impact ionization shower with level larger than 30, interrupting
|14:53:27.370| (WARNING) (Event 7) [R:TransientPropagation:detector1] Found impact ionization shower with level larger than 30, interrupting
|14:53:27.370| (WARNING) (Event 7) [R:TransientPropagation:detector1] Found impact ionization shower with level larger than 30, interrupting
|14:53:27.371| (WARNING) (Event 7) [R:TransientPropagation:detector1] Found impact ionization shower with level larger than 30, interrupting
|14:53:27.371| (WARNING) (Event 7) [R:TransientPropagation:detector1] Found impact ionization shower with level larger than 30, interrupting
|14:53:27.371| (WARNING) (Event 7) [R:TransientPropagation:detector1] Found impact ionization shower with level larger than 30, interrupting
|14:53:46.448| (WARNING) (Event 6) [R:TransientPropagation:detector1] Detected gain of 51, local electric field of 321.999kV/cm, diode seems to be in breakdown
|14:53:46.448| (WARNING) (Event 6) [R:TransientPropagation:detector1] Detected gain of 51, local electric field of 321.999kV/cm, diode seems to be in breakdown
|14:53:46.535| (WARNING) (Event 6) [R:TransientPropagation:detector1] Detected gain of 54, local electric field of 321.999kV/cm, diode seems to be in breakdown
|14:53:46.535| (WARNING) (Event 6) [R:TransientPropagation:detector1] Detected gain of 54, local electric field of 321.999kV/cm, diode seems to be in breakdown
|14:53:46.535| (WARNING) (Event 6) [R:TransientPropagation:detector1] Detected gain of 54, local electric field of 321.999kV/cm, diode seems to be in breakdown
|14:53:46.620| (WARNING) (Event 6) [R:TransientPropagation:detector1] Detected gain of 55, local electric field of 321.999kV/cm, diode seems to be in breakdown
|14:53:46.620| (WARNING) (Event 6) [R:TransientPropagation:detector1] Detected gain of 55, local electric field of 69.1854kV/cm, diode seems to be in breakdown
|14:57:06.635| (WARNING) (Event 6) [R:TransientPropagation:detector1] Found impact ionization shower with level larger than 30, interrupting
|14:57:06.635| (WARNING) (Event 6) [R:TransientPropagation:detector1] Found impact ionization shower with level larger than 30, interrupting
|14:57:06.635| (WARNING) (Event 6) [R:TransientPropagation:detector1] Found impact ionization shower with level larger than 30, interrupting
|14:57:06.636| (WARNING) (Event 6) [R:TransientPropagation:detector1] Found impact ionization shower with level larger than 30, interrupting
|14:57:06.720| (WARNING) (Event 6) [R:TransientPropagation:detector1] Found impact ionization shower with level larger than 30, interrupting
|14:57:06.720| (WARNING) (Event 6) [R:TransientPropagation:detector1] Found impact ionization shower with level larger than 30, interrupting
|14:57:06.720| (WARNING) (Event 6) [R:TransientPropagation:detector1] Found impact ionization shower with level larger than 30, interrupting
|14:57:06.721| (WARNING) (Event 6) [R:TransientPropagation:detector1] Found impact ionization shower with level larger than 30, interrupting
|14:57:06.721| (WARNING) (Event 6) [R:TransientPropagation:detector1] Found impact ionization shower with level larger than 30, interrupting
|14:57:06.721| (WARNING) (Event 6) [R:TransientPropagation:detector1] Found impact ionization shower with level larger than 30, interrupting
|14:57:06.721| (WARNING) (Event 6) [R:TransientPropagation:detector1] Found impact ionization shower with level larger than 30, interrupting
|14:57:06.721| (WARNING) (Event 6) [R:TransientPropagation:detector1] Found impact ionization shower with level larger than 30, interrupting
|14:57:06.721| (WARNING) (Event 6) [R:TransientPropagation:detector1] Found impact ionization shower with level larger than 30, interrupting
|14:57:06.721| (WARNING) (Event 6) [R:TransientPropagation:detector1] Found impact ionization shower with level larger than 30, interrupting
|14:57:06.721| (WARNING) (Event 6) [R:TransientPropagation:detector1] Found impact ionization shower with level larger than 30, interrupting
|14:57:06.721| (WARNING) (Event 6) [R:TransientPropagation:detector1] Found impact ionization shower with level larger than 30, interrupting
|14:57:06.721| (WARNING) (Event 6) [R:TransientPropagation:detector1] Found impact ionization shower with level larger than 30, interrupting
|14:57:06.721| (WARNING) (Event 6) [R:TransientPropagation:detector1] Found impact ionization shower with level larger than 30, interrupting
|14:57:06.721| (WARNING) (Event 6) [R:TransientPropagation:detector1] Found impact ionization shower with level larger than 30, interrupting
|14:57:06.721| (WARNING) (Event 6) [R:TransientPropagation:detector1] Found impact ionization shower with level larger than 30, interrupting
|14:57:06.721| (WARNING) (Event 6) [R:TransientPropagation:detector1] Found impact ionization shower with level larger than 30, interrupting
|14:57:06.721| (WARNING) (Event 6) [R:TransientPropagation:detector1] Found impact ionization shower with level larger than 30, interrupting
|14:57:07.107| (WARNING) (Event 6) [R:TransientPropagation:detector1] Found impact ionization shower with level larger than 30, interrupting
|14:57:07.108| (WARNING) (Event 6) [R:TransientPropagation:detector1] Found impact ionization shower with level larger than 30, interrupting
|14:57:07.108| (WARNING) (Event 6) [R:TransientPropagation:detector1] Found impact ionization shower with level larger than 30, interrupting
|14:57:07.108| (WARNING) (Event 6) [R:TransientPropagation:detector1] Found impact ionization shower with level larger than 30, interrupting
|14:57:07.108| (WARNING) (Event 6) [R:TransientPropagation:detector1] Found impact ionization shower with level larger than 30, interrupting
|14:57:07.108| (WARNING) (Event 6) [R:TransientPropagation:detector1] Found impact ionization shower with level larger than 30, interrupting
|14:57:07.108| (WARNING) (Event 6) [R:TransientPropagation:detector1] Found impact ionization shower with level larger than 30, interrupting
|14:57:07.108| (WARNING) (Event 6) [R:TransientPropagation:detector1] Found impact ionization shower with level larger than 30, interrupting
|14:57:07.108| (WARNING) (Event 6) [R:TransientPropagation:detector1] Found impact ionization shower with level larger than 30, interrupting
|14:57:07.108| (WARNING) (Event 6) [R:TransientPropagation:detector1] Found impact ionization shower with level larger than 30, interrupting
|14:57:07.998| (WARNING) (Event 6) [R:TransientPropagation:detector1] Found impact ionization shower with level larger than 30, interrupting
|14:57:07.998| (WARNING) (Event 6) [R:TransientPropagation:detector1] Found impact ionization shower with level larger than 30, interrupting
|15:02:39.244| (WARNING) (Event 7) [R:TransientPropagation:detector1] Found impact ionization shower with level larger than 30, interrupting
|15:02:39.244| (WARNING) (Event 7) [R:TransientPropagation:detector1] Found impact ionization shower with level larger than 30, interrupting
|15:08:34.977|    (INFO) (Event 5) [R:PulseTransfer:detector1] Total charge induced on all pixels: -12306e
|15:08:35.132|    (INFO) Finished event 5 with seed 665441777603363039
|15:08:35.132|  (STATUS) Buffered 0, finished 5 of 10 events
|15:08:35.163|    (INFO) Starting event 9 with seed 5781884288615267608
|15:08:35.163|    (INFO) (Event 9) [R:DepositionLaser] Event 9: photon 1 of 10
|15:08:35.164|    (INFO) (Event 9) [R:DepositionLaser] Event 9: photon 2 of 10
|15:08:35.164|    (INFO) (Event 9) [R:DepositionLaser] Event 9: photon 3 of 10 
|15:08:35.164|    (INFO) (Event 9) [R:DepositionLaser] Event 9: photon 4 of 10 
|15:08:35.164|    (INFO) (Event 9) [R:DepositionLaser] Event 9: photon 5 of 10 
|15:08:35.164|    (INFO) (Event 9) [R:DepositionLaser] Event 9: photon 6 of 10 
|15:08:35.164|    (INFO) (Event 9) [R:DepositionLaser] Event 9: photon 7 of 10 
|15:08:35.164|    (INFO) (Event 9) [R:DepositionLaser] Event 9: photon 8 of 10 
|15:08:35.164|    (INFO) (Event 9) [R:DepositionLaser] Event 9: photon 9 of 10 
|15:08:35.164|    (INFO) (Event 9) [R:DepositionLaser] Event 9: photon 10 of 10
|15:08:35.164|    (INFO) (Event 9) [R:DepositionLaser] Registered hits in 1 detectors
|15:08:35.164|    (INFO) (Event 9) [R:DepositionLaser]     detector1: 10 hits
|15:11:09.650| (WARNING) (Event 8) [R:TransientPropagation:detector1] Found impact ionization shower with level larger than 30, interrupting
|15:11:09.651| (WARNING) (Event 8) [R:TransientPropagation:detector1] Found impact ionization shower with level larger than 30, interrupting
|15:11:09.651| (WARNING) (Event 8) [R:TransientPropagation:detector1] Found impact ionization shower with level larger than 30, interrupting
|15:11:09.651| (WARNING) (Event 8) [R:TransientPropagation:detector1] Found impact ionization shower with level larger than 30, interrupting
|15:11:09.651| (WARNING) (Event 8) [R:TransientPropagation:detector1] Found impact ionization shower with level larger than 30, interrupting
|15:11:09.651| (WARNING) (Event 8) [R:TransientPropagation:detector1] Found impact ionization shower with level larger than 30, interrupting
|15:11:09.651| (WARNING) (Event 8) [R:TransientPropagation:detector1] Found impact ionization shower with level larger than 30, interrupting
|15:11:09.651| (WARNING) (Event 8) [R:TransientPropagation:detector1] Found impact ionization shower with level larger than 30, interrupting
|15:11:09.652| (WARNING) (Event 8) [R:TransientPropagation:detector1] Found impact ionization shower with level larger than 30, interrupting
|15:11:09.652| (WARNING) (Event 8) [R:TransientPropagation:detector1] Found impact ionization shower with level larger than 30, interrupting
|15:12:25.985| (WARNING) (Event 7) [R:TransientPropagation:detector1] Found impact ionization shower with level larger than 30, interrupting
|15:12:25.985| (WARNING) (Event 7) [R:TransientPropagation:detector1] Found impact ionization shower with level larger than 30, interrupting
|15:12:25.985| (WARNING) (Event 7) [R:TransientPropagation:detector1] Found impact ionization shower with level larger than 30, interrupting
|15:12:25.985| (WARNING) (Event 7) [R:TransientPropagation:detector1] Found impact ionization shower with level larger than 30, interrupting
|15:12:25.985| (WARNING) (Event 7) [R:TransientPropagation:detector1] Found impact ionization shower with level larger than 30, interrupting
|15:12:25.986| (WARNING) (Event 7) [R:TransientPropagation:detector1] Found impact ionization shower with level larger than 30, interrupting
|15:12:25.986| (WARNING) (Event 7) [R:TransientPropagation:detector1] Found impact ionization shower with level larger than 30, interrupting
|15:12:29.456| (WARNING) (Event 7) [R:TransientPropagation:detector1] Found impact ionization shower with level larger than 30, interrupting
|15:12:29.456| (WARNING) (Event 7) [R:TransientPropagation:detector1] Found impact ionization shower with level larger than 30, interrupting
|15:13:03.636| (WARNING) (Event 6) [R:TransientPropagation:detector1] Detected gain of 52, local electric field of 322.041kV/cm, diode seems to be in breakdown
|15:13:03.664| (WARNING) (Event 6) [R:TransientPropagation:detector1] Detected gain of 56, local electric field of 322.041kV/cm, diode seems to be in breakdown
|15:13:03.664| (WARNING) (Event 6) [R:TransientPropagation:detector1] Detected gain of 56, local electric field of 322.041kV/cm, diode seems to be in breakdown
|15:13:03.664| (WARNING) (Event 6) [R:TransientPropagation:detector1] Detected gain of 56, local electric field of 322.041kV/cm, diode seems to be in breakdown
|15:13:03.664| (WARNING) (Event 6) [R:TransientPropagation:detector1] Detected gain of 56, local electric field of 322.041kV/cm, diode seems to be in breakdown
|15:13:03.696| (WARNING) (Event 6) [R:TransientPropagation:detector1] Detected gain of 57, local electric field of 322.041kV/cm, diode seems to be in breakdown
|15:13:06.472| (WARNING) (Event 6) [R:TransientPropagation:detector1] Detected gain of 58, local electric field of 322.041kV/cm, diode seems to be in breakdown
|15:13:06.497| (WARNING) (Event 6) [R:TransientPropagation:detector1] Detected gain of 60, local electric field of 322.041kV/cm, diode seems to be in breakdown
|15:13:06.544| (WARNING) (Event 6) [R:TransientPropagation:detector1] Detected gain of 61, local electric field of 322.041kV/cm, diode seems to be in breakdown
|15:13:06.577| (WARNING) (Event 6) [R:TransientPropagation:detector1] Detected gain of 63, local electric field of 322.041kV/cm, diode seems to be in breakdown
|15:13:06.577| (WARNING) (Event 6) [R:TransientPropagation:detector1] Detected gain of 63, local electric field of 322.041kV/cm, diode seems to be in breakdown
|15:13:06.647| (WARNING) (Event 6) [R:TransientPropagation:detector1] Detected gain of 65, local electric field of 322.041kV/cm, diode seems to be in breakdown
|15:13:06.896| (WARNING) (Event 6) [R:TransientPropagation:detector1] Detected gain of 69, local electric field of 322.041kV/cm, diode seems to be in breakdown
|15:13:07.060| (WARNING) (Event 6) [R:TransientPropagation:detector1] Detected gain of 70, local electric field of 322.041kV/cm, diode seems to be in breakdown
|15:13:07.060| (WARNING) (Event 6) [R:TransientPropagation:detector1] Detected gain of 70, local electric field of 69.2302kV/cm, diode seems to be in breakdown
|15:17:08.746| (WARNING) (Event 8) [R:TransientPropagation:detector1] Found impact ionization shower with level larger than 30, interrupting
|15:17:08.746| (WARNING) (Event 8) [R:TransientPropagation:detector1] Found impact ionization shower with level larger than 30, interrupting
|15:17:08.746| (WARNING) (Event 8) [R:TransientPropagation:detector1] Found impact ionization shower with level larger than 30, interrupting
|15:17:08.747| (WARNING) (Event 8) [R:TransientPropagation:detector1] Found impact ionization shower with level larger than 30, interrupting
|15:17:08.747| (WARNING) (Event 8) [R:TransientPropagation:detector1] Found impact ionization shower with level larger than 30, interrupting
|15:17:08.747| (WARNING) (Event 8) [R:TransientPropagation:detector1] Found impact ionization shower with level larger than 30, interrupting
|15:17:08.747| (WARNING) (Event 8) [R:TransientPropagation:detector1] Found impact ionization shower with level larger than 30, interrupting
|15:17:08.747| (WARNING) (Event 8) [R:TransientPropagation:detector1] Found impact ionization shower with level larger than 30, interrupting
|15:17:24.853| (WARNING) (Event 8) [R:TransientPropagation:detector1] Found impact ionization shower with level larger than 30, interrupting
|15:17:24.853| (WARNING) (Event 8) [R:TransientPropagation:detector1] Found impact ionization shower with level larger than 30, interrupting
|15:17:24.854| (WARNING) (Event 8) [R:TransientPropagation:detector1] Found impact ionization shower with level larger than 30, interrupting
|15:17:24.854| (WARNING) (Event 8) [R:TransientPropagation:detector1] Found impact ionization shower with level larger than 30, interrupting
|15:17:24.854| (WARNING) (Event 8) [R:TransientPropagation:detector1] Found impact ionization shower with level larger than 30, interrupting
|15:19:20.184| (WARNING) (Event 7) [R:TransientPropagation:detector1] Found impact ionization shower with level larger than 30, interrupting
|15:19:20.184| (WARNING) (Event 7) [R:TransientPropagation:detector1] Found impact ionization shower with level larger than 30, interrupting
|15:19:20.184| (WARNING) (Event 7) [R:TransientPropagation:detector1] Found impact ionization shower with level larger than 30, interrupting
|15:19:20.184| (WARNING) (Event 7) [R:TransientPropagation:detector1] Found impact ionization shower with level larger than 30, interrupting
|15:20:47.308| (WARNING) (Event 6) [R:TransientPropagation:detector1] Found impact ionization shower with level larger than 30, interrupting
|15:20:47.308| (WARNING) (Event 6) [R:TransientPropagation:detector1] Found impact ionization shower with level larger than 30, interrupting
|15:20:47.308| (WARNING) (Event 6) [R:TransientPropagation:detector1] Found impact ionization shower with level larger than 30, interrupting
|15:20:47.308| (WARNING) (Event 6) [R:TransientPropagation:detector1] Found impact ionization shower with level larger than 30, interrupting
|15:20:47.308| (WARNING) (Event 6) [R:TransientPropagation:detector1] Found impact ionization shower with level larger than 30, interrupting
|15:20:47.308| (WARNING) (Event 6) [R:TransientPropagation:detector1] Found impact ionization shower with level larger than 30, interrupting
|15:20:47.308| (WARNING) (Event 6) [R:TransientPropagation:detector1] Found impact ionization shower with level larger than 30, interrupting
|15:20:47.309| (WARNING) (Event 6) [R:TransientPropagation:detector1] Found impact ionization shower with level larger than 30, interrupting
|15:20:47.309| (WARNING) (Event 6) [R:TransientPropagation:detector1] Found impact ionization shower with level larger than 30, interrupting
|15:20:47.309| (WARNING) (Event 6) [R:TransientPropagation:detector1] Found impact ionization shower with level larger than 30, interrupting
|15:24:21.295|    (INFO) (Event 6) [R:PulseTransfer:detector1] Total charge induced on all pixels: -23501e
|15:24:21.470|    (INFO) Finished event 6 with seed 13893719512177866254
|15:24:21.470|  (STATUS) Buffered 0, finished 6 of 10 events
|15:24:21.554|    (INFO) Starting event 10 with seed 6927750347068789437
|15:24:21.554|    (INFO) (Event 10) [R:DepositionLaser] Event 10: photon 1 of 10
|15:24:21.554|    (INFO) (Event 10) [R:DepositionLaser] Event 10: photon 2 of 10
|15:24:21.555|    (INFO) (Event 10) [R:DepositionLaser] Event 10: photon 3 of 10 
|15:24:21.556|    (INFO) (Event 10) [R:DepositionLaser] Event 10: photon 4 of 10 
|15:24:21.556|    (INFO) (Event 10) [R:DepositionLaser] Event 10: photon 5 of 10 
|15:24:21.556|    (INFO) (Event 10) [R:DepositionLaser] Event 10: photon 6 of 10 
|15:24:21.556|    (INFO) (Event 10) [R:DepositionLaser] Event 10: photon 7 of 10 
|15:24:21.556|    (INFO) (Event 10) [R:DepositionLaser] Event 10: photon 8 of 10 
|15:24:21.556|    (INFO) (Event 10) [R:DepositionLaser] Event 10: photon 9 of 10 
|15:24:21.556|    (INFO) (Event 10) [R:DepositionLaser] Event 10: photon 10 of 10
|15:24:21.556|    (INFO) (Event 10) [R:DepositionLaser] Registered hits in 1 detectors
|15:24:21.556|    (INFO) (Event 10) [R:DepositionLaser]     detector1: 10 hits
|15:27:55.330| (WARNING) (Event 8) [R:TransientPropagation:detector1] Found impact ionization shower with level larger than 30, interrupting
|15:27:56.169| (WARNING) (Event 8) [R:TransientPropagation:detector1] Found impact ionization shower with level larger than 30, interrupting
|15:27:56.169| (WARNING) (Event 8) [R:TransientPropagation:detector1] Found impact ionization shower with level larger than 30, interrupting
|15:27:56.169| (WARNING) (Event 8) [R:TransientPropagation:detector1] Found impact ionization shower with level larger than 30, interrupting
|15:27:56.169| (WARNING) (Event 8) [R:TransientPropagation:detector1] Found impact ionization shower with level larger than 30, interrupting
|15:27:56.169| (WARNING) (Event 8) [R:TransientPropagation:detector1] Found impact ionization shower with level larger than 30, interrupting
|15:27:56.169| (WARNING) (Event 8) [R:TransientPropagation:detector1] Found impact ionization shower with level larger than 30, interrupting
|15:27:56.169| (WARNING) (Event 8) [R:TransientPropagation:detector1] Found impact ionization shower with level larger than 30, interrupting
|15:28:02.805| (WARNING) (Event 8) [R:TransientPropagation:detector1] Found impact ionization shower with level larger than 30, interrupting
|15:28:02.805| (WARNING) (Event 8) [R:TransientPropagation:detector1] Found impact ionization shower with level larger than 30, interrupting
|15:39:59.972|    (INFO) (Event 7) [R:PulseTransfer:detector1] Total charge induced on all pixels: -26080e
|15:40:00.142|    (INFO) Finished event 7 with seed 8470240466365376417
|15:40:00.142|  (STATUS) Buffered 0, finished 7 of 10 events
|15:41:28.091| (WARNING) (Event 8) [R:TransientPropagation:detector1] Found impact ionization shower with level larger than 30, interrupting
|15:41:28.091| (WARNING) (Event 8) [R:TransientPropagation:detector1] Found impact ionization shower with level larger than 30, interrupting
|15:41:28.091| (WARNING) (Event 8) [R:TransientPropagation:detector1] Found impact ionization shower with level larger than 30, interrupting
|15:41:28.092| (WARNING) (Event 8) [R:TransientPropagation:detector1] Found impact ionization shower with level larger than 30, interrupting
|15:41:28.092| (WARNING) (Event 8) [R:TransientPropagation:detector1] Found impact ionization shower with level larger than 30, interrupting
|15:41:28.093| (WARNING) (Event 8) [R:TransientPropagation:detector1] Found impact ionization shower with level larger than 30, interrupting
|15:41:36.488| (WARNING) (Event 8) [R:TransientPropagation:detector1] Found impact ionization shower with level larger than 30, interrupting
|15:48:32.760|    (INFO) (Event 8) [R:PulseTransfer:detector1] Total charge induced on all pixels: -23632e
|15:48:32.919|    (INFO) Finished event 8 with seed 16707204194369177152
|15:48:32.919|  (STATUS) Buffered 0, finished 8 of 10 events
|15:55:01.072|    (INFO) (Event 9) [R:PulseTransfer:detector1] Total charge induced on all pixels: -25267e
|15:55:02.388|    (INFO) Finished event 9 with seed 5781884288615267608
|15:55:02.389|  (STATUS) Buffered 0, finished 9 of 10 events
|16:57:01.653|    (INFO) (Event 10) [R:PulseTransfer:detector1] Total charge induced on all pixels: -19414e
|16:57:01.974|    (INFO) Finished event 10 with seed 6927750347068789437
|16:57:01.974|  (STATUS) Buffered 0, finished 10 of 10 events
|16:57:02.012|  (STATUS) Finished run of 10 events           
|16:57:02.013|   (TRACE) [T:WeightingPotentialReader:detector1] Finalizing thread 22683993818688
|16:57:02.013|   (TRACE) [T:WeightingPotentialReader:detector1] Finalizing thread 22683998021184
|16:57:02.013|   (TRACE) [T:WeightingPotentialReader:detector1] Finalizing thread 22683991717440
|16:57:02.013|   (TRACE) [T:WeightingPotentialReader:detector1] Finalizing thread 22683995919936
|16:57:06.179|  (STATUS) [F:ROOTObjectWriter] Wrote 145 objects to 4 branches in file:
                                              /afs/cern.ch/work/j/jsabater/unige/FASER/allpix-squared_3p03/allpix-squared/run/gamma905nm/allpix/output/transient_data_laser_gamma905nm_okuto_1000photons_10.root
|16:57:06.268|  (STATUS) Finalization completed
|16:57:06.269| (WARNING) Unused configuration keys in section ElectricFieldReader:detector1:
                         output_plots_project
                         output_plots_single_pixel
                         output_plots_steps
|16:57:06.269| (WARNING) Unused configuration keys in section WeightingPotentialReader:detector1:
                         output_plots_single_pixel
                         output_plots_steps
|16:57:06.269| (WARNING) Unused configuration keys in section DopingProfileReader:detector1:
                         output_plots_single_pixel
                         output_plots_steps
|16:57:06.269| (WARNING) Unused configuration keys in section TransientPropagation:detector1:
                         ignore_magnetic_field
|16:57:06.269|  (STATUS) Executed 8 instantiations in 2 hours 31 minutes 11 seconds, spending 97% of time in slowest instantiation TransientPropagation:detector1
|16:57:06.269|    (INFO)  Module GeometryBuilderGeant4 took 113.291ms
|16:57:06.269|    (INFO)  Module DepositionLaser took 116.894ms
|16:57:06.269|    (INFO)  Module ElectricFieldReader:detector1 took 372.622s
|16:57:06.269|    (INFO)  Module WeightingPotentialReader:detector1 took 60.4622s
|16:57:06.269|    (INFO)  Module DopingProfileReader:detector1 took 136.61s
|16:57:06.269|    (INFO)  Module TransientPropagation:detector1 took 21489.8s
|16:57:06.269|    (INFO)  Module PulseTransfer:detector1 took 56.8439s
|16:57:06.269|    (INFO)  Module ROOTObjectWriter took 4.67294s
|16:57:06.269|  (STATUS) Average processing time is 850021ms/event, event generation at 0 Hz
|16:57:06.270|  (STATUS) This corresponds to a processing time of 3.40009e+06ms/event per worker
'/afs/cern.ch/work/j/jsabater/unige/FASER/allpix-squared_3p03/allpix-squared/run/gamma905nm/allpix/output/transient_data_laser_gamma905nm_okuto_1000photons_10.root' -> '/eos/user/j/jsabater/unige/gamma905nm/allpix/transient_data_laser_gamma905nm_okuto_1000photons_10.root'
'/afs/cern.ch/work/j/jsabater/unige/FASER/allpix-squared_3p03/allpix-squared/run/gamma905nm/allpix/output/transient_modules_laser_gamma905nm_okuto_1000photons_10.root' -> '/eos/user/j/jsabater/unige/gamma905nm/allpix/transient_modules_laser_gamma905nm_okuto_1000photons_10.root'
removed '/afs/cern.ch/work/j/jsabater/unige/FASER/allpix-squared_3p03/allpix-squared/run/gamma905nm/allpix/output/transient_data_laser_gamma905nm_okuto_1000photons_10.root'
removed '/afs/cern.ch/work/j/jsabater/unige/FASER/allpix-squared_3p03/allpix-squared/run/gamma905nm/allpix/output/transient_modules_laser_gamma905nm_okuto_1000photons_10.root'
