[7mlsetup              [0m lsetup <tool1> [ <tool2> ...] (see lsetup -h):
[7m lsetup asetup      [0m  (or asetup) to setup an Athena release
[7m lsetup astyle      [0m  ATLAS style macros
[7m lsetup atlantis    [0m  Atlantis: event display
[7m lsetup eiclient    [0m  Event Index 
[7m lsetup emi         [0m  EMI: grid middleware user interface 
[7m lsetup lcgenv      [0m  lcgenv: setup tools from cvmfs SFT repository
[7m lsetup panda       [0m  Panda: Production ANd Distributed Analysis
[7m lsetup pyami       [0m  pyAMI: ATLAS Metadata Interface python client
[7m lsetup root        [0m  ROOT data processing framework
[7m lsetup rucio       [0m  distributed data management system client
[7m lsetup scikit      [0m  python data analysis ecosystem
[7m lsetup views       [0m  Set up a full LCG release
[7m lsetup xcache      [0m  XRootD local proxy cache
[7m lsetup xrootd      [0m  XRootD data access
[7madvancedTools       [0m advanced tools menu
[7mdiagnostics         [0m diagnostic tools menu
[7mhelpMe              [0m more help
[7minstallPip          [0m install relocatable pip modules locally
[7minstallRpm          [0m install relocatable rpms locally
[7mprintMenu           [0m show this menu
[7mqueryC              [0m find / whatis container query
[7mshowVersions        [0m show versions of installed software

Detected Red Hat Enterprise Linux 9
No explicit LCG version set, using LCG_104.
Compiler type set to LLVM, version clang16.
|14:55:58.434|    (INFO) Setting provided option output_directory=output/
|14:55:58.435|    (INFO) Setting provided option random_seed=6
|14:55:58.435|    (INFO) Setting provided option root_file=transient_modules_laser_gamma905nm_okuto_100photons_6
|14:55:58.435|    (INFO) Setting provided option number_of_photons=100 for DepositionLaser
|14:55:58.435|    (INFO) Setting provided option multiplication_model=okuto for TransientPropagation
|14:55:58.435|    (INFO) Setting provided option file_name=transient_data_laser_gamma905nm_okuto_100photons_6 for ROOTObjectWriter
|14:55:58.447|  (STATUS) Welcome to Allpix^2 v3.0.3
|14:55:58.447|  (STATUS) Initialized PRNG with configured seed 6
|14:56:05.335|  (STATUS) Loading module GeometryBuilderGeant4
|14:56:05.335|    (INFO) [C:GeometryBuilderGeant4] Detected Geant4 multithreading capabilities, enabling multithreading support
|14:56:05.336|  (STATUS) Loading module DepositionLaser
|14:56:05.336|    (INFO) Setting provided option number_of_photons=100 for DepositionLaser
|14:56:05.384|  (STATUS) Loading module ElectricFieldReader
|14:56:05.587|  (STATUS) Loading module WeightingPotentialReader
|14:56:05.587|  (STATUS) Loading module DopingProfileReader      
|14:56:05.587|  (STATUS) Loading module TransientPropagation
|14:56:05.587|  (STATUS) Loading module PulseTransfer        
|14:56:05.588|  (STATUS) Loading module ROOTObjectWriter
|14:56:05.588|    (INFO) Setting provided option file_name=transient_data_laser_gamma905nm_okuto_100photons_6 for ROOTObjectWriter
|14:56:05.588|  (STATUS) Loaded 8 modules
|14:56:05.588|  (STATUS) Multithreading enabled, processing events in parallel on 4 worker threads
|14:56:05.588|  (STATUS) Allocating a total of 1024 event slots for buffered modules
|14:56:05.588|  (STATUS) Initializing 8 module instantiations
|14:56:05.794|    (INFO) [I:GeometryBuilderGeant4] No overlapping volumes detected.
|14:56:06.354|    (INFO) [I:ElectricFieldReader:detector1] Reading field data: 0%
|14:56:09.180|    (INFO) [I:ElectricFieldReader:detector1] Reading field data: 1%
|14:56:12.483|    (INFO) [I:ElectricFieldReader:detector1] Reading field data: 2% 
|14:56:16.529|    (INFO) [I:ElectricFieldReader:detector1] Reading field data: 3% 
|14:56:21.601|    (INFO) [I:ElectricFieldReader:detector1] Reading field data: 4% 
|14:56:25.144|    (INFO) [I:ElectricFieldReader:detector1] Reading field data: 5% 
|14:56:28.761|    (INFO) [I:ElectricFieldReader:detector1] Reading field data: 6% 
|14:56:32.694|    (INFO) [I:ElectricFieldReader:detector1] Reading field data: 7% 
|14:56:38.699|    (INFO) [I:ElectricFieldReader:detector1] Reading field data: 8% 
|14:56:44.129|    (INFO) [I:ElectricFieldReader:detector1] Reading field data: 9% 
|14:56:49.762|    (INFO) [I:ElectricFieldReader:detector1] Reading field data: 10%
|14:56:55.797|    (INFO) [I:ElectricFieldReader:detector1] Reading field data: 11% 
|14:57:01.838|    (INFO) [I:ElectricFieldReader:detector1] Reading field data: 12% 
|14:57:07.417|    (INFO) [I:ElectricFieldReader:detector1] Reading field data: 13% 
|14:57:11.950|    (INFO) [I:ElectricFieldReader:detector1] Reading field data: 14% 
|14:57:17.304|    (INFO) [I:ElectricFieldReader:detector1] Reading field data: 15% 
|14:57:21.249|    (INFO) [I:ElectricFieldReader:detector1] Reading field data: 16% 
|14:57:25.529|    (INFO) [I:ElectricFieldReader:detector1] Reading field data: 17% 
|14:57:32.020|    (INFO) [I:ElectricFieldReader:detector1] Reading field data: 18% 
|14:57:37.972|    (INFO) [I:ElectricFieldReader:detector1] Reading field data: 19% 
|14:57:42.552|    (INFO) [I:ElectricFieldReader:detector1] Reading field data: 20% 
|14:57:46.178|    (INFO) [I:ElectricFieldReader:detector1] Reading field data: 21% 
|14:57:50.126|    (INFO) [I:ElectricFieldReader:detector1] Reading field data: 22% 
|14:57:53.792|    (INFO) [I:ElectricFieldReader:detector1] Reading field data: 23% 
|14:57:57.302|    (INFO) [I:ElectricFieldReader:detector1] Reading field data: 24% 
|14:58:00.600|    (INFO) [I:ElectricFieldReader:detector1] Reading field data: 25% 
|14:58:04.813|    (INFO) [I:ElectricFieldReader:detector1] Reading field data: 26% 
|14:58:08.660|    (INFO) [I:ElectricFieldReader:detector1] Reading field data: 27% 
|14:58:13.429|    (INFO) [I:ElectricFieldReader:detector1] Reading field data: 28% 
|14:58:18.303|    (INFO) [I:ElectricFieldReader:detector1] Reading field data: 29% 
|14:58:23.416|    (INFO) [I:ElectricFieldReader:detector1] Reading field data: 30% 
|14:58:27.485|    (INFO) [I:ElectricFieldReader:detector1] Reading field data: 31% 
|14:58:31.070|    (INFO) [I:ElectricFieldReader:detector1] Reading field data: 32% 
|14:58:35.428|    (INFO) [I:ElectricFieldReader:detector1] Reading field data: 33% 
|14:58:41.549|    (INFO) [I:ElectricFieldReader:detector1] Reading field data: 34% 
|14:58:47.293|    (INFO) [I:ElectricFieldReader:detector1] Reading field data: 35% 
|14:58:52.026|    (INFO) [I:ElectricFieldReader:detector1] Reading field data: 36% 
|14:58:56.653|    (INFO) [I:ElectricFieldReader:detector1] Reading field data: 37% 
|14:59:00.552|    (INFO) [I:ElectricFieldReader:detector1] Reading field data: 38% 
|14:59:03.636|    (INFO) [I:ElectricFieldReader:detector1] Reading field data: 39% 
|14:59:07.233|    (INFO) [I:ElectricFieldReader:detector1] Reading field data: 40% 
|14:59:10.267|    (INFO) [I:ElectricFieldReader:detector1] Reading field data: 41% 
|14:59:13.461|    (INFO) [I:ElectricFieldReader:detector1] Reading field data: 42% 
|14:59:16.574|    (INFO) [I:ElectricFieldReader:detector1] Reading field data: 43% 
|14:59:19.367|    (INFO) [I:ElectricFieldReader:detector1] Reading field data: 44% 
|14:59:22.980|    (INFO) [I:ElectricFieldReader:detector1] Reading field data: 45% 
|14:59:26.173|    (INFO) [I:ElectricFieldReader:detector1] Reading field data: 46% 
|14:59:29.080|    (INFO) [I:ElectricFieldReader:detector1] Reading field data: 47% 
|14:59:32.262|    (INFO) [I:ElectricFieldReader:detector1] Reading field data: 48% 
|14:59:35.814|    (INFO) [I:ElectricFieldReader:detector1] Reading field data: 49% 
|14:59:38.309|    (INFO) [I:ElectricFieldReader:detector1] Reading field data: 50% 
|14:59:41.095|    (INFO) [I:ElectricFieldReader:detector1] Reading field data: 51% 
|14:59:44.154|    (INFO) [I:ElectricFieldReader:detector1] Reading field data: 52% 
|14:59:46.763|    (INFO) [I:ElectricFieldReader:detector1] Reading field data: 53% 
|14:59:49.524|    (INFO) [I:ElectricFieldReader:detector1] Reading field data: 54% 
|14:59:52.181|    (INFO) [I:ElectricFieldReader:detector1] Reading field data: 55% 
|14:59:54.824|    (INFO) [I:ElectricFieldReader:detector1] Reading field data: 56% 
|14:59:57.635|    (INFO) [I:ElectricFieldReader:detector1] Reading field data: 57% 
|15:00:00.517|    (INFO) [I:ElectricFieldReader:detector1] Reading field data: 58% 
|15:00:04.555|    (INFO) [I:ElectricFieldReader:detector1] Reading field data: 59% 
|15:00:08.272|    (INFO) [I:ElectricFieldReader:detector1] Reading field data: 60% 
|15:00:11.173|    (INFO) [I:ElectricFieldReader:detector1] Reading field data: 61% 
|15:00:14.384|    (INFO) [I:ElectricFieldReader:detector1] Reading field data: 62% 
|15:00:19.676|    (INFO) [I:ElectricFieldReader:detector1] Reading field data: 63% 
|15:00:23.948|    (INFO) [I:ElectricFieldReader:detector1] Reading field data: 64% 
|15:00:27.344|    (INFO) [I:ElectricFieldReader:detector1] Reading field data: 65% 
|15:00:30.877|    (INFO) [I:ElectricFieldReader:detector1] Reading field data: 66% 
|15:00:34.608|    (INFO) [I:ElectricFieldReader:detector1] Reading field data: 67% 
|15:00:38.093|    (INFO) [I:ElectricFieldReader:detector1] Reading field data: 68% 
|15:00:41.173|    (INFO) [I:ElectricFieldReader:detector1] Reading field data: 69% 
|15:00:45.819|    (INFO) [I:ElectricFieldReader:detector1] Reading field data: 70% 
|15:00:50.654|    (INFO) [I:ElectricFieldReader:detector1] Reading field data: 71% 
|15:00:54.062|    (INFO) [I:ElectricFieldReader:detector1] Reading field data: 72% 
|15:00:57.493|    (INFO) [I:ElectricFieldReader:detector1] Reading field data: 73% 
|15:01:00.806|    (INFO) [I:ElectricFieldReader:detector1] Reading field data: 74% 
|15:01:04.451|    (INFO) [I:ElectricFieldReader:detector1] Reading field data: 75% 
|15:01:09.069|    (INFO) [I:ElectricFieldReader:detector1] Reading field data: 76% 
|15:01:13.260|    (INFO) [I:ElectricFieldReader:detector1] Reading field data: 77% 
|15:01:18.049|    (INFO) [I:ElectricFieldReader:detector1] Reading field data: 78% 
|15:01:21.809|    (INFO) [I:ElectricFieldReader:detector1] Reading field data: 79% 
|15:01:26.010|    (INFO) [I:ElectricFieldReader:detector1] Reading field data: 80% 
|15:01:30.269|    (INFO) [I:ElectricFieldReader:detector1] Reading field data: 81% 
|15:01:33.934|    (INFO) [I:ElectricFieldReader:detector1] Reading field data: 82% 
|15:01:37.332|    (INFO) [I:ElectricFieldReader:detector1] Reading field data: 83% 
|15:01:40.146|    (INFO) [I:ElectricFieldReader:detector1] Reading field data: 84% 
|15:01:42.839|    (INFO) [I:ElectricFieldReader:detector1] Reading field data: 85% 
|15:01:45.476|    (INFO) [I:ElectricFieldReader:detector1] Reading field data: 86% 
|15:01:48.509|    (INFO) [I:ElectricFieldReader:detector1] Reading field data: 87% 
|15:01:51.648|    (INFO) [I:ElectricFieldReader:detector1] Reading field data: 88% 
|15:01:55.434|    (INFO) [I:ElectricFieldReader:detector1] Reading field data: 89% 
|15:01:58.839|    (INFO) [I:ElectricFieldReader:detector1] Reading field data: 90% 
|15:02:02.742|    (INFO) [I:ElectricFieldReader:detector1] Reading field data: 91% 
|15:02:05.781|    (INFO) [I:ElectricFieldReader:detector1] Reading field data: 92% 
|15:02:09.211|    (INFO) [I:ElectricFieldReader:detector1] Reading field data: 93% 
|15:02:13.814|    (INFO) [I:ElectricFieldReader:detector1] Reading field data: 94% 
|15:02:17.817|    (INFO) [I:ElectricFieldReader:detector1] Reading field data: 95% 
|15:02:22.237|    (INFO) [I:ElectricFieldReader:detector1] Reading field data: 96% 
|15:02:27.829|    (INFO) [I:ElectricFieldReader:detector1] Reading field data: 97% 
|15:02:32.533|    (INFO) [I:ElectricFieldReader:detector1] Reading field data: 98% 
|15:02:37.657|    (INFO) [I:ElectricFieldReader:detector1] Reading field data: 99% 
|15:02:41.044|    (INFO) [I:ElectricFieldReader:detector1] Reading field data: finished.
|15:02:41.148|    (INFO) [I:ElectricFieldReader:detector1] Set electric field with 300x300x300 cells
|15:02:41.148|    (INFO) [I:ElectricFieldReader:detector1] Pixels of this detector are not rectangular, will not perform further field matching checks
|15:02:41.149|   (DEBUG) [I:WeightingPotentialReader:detector1] Weighting potential maps to PIXEL_FULL
|15:02:41.149|   (TRACE) [I:WeightingPotentialReader:detector1] Fetching weighting potential from init file
|15:02:41.301|   (DEBUG) [I:WeightingPotentialReader:detector1] Assuming file type "INIT"
|15:02:41.301| (WARNING) [I:WeightingPotentialReader:detector1] No field units provided, interpreting field data in internal units, this might lead to unexpected results.
|15:02:41.301|   (TRACE) [I:WeightingPotentialReader:detector1] Header of file "/afs/cern.ch/work/j/jsabater/unige/FASER/allpix-squared_new/allpix-squared/run/gamma905nm/mesh_converter/gamma905nm_ElectrostaticPotential.init" is 
                                                                Allpix Squared v3.0.0-274-g5b1c4631c-dirty TCAD Mesh Converter, observable: ElectrostaticPotential
|15:02:41.301|   (DEBUG) [I:WeightingPotentialReader:detector1] INIT file states internal units, so does the parser
|15:02:41.310|    (INFO) [I:WeightingPotentialReader:detector1] Reading field data: 0%
|15:02:41.661|    (INFO) [I:WeightingPotentialReader:detector1] Reading field data: 1%
|15:02:42.134|    (INFO) [I:WeightingPotentialReader:detector1] Reading field data: 2% 
|15:02:42.607|    (INFO) [I:WeightingPotentialReader:detector1] Reading field data: 3% 
|15:02:43.060|    (INFO) [I:WeightingPotentialReader:detector1] Reading field data: 4% 
|15:02:43.535|    (INFO) [I:WeightingPotentialReader:detector1] Reading field data: 5% 
|15:02:44.134|    (INFO) [I:WeightingPotentialReader:detector1] Reading field data: 6% 
|15:02:44.568|    (INFO) [I:WeightingPotentialReader:detector1] Reading field data: 7% 
|15:02:45.025|    (INFO) [I:WeightingPotentialReader:detector1] Reading field data: 8% 
|15:02:45.475|    (INFO) [I:WeightingPotentialReader:detector1] Reading field data: 9% 
|15:02:45.996|    (INFO) [I:WeightingPotentialReader:detector1] Reading field data: 10%
|15:02:46.610|    (INFO) [I:WeightingPotentialReader:detector1] Reading field data: 11% 
|15:02:47.056|    (INFO) [I:WeightingPotentialReader:detector1] Reading field data: 12% 
|15:02:47.572|    (INFO) [I:WeightingPotentialReader:detector1] Reading field data: 13% 
|15:02:48.038|    (INFO) [I:WeightingPotentialReader:detector1] Reading field data: 14% 
|15:02:48.491|    (INFO) [I:WeightingPotentialReader:detector1] Reading field data: 15% 
|15:02:48.981|    (INFO) [I:WeightingPotentialReader:detector1] Reading field data: 16% 
|15:02:49.471|    (INFO) [I:WeightingPotentialReader:detector1] Reading field data: 17% 
|15:02:49.964|    (INFO) [I:WeightingPotentialReader:detector1] Reading field data: 18% 
|15:02:50.464|    (INFO) [I:WeightingPotentialReader:detector1] Reading field data: 19% 
|15:02:50.975|    (INFO) [I:WeightingPotentialReader:detector1] Reading field data: 20% 
|15:02:51.493|    (INFO) [I:WeightingPotentialReader:detector1] Reading field data: 21% 
|15:02:51.976|    (INFO) [I:WeightingPotentialReader:detector1] Reading field data: 22% 
|15:02:52.481|    (INFO) [I:WeightingPotentialReader:detector1] Reading field data: 23% 
|15:02:53.016|    (INFO) [I:WeightingPotentialReader:detector1] Reading field data: 24% 
|15:02:53.504|    (INFO) [I:WeightingPotentialReader:detector1] Reading field data: 25% 
|15:02:53.985|    (INFO) [I:WeightingPotentialReader:detector1] Reading field data: 26% 
|15:02:54.467|    (INFO) [I:WeightingPotentialReader:detector1] Reading field data: 27% 
|15:02:54.965|    (INFO) [I:WeightingPotentialReader:detector1] Reading field data: 28% 
|15:02:55.473|    (INFO) [I:WeightingPotentialReader:detector1] Reading field data: 29% 
|15:02:55.961|    (INFO) [I:WeightingPotentialReader:detector1] Reading field data: 30% 
|15:02:56.490|    (INFO) [I:WeightingPotentialReader:detector1] Reading field data: 31% 
|15:02:56.982|    (INFO) [I:WeightingPotentialReader:detector1] Reading field data: 32% 
|15:02:57.597|    (INFO) [I:WeightingPotentialReader:detector1] Reading field data: 33% 
|15:02:58.426|    (INFO) [I:WeightingPotentialReader:detector1] Reading field data: 34% 
|15:02:59.174|    (INFO) [I:WeightingPotentialReader:detector1] Reading field data: 35% 
|15:02:59.903|    (INFO) [I:WeightingPotentialReader:detector1] Reading field data: 36% 
|15:03:00.720|    (INFO) [I:WeightingPotentialReader:detector1] Reading field data: 37% 
|15:03:01.505|    (INFO) [I:WeightingPotentialReader:detector1] Reading field data: 38% 
|15:03:02.452|    (INFO) [I:WeightingPotentialReader:detector1] Reading field data: 39% 
|15:03:03.311|    (INFO) [I:WeightingPotentialReader:detector1] Reading field data: 40% 
|15:03:03.910|    (INFO) [I:WeightingPotentialReader:detector1] Reading field data: 41% 
|15:03:04.405|    (INFO) [I:WeightingPotentialReader:detector1] Reading field data: 42% 
|15:03:05.013|    (INFO) [I:WeightingPotentialReader:detector1] Reading field data: 43% 
|15:03:05.642|    (INFO) [I:WeightingPotentialReader:detector1] Reading field data: 44% 
|15:03:06.521|    (INFO) [I:WeightingPotentialReader:detector1] Reading field data: 45% 
|15:03:07.126|    (INFO) [I:WeightingPotentialReader:detector1] Reading field data: 46% 
|15:03:07.819|    (INFO) [I:WeightingPotentialReader:detector1] Reading field data: 47% 
|15:03:08.495|    (INFO) [I:WeightingPotentialReader:detector1] Reading field data: 48% 
|15:03:09.068|    (INFO) [I:WeightingPotentialReader:detector1] Reading field data: 49% 
|15:03:09.704|    (INFO) [I:WeightingPotentialReader:detector1] Reading field data: 50% 
|15:03:10.606|    (INFO) [I:WeightingPotentialReader:detector1] Reading field data: 51% 
|15:03:11.286|    (INFO) [I:WeightingPotentialReader:detector1] Reading field data: 52% 
|15:03:12.165|    (INFO) [I:WeightingPotentialReader:detector1] Reading field data: 53% 
|15:03:12.903|    (INFO) [I:WeightingPotentialReader:detector1] Reading field data: 54% 
|15:03:13.708|    (INFO) [I:WeightingPotentialReader:detector1] Reading field data: 55% 
|15:03:14.456|    (INFO) [I:WeightingPotentialReader:detector1] Reading field data: 56% 
|15:03:15.538|    (INFO) [I:WeightingPotentialReader:detector1] Reading field data: 57% 
|15:03:16.375|    (INFO) [I:WeightingPotentialReader:detector1] Reading field data: 58% 
|15:03:17.144|    (INFO) [I:WeightingPotentialReader:detector1] Reading field data: 59% 
|15:03:17.732|    (INFO) [I:WeightingPotentialReader:detector1] Reading field data: 60% 
|15:03:18.241|    (INFO) [I:WeightingPotentialReader:detector1] Reading field data: 61% 
|15:03:18.745|    (INFO) [I:WeightingPotentialReader:detector1] Reading field data: 62% 
|15:03:19.413|    (INFO) [I:WeightingPotentialReader:detector1] Reading field data: 63% 
|15:03:20.040|    (INFO) [I:WeightingPotentialReader:detector1] Reading field data: 64% 
|15:03:20.728|    (INFO) [I:WeightingPotentialReader:detector1] Reading field data: 65% 
|15:03:21.466|    (INFO) [I:WeightingPotentialReader:detector1] Reading field data: 66% 
|15:03:22.440|    (INFO) [I:WeightingPotentialReader:detector1] Reading field data: 67% 
|15:03:23.441|    (INFO) [I:WeightingPotentialReader:detector1] Reading field data: 68% 
|15:03:24.240|    (INFO) [I:WeightingPotentialReader:detector1] Reading field data: 69% 
|15:03:24.953|    (INFO) [I:WeightingPotentialReader:detector1] Reading field data: 70% 
|15:03:25.729|    (INFO) [I:WeightingPotentialReader:detector1] Reading field data: 71% 
|15:03:26.442|    (INFO) [I:WeightingPotentialReader:detector1] Reading field data: 72% 
|15:03:27.402|    (INFO) [I:WeightingPotentialReader:detector1] Reading field data: 73% 
|15:03:28.183|    (INFO) [I:WeightingPotentialReader:detector1] Reading field data: 74% 
|15:03:28.819|    (INFO) [I:WeightingPotentialReader:detector1] Reading field data: 75% 
|15:03:29.556|    (INFO) [I:WeightingPotentialReader:detector1] Reading field data: 76% 
|15:03:30.209|    (INFO) [I:WeightingPotentialReader:detector1] Reading field data: 77% 
|15:03:30.934|    (INFO) [I:WeightingPotentialReader:detector1] Reading field data: 78% 
|15:03:31.627|    (INFO) [I:WeightingPotentialReader:detector1] Reading field data: 79% 
|15:03:32.177|    (INFO) [I:WeightingPotentialReader:detector1] Reading field data: 80% 
|15:03:32.628|    (INFO) [I:WeightingPotentialReader:detector1] Reading field data: 81% 
|15:03:33.098|    (INFO) [I:WeightingPotentialReader:detector1] Reading field data: 82% 
|15:03:33.574|    (INFO) [I:WeightingPotentialReader:detector1] Reading field data: 83% 
|15:03:34.188|    (INFO) [I:WeightingPotentialReader:detector1] Reading field data: 84% 
|15:03:34.662|    (INFO) [I:WeightingPotentialReader:detector1] Reading field data: 85% 
|15:03:35.123|    (INFO) [I:WeightingPotentialReader:detector1] Reading field data: 86% 
|15:03:35.599|    (INFO) [I:WeightingPotentialReader:detector1] Reading field data: 87% 
|15:03:36.074|    (INFO) [I:WeightingPotentialReader:detector1] Reading field data: 88% 
|15:03:36.752|    (INFO) [I:WeightingPotentialReader:detector1] Reading field data: 89% 
|15:03:37.197|    (INFO) [I:WeightingPotentialReader:detector1] Reading field data: 90% 
|15:03:37.623|    (INFO) [I:WeightingPotentialReader:detector1] Reading field data: 91% 
|15:03:38.040|    (INFO) [I:WeightingPotentialReader:detector1] Reading field data: 92% 
|15:03:38.498|    (INFO) [I:WeightingPotentialReader:detector1] Reading field data: 93% 
|15:03:38.985|    (INFO) [I:WeightingPotentialReader:detector1] Reading field data: 94% 
|15:03:39.594|    (INFO) [I:WeightingPotentialReader:detector1] Reading field data: 95% 
|15:03:40.053|    (INFO) [I:WeightingPotentialReader:detector1] Reading field data: 96% 
|15:03:40.503|    (INFO) [I:WeightingPotentialReader:detector1] Reading field data: 97% 
|15:03:40.989|    (INFO) [I:WeightingPotentialReader:detector1] Reading field data: 98% 
|15:03:41.577|    (INFO) [I:WeightingPotentialReader:detector1] Reading field data: 99% 
|15:03:42.015|    (INFO) [I:WeightingPotentialReader:detector1] Reading field data: finished.
|15:03:42.031|    (INFO) [I:WeightingPotentialReader:detector1] Set weighting field with 300x300x93 cells
|15:03:42.031|   (DEBUG) [I:WeightingPotentialReader:detector1] Weighting potential has offset of (0,0) fractions of the field size
|15:03:42.031|    (INFO) [I:WeightingPotentialReader:detector1] Pixels of this detector are not rectangular, will not perform further field matching checks
|15:03:42.203|    (INFO) [I:DopingProfileReader:detector1] Reading field data: 0%
|15:03:44.099|    (INFO) [I:DopingProfileReader:detector1] Reading field data: 1%
|15:03:45.806|    (INFO) [I:DopingProfileReader:detector1] Reading field data: 2% 
|15:03:47.448|    (INFO) [I:DopingProfileReader:detector1] Reading field data: 3% 
|15:03:49.702|    (INFO) [I:DopingProfileReader:detector1] Reading field data: 4% 
|15:03:52.029|    (INFO) [I:DopingProfileReader:detector1] Reading field data: 5% 
|15:03:54.619|    (INFO) [I:DopingProfileReader:detector1] Reading field data: 6% 
|15:03:57.713|    (INFO) [I:DopingProfileReader:detector1] Reading field data: 7% 
|15:04:00.332|    (INFO) [I:DopingProfileReader:detector1] Reading field data: 8% 
|15:04:03.120|    (INFO) [I:DopingProfileReader:detector1] Reading field data: 9% 
|15:04:05.946|    (INFO) [I:DopingProfileReader:detector1] Reading field data: 10%
|15:04:08.161|    (INFO) [I:DopingProfileReader:detector1] Reading field data: 11% 
|15:04:10.048|    (INFO) [I:DopingProfileReader:detector1] Reading field data: 12% 
|15:04:11.831|    (INFO) [I:DopingProfileReader:detector1] Reading field data: 13% 
|15:04:13.859|    (INFO) [I:DopingProfileReader:detector1] Reading field data: 14% 
|15:04:16.399|    (INFO) [I:DopingProfileReader:detector1] Reading field data: 15% 
|15:04:19.603|    (INFO) [I:DopingProfileReader:detector1] Reading field data: 16% 
|15:04:23.225|    (INFO) [I:DopingProfileReader:detector1] Reading field data: 17% 
|15:04:26.013|    (INFO) [I:DopingProfileReader:detector1] Reading field data: 18% 
|15:04:28.585|    (INFO) [I:DopingProfileReader:detector1] Reading field data: 19% 
|15:04:30.800|    (INFO) [I:DopingProfileReader:detector1] Reading field data: 20% 
|15:04:32.871|    (INFO) [I:DopingProfileReader:detector1] Reading field data: 21% 
|15:04:34.883|    (INFO) [I:DopingProfileReader:detector1] Reading field data: 22% 
|15:04:36.769|    (INFO) [I:DopingProfileReader:detector1] Reading field data: 23% 
|15:04:38.776|    (INFO) [I:DopingProfileReader:detector1] Reading field data: 24% 
|15:04:40.894|    (INFO) [I:DopingProfileReader:detector1] Reading field data: 25% 
|15:04:43.354|    (INFO) [I:DopingProfileReader:detector1] Reading field data: 26% 
|15:04:45.569|    (INFO) [I:DopingProfileReader:detector1] Reading field data: 27% 
|15:04:47.867|    (INFO) [I:DopingProfileReader:detector1] Reading field data: 28% 
|15:04:50.632|    (INFO) [I:DopingProfileReader:detector1] Reading field data: 29% 
|15:04:53.029|    (INFO) [I:DopingProfileReader:detector1] Reading field data: 30% 
|15:04:55.499|    (INFO) [I:DopingProfileReader:detector1] Reading field data: 31% 
|15:04:58.186|    (INFO) [I:DopingProfileReader:detector1] Reading field data: 32% 
|15:05:00.832|    (INFO) [I:DopingProfileReader:detector1] Reading field data: 33% 
|15:05:03.589|    (INFO) [I:DopingProfileReader:detector1] Reading field data: 34% 
|15:05:05.692|    (INFO) [I:DopingProfileReader:detector1] Reading field data: 35% 
|15:05:07.574|    (INFO) [I:DopingProfileReader:detector1] Reading field data: 36% 
|15:05:09.886|    (INFO) [I:DopingProfileReader:detector1] Reading field data: 37% 
|15:05:12.441|    (INFO) [I:DopingProfileReader:detector1] Reading field data: 38% 
|15:05:14.931|    (INFO) [I:DopingProfileReader:detector1] Reading field data: 39% 
|15:05:17.634|    (INFO) [I:DopingProfileReader:detector1] Reading field data: 40% 
|15:05:20.833|    (INFO) [I:DopingProfileReader:detector1] Reading field data: 41% 
|15:05:23.218|    (INFO) [I:DopingProfileReader:detector1] Reading field data: 42% 
|15:05:25.239|    (INFO) [I:DopingProfileReader:detector1] Reading field data: 43% 
|15:05:27.412|    (INFO) [I:DopingProfileReader:detector1] Reading field data: 44% 
|15:05:29.715|    (INFO) [I:DopingProfileReader:detector1] Reading field data: 45% 
|15:05:32.034|    (INFO) [I:DopingProfileReader:detector1] Reading field data: 46% 
|15:05:34.094|    (INFO) [I:DopingProfileReader:detector1] Reading field data: 47% 
|15:05:36.479|    (INFO) [I:DopingProfileReader:detector1] Reading field data: 48% 
|15:05:39.429|    (INFO) [I:DopingProfileReader:detector1] Reading field data: 49% 
|15:05:43.844|    (INFO) [I:DopingProfileReader:detector1] Reading field data: 50% 
|15:05:47.826|    (INFO) [I:DopingProfileReader:detector1] Reading field data: 51% 
|15:05:50.979|    (INFO) [I:DopingProfileReader:detector1] Reading field data: 52% 
|15:05:53.242|    (INFO) [I:DopingProfileReader:detector1] Reading field data: 53% 
|15:05:55.671|    (INFO) [I:DopingProfileReader:detector1] Reading field data: 54% 
|15:05:58.341|    (INFO) [I:DopingProfileReader:detector1] Reading field data: 55% 
|15:06:01.135|    (INFO) [I:DopingProfileReader:detector1] Reading field data: 56% 
|15:06:04.330|    (INFO) [I:DopingProfileReader:detector1] Reading field data: 57% 
|15:06:07.490|    (INFO) [I:DopingProfileReader:detector1] Reading field data: 58% 
|15:06:09.800|    (INFO) [I:DopingProfileReader:detector1] Reading field data: 59% 
|15:06:12.430|    (INFO) [I:DopingProfileReader:detector1] Reading field data: 60% 
|15:06:15.752|    (INFO) [I:DopingProfileReader:detector1] Reading field data: 61% 
|15:06:18.343|    (INFO) [I:DopingProfileReader:detector1] Reading field data: 62% 
|15:06:21.476|    (INFO) [I:DopingProfileReader:detector1] Reading field data: 63% 
|15:06:25.112|    (INFO) [I:DopingProfileReader:detector1] Reading field data: 64% 
|15:06:28.018|    (INFO) [I:DopingProfileReader:detector1] Reading field data: 65% 
|15:06:31.605|    (INFO) [I:DopingProfileReader:detector1] Reading field data: 66% 
|15:06:34.500|    (INFO) [I:DopingProfileReader:detector1] Reading field data: 67% 
|15:06:36.668|    (INFO) [I:DopingProfileReader:detector1] Reading field data: 68% 
|15:06:38.659|    (INFO) [I:DopingProfileReader:detector1] Reading field data: 69% 
|15:06:40.940|    (INFO) [I:DopingProfileReader:detector1] Reading field data: 70% 
|15:06:43.529|    (INFO) [I:DopingProfileReader:detector1] Reading field data: 71% 
|15:06:46.262|    (INFO) [I:DopingProfileReader:detector1] Reading field data: 72% 
|15:06:48.943|    (INFO) [I:DopingProfileReader:detector1] Reading field data: 73% 
|15:06:52.344|    (INFO) [I:DopingProfileReader:detector1] Reading field data: 74% 
|15:06:56.052|    (INFO) [I:DopingProfileReader:detector1] Reading field data: 75% 
|15:06:59.519|    (INFO) [I:DopingProfileReader:detector1] Reading field data: 76% 
|15:07:02.304|    (INFO) [I:DopingProfileReader:detector1] Reading field data: 77% 
|15:07:05.685|    (INFO) [I:DopingProfileReader:detector1] Reading field data: 78% 
|15:07:09.545|    (INFO) [I:DopingProfileReader:detector1] Reading field data: 79% 
|15:07:13.116|    (INFO) [I:DopingProfileReader:detector1] Reading field data: 80% 
|15:07:15.865|    (INFO) [I:DopingProfileReader:detector1] Reading field data: 81% 
|15:07:18.344|    (INFO) [I:DopingProfileReader:detector1] Reading field data: 82% 
|15:07:20.904|    (INFO) [I:DopingProfileReader:detector1] Reading field data: 83% 
|15:07:23.892|    (INFO) [I:DopingProfileReader:detector1] Reading field data: 84% 
|15:07:25.898|    (INFO) [I:DopingProfileReader:detector1] Reading field data: 85% 
|15:07:27.956|    (INFO) [I:DopingProfileReader:detector1] Reading field data: 86% 
|15:07:29.958|    (INFO) [I:DopingProfileReader:detector1] Reading field data: 87% 
|15:07:32.084|    (INFO) [I:DopingProfileReader:detector1] Reading field data: 88% 
|15:07:34.852|    (INFO) [I:DopingProfileReader:detector1] Reading field data: 89% 
|15:07:37.513|    (INFO) [I:DopingProfileReader:detector1] Reading field data: 90% 
|15:07:40.157|    (INFO) [I:DopingProfileReader:detector1] Reading field data: 91% 
|15:07:42.632|    (INFO) [I:DopingProfileReader:detector1] Reading field data: 92% 
|15:07:44.972|    (INFO) [I:DopingProfileReader:detector1] Reading field data: 93% 
|15:07:47.239|    (INFO) [I:DopingProfileReader:detector1] Reading field data: 94% 
|15:07:49.755|    (INFO) [I:DopingProfileReader:detector1] Reading field data: 95% 
|15:07:51.644|    (INFO) [I:DopingProfileReader:detector1] Reading field data: 96% 
|15:07:53.707|    (INFO) [I:DopingProfileReader:detector1] Reading field data: 97% 
|15:07:55.610|    (INFO) [I:DopingProfileReader:detector1] Reading field data: 98% 
|15:07:57.674|    (INFO) [I:DopingProfileReader:detector1] Reading field data: 99% 
|15:07:59.619|    (INFO) [I:DopingProfileReader:detector1] Reading field data: finished.
|15:07:59.619|    (INFO) [I:DopingProfileReader:detector1] Set doping concentration map with 300x300x300 cells
|15:07:59.620|    (INFO) [I:DopingProfileReader:detector1] Pixels of this detector are not rectangular, will not perform further field matching checks
|15:07:59.878|  (STATUS) Initialized 8 module instantiations
|15:07:59.879|   (TRACE) [T:WeightingPotentialReader:detector1] Initializing thread 22585313404480
|15:07:59.880|   (TRACE) [T:WeightingPotentialReader:detector1] Initializing thread 22585311303232
|15:07:59.881|   (TRACE) [T:WeightingPotentialReader:detector1] Initializing thread 22585309201984
|15:07:59.881|  (STATUS) Starting event loop
|15:07:59.881|   (TRACE) [T:WeightingPotentialReader:detector1] Initializing thread 22585307100736
|15:07:59.882|    (INFO) Starting event 1 with seed 14315882575126838720
|15:07:59.882|    (INFO) Starting event 2 with seed 10331981455065595755
|15:07:59.882|    (INFO) (Event 1) [R:DepositionLaser] Event 1: photon 1 of 1
|15:07:59.882|    (INFO) (Event 2) [R:DepositionLaser] Event 2: photon 1 of 1
|15:07:59.882|    (INFO) (Event 1) [R:DepositionLaser] Registered hits in 1 detectors
|15:07:59.882|    (INFO) (Event 2) [R:DepositionLaser] Registered hits in 1 detectors
|15:07:59.882|    (INFO) (Event 2) [R:DepositionLaser]     detector1: 1 hits
|15:07:59.882|    (INFO) Starting event 3 with seed 14809531781736056691
|15:07:59.882|    (INFO) Starting event 4 with seed 14890282015006665334
|15:07:59.882|    (INFO) (Event 1) [R:DepositionLaser]     detector1: 1 hits
|15:07:59.882|    (INFO) (Event 4) [R:DepositionLaser] Event 4: photon 1 of 1
|15:07:59.882|    (INFO) (Event 4) [R:DepositionLaser] Registered hits in 1 detectors
|15:07:59.882|    (INFO) (Event 4) [R:DepositionLaser]     detector1: 1 hits
|15:07:59.882|    (INFO) (Event 3) [R:DepositionLaser] Event 3: photon 1 of 1
|15:07:59.882|    (INFO) (Event 3) [R:DepositionLaser] Registered hits in 1 detectors
|15:07:59.882|    (INFO) (Event 3) [R:DepositionLaser]     detector1: 1 hits
|15:09:53.210|    (INFO) (Event 2) [R:PulseTransfer:detector1] [further messages suppressed] Pulses available - settings "timestep", "max_depth_distance" and "collect_from_implant" have no effect
|15:09:53.596|    (INFO) (Event 2) [R:PulseTransfer:detector1] Total charge induced on all pixels: -1510e
|15:09:53.597|  (STATUS) Buffered 1, finished 0 of 10 events
|15:09:53.597|    (INFO) Starting event 5 with seed 6409718480720517074
|15:09:53.597|    (INFO) (Event 5) [R:DepositionLaser] Event 5: photon 1 of 1
|15:09:53.597|    (INFO) (Event 5) [R:DepositionLaser] Registered hits in 1 detectors
|15:09:53.597|    (INFO) (Event 5) [R:DepositionLaser]     detector1: 1 hits
|15:10:23.998|    (INFO) (Event 1) [R:PulseTransfer:detector1] Total charge induced on all pixels: -1697e
|15:10:24.109|    (INFO) Finished event 1 with seed 14315882575126838720
|15:10:24.109|  (STATUS) Buffered 1, finished 1 of 10 events
|15:10:24.222|    (INFO) Finished event 2 with seed 10331981455065595755
|15:10:24.222|  (STATUS) Buffered 0, finished 2 of 10 events
|15:10:24.247|    (INFO) Starting event 6 with seed 5063037658077946386
|15:10:24.247|    (INFO) (Event 6) [R:DepositionLaser] Event 6: photon 1 of 1
|15:10:24.247|    (INFO) (Event 6) [R:DepositionLaser] Registered hits in 1 detectors
|15:10:24.247|    (INFO) (Event 6) [R:DepositionLaser]     detector1: 1 hits
|15:10:24.279|    (INFO) (Event 4) [R:PulseTransfer:detector1] Total charge induced on all pixels: -1348e
|15:10:24.280|  (STATUS) Buffered 1, finished 2 of 10 events
|15:10:24.280|    (INFO) Starting event 7 with seed 9748486295725579052
|15:10:24.280|    (INFO) (Event 7) [R:DepositionLaser] Event 7: photon 1 of 1
|15:10:24.280|    (INFO) (Event 7) [R:DepositionLaser] Registered hits in 0 detectors
|15:10:24.280|  (STATUS) Buffered 2, finished 2 of 10 events
|15:10:24.280|    (INFO) Starting event 8 with seed 9988666065853506027
|15:10:24.280|    (INFO) (Event 8) [R:DepositionLaser] Event 8: photon 1 of 1
|15:10:24.280|    (INFO) (Event 8) [R:DepositionLaser] Registered hits in 0 detectors
|15:10:24.280|  (STATUS) Buffered 3, finished 2 of 10 events
|15:10:24.280|    (INFO) Starting event 9 with seed 1249901678155744448
|15:10:24.280|    (INFO) (Event 9) [R:DepositionLaser] Event 9: photon 1 of 1
|15:10:24.280|    (INFO) (Event 9) [R:DepositionLaser] Registered hits in 1 detectors
|15:10:24.280|    (INFO) (Event 9) [R:DepositionLaser]     detector1: 1 hits
|15:11:25.461|    (INFO) (Event 5) [R:PulseTransfer:detector1] Total charge induced on all pixels: -1362e
|15:11:25.462|  (STATUS) Buffered 4, finished 2 of 10 events
|15:11:25.462|    (INFO) Starting event 10 with seed 12008224438637892020
|15:11:25.462|    (INFO) (Event 10) [R:DepositionLaser] Event 10: photon 1 of 1
|15:11:25.462|    (INFO) (Event 10) [R:DepositionLaser] Registered hits in 1 detectors
|15:11:25.462|    (INFO) (Event 10) [R:DepositionLaser]     detector1: 1 hits
|15:11:50.233|    (INFO) (Event 3) [R:PulseTransfer:detector1] Total charge induced on all pixels: -3376e
|15:11:50.324|    (INFO) Finished event 3 with seed 14809531781736056691
|15:11:50.324|  (STATUS) Buffered 4, finished 3 of 10 events
|15:11:50.447|    (INFO) Finished event 4 with seed 14890282015006665334
|15:11:50.447|  (STATUS) Buffered 3, finished 4 of 10 events
|15:11:50.569|    (INFO) Finished event 5 with seed 6409718480720517074
|15:11:50.569|  (STATUS) Buffered 2, finished 5 of 10 events
|15:12:40.034| (WARNING) (Event 10) [R:TransientPropagation:detector1] Found impact ionization shower with level larger than 30, interrupting
|15:12:40.034| (WARNING) (Event 10) [R:TransientPropagation:detector1] Found impact ionization shower with level larger than 30, interrupting
|15:12:40.034| (WARNING) (Event 10) [R:TransientPropagation:detector1] Found impact ionization shower with level larger than 30, interrupting
|15:12:42.066| (WARNING) (Event 10) [R:TransientPropagation:detector1] Found impact ionization shower with level larger than 30, interrupting
|15:12:42.066| (WARNING) (Event 10) [R:TransientPropagation:detector1] Found impact ionization shower with level larger than 30, interrupting
|15:12:42.754| (WARNING) (Event 10) [R:TransientPropagation:detector1] Found impact ionization shower with level larger than 30, interrupting
|15:12:42.754| (WARNING) (Event 10) [R:TransientPropagation:detector1] Found impact ionization shower with level larger than 30, interrupting
|15:12:42.754| (WARNING) (Event 10) [R:TransientPropagation:detector1] Found impact ionization shower with level larger than 30, interrupting
|15:12:42.754| (WARNING) (Event 10) [R:TransientPropagation:detector1] Found impact ionization shower with level larger than 30, interrupting
|15:12:43.719| (WARNING) (Event 10) [R:TransientPropagation:detector1] Found impact ionization shower with level larger than 30, interrupting
|15:12:43.720| (WARNING) (Event 10) [R:TransientPropagation:detector1] Found impact ionization shower with level larger than 30, interrupting
|15:12:43.720| (WARNING) (Event 10) [R:TransientPropagation:detector1] Found impact ionization shower with level larger than 30, interrupting
|15:12:43.720| (WARNING) (Event 10) [R:TransientPropagation:detector1] Found impact ionization shower with level larger than 30, interrupting
|15:12:43.720| (WARNING) (Event 10) [R:TransientPropagation:detector1] Found impact ionization shower with level larger than 30, interrupting
|15:12:43.720| (WARNING) (Event 10) [R:TransientPropagation:detector1] Found impact ionization shower with level larger than 30, interrupting
|15:12:43.720| (WARNING) (Event 10) [R:TransientPropagation:detector1] Found impact ionization shower with level larger than 30, interrupting
|15:12:43.720| (WARNING) (Event 10) [R:TransientPropagation:detector1] Found impact ionization shower with level larger than 30, interrupting
|15:12:43.720| (WARNING) (Event 10) [R:TransientPropagation:detector1] Found impact ionization shower with level larger than 30, interrupting
|15:12:43.720| (WARNING) (Event 10) [R:TransientPropagation:detector1] Found impact ionization shower with level larger than 30, interrupting
|15:12:45.611| (WARNING) (Event 10) [R:TransientPropagation:detector1] Found impact ionization shower with level larger than 30, interrupting
|15:12:45.612| (WARNING) (Event 10) [R:TransientPropagation:detector1] Found impact ionization shower with level larger than 30, interrupting
|15:12:45.612| (WARNING) (Event 10) [R:TransientPropagation:detector1] Found impact ionization shower with level larger than 30, interrupting
|15:12:45.612| (WARNING) (Event 10) [R:TransientPropagation:detector1] Found impact ionization shower with level larger than 30, interrupting
|15:12:45.612| (WARNING) (Event 10) [R:TransientPropagation:detector1] Found impact ionization shower with level larger than 30, interrupting
|15:12:45.612| (WARNING) (Event 10) [R:TransientPropagation:detector1] Found impact ionization shower with level larger than 30, interrupting
|15:12:46.211| (WARNING) (Event 10) [R:TransientPropagation:detector1] Found impact ionization shower with level larger than 30, interrupting
|15:12:47.867| (WARNING) (Event 10) [R:TransientPropagation:detector1] Found impact ionization shower with level larger than 30, interrupting
|15:12:47.867| (WARNING) (Event 10) [R:TransientPropagation:detector1] Found impact ionization shower with level larger than 30, interrupting
|15:13:25.779|    (INFO) (Event 6) [R:PulseTransfer:detector1] Total charge induced on all pixels: -2762e
|15:13:25.850|    (INFO) Finished event 6 with seed 5063037658077946386
|15:13:25.850|  (STATUS) Buffered 1, finished 6 of 10 events
|15:13:25.851|    (INFO) Finished event 7 with seed 9748486295725579052
|15:13:25.851|  (STATUS) Buffered 1, finished 7 of 10 events
|15:13:25.851|    (INFO) Finished event 8 with seed 9988666065853506027
|15:13:25.851|  (STATUS) Buffered 0, finished 8 of 10 events
|15:13:39.968|    (INFO) (Event 10) [R:PulseTransfer:detector1] Total charge induced on all pixels: -2433e
|15:13:39.968|  (STATUS) Buffered 1, finished 8 of 10 events
|15:14:02.316|    (INFO) (Event 9) [R:PulseTransfer:detector1] Total charge induced on all pixels: -2677e
|15:14:02.407|    (INFO) Finished event 9 with seed 1249901678155744448
|15:14:02.407|  (STATUS) Buffered 0, finished 9 of 10 events
|15:14:02.471|    (INFO) Finished event 10 with seed 12008224438637892020
|15:14:02.471|  (STATUS) Buffered 0, finished 10 of 10 events
|15:14:02.471|  (STATUS) Finished run of 10 events           
|15:14:02.471|   (TRACE) [T:WeightingPotentialReader:detector1] Finalizing thread 22585313404480
|15:14:02.471|   (TRACE) [T:WeightingPotentialReader:detector1] Finalizing thread 22585309201984
|15:14:02.471|   (TRACE) [T:WeightingPotentialReader:detector1] Finalizing thread 22585311303232
|15:14:02.730|   (TRACE) [T:WeightingPotentialReader:detector1] Finalizing thread 22585307100736
|15:14:05.925|  (STATUS) [F:ROOTObjectWriter] Wrote 56 objects to 4 branches in file:
                                              /afs/cern.ch/work/j/jsabater/unige/FASER/allpix-squared_3p03/allpix-squared/run/gamma905nm/allpix/output/transient_data_laser_gamma905nm_okuto_100photons_6.root
|15:14:05.949|  (STATUS) Finalization completed
|15:14:05.950| (WARNING) Unused configuration keys in section ElectricFieldReader:detector1:
                         output_plots_project
                         output_plots_single_pixel
                         output_plots_steps
|15:14:05.950| (WARNING) Unused configuration keys in section WeightingPotentialReader:detector1:
                         output_plots_single_pixel
                         output_plots_steps
|15:14:05.950| (WARNING) Unused configuration keys in section DopingProfileReader:detector1:
                         output_plots_single_pixel
                         output_plots_steps
|15:14:05.950| (WARNING) Unused configuration keys in section TransientPropagation:detector1:
                         ignore_magnetic_field
|15:14:05.950|  (STATUS) Executed 8 instantiations in 17 minutes 59 seconds, spending 63% of time in slowest instantiation TransientPropagation:detector1
|15:14:05.950|    (INFO)  Module GeometryBuilderGeant4 took 203.978ms
|15:14:05.950|    (INFO)  Module DepositionLaser took 90.4287ms
|15:14:05.950|    (INFO)  Module ElectricFieldReader:detector1 took 395.315s
|15:14:05.950|    (INFO)  Module WeightingPotentialReader:detector1 took 60.8831s
|15:14:05.950|    (INFO)  Module DopingProfileReader:detector1 took 257.588s
|15:14:05.950|    (INFO)  Module TransientPropagation:detector1 took 1252.56s
|15:14:05.950|    (INFO)  Module PulseTransfer:detector1 took 5.95991s
|15:14:05.950|    (INFO)  Module ROOTObjectWriter took 3.90861s
|15:14:05.950|  (STATUS) Average processing time is 36259ms/event, event generation at 0 Hz
|15:14:05.951|  (STATUS) This corresponds to a processing time of 145036ms/event per worker
'/afs/cern.ch/work/j/jsabater/unige/FASER/allpix-squared_3p03/allpix-squared/run/gamma905nm/allpix/output/transient_data_laser_gamma905nm_okuto_100photons_6.root' -> '/eos/user/j/jsabater/unige/gamma905nm/allpix/transient_data_laser_gamma905nm_okuto_100photons_6.root'
'/afs/cern.ch/work/j/jsabater/unige/FASER/allpix-squared_3p03/allpix-squared/run/gamma905nm/allpix/output/transient_modules_laser_gamma905nm_okuto_100photons_6.root' -> '/eos/user/j/jsabater/unige/gamma905nm/allpix/transient_modules_laser_gamma905nm_okuto_100photons_6.root'
removed '/afs/cern.ch/work/j/jsabater/unige/FASER/allpix-squared_3p03/allpix-squared/run/gamma905nm/allpix/output/transient_data_laser_gamma905nm_okuto_100photons_6.root'
removed '/afs/cern.ch/work/j/jsabater/unige/FASER/allpix-squared_3p03/allpix-squared/run/gamma905nm/allpix/output/transient_modules_laser_gamma905nm_okuto_100photons_6.root'
