[7mlsetup              [0m lsetup <tool1> [ <tool2> ...] (see lsetup -h):
[7m lsetup asetup      [0m  (or asetup) to setup an Athena release
[7m lsetup astyle      [0m  ATLAS style macros
[7m lsetup atlantis    [0m  Atlantis: event display
[7m lsetup eiclient    [0m  Event Index 
[7m lsetup emi         [0m  EMI: grid middleware user interface 
[7m lsetup lcgenv      [0m  lcgenv: setup tools from cvmfs SFT repository
[7m lsetup panda       [0m  Panda: Production ANd Distributed Analysis
[7m lsetup pyami       [0m  pyAMI: ATLAS Metadata Interface python client
[7m lsetup root        [0m  ROOT data processing framework
[7m lsetup rucio       [0m  distributed data management system client
[7m lsetup scikit      [0m  python data analysis ecosystem
[7m lsetup views       [0m  Set up a full LCG release
[7m lsetup xcache      [0m  XRootD local proxy cache
[7m lsetup xrootd      [0m  XRootD data access
[7madvancedTools       [0m advanced tools menu
[7mdiagnostics         [0m diagnostic tools menu
[7mhelpMe              [0m more help
[7minstallPip          [0m install relocatable pip modules locally
[7minstallRpm          [0m install relocatable rpms locally
[7mprintMenu           [0m show this menu
[7mqueryC              [0m find / whatis container query
[7mshowVersions        [0m show versions of installed software

Detected Red Hat Enterprise Linux 9
No explicit LCG version set, using LCG_104.
Compiler type set to LLVM, version clang16.
|14:56:01.393|    (INFO) Setting provided option output_directory=output/
|14:56:01.394|    (INFO) Setting provided option random_seed=10
|14:56:01.394|    (INFO) Setting provided option root_file=transient_modules_laser_gamma905nm_okuto_100photons_10
|14:56:01.394|    (INFO) Setting provided option number_of_photons=100 for DepositionLaser
|14:56:01.394|    (INFO) Setting provided option multiplication_model=okuto for TransientPropagation
|14:56:01.394|    (INFO) Setting provided option file_name=transient_data_laser_gamma905nm_okuto_100photons_10 for ROOTObjectWriter
|14:56:01.408|  (STATUS) Welcome to Allpix^2 v3.0.3
|14:56:01.408|  (STATUS) Initialized PRNG with configured seed 10
|14:56:09.004|  (STATUS) Loading module GeometryBuilderGeant4
|14:56:09.004|    (INFO) [C:GeometryBuilderGeant4] Detected Geant4 multithreading capabilities, enabling multithreading support
|14:56:09.005|  (STATUS) Loading module DepositionLaser
|14:56:09.005|    (INFO) Setting provided option number_of_photons=100 for DepositionLaser
|14:56:09.035|  (STATUS) Loading module ElectricFieldReader
|14:56:09.128|  (STATUS) Loading module WeightingPotentialReader
|14:56:09.128|  (STATUS) Loading module DopingProfileReader      
|14:56:09.128|  (STATUS) Loading module TransientPropagation
|14:56:09.129|  (STATUS) Loading module PulseTransfer        
|14:56:09.129|  (STATUS) Loading module ROOTObjectWriter
|14:56:09.129|    (INFO) Setting provided option file_name=transient_data_laser_gamma905nm_okuto_100photons_10 for ROOTObjectWriter
|14:56:09.129|  (STATUS) Loaded 8 modules
|14:56:09.129|  (STATUS) Multithreading enabled, processing events in parallel on 4 worker threads
|14:56:09.129|  (STATUS) Allocating a total of 1024 event slots for buffered modules
|14:56:09.129|  (STATUS) Initializing 8 module instantiations
|14:56:10.027|    (INFO) [I:GeometryBuilderGeant4] No overlapping volumes detected.
|14:56:10.936|    (INFO) [I:ElectricFieldReader:detector1] Reading field data: 0%
|14:56:14.790|    (INFO) [I:ElectricFieldReader:detector1] Reading field data: 1%
|14:56:19.272|    (INFO) [I:ElectricFieldReader:detector1] Reading field data: 2% 
|14:56:23.499|    (INFO) [I:ElectricFieldReader:detector1] Reading field data: 3% 
|14:56:27.025|    (INFO) [I:ElectricFieldReader:detector1] Reading field data: 4% 
|14:56:30.582|    (INFO) [I:ElectricFieldReader:detector1] Reading field data: 5% 
|14:56:35.534|    (INFO) [I:ElectricFieldReader:detector1] Reading field data: 6% 
|14:56:41.491|    (INFO) [I:ElectricFieldReader:detector1] Reading field data: 7% 
|14:56:46.951|    (INFO) [I:ElectricFieldReader:detector1] Reading field data: 8% 
|14:56:52.670|    (INFO) [I:ElectricFieldReader:detector1] Reading field data: 9% 
|14:56:58.749|    (INFO) [I:ElectricFieldReader:detector1] Reading field data: 10%
|14:57:05.014|    (INFO) [I:ElectricFieldReader:detector1] Reading field data: 11% 
|14:57:09.845|    (INFO) [I:ElectricFieldReader:detector1] Reading field data: 12% 
|14:57:14.941|    (INFO) [I:ElectricFieldReader:detector1] Reading field data: 13% 
|14:57:19.480|    (INFO) [I:ElectricFieldReader:detector1] Reading field data: 14% 
|14:57:23.571|    (INFO) [I:ElectricFieldReader:detector1] Reading field data: 15% 
|14:57:29.446|    (INFO) [I:ElectricFieldReader:detector1] Reading field data: 16% 
|14:57:35.791|    (INFO) [I:ElectricFieldReader:detector1] Reading field data: 17% 
|14:57:40.688|    (INFO) [I:ElectricFieldReader:detector1] Reading field data: 18% 
|14:57:44.617|    (INFO) [I:ElectricFieldReader:detector1] Reading field data: 19% 
|14:57:48.440|    (INFO) [I:ElectricFieldReader:detector1] Reading field data: 20% 
|14:57:52.390|    (INFO) [I:ElectricFieldReader:detector1] Reading field data: 21% 
|14:57:56.050|    (INFO) [I:ElectricFieldReader:detector1] Reading field data: 22% 
|14:57:59.681|    (INFO) [I:ElectricFieldReader:detector1] Reading field data: 23% 
|14:58:03.964|    (INFO) [I:ElectricFieldReader:detector1] Reading field data: 24% 
|14:58:07.824|    (INFO) [I:ElectricFieldReader:detector1] Reading field data: 25% 
|14:58:12.255|    (INFO) [I:ElectricFieldReader:detector1] Reading field data: 26% 
|14:58:17.015|    (INFO) [I:ElectricFieldReader:detector1] Reading field data: 27% 
|14:58:22.592|    (INFO) [I:ElectricFieldReader:detector1] Reading field data: 28% 
|14:58:26.458|    (INFO) [I:ElectricFieldReader:detector1] Reading field data: 29% 
|14:58:30.133|    (INFO) [I:ElectricFieldReader:detector1] Reading field data: 30% 
|14:58:34.106|    (INFO) [I:ElectricFieldReader:detector1] Reading field data: 31% 
|14:58:39.352|    (INFO) [I:ElectricFieldReader:detector1] Reading field data: 32% 
|14:58:45.796|    (INFO) [I:ElectricFieldReader:detector1] Reading field data: 33% 
|14:58:50.540|    (INFO) [I:ElectricFieldReader:detector1] Reading field data: 34% 
|14:58:54.986|    (INFO) [I:ElectricFieldReader:detector1] Reading field data: 35% 
|14:58:59.396|    (INFO) [I:ElectricFieldReader:detector1] Reading field data: 36% 
|14:59:02.415|    (INFO) [I:ElectricFieldReader:detector1] Reading field data: 37% 
|14:59:05.919|    (INFO) [I:ElectricFieldReader:detector1] Reading field data: 38% 
|14:59:09.581|    (INFO) [I:ElectricFieldReader:detector1] Reading field data: 39% 
|14:59:12.738|    (INFO) [I:ElectricFieldReader:detector1] Reading field data: 40% 
|14:59:15.767|    (INFO) [I:ElectricFieldReader:detector1] Reading field data: 41% 
|14:59:18.544|    (INFO) [I:ElectricFieldReader:detector1] Reading field data: 42% 
|14:59:21.956|    (INFO) [I:ElectricFieldReader:detector1] Reading field data: 43% 
|14:59:25.331|    (INFO) [I:ElectricFieldReader:detector1] Reading field data: 44% 
|14:59:28.380|    (INFO) [I:ElectricFieldReader:detector1] Reading field data: 45% 
|14:59:31.250|    (INFO) [I:ElectricFieldReader:detector1] Reading field data: 46% 
|14:59:34.956|    (INFO) [I:ElectricFieldReader:detector1] Reading field data: 47% 
|14:59:37.857|    (INFO) [I:ElectricFieldReader:detector1] Reading field data: 48% 
|14:59:40.773|    (INFO) [I:ElectricFieldReader:detector1] Reading field data: 49% 
|14:59:43.796|    (INFO) [I:ElectricFieldReader:detector1] Reading field data: 50% 
|14:59:46.533|    (INFO) [I:ElectricFieldReader:detector1] Reading field data: 51% 
|14:59:49.313|    (INFO) [I:ElectricFieldReader:detector1] Reading field data: 52% 
|14:59:52.011|    (INFO) [I:ElectricFieldReader:detector1] Reading field data: 53% 
|14:59:54.690|    (INFO) [I:ElectricFieldReader:detector1] Reading field data: 54% 
|14:59:57.367|    (INFO) [I:ElectricFieldReader:detector1] Reading field data: 55% 
|15:00:00.120|    (INFO) [I:ElectricFieldReader:detector1] Reading field data: 56% 
|15:00:04.087|    (INFO) [I:ElectricFieldReader:detector1] Reading field data: 57% 
|15:00:07.903|    (INFO) [I:ElectricFieldReader:detector1] Reading field data: 58% 
|15:00:10.826|    (INFO) [I:ElectricFieldReader:detector1] Reading field data: 59% 
|15:00:13.618|    (INFO) [I:ElectricFieldReader:detector1] Reading field data: 60% 
|15:00:19.007|    (INFO) [I:ElectricFieldReader:detector1] Reading field data: 61% 
|15:00:23.456|    (INFO) [I:ElectricFieldReader:detector1] Reading field data: 62% 
|15:00:26.885|    (INFO) [I:ElectricFieldReader:detector1] Reading field data: 63% 
|15:00:30.413|    (INFO) [I:ElectricFieldReader:detector1] Reading field data: 64% 
|15:00:34.180|    (INFO) [I:ElectricFieldReader:detector1] Reading field data: 65% 
|15:00:37.604|    (INFO) [I:ElectricFieldReader:detector1] Reading field data: 66% 
|15:00:40.738|    (INFO) [I:ElectricFieldReader:detector1] Reading field data: 67% 
|15:00:45.173|    (INFO) [I:ElectricFieldReader:detector1] Reading field data: 68% 
|15:00:50.192|    (INFO) [I:ElectricFieldReader:detector1] Reading field data: 69% 
|15:00:53.663|    (INFO) [I:ElectricFieldReader:detector1] Reading field data: 70% 
|15:00:57.094|    (INFO) [I:ElectricFieldReader:detector1] Reading field data: 71% 
|15:01:00.592|    (INFO) [I:ElectricFieldReader:detector1] Reading field data: 72% 
|15:01:04.233|    (INFO) [I:ElectricFieldReader:detector1] Reading field data: 73% 
|15:01:09.091|    (INFO) [I:ElectricFieldReader:detector1] Reading field data: 74% 
|15:01:13.273|    (INFO) [I:ElectricFieldReader:detector1] Reading field data: 75% 
|15:01:17.905|    (INFO) [I:ElectricFieldReader:detector1] Reading field data: 76% 
|15:01:21.871|    (INFO) [I:ElectricFieldReader:detector1] Reading field data: 77% 
|15:01:26.077|    (INFO) [I:ElectricFieldReader:detector1] Reading field data: 78% 
|15:01:30.224|    (INFO) [I:ElectricFieldReader:detector1] Reading field data: 79% 
|15:01:33.957|    (INFO) [I:ElectricFieldReader:detector1] Reading field data: 80% 
|15:01:37.287|    (INFO) [I:ElectricFieldReader:detector1] Reading field data: 81% 
|15:01:40.109|    (INFO) [I:ElectricFieldReader:detector1] Reading field data: 82% 
|15:01:42.742|    (INFO) [I:ElectricFieldReader:detector1] Reading field data: 83% 
|15:01:45.373|    (INFO) [I:ElectricFieldReader:detector1] Reading field data: 84% 
|15:01:48.489|    (INFO) [I:ElectricFieldReader:detector1] Reading field data: 85% 
|15:01:51.539|    (INFO) [I:ElectricFieldReader:detector1] Reading field data: 86% 
|15:01:55.502|    (INFO) [I:ElectricFieldReader:detector1] Reading field data: 87% 
|15:01:59.132|    (INFO) [I:ElectricFieldReader:detector1] Reading field data: 88% 
|15:02:02.853|    (INFO) [I:ElectricFieldReader:detector1] Reading field data: 89% 
|15:02:05.951|    (INFO) [I:ElectricFieldReader:detector1] Reading field data: 90% 
|15:02:09.617|    (INFO) [I:ElectricFieldReader:detector1] Reading field data: 91% 
|15:02:14.104|    (INFO) [I:ElectricFieldReader:detector1] Reading field data: 92% 
|15:02:18.086|    (INFO) [I:ElectricFieldReader:detector1] Reading field data: 93% 
|15:02:22.593|    (INFO) [I:ElectricFieldReader:detector1] Reading field data: 94% 
|15:02:28.146|    (INFO) [I:ElectricFieldReader:detector1] Reading field data: 95% 
|15:02:33.121|    (INFO) [I:ElectricFieldReader:detector1] Reading field data: 96% 
|15:02:37.918|    (INFO) [I:ElectricFieldReader:detector1] Reading field data: 97% 
|15:02:41.380|    (INFO) [I:ElectricFieldReader:detector1] Reading field data: 98% 
|15:02:44.670|    (INFO) [I:ElectricFieldReader:detector1] Reading field data: 99% 
|15:02:48.051|    (INFO) [I:ElectricFieldReader:detector1] Reading field data: finished.
|15:02:48.301|    (INFO) [I:ElectricFieldReader:detector1] Set electric field with 300x300x300 cells
|15:02:48.302|    (INFO) [I:ElectricFieldReader:detector1] Pixels of this detector are not rectangular, will not perform further field matching checks
|15:02:48.302|   (DEBUG) [I:WeightingPotentialReader:detector1] Weighting potential maps to PIXEL_FULL
|15:02:48.302|   (TRACE) [I:WeightingPotentialReader:detector1] Fetching weighting potential from init file
|15:02:48.460|   (DEBUG) [I:WeightingPotentialReader:detector1] Assuming file type "INIT"
|15:02:48.460| (WARNING) [I:WeightingPotentialReader:detector1] No field units provided, interpreting field data in internal units, this might lead to unexpected results.
|15:02:48.460|   (TRACE) [I:WeightingPotentialReader:detector1] Header of file "/afs/cern.ch/work/j/jsabater/unige/FASER/allpix-squared_new/allpix-squared/run/gamma905nm/mesh_converter/gamma905nm_ElectrostaticPotential.init" is 
                                                                Allpix Squared v3.0.0-274-g5b1c4631c-dirty TCAD Mesh Converter, observable: ElectrostaticPotential
|15:02:48.460|   (DEBUG) [I:WeightingPotentialReader:detector1] INIT file states internal units, so does the parser
|15:02:48.501|    (INFO) [I:WeightingPotentialReader:detector1] Reading field data: 0%
|15:02:48.834|    (INFO) [I:WeightingPotentialReader:detector1] Reading field data: 1%
|15:02:49.313|    (INFO) [I:WeightingPotentialReader:detector1] Reading field data: 2% 
|15:02:49.815|    (INFO) [I:WeightingPotentialReader:detector1] Reading field data: 3% 
|15:02:50.323|    (INFO) [I:WeightingPotentialReader:detector1] Reading field data: 4% 
|15:02:50.819|    (INFO) [I:WeightingPotentialReader:detector1] Reading field data: 5% 
|15:02:51.476|    (INFO) [I:WeightingPotentialReader:detector1] Reading field data: 6% 
|15:02:51.963|    (INFO) [I:WeightingPotentialReader:detector1] Reading field data: 7% 
|15:02:52.468|    (INFO) [I:WeightingPotentialReader:detector1] Reading field data: 8% 
|15:02:52.970|    (INFO) [I:WeightingPotentialReader:detector1] Reading field data: 9% 
|15:02:53.471|    (INFO) [I:WeightingPotentialReader:detector1] Reading field data: 10%
|15:02:53.968|    (INFO) [I:WeightingPotentialReader:detector1] Reading field data: 11% 
|15:02:54.430|    (INFO) [I:WeightingPotentialReader:detector1] Reading field data: 12% 
|15:02:54.928|    (INFO) [I:WeightingPotentialReader:detector1] Reading field data: 13% 
|15:02:55.423|    (INFO) [I:WeightingPotentialReader:detector1] Reading field data: 14% 
|15:02:55.895|    (INFO) [I:WeightingPotentialReader:detector1] Reading field data: 15% 
|15:02:56.388|    (INFO) [I:WeightingPotentialReader:detector1] Reading field data: 16% 
|15:02:56.892|    (INFO) [I:WeightingPotentialReader:detector1] Reading field data: 17% 
|15:02:57.486|    (INFO) [I:WeightingPotentialReader:detector1] Reading field data: 18% 
|15:02:58.108|    (INFO) [I:WeightingPotentialReader:detector1] Reading field data: 19% 
|15:02:58.849|    (INFO) [I:WeightingPotentialReader:detector1] Reading field data: 20% 
|15:02:59.575|    (INFO) [I:WeightingPotentialReader:detector1] Reading field data: 21% 
|15:03:00.378|    (INFO) [I:WeightingPotentialReader:detector1] Reading field data: 22% 
|15:03:01.174|    (INFO) [I:WeightingPotentialReader:detector1] Reading field data: 23% 
|15:03:01.947|    (INFO) [I:WeightingPotentialReader:detector1] Reading field data: 24% 
|15:03:02.781|    (INFO) [I:WeightingPotentialReader:detector1] Reading field data: 25% 
|15:03:03.465|    (INFO) [I:WeightingPotentialReader:detector1] Reading field data: 26% 
|15:03:03.981|    (INFO) [I:WeightingPotentialReader:detector1] Reading field data: 27% 
|15:03:04.473|    (INFO) [I:WeightingPotentialReader:detector1] Reading field data: 28% 
|15:03:05.065|    (INFO) [I:WeightingPotentialReader:detector1] Reading field data: 29% 
|15:03:05.694|    (INFO) [I:WeightingPotentialReader:detector1] Reading field data: 30% 
|15:03:06.368|    (INFO) [I:WeightingPotentialReader:detector1] Reading field data: 31% 
|15:03:06.997|    (INFO) [I:WeightingPotentialReader:detector1] Reading field data: 32% 
|15:03:07.613|    (INFO) [I:WeightingPotentialReader:detector1] Reading field data: 33% 
|15:03:08.546|    (INFO) [I:WeightingPotentialReader:detector1] Reading field data: 34% 
|15:03:09.136|    (INFO) [I:WeightingPotentialReader:detector1] Reading field data: 35% 
|15:03:09.826|    (INFO) [I:WeightingPotentialReader:detector1] Reading field data: 36% 
|15:03:10.510|    (INFO) [I:WeightingPotentialReader:detector1] Reading field data: 37% 
|15:03:11.160|    (INFO) [I:WeightingPotentialReader:detector1] Reading field data: 38% 
|15:03:12.160|    (INFO) [I:WeightingPotentialReader:detector1] Reading field data: 39% 
|15:03:13.005|    (INFO) [I:WeightingPotentialReader:detector1] Reading field data: 40% 
|15:03:13.809|    (INFO) [I:WeightingPotentialReader:detector1] Reading field data: 41% 
|15:03:14.560|    (INFO) [I:WeightingPotentialReader:detector1] Reading field data: 42% 
|15:03:15.356|    (INFO) [I:WeightingPotentialReader:detector1] Reading field data: 43% 
|15:03:16.192|    (INFO) [I:WeightingPotentialReader:detector1] Reading field data: 44% 
|15:03:17.155|    (INFO) [I:WeightingPotentialReader:detector1] Reading field data: 45% 
|15:03:17.700|    (INFO) [I:WeightingPotentialReader:detector1] Reading field data: 46% 
|15:03:18.169|    (INFO) [I:WeightingPotentialReader:detector1] Reading field data: 47% 
|15:03:18.680|    (INFO) [I:WeightingPotentialReader:detector1] Reading field data: 48% 
|15:03:19.152|    (INFO) [I:WeightingPotentialReader:detector1] Reading field data: 49% 
|15:03:19.735|    (INFO) [I:WeightingPotentialReader:detector1] Reading field data: 50% 
|15:03:20.604|    (INFO) [I:WeightingPotentialReader:detector1] Reading field data: 51% 
|15:03:21.327|    (INFO) [I:WeightingPotentialReader:detector1] Reading field data: 52% 
|15:03:22.261|    (INFO) [I:WeightingPotentialReader:detector1] Reading field data: 53% 
|15:03:23.054|    (INFO) [I:WeightingPotentialReader:detector1] Reading field data: 54% 
|15:03:23.825|    (INFO) [I:WeightingPotentialReader:detector1] Reading field data: 55% 
|15:03:24.584|    (INFO) [I:WeightingPotentialReader:detector1] Reading field data: 56% 
|15:03:25.583|    (INFO) [I:WeightingPotentialReader:detector1] Reading field data: 57% 
|15:03:26.337|    (INFO) [I:WeightingPotentialReader:detector1] Reading field data: 58% 
|15:03:26.960|    (INFO) [I:WeightingPotentialReader:detector1] Reading field data: 59% 
|15:03:27.810|    (INFO) [I:WeightingPotentialReader:detector1] Reading field data: 60% 
|15:03:28.472|    (INFO) [I:WeightingPotentialReader:detector1] Reading field data: 61% 
|15:03:29.154|    (INFO) [I:WeightingPotentialReader:detector1] Reading field data: 62% 
|15:03:30.047|    (INFO) [I:WeightingPotentialReader:detector1] Reading field data: 63% 
|15:03:30.671|    (INFO) [I:WeightingPotentialReader:detector1] Reading field data: 64% 
|15:03:31.251|    (INFO) [I:WeightingPotentialReader:detector1] Reading field data: 65% 
|15:03:31.868|    (INFO) [I:WeightingPotentialReader:detector1] Reading field data: 66% 
|15:03:32.400|    (INFO) [I:WeightingPotentialReader:detector1] Reading field data: 67% 
|15:03:33.012|    (INFO) [I:WeightingPotentialReader:detector1] Reading field data: 68% 
|15:03:33.477|    (INFO) [I:WeightingPotentialReader:detector1] Reading field data: 69% 
|15:03:33.973|    (INFO) [I:WeightingPotentialReader:detector1] Reading field data: 70% 
|15:03:34.424|    (INFO) [I:WeightingPotentialReader:detector1] Reading field data: 71% 
|15:03:34.883|    (INFO) [I:WeightingPotentialReader:detector1] Reading field data: 72% 
|15:03:35.457|    (INFO) [I:WeightingPotentialReader:detector1] Reading field data: 73% 
|15:03:35.949|    (INFO) [I:WeightingPotentialReader:detector1] Reading field data: 74% 
|15:03:36.404|    (INFO) [I:WeightingPotentialReader:detector1] Reading field data: 75% 
|15:03:36.915|    (INFO) [I:WeightingPotentialReader:detector1] Reading field data: 76% 
|15:03:37.333|    (INFO) [I:WeightingPotentialReader:detector1] Reading field data: 77% 
|15:03:37.793|    (INFO) [I:WeightingPotentialReader:detector1] Reading field data: 78% 
|15:03:38.300|    (INFO) [I:WeightingPotentialReader:detector1] Reading field data: 79% 
|15:03:38.721|    (INFO) [I:WeightingPotentialReader:detector1] Reading field data: 80% 
|15:03:39.163|    (INFO) [I:WeightingPotentialReader:detector1] Reading field data: 81% 
|15:03:39.637|    (INFO) [I:WeightingPotentialReader:detector1] Reading field data: 82% 
|15:03:40.095|    (INFO) [I:WeightingPotentialReader:detector1] Reading field data: 83% 
|15:03:40.692|    (INFO) [I:WeightingPotentialReader:detector1] Reading field data: 84% 
|15:03:41.147|    (INFO) [I:WeightingPotentialReader:detector1] Reading field data: 85% 
|15:03:41.625|    (INFO) [I:WeightingPotentialReader:detector1] Reading field data: 86% 
|15:03:42.108|    (INFO) [I:WeightingPotentialReader:detector1] Reading field data: 87% 
|15:03:42.604|    (INFO) [I:WeightingPotentialReader:detector1] Reading field data: 88% 
|15:03:43.205|    (INFO) [I:WeightingPotentialReader:detector1] Reading field data: 89% 
|15:03:43.691|    (INFO) [I:WeightingPotentialReader:detector1] Reading field data: 90% 
|15:03:44.159|    (INFO) [I:WeightingPotentialReader:detector1] Reading field data: 91% 
|15:03:44.629|    (INFO) [I:WeightingPotentialReader:detector1] Reading field data: 92% 
|15:03:45.042|    (INFO) [I:WeightingPotentialReader:detector1] Reading field data: 93% 
|15:03:45.429|    (INFO) [I:WeightingPotentialReader:detector1] Reading field data: 94% 
|15:03:46.029|    (INFO) [I:WeightingPotentialReader:detector1] Reading field data: 95% 
|15:03:46.455|    (INFO) [I:WeightingPotentialReader:detector1] Reading field data: 96% 
|15:03:46.871|    (INFO) [I:WeightingPotentialReader:detector1] Reading field data: 97% 
|15:03:47.309|    (INFO) [I:WeightingPotentialReader:detector1] Reading field data: 98% 
|15:03:47.968|    (INFO) [I:WeightingPotentialReader:detector1] Reading field data: 99% 
|15:03:48.404|    (INFO) [I:WeightingPotentialReader:detector1] Reading field data: finished.
|15:03:48.419|    (INFO) [I:WeightingPotentialReader:detector1] Set weighting field with 300x300x93 cells
|15:03:48.419|   (DEBUG) [I:WeightingPotentialReader:detector1] Weighting potential has offset of (0,0) fractions of the field size
|15:03:48.419|    (INFO) [I:WeightingPotentialReader:detector1] Pixels of this detector are not rectangular, will not perform further field matching checks
|15:03:48.705|    (INFO) [I:DopingProfileReader:detector1] Reading field data: 0%
|15:03:50.864|    (INFO) [I:DopingProfileReader:detector1] Reading field data: 1%
|15:03:53.117|    (INFO) [I:DopingProfileReader:detector1] Reading field data: 2% 
|15:03:56.096|    (INFO) [I:DopingProfileReader:detector1] Reading field data: 3% 
|15:03:58.841|    (INFO) [I:DopingProfileReader:detector1] Reading field data: 4% 
|15:04:01.836|    (INFO) [I:DopingProfileReader:detector1] Reading field data: 5% 
|15:04:04.401|    (INFO) [I:DopingProfileReader:detector1] Reading field data: 6% 
|15:04:06.993|    (INFO) [I:DopingProfileReader:detector1] Reading field data: 7% 
|15:04:09.000|    (INFO) [I:DopingProfileReader:detector1] Reading field data: 8% 
|15:04:10.740|    (INFO) [I:DopingProfileReader:detector1] Reading field data: 9% 
|15:04:12.656|    (INFO) [I:DopingProfileReader:detector1] Reading field data: 10%
|15:04:14.876|    (INFO) [I:DopingProfileReader:detector1] Reading field data: 11% 
|15:04:17.663|    (INFO) [I:DopingProfileReader:detector1] Reading field data: 12% 
|15:04:21.040|    (INFO) [I:DopingProfileReader:detector1] Reading field data: 13% 
|15:04:24.578|    (INFO) [I:DopingProfileReader:detector1] Reading field data: 14% 
|15:04:27.029|    (INFO) [I:DopingProfileReader:detector1] Reading field data: 15% 
|15:04:29.451|    (INFO) [I:DopingProfileReader:detector1] Reading field data: 16% 
|15:04:31.885|    (INFO) [I:DopingProfileReader:detector1] Reading field data: 17% 
|15:04:33.954|    (INFO) [I:DopingProfileReader:detector1] Reading field data: 18% 
|15:04:35.993|    (INFO) [I:DopingProfileReader:detector1] Reading field data: 19% 
|15:04:37.833|    (INFO) [I:DopingProfileReader:detector1] Reading field data: 20% 
|15:04:39.806|    (INFO) [I:DopingProfileReader:detector1] Reading field data: 21% 
|15:04:42.134|    (INFO) [I:DopingProfileReader:detector1] Reading field data: 22% 
|15:04:44.514|    (INFO) [I:DopingProfileReader:detector1] Reading field data: 23% 
|15:04:46.671|    (INFO) [I:DopingProfileReader:detector1] Reading field data: 24% 
|15:04:49.265|    (INFO) [I:DopingProfileReader:detector1] Reading field data: 25% 
|15:04:51.883|    (INFO) [I:DopingProfileReader:detector1] Reading field data: 26% 
|15:04:54.161|    (INFO) [I:DopingProfileReader:detector1] Reading field data: 27% 
|15:04:56.766|    (INFO) [I:DopingProfileReader:detector1] Reading field data: 28% 
|15:04:59.475|    (INFO) [I:DopingProfileReader:detector1] Reading field data: 29% 
|15:05:02.028|    (INFO) [I:DopingProfileReader:detector1] Reading field data: 30% 
|15:05:04.514|    (INFO) [I:DopingProfileReader:detector1] Reading field data: 31% 
|15:05:06.488|    (INFO) [I:DopingProfileReader:detector1] Reading field data: 32% 
|15:05:08.534|    (INFO) [I:DopingProfileReader:detector1] Reading field data: 33% 
|15:05:10.778|    (INFO) [I:DopingProfileReader:detector1] Reading field data: 34% 
|15:05:13.452|    (INFO) [I:DopingProfileReader:detector1] Reading field data: 35% 
|15:05:15.704|    (INFO) [I:DopingProfileReader:detector1] Reading field data: 36% 
|15:05:18.742|    (INFO) [I:DopingProfileReader:detector1] Reading field data: 37% 
|15:05:21.497|    (INFO) [I:DopingProfileReader:detector1] Reading field data: 38% 
|15:05:23.697|    (INFO) [I:DopingProfileReader:detector1] Reading field data: 39% 
|15:05:25.737|    (INFO) [I:DopingProfileReader:detector1] Reading field data: 40% 
|15:05:28.070|    (INFO) [I:DopingProfileReader:detector1] Reading field data: 41% 
|15:05:30.362|    (INFO) [I:DopingProfileReader:detector1] Reading field data: 42% 
|15:05:32.451|    (INFO) [I:DopingProfileReader:detector1] Reading field data: 43% 
|15:05:34.556|    (INFO) [I:DopingProfileReader:detector1] Reading field data: 44% 
|15:05:37.115|    (INFO) [I:DopingProfileReader:detector1] Reading field data: 45% 
|15:05:40.485|    (INFO) [I:DopingProfileReader:detector1] Reading field data: 46% 
|15:05:44.811|    (INFO) [I:DopingProfileReader:detector1] Reading field data: 47% 
|15:05:48.722|    (INFO) [I:DopingProfileReader:detector1] Reading field data: 48% 
|15:05:51.574|    (INFO) [I:DopingProfileReader:detector1] Reading field data: 49% 
|15:05:53.774|    (INFO) [I:DopingProfileReader:detector1] Reading field data: 50% 
|15:05:55.960|    (INFO) [I:DopingProfileReader:detector1] Reading field data: 51% 
|15:05:58.687|    (INFO) [I:DopingProfileReader:detector1] Reading field data: 52% 
|15:06:01.515|    (INFO) [I:DopingProfileReader:detector1] Reading field data: 53% 
|15:06:04.875|    (INFO) [I:DopingProfileReader:detector1] Reading field data: 54% 
|15:06:08.023|    (INFO) [I:DopingProfileReader:detector1] Reading field data: 55% 
|15:06:10.080|    (INFO) [I:DopingProfileReader:detector1] Reading field data: 56% 
|15:06:12.751|    (INFO) [I:DopingProfileReader:detector1] Reading field data: 57% 
|15:06:16.083|    (INFO) [I:DopingProfileReader:detector1] Reading field data: 58% 
|15:06:18.415|    (INFO) [I:DopingProfileReader:detector1] Reading field data: 59% 
|15:06:21.393|    (INFO) [I:DopingProfileReader:detector1] Reading field data: 60% 
|15:06:25.035|    (INFO) [I:DopingProfileReader:detector1] Reading field data: 61% 
|15:06:28.015|    (INFO) [I:DopingProfileReader:detector1] Reading field data: 62% 
|15:06:31.885|    (INFO) [I:DopingProfileReader:detector1] Reading field data: 63% 
|15:06:34.513|    (INFO) [I:DopingProfileReader:detector1] Reading field data: 64% 
|15:06:36.792|    (INFO) [I:DopingProfileReader:detector1] Reading field data: 65% 
|15:06:38.782|    (INFO) [I:DopingProfileReader:detector1] Reading field data: 66% 
|15:06:41.250|    (INFO) [I:DopingProfileReader:detector1] Reading field data: 67% 
|15:06:43.868|    (INFO) [I:DopingProfileReader:detector1] Reading field data: 68% 
|15:06:46.430|    (INFO) [I:DopingProfileReader:detector1] Reading field data: 69% 
|15:06:49.127|    (INFO) [I:DopingProfileReader:detector1] Reading field data: 70% 
|15:06:52.522|    (INFO) [I:DopingProfileReader:detector1] Reading field data: 71% 
|15:06:56.494|    (INFO) [I:DopingProfileReader:detector1] Reading field data: 72% 
|15:06:59.639|    (INFO) [I:DopingProfileReader:detector1] Reading field data: 73% 
|15:07:02.454|    (INFO) [I:DopingProfileReader:detector1] Reading field data: 74% 
|15:07:05.863|    (INFO) [I:DopingProfileReader:detector1] Reading field data: 75% 
|15:07:10.046|    (INFO) [I:DopingProfileReader:detector1] Reading field data: 76% 
|15:07:13.331|    (INFO) [I:DopingProfileReader:detector1] Reading field data: 77% 
|15:07:16.024|    (INFO) [I:DopingProfileReader:detector1] Reading field data: 78% 
|15:07:18.492|    (INFO) [I:DopingProfileReader:detector1] Reading field data: 79% 
|15:07:21.253|    (INFO) [I:DopingProfileReader:detector1] Reading field data: 80% 
|15:07:23.936|    (INFO) [I:DopingProfileReader:detector1] Reading field data: 81% 
|15:07:25.909|    (INFO) [I:DopingProfileReader:detector1] Reading field data: 82% 
|15:07:27.908|    (INFO) [I:DopingProfileReader:detector1] Reading field data: 83% 
|15:07:29.988|    (INFO) [I:DopingProfileReader:detector1] Reading field data: 84% 
|15:07:32.069|    (INFO) [I:DopingProfileReader:detector1] Reading field data: 85% 
|15:07:34.527|    (INFO) [I:DopingProfileReader:detector1] Reading field data: 86% 
|15:07:37.165|    (INFO) [I:DopingProfileReader:detector1] Reading field data: 87% 
|15:07:39.542|    (INFO) [I:DopingProfileReader:detector1] Reading field data: 88% 
|15:07:42.295|    (INFO) [I:DopingProfileReader:detector1] Reading field data: 89% 
|15:07:44.350|    (INFO) [I:DopingProfileReader:detector1] Reading field data: 90% 
|15:07:46.727|    (INFO) [I:DopingProfileReader:detector1] Reading field data: 91% 
|15:07:48.996|    (INFO) [I:DopingProfileReader:detector1] Reading field data: 92% 
|15:07:51.037|    (INFO) [I:DopingProfileReader:detector1] Reading field data: 93% 
|15:07:52.960|    (INFO) [I:DopingProfileReader:detector1] Reading field data: 94% 
|15:07:54.823|    (INFO) [I:DopingProfileReader:detector1] Reading field data: 95% 
|15:07:56.757|    (INFO) [I:DopingProfileReader:detector1] Reading field data: 96% 
|15:07:59.069|    (INFO) [I:DopingProfileReader:detector1] Reading field data: 97% 
|15:08:00.852|    (INFO) [I:DopingProfileReader:detector1] Reading field data: 98% 
|15:08:02.839|    (INFO) [I:DopingProfileReader:detector1] Reading field data: 99% 
|15:08:04.288|    (INFO) [I:DopingProfileReader:detector1] Reading field data: finished.
|15:08:04.288|    (INFO) [I:DopingProfileReader:detector1] Set doping concentration map with 300x300x300 cells
|15:08:04.288|    (INFO) [I:DopingProfileReader:detector1] Pixels of this detector are not rectangular, will not perform further field matching checks
|15:08:04.363|  (STATUS) Initialized 8 module instantiations
|15:08:04.364|   (TRACE) [T:WeightingPotentialReader:detector1] Initializing thread 23025712162368
|15:08:04.365|   (TRACE) [T:WeightingPotentialReader:detector1] Initializing thread 23025710061120
|15:08:04.365|   (TRACE) [T:WeightingPotentialReader:detector1] Initializing thread 23025707959872
|15:08:04.366|  (STATUS) Starting event loop
|15:08:04.366|   (TRACE) [T:WeightingPotentialReader:detector1] Initializing thread 23025705858624
|15:08:04.366|    (INFO) Starting event 1 with seed 11091715596963791794
|15:08:04.366|    (INFO) Starting event 4 with seed 11203921008588677798
|15:08:04.366|    (INFO) Starting event 3 with seed 4920336000975477112
|15:08:04.366|    (INFO) Starting event 2 with seed 16854870552729211698
|15:08:04.366|    (INFO) (Event 1) [R:DepositionLaser] Event 1: photon 1 of 1
|15:08:04.366|    (INFO) (Event 3) [R:DepositionLaser] Event 3: photon 1 of 1
|15:08:04.366|    (INFO) (Event 4) [R:DepositionLaser] Event 4: photon 1 of 1 
|15:08:04.367|    (INFO) (Event 2) [R:DepositionLaser] Event 2: photon 1 of 1 
|15:08:04.367|    (INFO) (Event 3) [R:DepositionLaser] Registered hits in 0 detectors
|15:08:04.367|    (INFO) (Event 4) [R:DepositionLaser] Registered hits in 1 detectors
|15:08:04.367|    (INFO) (Event 1) [R:DepositionLaser] Registered hits in 1 detectors
|15:08:04.367|    (INFO) (Event 4) [R:DepositionLaser]     detector1: 1 hits
|15:08:04.367|    (INFO) (Event 1) [R:DepositionLaser]     detector1: 1 hits
|15:08:04.367|  (STATUS) Buffered 1, finished 0 of 10 events
|15:08:04.367|    (INFO) (Event 2) [R:DepositionLaser] Registered hits in 1 detectors
|15:08:04.367|    (INFO) Starting event 5 with seed 665441777603363039
|15:08:04.367|    (INFO) (Event 2) [R:DepositionLaser]     detector1: 1 hits
|15:08:04.367|    (INFO) (Event 5) [R:DepositionLaser] Event 5: photon 1 of 1
|15:08:04.367|    (INFO) (Event 5) [R:DepositionLaser] Registered hits in 1 detectors
|15:08:04.367|    (INFO) (Event 5) [R:DepositionLaser]     detector1: 1 hits
|15:08:48.386|    (INFO) (Event 4) [R:PulseTransfer:detector1] [further messages suppressed] Pulses available - settings "timestep", "max_depth_distance" and "collect_from_implant" have no effect
|15:08:48.543|    (INFO) (Event 4) [R:PulseTransfer:detector1] Total charge induced on all pixels: -708e
|15:08:48.543|  (STATUS) Buffered 2, finished 0 of 10 events
|15:08:48.543|    (INFO) Starting event 6 with seed 13893719512177866254
|15:08:48.543|    (INFO) (Event 6) [R:DepositionLaser] Event 6: photon 1 of 1
|15:08:48.543|    (INFO) (Event 6) [R:DepositionLaser] Registered hits in 1 detectors
|15:08:48.544|    (INFO) (Event 6) [R:DepositionLaser]     detector1: 1 hits
|15:09:33.109|    (INFO) (Event 2) [R:PulseTransfer:detector1] Total charge induced on all pixels: -2050e
|15:09:33.110|  (STATUS) Buffered 3, finished 0 of 10 events
|15:09:33.110|    (INFO) Starting event 7 with seed 8470240466365376417
|15:09:33.110|    (INFO) (Event 7) [R:DepositionLaser] Event 7: photon 1 of 1
|15:09:33.110|    (INFO) (Event 7) [R:DepositionLaser] Registered hits in 1 detectors
|15:09:33.110|    (INFO) (Event 7) [R:DepositionLaser]     detector1: 1 hits
|15:09:44.369| (WARNING) (Event 7) [R:TransientPropagation:detector1] Detected gain of 51, local electric field of 323.088kV/cm, diode seems to be in breakdown
|15:09:44.423| (WARNING) (Event 7) [R:TransientPropagation:detector1] Detected gain of 52, local electric field of 323.088kV/cm, diode seems to be in breakdown
|15:09:44.423| (WARNING) (Event 7) [R:TransientPropagation:detector1] Detected gain of 52, local electric field of 323.088kV/cm, diode seems to be in breakdown
|15:09:44.423| (WARNING) (Event 7) [R:TransientPropagation:detector1] Detected gain of 52, local electric field of 323.088kV/cm, diode seems to be in breakdown
|15:09:44.478| (WARNING) (Event 7) [R:TransientPropagation:detector1] Detected gain of 53, local electric field of 323.088kV/cm, diode seems to be in breakdown
|15:09:44.478| (WARNING) (Event 7) [R:TransientPropagation:detector1] Detected gain of 53, local electric field of 323.088kV/cm, diode seems to be in breakdown
|15:09:44.478| (WARNING) (Event 7) [R:TransientPropagation:detector1] Detected gain of 53, local electric field of 69.2402kV/cm, diode seems to be in breakdown
|15:09:46.007|    (INFO) (Event 1) [R:PulseTransfer:detector1] Total charge induced on all pixels: -2432e
|15:09:46.120|    (INFO) Finished event 1 with seed 11091715596963791794
|15:09:46.120|  (STATUS) Buffered 3, finished 1 of 10 events
|15:09:46.268|    (INFO) Finished event 2 with seed 16854870552729211698
|15:09:46.268|  (STATUS) Buffered 2, finished 2 of 10 events
|15:09:46.384|    (INFO) Finished event 3 with seed 4920336000975477112
|15:09:46.384|  (STATUS) Buffered 1, finished 3 of 10 events
|15:09:46.452|    (INFO) Finished event 4 with seed 11203921008588677798
|15:09:46.452|  (STATUS) Buffered 0, finished 4 of 10 events
|15:09:46.525|    (INFO) Starting event 8 with seed 16707204194369177152
|15:09:46.526|    (INFO) (Event 8) [R:DepositionLaser] Event 8: photon 1 of 1
|15:09:46.526|    (INFO) (Event 8) [R:DepositionLaser] Registered hits in 1 detectors
|15:09:46.526|    (INFO) (Event 8) [R:DepositionLaser]     detector1: 1 hits
|15:09:46.615| (WARNING) (Event 6) [R:TransientPropagation:detector1] Found impact ionization shower with level larger than 30, interrupting
|15:09:46.848| (WARNING) (Event 6) [R:TransientPropagation:detector1] Found impact ionization shower with level larger than 30, interrupting
|15:09:46.849| (WARNING) (Event 6) [R:TransientPropagation:detector1] Found impact ionization shower with level larger than 30, interrupting
|15:09:47.474| (WARNING) (Event 6) [R:TransientPropagation:detector1] Found impact ionization shower with level larger than 30, interrupting
|15:09:47.474| (WARNING) (Event 6) [R:TransientPropagation:detector1] Found impact ionization shower with level larger than 30, interrupting
|15:09:47.474| (WARNING) (Event 6) [R:TransientPropagation:detector1] Found impact ionization shower with level larger than 30, interrupting
|15:09:47.474| (WARNING) (Event 6) [R:TransientPropagation:detector1] Found impact ionization shower with level larger than 30, interrupting
|15:09:47.474| (WARNING) (Event 6) [R:TransientPropagation:detector1] Found impact ionization shower with level larger than 30, interrupting
|15:09:47.474| (WARNING) (Event 6) [R:TransientPropagation:detector1] Found impact ionization shower with level larger than 30, interrupting
|15:09:47.474| (WARNING) (Event 6) [R:TransientPropagation:detector1] Found impact ionization shower with level larger than 30, interrupting
|15:09:47.474| (WARNING) (Event 6) [R:TransientPropagation:detector1] Found impact ionization shower with level larger than 30, interrupting
|15:09:47.474| (WARNING) (Event 6) [R:TransientPropagation:detector1] Found impact ionization shower with level larger than 30, interrupting
|15:09:47.474| (WARNING) (Event 6) [R:TransientPropagation:detector1] Found impact ionization shower with level larger than 30, interrupting
|15:09:47.474| (WARNING) (Event 6) [R:TransientPropagation:detector1] Found impact ionization shower with level larger than 30, interrupting
|15:09:47.677| (WARNING) (Event 6) [R:TransientPropagation:detector1] Found impact ionization shower with level larger than 30, interrupting
|15:09:47.677| (WARNING) (Event 6) [R:TransientPropagation:detector1] Found impact ionization shower with level larger than 30, interrupting
|15:09:49.823| (WARNING) (Event 6) [R:TransientPropagation:detector1] Found impact ionization shower with level larger than 30, interrupting
|15:09:49.823| (WARNING) (Event 6) [R:TransientPropagation:detector1] Found impact ionization shower with level larger than 30, interrupting
|15:09:49.823| (WARNING) (Event 6) [R:TransientPropagation:detector1] Found impact ionization shower with level larger than 30, interrupting
|15:09:49.823| (WARNING) (Event 6) [R:TransientPropagation:detector1] Found impact ionization shower with level larger than 30, interrupting
|15:09:49.823| (WARNING) (Event 6) [R:TransientPropagation:detector1] Found impact ionization shower with level larger than 30, interrupting
|15:09:49.823| (WARNING) (Event 6) [R:TransientPropagation:detector1] Found impact ionization shower with level larger than 30, interrupting
|15:09:49.823| (WARNING) (Event 6) [R:TransientPropagation:detector1] Found impact ionization shower with level larger than 30, interrupting
|15:09:49.823| (WARNING) (Event 6) [R:TransientPropagation:detector1] Found impact ionization shower with level larger than 30, interrupting
|15:09:49.823| (WARNING) (Event 6) [R:TransientPropagation:detector1] Found impact ionization shower with level larger than 30, interrupting
|15:09:49.823| (WARNING) (Event 6) [R:TransientPropagation:detector1] Found impact ionization shower with level larger than 30, interrupting
|15:09:49.823| (WARNING) (Event 6) [R:TransientPropagation:detector1] Found impact ionization shower with level larger than 30, interrupting
|15:09:52.615|    (INFO) (Event 5) [R:PulseTransfer:detector1] Total charge induced on all pixels: -1373e
|15:09:52.696|    (INFO) Finished event 5 with seed 665441777603363039
|15:09:52.696|  (STATUS) Buffered 0, finished 5 of 10 events
|15:09:52.698|    (INFO) Starting event 9 with seed 5781884288615267608
|15:09:52.699|    (INFO) (Event 9) [R:DepositionLaser] Event 9: photon 1 of 1
|15:09:52.699|    (INFO) (Event 9) [R:DepositionLaser] Registered hits in 1 detectors
|15:09:52.699|    (INFO) (Event 9) [R:DepositionLaser]     detector1: 1 hits
|15:11:31.702|    (INFO) (Event 6) [R:PulseTransfer:detector1] Total charge induced on all pixels: -3325e
|15:11:31.750|    (INFO) Finished event 6 with seed 13893719512177866254
|15:11:31.751|  (STATUS) Buffered 0, finished 6 of 10 events
|15:11:31.759|    (INFO) Starting event 10 with seed 6927750347068789437
|15:11:31.759|    (INFO) (Event 10) [R:DepositionLaser] Event 10: photon 1 of 1
|15:11:31.759|    (INFO) (Event 10) [R:DepositionLaser] Registered hits in 1 detectors
|15:11:31.759|    (INFO) (Event 10) [R:DepositionLaser]     detector1: 1 hits
|15:12:05.834|    (INFO) (Event 9) [R:PulseTransfer:detector1] Total charge induced on all pixels: -2494e
|15:12:05.835|  (STATUS) Buffered 1, finished 6 of 10 events
|15:12:27.490| (WARNING) (Event 8) [R:TransientPropagation:detector1] Detected gain of 52, local electric field of 322.11kV/cm, diode seems to be in breakdown
|15:12:27.490| (WARNING) (Event 8) [R:TransientPropagation:detector1] Detected gain of 52, local electric field of 322.11kV/cm, diode seems to be in breakdown
|15:12:27.490| (WARNING) (Event 8) [R:TransientPropagation:detector1] Detected gain of 52, local electric field of 322.11kV/cm, diode seems to be in breakdown
|15:12:27.907| (WARNING) (Event 8) [R:TransientPropagation:detector1] Detected gain of 55, local electric field of 322.11kV/cm, diode seems to be in breakdown
|15:12:27.907| (WARNING) (Event 8) [R:TransientPropagation:detector1] Detected gain of 55, local electric field of 322.11kV/cm, diode seems to be in breakdown
|15:12:28.106| (WARNING) (Event 8) [R:TransientPropagation:detector1] Detected gain of 60, local electric field of 322.11kV/cm, diode seems to be in breakdown
|15:12:28.155| (WARNING) (Event 8) [R:TransientPropagation:detector1] Detected gain of 62, local electric field of 322.11kV/cm, diode seems to be in breakdown
|15:12:28.245| (WARNING) (Event 8) [R:TransientPropagation:detector1] Detected gain of 63, local electric field of 322.11kV/cm, diode seems to be in breakdown
|15:12:29.275| (WARNING) (Event 8) [R:TransientPropagation:detector1] Detected gain of 64, local electric field of 322.11kV/cm, diode seems to be in breakdown
|15:12:29.318| (WARNING) (Event 8) [R:TransientPropagation:detector1] Detected gain of 65, local electric field of 322.11kV/cm, diode seems to be in breakdown
|15:12:30.202| (WARNING) (Event 8) [R:TransientPropagation:detector1] Detected gain of 68, local electric field of 322.11kV/cm, diode seems to be in breakdown
|15:12:30.203| (WARNING) (Event 8) [R:TransientPropagation:detector1] Detected gain of 68, local electric field of 322.11kV/cm, diode seems to be in breakdown
|15:12:30.250| (WARNING) (Event 8) [R:TransientPropagation:detector1] Detected gain of 70, local electric field of 322.11kV/cm, diode seems to be in breakdown
|15:12:30.553| (WARNING) (Event 8) [R:TransientPropagation:detector1] Detected gain of 73, local electric field of 322.11kV/cm, diode seems to be in breakdown
|15:12:30.750| (WARNING) (Event 8) [R:TransientPropagation:detector1] Detected gain of 74, local electric field of 322.11kV/cm, diode seems to be in breakdown
|15:12:30.750| (WARNING) (Event 8) [R:TransientPropagation:detector1] Detected gain of 74, local electric field of 322.11kV/cm, diode seems to be in breakdown
|15:12:30.780| (WARNING) (Event 8) [R:TransientPropagation:detector1] Detected gain of 76, local electric field of 322.11kV/cm, diode seems to be in breakdown
|15:12:30.811| (WARNING) (Event 8) [R:TransientPropagation:detector1] Detected gain of 77, local electric field of 322.11kV/cm, diode seems to be in breakdown
|15:12:32.901| (WARNING) (Event 8) [R:TransientPropagation:detector1] Detected gain of 78, local electric field of 322.11kV/cm, diode seems to be in breakdown
|15:12:32.901| (WARNING) (Event 8) [R:TransientPropagation:detector1] Detected gain of 78, local electric field of 68.674kV/cm, diode seems to be in breakdown
|15:12:41.838|    (INFO) (Event 7) [R:PulseTransfer:detector1] Total charge induced on all pixels: -2966e
|15:12:41.891|    (INFO) Finished event 7 with seed 8470240466365376417
|15:12:41.891|  (STATUS) Buffered 1, finished 7 of 10 events
|15:12:49.443|    (INFO) (Event 8) [R:PulseTransfer:detector1] Total charge induced on all pixels: -2914e
|15:12:49.514|    (INFO) Finished event 8 with seed 16707204194369177152
|15:12:49.515|  (STATUS) Buffered 0, finished 8 of 10 events
|15:12:49.552|    (INFO) Finished event 9 with seed 5781884288615267608
|15:12:49.552|  (STATUS) Buffered 0, finished 9 of 10 events
|15:14:49.980|    (INFO) (Event 10) [R:PulseTransfer:detector1] Total charge induced on all pixels: -1689e
|15:14:50.093|    (INFO) Finished event 10 with seed 6927750347068789437
|15:14:50.093|  (STATUS) Buffered 0, finished 10 of 10 events
|15:14:50.097|  (STATUS) Finished run of 10 events           
|15:14:50.097|   (TRACE) [T:WeightingPotentialReader:detector1] Finalizing thread 23025705858624
|15:14:50.097|   (TRACE) [T:WeightingPotentialReader:detector1] Finalizing thread 23025710061120
|15:14:50.097|   (TRACE) [T:WeightingPotentialReader:detector1] Finalizing thread 23025712162368
|15:14:50.097|   (TRACE) [T:WeightingPotentialReader:detector1] Finalizing thread 23025707959872
|15:14:53.302|  (STATUS) [F:ROOTObjectWriter] Wrote 63 objects to 4 branches in file:
                                              /afs/cern.ch/work/j/jsabater/unige/FASER/allpix-squared_3p03/allpix-squared/run/gamma905nm/allpix/output/transient_data_laser_gamma905nm_okuto_100photons_10.root
|15:14:53.330|  (STATUS) Finalization completed
|15:14:53.331| (WARNING) Unused configuration keys in section ElectricFieldReader:detector1:
                         output_plots_project
                         output_plots_single_pixel
                         output_plots_steps
|15:14:53.331| (WARNING) Unused configuration keys in section WeightingPotentialReader:detector1:
                         output_plots_single_pixel
                         output_plots_steps
|15:14:53.331| (WARNING) Unused configuration keys in section DopingProfileReader:detector1:
                         output_plots_single_pixel
                         output_plots_steps
|15:14:53.331| (WARNING) Unused configuration keys in section TransientPropagation:detector1:
                         ignore_magnetic_field
|15:14:53.331|  (STATUS) Executed 8 instantiations in 18 minutes 43 seconds, spending 62% of time in slowest instantiation TransientPropagation:detector1
|15:14:53.331|    (INFO)  Module GeometryBuilderGeant4 took 890.221ms
|15:14:53.331|    (INFO)  Module DepositionLaser took 77.1951ms
|15:14:53.331|    (INFO)  Module ElectricFieldReader:detector1 took 398.232s
|15:14:53.331|    (INFO)  Module WeightingPotentialReader:detector1 took 60.1172s
|15:14:53.331|    (INFO)  Module DopingProfileReader:detector1 took 255.869s
|15:14:53.332|    (INFO)  Module TransientPropagation:detector1 took 1202.66s
|15:14:53.332|    (INFO)  Module PulseTransfer:detector1 took 6.31308s
|15:14:53.332|    (INFO)  Module ROOTObjectWriter took 3.4992s
|15:14:53.332|  (STATUS) Average processing time is 40573.1ms/event, event generation at 0 Hz
|15:14:53.332|  (STATUS) This corresponds to a processing time of 162292ms/event per worker
'/afs/cern.ch/work/j/jsabater/unige/FASER/allpix-squared_3p03/allpix-squared/run/gamma905nm/allpix/output/transient_data_laser_gamma905nm_okuto_100photons_10.root' -> '/eos/user/j/jsabater/unige/gamma905nm/allpix/transient_data_laser_gamma905nm_okuto_100photons_10.root'
'/afs/cern.ch/work/j/jsabater/unige/FASER/allpix-squared_3p03/allpix-squared/run/gamma905nm/allpix/output/transient_modules_laser_gamma905nm_okuto_100photons_10.root' -> '/eos/user/j/jsabater/unige/gamma905nm/allpix/transient_modules_laser_gamma905nm_okuto_100photons_10.root'
removed '/afs/cern.ch/work/j/jsabater/unige/FASER/allpix-squared_3p03/allpix-squared/run/gamma905nm/allpix/output/transient_data_laser_gamma905nm_okuto_100photons_10.root'
removed '/afs/cern.ch/work/j/jsabater/unige/FASER/allpix-squared_3p03/allpix-squared/run/gamma905nm/allpix/output/transient_modules_laser_gamma905nm_okuto_100photons_10.root'
