0,0
1e-12,-1.30089e-06
2e-12,-7.54723e-07
3e-12,-4.67539e-07
4e-12,-1.26105e-06
5e-12,-1.50679e-06
6e-12,-1.2579e-06
7e-12,-1.18899e-06
8e-12,-8.6369e-07
9e-12,-9.52708e-07
1e-11,-1.15174e-06
1.1e-11,-6.66966e-07
1.2e-11,-1.10668e-06
1.3e-11,-1.53958e-06
1.4e-11,-1.05404e-06
1.5e-11,-5.60469e-07
1.6e-11,-8.7291e-07
1.7e-11,-1.05335e-06
1.8e-11,-1.75135e-06
1.9e-11,-6.29898e-07
2e-11,-1.0625e-06
2.1e-11,-1.21084e-06
2.2e-11,-1.41248e-06
2.3e-11,-1.36532e-06
2.4e-11,-6.28822e-07
2.5e-11,-9.39019e-07
2.6e-11,-1.01051e-06
2.7e-11,-1.25967e-06
2.8e-11,-1.28925e-06
2.9e-11,-9.85176e-07
3e-11,-1.09669e-06
3.1e-11,-1.40631e-06
3.2e-11,-5.56272e-07
3.3e-11,-8.54275e-07
3.4e-11,-1.35214e-06
3.5e-11,-6.92822e-07
3.6e-11,-1.01026e-06
3.7e-11,-1.07517e-06
3.8e-11,-1.6058e-06
3.9e-11,-1.46751e-06
4e-11,-1.06232e-06
4.1e-11,-8.383e-07
4.2e-11,-9.37073e-07
4.3e-11,-1.35227e-06
4.4e-11,-7.06538e-07
4.5e-11,-1.01807e-06
4.6e-11,-8.3112e-07
4.7e-11,-1.15732e-06
4.8e-11,-1.12729e-06
4.9e-11,-9.45122e-07
5e-11,-9.81419e-07
5.1e-11,-1.46549e-06
5.2e-11,-8.29566e-07
5.3e-11,-1.26129e-06
5.4e-11,-1.43879e-06
5.5e-11,-9.08627e-07
5.6e-11,-9.03774e-07
5.7e-11,-9.12961e-07
5.8e-11,-4.49001e-07
5.9e-11,-7.07781e-07
6e-11,-9.60227e-07
6.1e-11,-1.04552e-06
6.2e-11,-1.08118e-06
6.3e-11,-9.07486e-07
6.4e-11,-9.07407e-07
6.5e-11,-1.40481e-06
6.6e-11,-6.76482e-07
6.7e-11,-8.88175e-07
6.8e-11,-5.21448e-07
6.9e-11,-1.06215e-06
7e-11,-7.16178e-07
7.1e-11,-4.45788e-07
7.2e-11,-1.01675e-06
7.3e-11,-7.6414e-07
7.4e-11,-8.71182e-07
7.5e-11,-5.17597e-07
7.6e-11,-7.664e-07
7.7e-11,-8.41296e-07
7.8e-11,-1.2343e-06
7.9e-11,-1.0436e-06
8e-11,-5.41433e-07
8.1e-11,-5.60338e-07
8.2e-11,-6.93714e-07
8.3e-11,-5.16042e-07
8.4e-11,-8.89223e-07
8.5e-11,-5.29881e-07
8.6e-11,-8.03942e-07
8.7e-11,-1.14451e-06
8.8e-11,-9.8126e-07
8.9e-11,-9.33432e-07
9e-11,-8.92138e-07
9.1e-11,-4.05644e-07
9.2e-11,-7.21845e-07
9.3e-11,-6.03736e-07
9.4e-11,-6.68933e-07
9.5e-11,-8.49757e-07
9.6e-11,-7.68499e-07
9.7e-11,-7.60022e-07
9.8e-11,-7.61466e-07
9.9e-11,-9.88768e-07
1e-10,-4.97272e-07
1.01e-10,-6.21482e-07
1.02e-10,-1.04405e-06
1.03e-10,-6.46183e-07
1.04e-10,-8.91915e-07
1.05e-10,-9.83199e-07
1.06e-10,-8.2078e-07
1.07e-10,-3.81823e-07
1.08e-10,-3.77661e-07
1.09e-10,-8.54704e-07
1.1e-10,-8.33844e-07
1.11e-10,-1.02016e-06
1.12e-10,-7.04939e-07
1.13e-10,-8.26474e-07
1.14e-10,-9.05931e-07
1.15e-10,-5.33215e-07
1.16e-10,-8.95454e-07
1.17e-10,-6.66274e-07
1.18e-10,-6.18361e-07
1.19e-10,-8.39782e-07
1.2e-10,-6.60484e-07
1.21e-10,-6.46589e-07
1.22e-10,-6.48709e-07
1.23e-10,-8.31938e-07
1.24e-10,-7.5765e-07
1.25e-10,-7.25372e-07
1.26e-10,-6.86596e-07
1.27e-10,-6.70132e-07
1.28e-10,-4.91947e-07
1.29e-10,-6.05157e-07
1.3e-10,-4.83973e-07
1.31e-10,-6.9598e-07
1.32e-10,-6.62691e-07
1.33e-10,-5.73861e-07
1.34e-10,-8.74458e-07
1.35e-10,-5.96727e-07
1.36e-10,-6.92453e-07
1.37e-10,-3.86106e-07
1.38e-10,-5.68827e-07
1.39e-10,-7.89261e-07
1.4e-10,-6.45513e-07
1.41e-10,-3.18579e-07
1.42e-10,-6.22704e-07
1.43e-10,-3.93121e-07
1.44e-10,-6.97055e-07
1.45e-10,-4.70728e-07
1.46e-10,-4.05793e-07
1.47e-10,-8.60086e-07
1.48e-10,-8.3683e-07
1.49e-10,-6.21579e-07
1.5e-10,-4.77618e-07
1.51e-10,-9.45903e-07
1.52e-10,-6.51166e-07
1.53e-10,-2.66944e-07
1.54e-10,-4.00958e-07
1.55e-10,-6.53805e-07
1.56e-10,-7.67069e-07
1.57e-10,-7.07797e-07
1.58e-10,-4.79783e-07
1.59e-10,-5.43773e-07
1.6e-10,-5.00611e-07
1.61e-10,-7.60745e-07
1.62e-10,-3.18613e-07
1.63e-10,-4.40353e-07
1.64e-10,-7.55705e-07
1.65e-10,-7.55667e-07
1.66e-10,-4.48973e-07
1.67e-10,-6.18246e-07
1.68e-10,-6.17885e-07
1.69e-10,-6.75452e-07
1.7e-10,-6.45417e-07
1.71e-10,-3.73619e-07
1.72e-10,-6.84559e-07
1.73e-10,-3.09399e-07
1.74e-10,-3.6318e-07
1.75e-10,-7.22367e-07
1.76e-10,-4.20607e-07
1.77e-10,-6.27148e-07
1.78e-10,-5.06073e-07
1.79e-10,-6.26289e-07
1.8e-10,-4.81761e-07
1.81e-10,-2.92984e-07
1.82e-10,-4.11135e-07
1.83e-10,-4.26799e-07
1.84e-10,-7.04748e-07
1.85e-10,-7.01508e-07
1.86e-10,-3.43349e-07
1.87e-10,-2.8866e-07
1.88e-10,-6.12712e-07
1.89e-10,-4.58325e-07
1.9e-10,-3.93487e-07
1.91e-10,-4.52393e-07
1.92e-10,-4.97623e-07
1.93e-10,-8.03572e-07
1.94e-10,-2.28614e-07
1.95e-10,-3.49883e-07
1.96e-10,-4.34166e-07
1.97e-10,-3.58112e-07
1.98e-10,-4.38844e-07
1.99e-10,-3.47082e-07
2e-10,-6.52697e-07
2.01e-10,-4.45025e-07
2.02e-10,-5.29506e-07
2.03e-10,-8.66673e-08
2.04e-10,-4.27456e-07
2.05e-10,-1.68745e-07
2.06e-10,-4.17934e-07
2.07e-10,-2.03459e-07
2.08e-10,-3.85418e-07
2.09e-10,-5.27092e-07
2.1e-10,-4.54937e-07
2.11e-10,-2.64368e-07
2.12e-10,-3.70814e-07
2.13e-10,-2.87423e-07
2.14e-10,-1.33635e-07
2.15e-10,-1.50785e-07
2.16e-10,-3.30824e-07
2.17e-10,-2.60181e-07
2.18e-10,-4.78567e-07
2.19e-10,-3.28164e-07
2.2e-10,-2.92813e-07
2.21e-10,-1.9619e-07
2.22e-10,-3.82803e-07
2.23e-10,-2.5992e-07
2.24e-10,-2.8024e-07
2.25e-10,-2.63844e-07
2.26e-10,-2.83697e-07
2.27e-10,-1.54562e-07
2.28e-10,-3.0914e-07
2.29e-10,-2.27926e-07
2.3e-10,-2.6305e-07
2.31e-10,-3.22825e-07
2.32e-10,-2.77593e-07
2.33e-10,-6.881e-07
2.34e-10,-2.76418e-07
2.35e-10,-1.39492e-07
2.36e-10,-3.11209e-07
2.37e-10,-1.75367e-07
2.38e-10,-5.22716e-07
2.39e-10,-2.33252e-07
2.4e-10,-2.14871e-07
2.41e-10,-3.11493e-07
2.42e-10,-5.79e-08
2.43e-10,-1.67015e-07
2.44e-10,-4.80526e-07
2.45e-10,2.48059e-08
2.46e-10,-4.59295e-07
2.47e-10,-3.89724e-07
2.48e-10,-4.44166e-07
2.49e-10,-2.68127e-07
2.5e-10,-2.11171e-07
2.51e-10,-1.83048e-07
2.52e-10,-2.84798e-07
2.53e-10,-7.86286e-08
2.54e-10,-4.41399e-07
2.55e-10,-3.89492e-07
2.56e-10,-3.35339e-07
2.57e-10,-1.95096e-07
2.58e-10,-7.28565e-08
2.59e-10,-3.70817e-07
2.6e-10,-3.57176e-07
2.61e-10,-1.0553e-07
2.62e-10,-3.23917e-07
2.63e-10,-4.79138e-07
2.64e-10,-3.33828e-07
2.65e-10,-1.80245e-07
2.66e-10,-1.81284e-07
2.67e-10,-3.13073e-07
2.68e-10,-2.9263e-07
2.69e-10,-1.68143e-07
2.7e-10,-1.97176e-07
2.71e-10,-3.24831e-07
2.72e-10,-2.828e-07
2.73e-10,-1.8709e-07
2.74e-10,-4.01761e-07
2.75e-10,-1.83872e-07
2.76e-10,-2.26784e-07
2.77e-10,-1.97145e-08
2.78e-10,-1.63535e-07
2.79e-10,-1.58948e-07
2.8e-10,-5.77641e-07
2.81e-10,-1.99235e-07
2.82e-10,-1.10201e-07
2.83e-10,-2.6956e-07
2.84e-10,-2.88321e-07
2.85e-10,-1.57079e-07
2.86e-10,-1.27148e-07
2.87e-10,-1.48789e-07
2.88e-10,-9.40614e-08
2.89e-10,-4.57078e-07
2.9e-10,-3.24966e-07
2.91e-10,-2.75774e-08
2.92e-10,-1.77268e-07
2.93e-10,-1.07269e-07
2.94e-10,-7.14959e-08
2.95e-10,-3.12712e-07
2.96e-10,-4.20091e-07
2.97e-10,-1.99195e-07
2.98e-10,-1.74874e-07
2.99e-10,-1.95049e-07
3e-10,-1.61923e-07
3.01e-10,-1.76815e-08
3.02e-10,-8.31512e-08
3.03e-10,-1.47068e-07
3.04e-10,-3.00158e-07
3.05e-10,-7.69921e-08
3.06e-10,-1.67383e-07
3.07e-10,-2.48894e-07
3.08e-10,-7.24603e-08
3.09e-10,-4.61875e-08
3.1e-10,-1.63824e-07
3.11e-10,-9.44999e-08
3.12e-10,-1.57553e-07
3.13e-10,-3.12843e-07
3.14e-10,-1.6632e-07
3.15e-10,-1.13778e-07
3.16e-10,-1.56846e-08
3.17e-10,-1.67103e-07
3.18e-10,-1.02646e-07
3.19e-10,-8.45126e-08
3.2e-10,-1.58944e-07
3.21e-10,-2.80957e-07
3.22e-10,-6.59916e-08
3.23e-10,-5.80748e-08
3.24e-10,-1.70961e-07
3.25e-10,-1.49331e-07
3.26e-10,-6.02409e-09
3.27e-10,-1.64136e-07
3.28e-10,-4.40787e-08
3.29e-10,-1.59624e-07
3.3e-10,-2.65672e-07
3.31e-10,-1.08014e-07
3.32e-10,1.14585e-07
3.33e-10,-2.30761e-07
3.34e-10,3.41892e-09
3.35e-10,-1.97702e-08
3.36e-10,-2.42252e-09
3.37e-10,-2.51165e-07
3.38e-10,-2.16262e-07
3.39e-10,-1.11851e-07
3.4e-10,-1.1296e-07
3.41e-10,-5.79199e-08
3.42e-10,-1.5378e-07
3.43e-10,-1.47453e-07
3.44e-10,-6.82486e-08
3.45e-10,-1.26859e-07
3.46e-10,-1.51868e-07
3.47e-10,-2.81788e-07
3.48e-10,-3.17274e-08
3.49e-10,-2.57133e-07
3.5e-10,-1.23718e-07
3.51e-10,6.58399e-08
3.52e-10,-4.4508e-08
3.53e-10,-2.43701e-07
3.54e-10,-1.10444e-07
3.55e-10,1.50013e-08
3.56e-10,-2.88476e-07
3.57e-10,-5.30292e-08
3.58e-10,9.77621e-08
3.59e-10,-1.29667e-07
3.6e-10,4.23829e-08
3.61e-10,-2.5831e-07
3.62e-10,-8.61471e-09
3.63e-10,-3.18691e-07
3.64e-10,-4.46252e-08
3.65e-10,8.36971e-08
3.66e-10,-1.07177e-07
3.67e-10,-9.70555e-08
3.68e-10,-1.14158e-08
3.69e-10,-9.05662e-08
3.7e-10,-9.61986e-08
3.71e-10,-1.8526e-07
3.72e-10,-1.03711e-07
3.73e-10,-2.91424e-08
3.74e-10,-1.41038e-07
3.75e-10,2.25418e-08
3.76e-10,-1.11326e-07
3.77e-10,-5.01578e-08
3.78e-10,-1.13953e-07
3.79e-10,-8.61107e-08
3.8e-10,-7.14151e-08
3.81e-10,-6.11008e-08
3.82e-10,1.37152e-08
3.83e-10,-2.09482e-07
3.84e-10,-9.74907e-08
3.85e-10,-2.37062e-08
3.86e-10,4.99232e-08
3.87e-10,-8.80125e-08
3.88e-10,-2.70222e-08
3.89e-10,-1.15773e-07
3.9e-10,-7.7137e-08
3.91e-10,2.47823e-09
3.92e-10,4.18013e-09
3.93e-10,-1.42935e-07
3.94e-10,-1.03888e-07
3.95e-10,-4.35604e-08
3.96e-10,-9.49368e-08
3.97e-10,-2.46137e-07
3.98e-10,-6.69433e-08
3.99e-10,1.03457e-08
4e-10,-7.39244e-08
4.01e-10,-5.14822e-08
4.02e-10,-1.28129e-07
4.03e-10,5.81454e-09
4.04e-10,-9.07162e-08
4.05e-10,-8.56771e-08
4.06e-10,4.39887e-09
4.07e-10,-1.5876e-07
4.08e-10,-5.70958e-08
4.09e-10,-5.54035e-08
4.1e-10,-1.14801e-07
4.11e-10,7.84482e-08
4.12e-10,-1.03232e-07
4.13e-10,-1.7156e-08
4.14e-10,-1.66377e-07
4.15e-10,-7.19488e-08
4.16e-10,-5.04494e-08
4.17e-10,-3.40254e-08
4.18e-10,-1.43319e-07
4.19e-10,-1.53885e-07
4.2e-10,-1.58937e-07
4.21e-10,1.20224e-07
4.22e-10,-1.73186e-08
4.23e-10,-1.36167e-07
4.24e-10,-9.62146e-08
4.25e-10,-2.84595e-08
4.26e-10,-1.71552e-08
4.27e-10,-1.56485e-07
4.28e-10,-6.99195e-08
4.29e-10,3.34392e-08
4.3e-10,-1.84829e-08
4.31e-10,-5.16128e-08
4.32e-10,-7.36952e-08
4.33e-10,-1.26879e-07
4.34e-10,4.61756e-08
4.35e-10,-8.20381e-08
4.36e-10,-5.7785e-08
4.37e-10,-1.60736e-07
4.38e-10,-1.07781e-08
4.39e-10,-6.36036e-08
4.4e-10,-1.57429e-07
4.41e-10,-2.06262e-08
4.42e-10,-2.87343e-08
4.43e-10,-2.12486e-08
4.44e-10,-1.86598e-07
4.45e-10,8.26684e-09
4.46e-10,-6.19341e-08
4.47e-10,-8.04774e-08
4.48e-10,-6.10373e-08
4.49e-10,-5.22458e-08
4.5e-10,-6.20114e-08
4.51e-10,-2.83038e-08
4.52e-10,1.0474e-08
4.53e-10,-7.65282e-08
4.54e-10,-1.89551e-09
4.55e-10,-1.29215e-07
4.56e-10,-1.5946e-07
4.57e-10,5.33494e-09
4.58e-10,-4.09998e-08
4.59e-10,-7.51794e-08
4.6e-10,-5.39531e-08
4.61e-10,3.01329e-10
4.62e-10,-1.18943e-07
4.63e-10,-4.62717e-08
4.64e-10,-8.47844e-09
4.65e-10,-5.24797e-08
4.66e-10,-6.44743e-08
4.67e-10,-5.0447e-08
4.68e-10,-6.37721e-08
4.69e-10,1.41573e-10
4.7e-10,-1.64689e-07
4.71e-10,-4.58704e-08
4.72e-10,-4.30898e-08
4.73e-10,7.01991e-09
4.74e-10,-1.09129e-07
4.75e-10,-2.63642e-08
4.76e-10,-7.90037e-08
4.77e-10,-1.15402e-07
4.78e-10,-8.31196e-08
4.79e-10,-3.6881e-08
4.8e-10,-7.99996e-08
4.81e-10,-6.20085e-08
4.82e-10,-2.81229e-08
4.83e-10,-7.26518e-09
4.84e-10,-1.25789e-07
4.85e-10,-2.0855e-08
4.86e-10,2.28804e-08
4.87e-10,-1.20601e-07
4.88e-10,-2.38642e-07
4.89e-10,-4.57578e-08
4.9e-10,2.08098e-08
4.91e-10,-4.3203e-08
4.92e-10,-3.59583e-08
4.93e-10,6.19668e-09
4.94e-10,-1.01076e-07
4.95e-10,8.35576e-10
4.96e-10,-1.66712e-07
4.97e-10,1.55002e-08
4.98e-10,-5.29344e-08
4.99e-10,-9.44743e-08
5e-10,-2.32775e-08
5.01e-10,-6.4497e-08
5.02e-10,-3.86289e-08
5.03e-10,-2.3422e-08
5.04e-10,-7.80498e-09
5.05e-10,-6.98914e-08
5.06e-10,-1.13328e-07
5.07e-10,2.60115e-08
5.08e-10,-1.39304e-07
5.09e-10,-3.56775e-08
5.1e-10,3.31763e-08
5.11e-10,-2.9708e-08
5.12e-10,-3.80325e-08
5.13e-10,-2.48218e-08
5.14e-10,2.33667e-09
5.15e-10,-4.82689e-08
5.16e-10,-1.61975e-07
5.17e-10,-5.43675e-08
5.18e-10,4.72343e-10
5.19e-10,-7.20757e-08
5.2e-10,4.64456e-09
5.21e-10,2.11693e-08
5.22e-10,-1.88501e-08
5.23e-10,-1.18843e-07
5.24e-10,-2.55894e-08
5.25e-10,-6.99948e-08
5.26e-10,-1.32347e-08
5.27e-10,-3.29721e-08
5.28e-10,-1.68972e-08
5.29e-10,-2.55364e-08
5.3e-10,-6.49542e-09
5.31e-10,-3.11027e-08
5.32e-10,-7.02252e-08
5.33e-10,3.03879e-09
5.34e-10,-5.02553e-08
5.35e-10,3.86069e-09
5.36e-10,1.38691e-09
5.37e-10,-8.69215e-08
5.38e-10,1.98742e-08
5.39e-10,-6.39147e-08
5.4e-10,2.495e-09
5.41e-10,-1.83895e-08
5.42e-10,-5.80615e-08
5.43e-10,-1.54326e-08
5.44e-10,-4.52623e-08
5.45e-10,-6.7761e-09
5.46e-10,-2.65295e-08
5.47e-10,-5.85007e-08
5.48e-10,-2.60159e-09
5.49e-10,-6.78918e-09
5.5e-10,-1.10781e-08
5.51e-10,-3.2974e-08
5.52e-10,-2.9273e-08
5.53e-10,-1.78339e-08
5.54e-10,-3.842e-08
5.55e-10,-7.76573e-10
5.56e-10,-1.01412e-07
5.57e-10,-2.37062e-09
5.58e-10,2.40532e-08
5.59e-10,-2.94358e-08
5.6e-10,-9.55611e-08
5.61e-10,1.78713e-09
5.62e-10,-5.03615e-08
5.63e-10,-1.47776e-08
5.64e-10,-3.42072e-10
5.65e-10,-5.77861e-08
5.66e-10,-2.42871e-09
5.67e-10,-6.00592e-11
5.68e-10,-2.30382e-09
5.69e-10,-1.94011e-08
5.7e-10,-5.38122e-08
5.71e-10,-4.57434e-08
5.72e-10,-5.77127e-09
5.73e-10,1.54996e-08
5.74e-10,-1.78636e-08
5.75e-10,-1.06516e-07
5.76e-10,4.90509e-10
5.77e-10,2.152e-09
5.78e-10,-4.77107e-08
5.79e-10,-4.29597e-08
5.8e-10,-2.63574e-09
5.81e-10,-8.22718e-08
5.82e-10,-2.98535e-09
5.83e-10,-5.76004e-08
5.84e-10,1.36221e-09
5.85e-10,-2.45413e-09
5.86e-10,-2.0075e-08
5.87e-10,-1.32528e-08
5.88e-10,-8.12611e-08
5.89e-10,-4.68853e-08
5.9e-10,-4.65996e-08
5.91e-10,-8.24895e-08
5.92e-10,2.51354e-08
5.93e-10,-2.97771e-08
5.94e-10,-2.10208e-09
5.95e-10,-1.44226e-08
5.96e-10,-5.09881e-08
5.97e-10,8.77821e-10
5.98e-10,-5.1961e-08
5.99e-10,-6.15997e-08
6e-10,-5.98915e-09
6.01e-10,7.16274e-09
6.02e-10,-4.36856e-10
6.03e-10,-1.27385e-08
6.04e-10,-9.53969e-08
6.05e-10,4.8859e-10
6.06e-10,-3.91824e-09
6.07e-10,-6.09211e-08
6.08e-10,-5.89495e-08
6.09e-10,1.40014e-09
6.1e-10,2.79623e-09
6.11e-10,-5.86861e-08
6.12e-10,-1.45334e-08
6.13e-10,2.00823e-09
6.14e-10,-2.24059e-09
6.15e-10,-5.28206e-09
6.16e-10,-3.96408e-08
6.17e-10,-1.57444e-08
6.18e-10,-4.31811e-08
6.19e-10,-9.46309e-08
6.2e-10,-8.99738e-09
6.21e-10,2.54904e-09
6.22e-10,-3.01294e-09
6.23e-10,4.28053e-09
6.24e-10,-3.97615e-08
6.25e-10,-2.61351e-09
6.26e-10,-5.93002e-10
6.27e-10,-7.28238e-08
6.28e-10,-5.3762e-08
6.29e-10,-2.49186e-09
6.3e-10,4.22976e-10
6.31e-10,2.64405e-08
6.32e-10,-2.82243e-08
6.33e-10,-2.25252e-09
6.34e-10,-4.12053e-08
6.35e-10,-1.90302e-08
6.36e-10,-6.00049e-08
6.37e-10,-7.44978e-08
6.38e-10,-3.81679e-09
6.39e-10,-1.38024e-09
6.4e-10,4.61789e-09
6.41e-10,-1.39432e-09
6.42e-10,-2.40561e-08
6.43e-10,6.14322e-09
6.44e-10,-3.54215e-08
6.45e-10,-1.77895e-09
6.46e-10,-1.65377e-08
6.47e-10,3.55635e-09
6.48e-10,-3.47074e-09
6.49e-10,-3.5731e-08
6.5e-10,-2.90585e-08
6.51e-10,8.33286e-09
6.52e-10,-6.5098e-08
6.53e-10,-2.0975e-08
6.54e-10,-3.21054e-08
6.55e-10,-2.75596e-08
6.56e-10,1.77711e-09
6.57e-10,-2.1029e-09
6.58e-10,-3.95778e-08
6.59e-10,-2.63105e-10
6.6e-10,3.98824e-09
6.61e-10,-5.48746e-08
6.62e-10,-5.47753e-09
6.63e-10,-8.34981e-09
6.64e-10,-2.02135e-09
6.65e-10,2.86473e-08
6.66e-10,-2.57346e-09
6.67e-10,4.09671e-08
6.68e-10,2.32242e-09
6.69e-10,-1.12306e-07
6.7e-10,-7.19419e-08
6.71e-10,2.52121e-09
6.72e-10,-1.1189e-08
6.73e-10,-3.45032e-09
6.74e-10,3.21851e-09
6.75e-10,-2.76999e-08
6.76e-10,-4.14303e-08
6.77e-10,-6.11699e-08
6.78e-10,5.42232e-09
6.79e-10,-1.90689e-09
6.8e-10,-1.19256e-08
6.81e-10,-3.50143e-11
6.82e-10,-3.80324e-08
6.83e-10,2.37816e-08
6.84e-10,-5.82845e-10
6.85e-10,-2.75251e-08
6.86e-10,-4.67647e-10
6.87e-10,-5.17193e-08
6.88e-10,1.36188e-09
6.89e-10,-2.08598e-09
6.9e-10,1.69993e-09
6.91e-10,1.90262e-09
6.92e-10,-4.50159e-08
6.93e-10,1.74206e-09
6.94e-10,1.59168e-09
6.95e-10,-6.33275e-08
6.96e-10,-1.01994e-08
6.97e-10,-1.96358e-09
6.98e-10,-4.96527e-09
6.99e-10,5.77578e-10
7e-10,4.19271e-09
7.01e-10,-2.55843e-08
7.02e-10,2.32219e-08
7.03e-10,-4.35583e-08
7.04e-10,-6.58082e-08
7.05e-10,3.06729e-10
7.06e-10,-2.48002e-09
7.07e-10,3.86551e-09
7.08e-10,-3.57386e-08
7.09e-10,-2.48568e-09
7.1e-10,8.01617e-09
7.11e-10,-3.20172e-09
7.12e-10,-4.14045e-08
7.13e-10,-9.31482e-08
7.14e-10,3.06197e-09
7.15e-10,3.81034e-10
7.16e-10,-4.6395e-10
7.17e-10,3.37078e-09
7.18e-10,-4.93191e-09
7.19e-10,2.41313e-08
7.2e-10,3.72083e-09
7.21e-10,-1.10804e-07
7.22e-10,6.92153e-10
7.23e-10,-1.28077e-09
7.24e-10,2.97144e-08
7.25e-10,-2.661e-08
7.26e-10,-2.05285e-09
7.27e-10,-6.4779e-10
7.28e-10,-1.13004e-09
7.29e-10,-1.04003e-09
7.3e-10,1.71998e-09
7.31e-10,-4.5488e-08
7.32e-10,5.14306e-09
7.33e-10,-4.42331e-09
7.34e-10,7.86597e-11
7.35e-10,-6.77238e-11
7.36e-10,-8.38243e-10
7.37e-10,-2.83144e-08
7.38e-10,2.52531e-08
7.39e-10,-4.80934e-08
7.4e-10,-2.59057e-08
7.41e-10,2.59879e-08
7.42e-10,-2.7586e-08
7.43e-10,4.77444e-09
7.44e-10,-2.09817e-09
7.45e-10,2.93616e-08
7.46e-10,-6.78145e-08
7.47e-10,2.12703e-08
7.48e-10,-2.6698e-08
7.49e-10,2.77271e-08
7.5e-10,-5.18881e-09
7.51e-10,3.00952e-08
7.52e-10,-3.44614e-09
7.53e-10,2.20254e-09
7.54e-10,-7.8287e-08
7.55e-10,3.02936e-09
7.56e-10,-2.61403e-08
7.57e-10,2.00337e-09
7.58e-10,2.58547e-08
7.59e-10,-3.36824e-09
7.6e-10,-3.73018e-09
7.61e-10,-2.83214e-08
7.62e-10,1.75527e-09
7.63e-10,-4.75113e-08
7.64e-10,2.86323e-09
7.65e-10,-3.17143e-09
7.66e-10,-1.64876e-09
7.67e-10,-4.73752e-09
7.68e-10,2.70189e-08
7.69e-10,2.78946e-08
7.7e-10,-4.95948e-08
7.71e-10,-4.72459e-08
7.72e-10,5.38984e-08
7.73e-10,-2.83664e-08
7.74e-10,2.47231e-08
7.75e-10,-2.14599e-08
7.76e-10,-2.12979e-09
7.77e-10,2.33261e-10
7.78e-10,-3.49376e-09
7.79e-10,-5.41722e-08
7.8e-10,2.58372e-09
7.81e-10,-3.04363e-09
7.82e-10,1.44742e-09
7.83e-10,-2.86373e-09
7.84e-10,4.57557e-09
7.85e-10,-1.57617e-09
7.86e-10,-4.67707e-08
7.87e-10,2.48208e-08
7.88e-10,-2.40236e-08
7.89e-10,-1.16656e-09
7.9e-10,4.89254e-09
7.91e-10,-3.35156e-09
7.92e-10,-1.68587e-10
7.93e-10,-2.74621e-09
7.94e-10,5.14612e-09
7.95e-10,-5.75799e-08
7.96e-10,1.47895e-09
7.97e-10,-3.56491e-10
7.98e-10,2.77623e-08
7.99e-10,-3.01591e-08
8e-10,7.84099e-10
8.01e-10,2.60786e-08
8.02e-10,-2.92555e-08
8.03e-10,-2.65899e-08
8.04e-10,2.22889e-09
8.05e-10,9.66285e-10
8.06e-10,2.65982e-09
8.07e-10,-2.27251e-08
8.08e-10,-4.66316e-10
8.09e-10,-2.88185e-08
8.1e-10,2.31256e-08
8.11e-10,-5.67267e-08
8.12e-10,-1.94526e-09
8.13e-10,-2.35488e-08
8.14e-10,-5.09791e-09
8.15e-10,3.69316e-09
8.16e-10,-2.19417e-09
8.17e-10,-1.70984e-09
8.18e-10,1.13795e-09
8.19e-10,1.04221e-09
8.2e-10,-3.33281e-09
8.21e-10,-2.7343e-08
8.22e-10,-1.90967e-08
8.23e-10,1.99027e-08
8.24e-10,-2.59708e-08
8.25e-10,8.34316e-10
8.26e-10,-1.41472e-09
8.27e-10,4.3466e-10
8.28e-10,1.38815e-09
8.29e-10,2.59173e-09
8.3e-10,-6.07493e-08
8.31e-10,-3.34994e-08
8.32e-10,4.00542e-10
8.33e-10,2.38426e-09
8.34e-10,-4.91504e-09
8.35e-10,1.89537e-09
8.36e-10,-5.0906e-09
8.37e-10,6.91355e-09
8.38e-10,-7.95227e-09
8.39e-10,-6.01981e-08
8.4e-10,1.7643e-09
8.41e-10,2.05844e-09
8.42e-10,-2.14288e-09
8.43e-10,-2.42704e-09
8.44e-10,-6.11723e-08
8.45e-10,-2.08598e-09
8.46e-10,-1.00908e-10
8.47e-10,-2.39507e-09
8.48e-10,-5.48996e-08
8.49e-10,-1.82988e-09
8.5e-10,-3.53044e-10
8.51e-10,1.27862e-10
8.52e-10,1.89446e-10
8.53e-10,1.42866e-09
8.54e-10,-6.00719e-08
8.55e-10,2.76445e-08
8.56e-10,-6.05337e-08
8.57e-10,4.75218e-09
8.58e-10,1.32079e-09
8.59e-10,-6.67023e-09
8.6e-10,2.43937e-09
8.61e-10,3.53176e-10
8.62e-10,-1.51895e-09
8.63e-10,-1.25315e-09
8.64e-10,-2.25341e-08
8.65e-10,-8.63739e-08
8.66e-10,-1.1575e-09
8.67e-10,-1.47767e-09
8.68e-10,3.22368e-09
8.69e-10,8.26357e-10
8.7e-10,-2.06137e-09
8.71e-10,-5.74047e-10
8.72e-10,-2.75854e-08
8.73e-10,-5.68844e-08
8.74e-10,2.48185e-08
8.75e-10,-5.6071e-08
8.76e-10,-3.28872e-09
8.77e-10,-1.83095e-09
8.78e-10,-1.46017e-09
8.79e-10,2.58565e-09
8.8e-10,-2.56528e-10
8.81e-10,-4.68202e-09
8.82e-10,-3.04914e-08
8.83e-10,7.80333e-10
8.84e-10,-7.44702e-10
8.85e-10,-6.10496e-08
8.86e-10,2.30598e-09
8.87e-10,1.26981e-09
8.88e-10,2.29522e-09
8.89e-10,-4.04483e-09
8.9e-10,-2.46556e-10
8.91e-10,2.54402e-09
8.92e-10,6.06945e-10
8.93e-10,-5.08053e-09
8.94e-10,2.62542e-09
8.95e-10,-1.7223e-09
8.96e-10,2.52298e-09
8.97e-10,-5.65228e-08
8.98e-10,-3.44684e-09
8.99e-10,7.0702e-10
9e-10,-2.51756e-08
9.01e-10,1.2623e-09
9.02e-10,-2.63249e-09
9.03e-10,3.15691e-09
9.04e-10,9.19483e-10
9.05e-10,2.40521e-09
9.06e-10,-2.95185e-08
9.07e-10,2.66683e-08
9.08e-10,2.38114e-09
9.09e-10,-2.1765e-09
9.1e-10,-5.7665e-08
9.11e-10,1.65297e-09
9.12e-10,3.49578e-09
9.13e-10,-2.5795e-09
9.14e-10,9.24178e-10
9.15e-10,-2.75143e-09
9.16e-10,1.9445e-09
9.17e-10,-4.35607e-09
9.18e-10,3.78528e-09
9.19e-10,-1.14537e-09
9.2e-10,-2.36941e-10
9.21e-10,-5.60839e-08
9.22e-10,1.77139e-09
9.23e-10,-3.84046e-09
9.24e-10,-1.7865e-09
9.25e-10,1.3757e-09
9.26e-10,2.35382e-10
9.27e-10,-3.71781e-09
9.28e-10,2.29651e-09
9.29e-10,-2.66617e-08
9.3e-10,2.0532e-09
9.31e-10,-5.26017e-09
9.32e-10,-5.20001e-08
9.33e-10,4.58404e-09
9.34e-10,-1.69138e-09
9.35e-10,2.6812e-09
9.36e-10,-1.49849e-09
9.37e-10,1.72262e-09
9.38e-10,-8.31279e-10
9.39e-10,-2.11433e-09
9.4e-10,-4.26118e-08
9.41e-10,-1.04378e-09
9.42e-10,-5.73261e-08
9.43e-10,5.44575e-09
9.44e-10,3.8988e-08
9.45e-10,-4.01416e-08
9.46e-10,-8.09546e-10
9.47e-10,2.06149e-09
9.48e-10,1.95803e-09
9.49e-10,-6.92042e-10
9.5e-10,-3.10143e-09
9.51e-10,-3.34132e-09
9.52e-10,4.64982e-10
9.53e-10,-3.39397e-10
9.54e-10,2.7897e-09
9.55e-10,-5.5657e-08
9.56e-10,1.05828e-09
9.57e-10,2.85822e-09
9.58e-10,-3.28933e-10
9.59e-10,-1.18251e-09
9.6e-10,3.65609e-09
9.61e-10,-2.0743e-09
9.62e-10,1.19539e-09
9.63e-10,2.85423e-09
9.64e-10,-3.77736e-09
9.65e-10,2.27129e-09
9.66e-10,-5.5561e-08
9.67e-10,-1.14841e-09
9.68e-10,2.06789e-09
9.69e-10,1.71301e-09
9.7e-10,3.74062e-09
9.71e-10,-2.9841e-09
9.72e-10,-2.2019e-10
9.73e-10,-3.21143e-09
9.74e-10,2.08064e-09
9.75e-10,-4.25925e-08
9.76e-10,-1.73055e-09
9.77e-10,-4.92007e-08
9.78e-10,1.14553e-09
9.79e-10,9.0378e-10
9.8e-10,-8.25135e-10
9.81e-10,-8.23495e-10
9.82e-10,1.20039e-09
9.83e-10,-2.87639e-10
9.84e-10,-1.95962e-09
9.85e-10,-1.13752e-09
9.86e-10,-4.84011e-10
9.87e-10,-9.4323e-10
9.88e-10,-4.72555e-08
9.89e-10,-4.15312e-08
9.9e-10,-5.97248e-09
9.91e-10,5.58587e-09
9.92e-10,-4.60641e-09
9.93e-10,3.1039e-10
9.94e-10,2.07879e-09
9.95e-10,1.31464e-09
9.96e-10,1.01287e-09
9.97e-10,-9.21083e-10
9.98e-10,-4.6743e-08
9.99e-10,-1.59962e-09
1e-09,-1.78049e-10
2.1e-09,0
