0,0
1e-12,-1.24831e-06
2e-12,-1.70838e-06
3e-12,-1.84985e-06
4e-12,-1.57759e-06
5e-12,-2.16352e-06
6e-12,-2.30327e-06
7e-12,-1.87908e-06
8e-12,-2.03901e-06
9e-12,-1.59174e-06
1e-11,-1.50448e-06
1.1e-11,-1.74797e-06
1.2e-11,-1.18258e-06
1.3e-11,-1.35404e-06
1.4e-11,-9.91359e-07
1.5e-11,-1.58325e-06
1.6e-11,-1.55206e-06
1.7e-11,-2.25341e-06
1.8e-11,-2.04801e-06
1.9e-11,-1.39373e-06
2e-11,-2.01474e-06
2.1e-11,-1.70355e-06
2.2e-11,-1.44969e-06
2.3e-11,-1.62318e-06
2.4e-11,-9.24633e-07
2.5e-11,-1.86469e-06
2.6e-11,-1.82718e-06
2.7e-11,-1.66891e-06
2.8e-11,-1.63025e-06
2.9e-11,-1.5025e-06
3e-11,-1.72503e-06
3.1e-11,-1.49629e-06
3.2e-11,-1.19066e-06
3.3e-11,-1.45123e-06
3.4e-11,-1.77337e-06
3.5e-11,-2.09314e-06
3.6e-11,-1.7833e-06
3.7e-11,-1.4858e-06
3.8e-11,-2.1438e-06
3.9e-11,-1.39855e-06
4e-11,-1.26986e-06
4.1e-11,-1.49449e-06
4.2e-11,-1.70921e-06
4.3e-11,-1.55159e-06
4.4e-11,-1.56131e-06
4.5e-11,-1.46985e-06
4.6e-11,-1.71203e-06
4.7e-11,-1.72503e-06
4.8e-11,-1.68557e-06
4.9e-11,-1.62973e-06
5e-11,-1.64651e-06
5.1e-11,-1.28441e-06
5.2e-11,-2.34921e-06
5.3e-11,-1.35962e-06
5.4e-11,-1.79598e-06
5.5e-11,-1.46821e-06
5.6e-11,-1.61196e-06
5.7e-11,-1.21085e-06
5.8e-11,-1.39501e-06
5.9e-11,-1.77013e-06
6e-11,-1.65864e-06
6.1e-11,-1.80267e-06
6.2e-11,-1.5597e-06
6.3e-11,-1.37424e-06
6.4e-11,-1.86097e-06
6.5e-11,-1.52607e-06
6.6e-11,-1.34254e-06
6.7e-11,-9.8531e-07
6.8e-11,-1.39173e-06
6.9e-11,-1.42969e-06
7e-11,-1.78523e-06
7.1e-11,-1.44843e-06
7.2e-11,-1.81173e-06
7.3e-11,-1.76408e-06
7.4e-11,-1.70592e-06
7.5e-11,-8.4686e-07
7.6e-11,-1.24616e-06
7.7e-11,-1.86833e-06
7.8e-11,-1.16352e-06
7.9e-11,-1.0915e-06
8e-11,-1.47029e-06
8.1e-11,-1.17521e-06
8.2e-11,-2.18362e-06
8.3e-11,-1.37001e-06
8.4e-11,-1.32189e-06
8.5e-11,-2.01102e-06
8.6e-11,-1.3639e-06
8.7e-11,-1.36393e-06
8.8e-11,-1.35301e-06
8.9e-11,-1.05241e-06
9e-11,-1.61976e-06
9.1e-11,-1.39011e-06
9.2e-11,-1.13244e-06
9.3e-11,-1.83872e-06
9.4e-11,-1.66929e-06
9.5e-11,-1.16107e-06
9.6e-11,-1.11476e-06
9.7e-11,-1.43505e-06
9.8e-11,-1.88548e-06
9.9e-11,-1.29101e-06
1e-10,-1.56734e-06
1.01e-10,-1.11105e-06
1.02e-10,-1.17444e-06
1.03e-10,-1.91882e-06
1.04e-10,-1.19732e-06
1.05e-10,-1.20663e-06
1.06e-10,-1.13713e-06
1.07e-10,-1.10666e-06
1.08e-10,-1.34788e-06
1.09e-10,-1.64391e-06
1.1e-10,-1.404e-06
1.11e-10,-1.67025e-06
1.12e-10,-1.30134e-06
1.13e-10,-1.31271e-06
1.14e-10,-1.04814e-06
1.15e-10,-1.26654e-06
1.16e-10,-1.87563e-06
1.17e-10,-1.73723e-06
1.18e-10,-7.91861e-07
1.19e-10,-1.68202e-06
1.2e-10,-1.15066e-06
1.21e-10,-9.45124e-07
1.22e-10,-1.25199e-06
1.23e-10,-8.90709e-07
1.24e-10,-1.59613e-06
1.25e-10,-1.37984e-06
1.26e-10,-1.61866e-06
1.27e-10,-8.25496e-07
1.28e-10,-1.2757e-06
1.29e-10,-1.07097e-06
1.3e-10,-1.00229e-06
1.31e-10,-1.58232e-06
1.32e-10,-1.02699e-06
1.33e-10,-1.31339e-06
1.34e-10,-8.45732e-07
1.35e-10,-1.20133e-06
1.36e-10,-1.18174e-06
1.37e-10,-9.27691e-07
1.38e-10,-1.14873e-06
1.39e-10,-1.44321e-06
1.4e-10,-7.64017e-07
1.41e-10,-1.15757e-06
1.42e-10,-1.07126e-06
1.43e-10,-1.20315e-06
1.44e-10,-8.82565e-07
1.45e-10,-8.03859e-07
1.46e-10,-1.3148e-06
1.47e-10,-1.01188e-06
1.48e-10,-1.0498e-06
1.49e-10,-1.17699e-06
1.5e-10,-8.87869e-07
1.51e-10,-6.94472e-07
1.52e-10,-9.66871e-07
1.53e-10,-7.0011e-07
1.54e-10,-1.0265e-06
1.55e-10,-7.31946e-07
1.56e-10,-8.66114e-07
1.57e-10,-9.39812e-07
1.58e-10,-7.73435e-07
1.59e-10,-5.46779e-07
1.6e-10,-9.26884e-07
1.61e-10,-1.18036e-06
1.62e-10,-9.34139e-07
1.63e-10,-1.00082e-06
1.64e-10,-1.09596e-06
1.65e-10,-7.39416e-07
1.66e-10,-9.50734e-07
1.67e-10,-2.17752e-07
1.68e-10,-6.27963e-07
1.69e-10,-6.97755e-07
1.7e-10,-6.62388e-07
1.71e-10,-7.30608e-07
1.72e-10,-1.07519e-06
1.73e-10,-7.41641e-07
1.74e-10,-8.01245e-07
1.75e-10,-6.44309e-07
1.76e-10,-5.74107e-07
1.77e-10,-7.02699e-07
1.78e-10,-7.76034e-07
1.79e-10,-9.19491e-07
1.8e-10,-9.70779e-07
1.81e-10,-6.77532e-07
1.82e-10,-7.09841e-07
1.83e-10,-6.76341e-07
1.84e-10,-5.37163e-07
1.85e-10,-5.74053e-07
1.86e-10,-6.24302e-07
1.87e-10,-9.58432e-07
1.88e-10,-5.74403e-07
1.89e-10,-7.3358e-07
1.9e-10,-1.00939e-06
1.91e-10,-7.66813e-07
1.92e-10,-5.74471e-07
1.93e-10,-2.99677e-07
1.94e-10,-5.97559e-07
1.95e-10,-6.33385e-07
1.96e-10,-6.83163e-07
1.97e-10,-5.69208e-07
1.98e-10,-7.91274e-07
1.99e-10,-5.64702e-07
2e-10,-4.52387e-07
2.01e-10,-7.05698e-07
2.02e-10,-6.75208e-07
2.03e-10,-4.55793e-07
2.04e-10,-4.10378e-07
2.05e-10,-3.00183e-07
2.06e-10,-5.65463e-07
2.07e-10,-4.04837e-07
2.08e-10,-3.34086e-07
2.09e-10,-5.31488e-07
2.1e-10,-5.17017e-07
2.11e-10,-5.32105e-07
2.12e-10,-5.29338e-07
2.13e-10,-5.54317e-07
2.14e-10,-4.87707e-07
2.15e-10,-6.45626e-07
2.16e-10,-7.24458e-07
2.17e-10,-4.56762e-07
2.18e-10,-1.34639e-07
2.19e-10,-3.35884e-07
2.2e-10,-4.95891e-07
2.21e-10,-5.04458e-07
2.22e-10,-6.73905e-07
2.23e-10,-3.98503e-07
2.24e-10,-6.00659e-07
2.25e-10,-7.28908e-07
2.26e-10,-4.66595e-07
2.27e-10,-4.79734e-07
2.28e-10,-3.37567e-07
2.29e-10,-5.6752e-07
2.3e-10,-1.13344e-07
2.31e-10,-6.78972e-07
2.32e-10,-6.39207e-07
2.33e-10,-6.59123e-07
2.34e-10,-3.53916e-07
2.35e-10,-1.87717e-07
2.36e-10,-2.72211e-07
2.37e-10,-5.38911e-07
2.38e-10,-4.49987e-07
2.39e-10,-4.69129e-07
2.4e-10,-3.59873e-07
2.41e-10,-4.12889e-07
2.42e-10,-3.02108e-07
2.43e-10,-4.73848e-07
2.44e-10,-2.72187e-07
2.45e-10,-1.82187e-07
2.46e-10,-1.5831e-07
2.47e-10,-6.86441e-07
2.48e-10,-2.30288e-07
2.49e-10,-1.86913e-07
2.5e-10,-3.1414e-07
2.51e-10,-3.33404e-07
2.52e-10,-5.66976e-07
2.53e-10,-2.73667e-07
2.54e-10,-1.72564e-07
2.55e-10,-3.58302e-07
2.56e-10,-3.83728e-07
2.57e-10,-1.4206e-07
2.58e-10,-2.98647e-07
2.59e-10,-5.33378e-07
2.6e-10,4.13595e-08
2.61e-10,-2.77176e-07
2.62e-10,-2.48197e-07
2.63e-10,-4.16073e-07
2.64e-10,-4.64777e-07
2.65e-10,-3.08489e-07
2.66e-10,-2.38243e-07
2.67e-10,-4.68261e-08
2.68e-10,-3.26443e-07
2.69e-10,-2.28725e-07
2.7e-10,-3.2949e-07
2.71e-10,-1.3231e-07
2.72e-10,-4.32061e-07
2.73e-10,-1.28806e-07
2.74e-10,-9.18879e-08
2.75e-10,-1.54077e-07
2.76e-10,-3.91846e-07
2.77e-10,-4.09948e-07
2.78e-10,-6.98857e-08
2.79e-10,-5.66753e-08
2.8e-10,-7.30489e-07
2.81e-10,-2.01605e-07
2.82e-10,-2.49093e-07
2.83e-10,-1.36105e-07
2.84e-10,-1.58266e-07
2.85e-10,-3.33035e-07
2.86e-10,-1.21141e-07
2.87e-10,-2.66835e-07
2.88e-10,-5.84152e-07
2.89e-10,-1.88282e-07
2.9e-10,-3.3389e-07
2.91e-10,-2.17567e-07
2.92e-10,-6.47187e-08
2.93e-10,-4.69027e-07
2.94e-10,-3.90859e-08
2.95e-10,-1.50114e-07
2.96e-10,-1.79893e-07
2.97e-10,-4.08522e-07
2.98e-10,-4.23159e-07
2.99e-10,-1.82643e-08
3e-10,-1.27705e-07
3.01e-10,-2.3665e-07
3.02e-10,-1.42668e-07
3.03e-10,-1.68684e-07
3.04e-10,-1.67735e-07
3.05e-10,-6.32814e-07
3.06e-10,-1.58126e-08
3.07e-10,-2.6167e-07
3.08e-10,-3.78847e-07
3.09e-10,-1.3027e-07
3.1e-10,-3.99882e-07
3.11e-10,-7.20202e-08
3.12e-10,-1.6764e-08
3.13e-10,-3.41859e-07
3.14e-10,-3.46367e-07
3.15e-10,-1.80113e-08
3.16e-10,-6.03639e-08
3.17e-10,-1.58598e-07
3.18e-10,-2.87828e-07
3.19e-10,-4.25579e-07
3.2e-10,-1.265e-08
3.21e-10,-8.78389e-08
3.22e-10,-1.64294e-07
3.23e-10,-2.05e-07
3.24e-10,-1.25798e-07
3.25e-10,-2.25282e-07
3.26e-10,-9.02321e-08
3.27e-10,-1.7887e-07
3.28e-10,-8.56673e-08
3.29e-10,-3.66588e-07
3.3e-10,-1.60352e-07
3.31e-10,-1.98653e-08
3.32e-10,-4.27373e-07
3.33e-10,-6.0217e-08
3.34e-10,-1.10891e-07
3.35e-10,-3.95134e-07
3.36e-10,-8.32407e-08
3.37e-10,1.77932e-08
3.38e-10,-2.43728e-07
3.39e-10,-7.98755e-08
3.4e-10,-2.18484e-07
3.41e-10,-1.65945e-07
3.42e-10,-2.33122e-07
3.43e-10,-5.68711e-08
3.44e-10,-2.87126e-07
3.45e-10,-2.28772e-07
3.46e-10,-1.29286e-07
3.47e-10,-8.25219e-08
3.48e-10,-1.26476e-08
3.49e-10,-3.21314e-07
3.5e-10,-9.02829e-08
3.51e-10,-1.38583e-07
3.52e-10,-1.68834e-07
3.53e-10,-2.09041e-07
3.54e-10,-8.59926e-08
3.55e-10,-2.06889e-07
3.56e-10,4.32076e-08
3.57e-10,-1.21105e-07
3.58e-10,-1.39852e-07
3.59e-10,-2.36705e-07
3.6e-10,-2.47482e-08
3.61e-10,-2.48671e-07
3.62e-10,7.05557e-08
3.63e-10,-2.1493e-07
3.64e-10,-1.83847e-07
3.65e-10,-1.64509e-07
3.66e-10,-3.93679e-07
3.67e-10,-2.28208e-08
3.68e-10,-1.38186e-07
3.69e-10,-1.22837e-07
3.7e-10,-1.85236e-07
3.71e-10,-5.06703e-08
3.72e-10,-1.35554e-07
3.73e-10,-6.13797e-08
3.74e-10,-3.41891e-07
3.75e-10,-2.11054e-07
3.76e-10,-2.91721e-07
3.77e-10,-3.25163e-09
3.78e-10,-4.28295e-08
3.79e-10,-6.69773e-08
3.8e-10,-2.87291e-08
3.81e-10,-7.21127e-08
3.82e-10,-9.08621e-08
3.83e-10,-1.3554e-07
3.84e-10,-7.40518e-08
3.85e-10,-6.02417e-08
3.86e-10,9.74092e-08
3.87e-10,-1.35764e-07
3.88e-10,-1.45029e-07
3.89e-10,-2.49998e-07
3.9e-10,-8.77615e-08
3.91e-10,-6.97917e-08
3.92e-10,-1.20885e-07
3.93e-10,-1.44735e-07
3.94e-10,3.67461e-09
3.95e-10,-2.22392e-07
3.96e-10,-1.61002e-08
3.97e-10,-5.22487e-08
3.98e-10,-1.47836e-07
3.99e-10,-8.45906e-08
4e-10,-5.58151e-08
4.01e-10,-6.41176e-08
4.02e-10,-2.49637e-08
4.03e-10,-1.09282e-07
4.04e-10,-9.97664e-08
4.05e-10,-1.24482e-07
4.06e-10,-1.02082e-07
4.07e-10,-1.33516e-07
4.08e-10,-1.28258e-07
4.09e-10,-1.91114e-07
4.1e-10,-7.59138e-08
4.11e-10,-7.40687e-08
4.12e-10,-5.62811e-08
4.13e-10,-4.69596e-08
4.14e-10,-7.3572e-10
4.15e-10,-1.82953e-07
4.16e-10,-9.94325e-09
4.17e-10,-8.24156e-09
4.18e-10,-1.29609e-07
4.19e-10,-2.64326e-07
4.2e-10,-1.5633e-07
4.21e-10,1.85254e-07
4.22e-10,-2.07844e-07
4.23e-10,3.65497e-08
4.24e-10,-4.26836e-08
4.25e-10,-6.5833e-08
4.26e-10,1.89305e-08
4.27e-10,-1.12824e-07
4.28e-10,-1.59213e-07
4.29e-10,-1.96068e-07
4.3e-10,5.10211e-08
4.31e-10,-1.04715e-07
4.32e-10,-6.33648e-09
4.33e-10,-1.76249e-07
4.34e-10,-1.50328e-07
4.35e-10,-7.83202e-08
4.36e-10,-2.91785e-09
4.37e-10,-3.00508e-08
4.38e-10,-1.83588e-07
4.39e-10,-4.36948e-08
4.4e-10,5.50737e-09
4.41e-10,-2.56086e-07
4.42e-10,9.75457e-08
4.43e-10,2.71797e-09
4.44e-10,-4.6484e-08
4.45e-10,-1.86913e-07
4.46e-10,-1.1673e-07
4.47e-10,-1.3524e-07
4.48e-10,-1.44927e-07
4.49e-10,3.12252e-08
4.5e-10,-1.38915e-07
4.51e-10,-6.23732e-08
4.52e-10,-1.51986e-07
4.53e-10,-2.98471e-08
4.54e-10,-1.19796e-07
4.55e-10,3.48538e-08
4.56e-10,-1.08894e-07
4.57e-10,-4.47029e-08
4.58e-10,-9.33056e-08
4.59e-10,1.01216e-08
4.6e-10,-1.72683e-07
4.61e-10,-1.87681e-07
4.62e-10,-1.16283e-08
4.63e-10,1.23553e-08
4.64e-10,-9.19408e-08
4.65e-10,2.5767e-08
4.66e-10,-1.62668e-08
4.67e-10,-1.66714e-07
4.68e-10,-8.79029e-08
4.69e-10,-2.14842e-07
4.7e-10,5.06092e-08
4.71e-10,7.29374e-08
4.72e-10,-2.56315e-07
4.73e-10,8.49019e-08
4.74e-10,-1.08412e-07
4.75e-10,-1.15918e-07
4.76e-10,-5.90083e-08
4.77e-10,-1.41618e-07
4.78e-10,-4.21498e-08
4.79e-10,3.79242e-09
4.8e-10,-7.41594e-08
4.81e-10,-4.19514e-09
4.82e-10,7.59249e-08
4.83e-10,-2.06965e-07
4.84e-10,3.48976e-08
4.85e-10,-1.6275e-07
4.86e-10,-9.61369e-08
4.87e-10,-9.56013e-08
4.88e-10,1.81644e-08
4.89e-10,-1.09355e-07
4.9e-10,-1.8649e-07
4.91e-10,1.09236e-08
4.92e-10,-2.18003e-08
4.93e-10,-9.70612e-08
4.94e-10,5.57811e-09
4.95e-10,-2.06751e-07
4.96e-10,-5.95372e-08
4.97e-10,3.7202e-09
4.98e-10,-1.54631e-07
4.99e-10,-3.87082e-08
5e-10,2.17497e-08
5.01e-10,-2.51086e-08
5.02e-10,-7.72356e-08
5.03e-10,4.79583e-08
5.04e-10,-5.07028e-08
5.05e-10,-8.68506e-08
5.06e-10,-5.19314e-08
5.07e-10,-1.16359e-07
5.08e-10,-4.46952e-08
5.09e-10,2.0435e-08
5.1e-10,-8.95397e-08
5.11e-10,-1.11759e-07
5.12e-10,-1.47076e-08
5.13e-10,-4.40174e-08
5.14e-10,5.86619e-08
5.15e-10,-5.4948e-08
5.16e-10,-9.16377e-08
5.17e-10,6.53089e-09
5.18e-10,-3.89216e-08
5.19e-10,-1.67141e-08
5.2e-10,-2.21115e-07
5.21e-10,5.11977e-08
5.22e-10,-2.23196e-08
5.23e-10,-6.43161e-08
5.24e-10,-3.32884e-08
5.25e-10,5.37565e-08
5.26e-10,-9.06412e-08
5.27e-10,-2.53536e-08
5.28e-10,-6.37038e-08
5.29e-10,-1.39127e-07
5.3e-10,3.11862e-08
5.31e-10,1.09987e-09
5.32e-10,6.58788e-08
5.33e-10,-1.12206e-07
5.34e-10,-3.4508e-08
5.35e-10,-1.24828e-07
5.36e-10,-3.99968e-08
5.37e-10,4.53288e-08
5.38e-10,-1.08175e-07
5.39e-10,-3.01755e-08
5.4e-10,-1.10084e-07
5.41e-10,-3.02705e-08
5.42e-10,-6.71538e-09
5.43e-10,-1.53086e-09
5.44e-10,-5.28691e-08
5.45e-10,-1.80407e-08
5.46e-10,-1.03515e-08
5.47e-10,-2.0344e-08
5.48e-10,-1.72245e-07
5.49e-10,1.74537e-08
5.5e-10,-5.50991e-08
5.51e-10,-8.83921e-08
5.52e-10,7.43597e-09
5.53e-10,-6.46889e-08
5.54e-10,3.20346e-08
5.55e-10,-5.23191e-08
5.56e-10,-4.20017e-08
5.57e-10,-2.60835e-09
5.58e-10,-5.55447e-08
5.59e-10,-8.49206e-08
5.6e-10,2.36662e-08
5.61e-10,-1.0775e-08
5.62e-10,-1.69756e-07
5.63e-10,-5.78722e-08
5.64e-10,4.82324e-09
5.65e-10,1.74019e-08
5.66e-10,5.84559e-08
5.67e-10,-8.82364e-08
5.68e-10,3.93071e-08
5.69e-10,-1.01224e-07
5.7e-10,-5.6044e-08
5.71e-10,-1.21355e-07
5.72e-10,-3.7609e-09
5.73e-10,-3.48564e-08
5.74e-10,4.78806e-08
5.75e-10,2.236e-08
5.76e-10,-4.32022e-08
5.77e-10,1.72527e-09
5.78e-10,-6.33149e-08
5.79e-10,7.22456e-08
5.8e-10,-1.4018e-07
5.81e-10,-6.82879e-08
5.82e-10,-6.1422e-08
5.83e-10,-6.73531e-08
5.84e-10,2.76768e-08
5.85e-10,-2.46312e-08
5.86e-10,-5.06808e-08
5.87e-10,-3.10975e-08
5.88e-10,-5.96619e-09
5.89e-10,-2.87515e-08
5.9e-10,-3.23092e-08
5.91e-10,2.37727e-08
5.92e-10,-8.0923e-08
5.93e-10,-3.87419e-08
5.94e-10,-1.14843e-07
5.95e-10,1.38929e-09
5.96e-10,-7.32938e-08
5.97e-10,6.85239e-08
5.98e-10,-8.7793e-08
5.99e-10,7.15049e-08
6e-10,-4.59019e-08
6.01e-10,-5.92922e-08
6.02e-10,-8.23953e-08
6.03e-10,2.45821e-08
6.04e-10,-9.76182e-08
6.05e-10,-2.77133e-08
6.06e-10,1.32201e-09
6.07e-10,1.90323e-08
6.08e-10,-5.27152e-08
6.09e-10,-2.98744e-08
6.1e-10,5.39509e-08
6.11e-10,-1.76017e-07
6.12e-10,-5.82553e-08
6.13e-10,-6.02456e-08
6.14e-10,2.88293e-08
6.15e-10,-2.62754e-08
6.16e-10,-5.36921e-08
6.17e-10,-7.70121e-08
6.18e-10,-4.17285e-09
6.19e-10,-4.45907e-08
6.2e-10,-5.05086e-09
6.21e-10,-3.82359e-08
6.22e-10,-8.54966e-08
6.23e-10,6.1439e-08
6.24e-10,-6.70489e-08
6.25e-10,-4.45534e-09
6.26e-10,2.55667e-08
6.27e-10,-9.03043e-08
6.28e-10,-5.57362e-08
6.29e-10,4.18509e-08
6.3e-10,-9.50096e-08
6.31e-10,-4.09358e-09
6.32e-10,-7.7701e-08
6.33e-10,-1.92595e-09
6.34e-10,1.60427e-09
6.35e-10,-6.64046e-08
6.36e-10,-4.25179e-08
6.37e-10,2.8381e-08
6.38e-10,2.14468e-08
6.39e-10,-7.14249e-10
6.4e-10,-4.88833e-08
6.41e-10,-5.22811e-08
6.42e-10,-3.10678e-08
6.43e-10,-3.12878e-08
6.44e-10,-3.14947e-09
6.45e-10,-9.57627e-09
6.46e-10,-1.82849e-07
6.47e-10,3.94755e-08
6.48e-10,5.80578e-09
6.49e-10,-2.57031e-08
6.5e-10,2.51533e-08
6.51e-10,-7.35392e-08
6.52e-10,-1.75579e-08
6.53e-10,-1.89804e-08
6.54e-10,4.19891e-09
6.55e-10,-6.33785e-08
6.56e-10,-4.70966e-08
6.57e-10,-9.91314e-08
6.58e-10,-2.40343e-09
6.59e-10,-2.53014e-09
6.6e-10,7.04832e-09
6.61e-10,1.99253e-08
6.62e-10,-1.30574e-07
6.63e-10,-1.3028e-09
6.64e-10,-6.76799e-08
6.65e-10,-4.07879e-08
6.66e-10,-5.38823e-08
6.67e-10,1.82657e-08
6.68e-10,-2.82955e-08
6.69e-10,-8.10578e-08
6.7e-10,-3.84614e-08
6.71e-10,7.81338e-08
6.72e-10,-1.7702e-07
6.73e-10,2.09895e-08
6.74e-10,-2.91207e-08
6.75e-10,-3.87276e-08
6.76e-10,-1.70152e-08
6.77e-10,-3.09559e-08
6.78e-10,-5.16729e-09
6.79e-10,-1.48966e-07
6.8e-10,4.98461e-08
6.81e-10,-2.28036e-08
6.82e-10,-5.94436e-08
6.83e-10,-2.3874e-09
6.84e-10,-5.28451e-08
6.85e-10,1.29334e-08
6.86e-10,-5.62195e-08
6.87e-10,2.33523e-08
6.88e-10,-3.15616e-08
6.89e-10,-7.74024e-08
6.9e-10,2.69954e-08
6.91e-10,-9.77772e-08
6.92e-10,-6.71869e-08
6.93e-10,-4.04265e-08
6.94e-10,-7.41832e-08
6.95e-10,-4.72383e-08
6.96e-10,-7.01226e-08
6.97e-10,8.44508e-08
6.98e-10,-1.52275e-07
6.99e-10,4.67036e-08
7e-10,1.19839e-09
7.01e-10,-9.45181e-08
7.02e-10,-6.22167e-08
7.03e-10,2.9106e-08
7.04e-10,-1.22384e-07
7.05e-10,6.78021e-09
7.06e-10,-5.42776e-08
7.07e-10,-4.81893e-10
7.08e-10,2.32598e-08
7.09e-10,2.11817e-09
7.1e-10,5.09736e-09
7.11e-10,-4.47985e-08
7.12e-10,-6.65569e-08
7.13e-10,-1.28175e-09
7.14e-10,-6.69234e-08
7.15e-10,-3.2635e-09
7.16e-10,-7.46248e-08
7.17e-10,1.95682e-08
7.18e-10,-6.9444e-08
7.19e-10,1.29717e-08
7.2e-10,-6.44235e-08
7.21e-10,-2.46786e-08
7.22e-10,7.82272e-09
7.23e-10,-5.25939e-08
7.24e-10,-3.1918e-09
7.25e-10,-8.58553e-08
7.26e-10,-2.30655e-09
7.27e-10,-9.48132e-08
7.28e-10,-5.32214e-09
7.29e-10,1.11903e-08
7.3e-10,-6.54158e-08
7.31e-10,3.63426e-08
7.32e-10,-3.84102e-08
7.33e-10,-5.0044e-11
7.34e-10,-3.26039e-08
7.35e-10,-1.48726e-07
7.36e-10,-3.39401e-08
7.37e-10,-1.38474e-08
7.38e-10,-2.61195e-08
7.39e-10,-1.50622e-08
7.4e-10,-2.71999e-08
7.41e-10,-4.3596e-08
7.42e-10,2.16044e-10
7.43e-10,-2.69762e-08
7.44e-10,-2.72437e-09
7.45e-10,1.16421e-09
7.46e-10,6.76779e-09
7.47e-10,-1.42137e-07
7.48e-10,1.9083e-09
7.49e-10,-9.38016e-08
7.5e-10,-6.85428e-09
7.51e-10,2.38557e-08
7.52e-10,-2.69524e-08
7.53e-10,5.37067e-10
7.54e-10,1.2327e-10
7.55e-10,-4.71681e-08
7.56e-10,6.36597e-09
7.57e-10,3.46663e-09
7.58e-10,-1.7084e-07
7.59e-10,3.29033e-09
7.6e-10,-4.32473e-08
7.61e-10,-9.62544e-08
7.62e-10,4.3284e-08
7.63e-10,-8.42626e-10
7.64e-10,-4.59201e-08
7.65e-10,5.17588e-09
7.66e-10,-1.6409e-09
7.67e-10,-2.73897e-09
7.68e-10,-6.38814e-08
7.69e-10,-5.36909e-08
7.7e-10,-1.00664e-07
7.71e-10,-8.40821e-08
7.72e-10,-2.28315e-08
7.73e-10,2.89906e-09
7.74e-10,-1.88692e-09
7.75e-10,6.59996e-10
7.76e-10,-2.16643e-10
7.77e-10,-8.50685e-09
7.78e-10,-1.89091e-08
7.79e-10,-4.25474e-08
7.8e-10,-9.89334e-08
7.81e-10,4.54503e-09
7.82e-10,-1.00599e-07
7.83e-10,-4.40333e-08
7.84e-10,-6.83157e-09
7.85e-10,-5.12988e-08
7.86e-10,-2.52035e-08
7.87e-10,-4.3715e-08
7.88e-10,2.62668e-08
7.89e-10,-6.89213e-08
7.9e-10,-6.22283e-08
7.91e-10,4.48803e-08
7.92e-10,-5.64687e-08
7.93e-10,1.25931e-08
7.94e-10,-8.66187e-08
7.95e-10,4.44882e-09
7.96e-10,-3.70739e-08
7.97e-10,-4.63452e-08
7.98e-10,-8.79287e-09
7.99e-10,-2.03645e-08
8e-10,-2.87688e-08
8.01e-10,-2.87743e-08
8.02e-10,-9.57532e-08
8.03e-10,2.76744e-08
8.04e-10,-2.2073e-08
8.05e-10,-1.33664e-07
8.06e-10,2.57233e-08
8.07e-10,-2.64514e-08
8.08e-10,-4.49524e-08
8.09e-10,-4.11027e-08
8.1e-10,-5.60348e-08
8.11e-10,5.87306e-09
8.12e-10,-7.49101e-08
8.13e-10,-1.26216e-07
8.14e-10,4.18573e-08
8.15e-10,-4.67199e-08
8.16e-10,5.40304e-09
8.17e-10,-4.63854e-09
8.18e-10,-7.68278e-08
8.19e-10,5.03432e-10
8.2e-10,3.30143e-11
8.21e-10,-6.19729e-08
8.22e-10,-1.17748e-07
8.23e-10,-1.2626e-09
8.24e-10,1.77022e-09
8.25e-10,-5.99875e-08
8.26e-10,5.77771e-09
8.27e-10,-3.17315e-08
8.28e-10,-5.28521e-08
8.29e-10,1.34945e-09
8.3e-10,-2.40408e-08
8.31e-10,-6.58276e-08
8.32e-10,-5.23614e-08
8.33e-10,3.0152e-08
8.34e-10,2.39832e-08
8.35e-10,-4.99538e-08
8.36e-10,-4.66056e-08
8.37e-10,-5.59251e-08
8.38e-10,-4.42212e-08
8.39e-10,-5.22838e-08
8.4e-10,-2.17775e-08
8.41e-10,-6.24072e-08
8.42e-10,-2.49852e-08
8.43e-10,-3.29979e-10
8.44e-10,2.56461e-09
8.45e-10,-3.77226e-09
8.46e-10,-7.02279e-08
8.47e-10,-1.65526e-10
8.48e-10,-5.69985e-08
8.49e-10,-3.78842e-09
8.5e-10,-3.9012e-08
8.51e-10,3.45174e-10
8.52e-10,-1.08678e-07
8.53e-10,-1.22106e-09
8.54e-10,1.68904e-09
8.55e-10,3.43206e-09
8.56e-10,-3.04007e-08
8.57e-10,1.36796e-09
8.58e-10,-7.87293e-08
8.59e-10,-5.57397e-09
8.6e-10,-2.37483e-08
8.61e-10,-6.33656e-08
8.62e-10,-5.70263e-08
8.63e-10,-1.97299e-08
8.64e-10,-5.98095e-08
8.65e-10,-5.95189e-08
8.66e-10,7.08545e-09
8.67e-10,3.25127e-09
8.68e-10,1.67296e-09
8.69e-10,-5.92459e-08
8.7e-10,-2.61102e-09
8.71e-10,-1.04794e-07
8.72e-10,-5.19961e-09
8.73e-10,-1.73042e-09
8.74e-10,2.8688e-08
8.75e-10,-1.14274e-07
8.76e-10,1.53751e-10
8.77e-10,-8.04221e-10
8.78e-10,5.96637e-10
8.79e-10,-2.20488e-08
8.8e-10,-2.96237e-10
8.81e-10,-2.84129e-08
8.82e-10,-1.05275e-07
8.83e-10,-1.04281e-07
8.84e-10,-4.339e-08
8.85e-10,-3.83595e-08
8.86e-10,1.92267e-09
8.87e-10,6.26612e-10
8.88e-10,-6.57747e-08
8.89e-10,-4.99267e-10
8.9e-10,1.45587e-09
8.91e-10,5.88862e-09
8.92e-10,-5.72649e-09
8.93e-10,-5.78206e-08
8.94e-10,-7.65615e-08
8.95e-10,-1.08942e-07
8.96e-10,-5.31544e-08
8.97e-10,2.9667e-08
8.98e-10,-6.27443e-10
8.99e-10,-6.9023e-08
9e-10,-2.75947e-08
9.01e-10,-6.24312e-08
9.02e-10,-4.2304e-08
9.03e-10,-3.96146e-08
9.04e-10,-1.96492e-09
9.05e-10,-3.32752e-08
9.06e-10,-5.22963e-08
9.07e-10,-2.01744e-09
9.08e-10,-5.75903e-08
9.09e-10,-4.38019e-08
9.1e-10,-7.02768e-08
9.11e-10,-4.82498e-08
9.12e-10,2.37362e-10
9.13e-10,-3.59876e-08
9.14e-10,2.98331e-08
9.15e-10,-5.89599e-08
9.16e-10,-1.3848e-07
9.17e-10,2.06735e-09
9.18e-10,2.79055e-09
9.19e-10,-8.33596e-10
9.2e-10,-5.97758e-08
9.21e-10,4.43378e-09
9.22e-10,-4.69223e-08
9.23e-10,-3.21182e-09
9.24e-10,-2.82556e-08
9.25e-10,-4.69635e-08
9.26e-10,-2.11491e-08
9.27e-10,-7.15188e-08
9.28e-10,-9.44981e-08
9.29e-10,3.37125e-08
9.3e-10,-9.49277e-08
9.31e-10,1.03584e-10
9.32e-10,-1.09016e-07
9.33e-10,-1.5919e-09
9.34e-10,-4.90321e-08
9.35e-10,-1.19934e-08
9.36e-10,-9.74486e-10
9.37e-10,-2.91805e-08
9.38e-10,-6.16153e-08
9.39e-10,-6.1107e-08
9.4e-10,-2.21219e-10
9.41e-10,-2.14708e-08
9.42e-10,-2.11571e-08
9.43e-10,2.04881e-09
9.44e-10,-1.0941e-07
9.45e-10,2.38486e-08
9.46e-10,-3.35919e-08
9.47e-10,-1.21803e-07
9.48e-10,-4.42175e-08
9.49e-10,-3.90024e-09
9.5e-10,-6.69663e-08
9.51e-10,1.7923e-08
9.52e-10,-7.57944e-09
9.53e-10,5.48105e-09
9.54e-10,-7.70824e-08
9.55e-10,-6.14139e-08
9.56e-10,-5.14113e-09
9.57e-10,-5.5486e-08
9.58e-10,-5.84074e-09
9.59e-10,3.59552e-09
9.6e-10,-1.22252e-07
9.61e-10,4.15317e-08
9.62e-10,-2.28374e-08
9.63e-10,-8.78391e-08
9.64e-10,-1.48216e-07
9.65e-10,2.7594e-08
9.66e-10,-1.04426e-08
9.67e-10,-3.35244e-08
9.68e-10,1.4279e-08
9.69e-10,-1.53884e-08
9.7e-10,1.17209e-08
9.71e-10,2.79778e-08
9.72e-10,-2.49566e-08
9.73e-10,-1.26505e-07
9.74e-10,-1.50217e-07
9.75e-10,-1.74629e-09
9.76e-10,-4.58531e-08
9.77e-10,-4.45103e-09
9.78e-10,-4.27901e-08
9.79e-10,3.61178e-09
9.8e-10,-1.55314e-09
9.81e-10,5.45324e-10
9.82e-10,-4.72748e-08
9.83e-10,-1.09573e-07
9.84e-10,-1.07003e-07
9.85e-10,-4.42704e-08
9.86e-10,2.06097e-09
9.87e-10,-4.6624e-08
9.88e-10,5.45717e-09
9.89e-10,4.42172e-10
9.9e-10,-3.95222e-08
9.91e-10,-1.43366e-09
9.92e-10,-1.76897e-09
9.93e-10,-1.15724e-07
9.94e-10,-1.01891e-07
9.95e-10,1.63516e-08
9.96e-10,-5.44296e-08
9.97e-10,-5.12453e-08
9.98e-10,3.64252e-09
9.99e-10,1.47874e-09
1e-09,3.34868e-09
2.1e-09,0
