0,0
1e-12,-5.25833e-07
2e-12,-6.51727e-07
3e-12,-2.18182e-06
4e-12,-1.33158e-06
5e-12,-1.08614e-06
6e-12,-1.14096e-06
7e-12,-1.61029e-06
8e-12,-7.70305e-07
9e-12,-5.67216e-07
1e-11,-7.78583e-07
1.1e-11,-9.86338e-07
1.2e-11,-7.68818e-07
1.3e-11,-1.09461e-06
1.4e-11,-1.92072e-06
1.5e-11,-2.11748e-06
1.6e-11,-1.61676e-06
1.7e-11,-8.74304e-07
1.8e-11,-6.90101e-07
1.9e-11,-1.03055e-06
2e-11,-5.63628e-07
2.1e-11,-9.60997e-07
2.2e-11,-7.75105e-07
2.3e-11,-1.70508e-06
2.4e-11,-1.57147e-06
2.5e-11,-1.12939e-06
2.6e-11,-1.95895e-06
2.7e-11,-9.10176e-07
2.8e-11,-8.8367e-07
2.9e-11,-4.42108e-07
3e-11,-1.26801e-06
3.1e-11,-1.25556e-06
3.2e-11,-1.0954e-06
3.3e-11,-1.00914e-06
3.4e-11,-9.24542e-07
3.5e-11,-1.37628e-06
3.6e-11,-1.6222e-06
3.7e-11,-1.09389e-06
3.8e-11,-7.60728e-07
3.9e-11,-1.0919e-06
4e-11,-1.50879e-06
4.1e-11,-1.15603e-06
4.2e-11,-8.03411e-07
4.3e-11,-6.92564e-07
4.4e-11,-1.02803e-06
4.5e-11,-1.02983e-06
4.6e-11,-1.28701e-06
4.7e-11,-1.2983e-06
4.8e-11,-1.38076e-06
4.9e-11,-9.37712e-07
5e-11,-1.38867e-06
5.1e-11,-7.27901e-07
5.2e-11,-9.11548e-07
5.3e-11,-4.25944e-07
5.4e-11,-1.25634e-06
5.5e-11,-1.11658e-06
5.6e-11,-9.41061e-07
5.7e-11,-1.36922e-06
5.8e-11,-1.56871e-06
5.9e-11,-1.12403e-06
6e-11,-4.66709e-07
6.1e-11,-9.86818e-07
6.2e-11,-8.57814e-07
6.3e-11,-9.2432e-07
6.4e-11,-6.6068e-07
6.5e-11,-9.52294e-07
6.6e-11,-8.36984e-07
6.7e-11,-1.03018e-06
6.8e-11,-1.25428e-06
6.9e-11,-5.94756e-07
7e-11,-1.14136e-06
7.1e-11,-7.02792e-07
7.2e-11,-9.79978e-07
7.3e-11,-7.14934e-07
7.4e-11,-5.49669e-07
7.5e-11,-7.29401e-07
7.6e-11,-1.16766e-06
7.7e-11,-5.20062e-07
7.8e-11,-8.49244e-07
7.9e-11,-6.87122e-07
8e-11,-1.15758e-06
8.1e-11,-1.06008e-06
8.2e-11,-9.44019e-07
8.3e-11,-4.65267e-07
8.4e-11,-8.30738e-07
8.5e-11,-6.17343e-07
8.6e-11,-8.50285e-07
8.7e-11,-1.25774e-06
8.8e-11,-7.62846e-07
8.9e-11,-7.42246e-07
9e-11,-9.89996e-07
9.1e-11,-7.27843e-07
9.2e-11,-8.56288e-07
9.3e-11,-3.51613e-07
9.4e-11,-1.02223e-06
9.5e-11,-6.25423e-07
9.6e-11,-8.88861e-07
9.7e-11,-1.0638e-06
9.8e-11,-1.09107e-06
9.9e-11,-6.74656e-07
1e-10,-4.34769e-07
1.01e-10,-6.2802e-07
1.02e-10,-8.06449e-07
1.03e-10,-7.91407e-07
1.04e-10,-5.35234e-07
1.05e-10,-5.77178e-07
1.06e-10,-8.25128e-07
1.07e-10,-8.399e-07
1.08e-10,-6.0097e-07
1.09e-10,-5.15353e-07
1.1e-10,-5.52794e-07
1.11e-10,-1.15904e-06
1.12e-10,-5.68396e-07
1.13e-10,-1.00864e-06
1.14e-10,-4.23651e-07
1.15e-10,-4.57215e-07
1.16e-10,-6.68118e-07
1.17e-10,-4.09658e-07
1.18e-10,-4.76594e-07
1.19e-10,-1.05548e-06
1.2e-10,-3.53993e-07
1.21e-10,-9.46625e-07
1.22e-10,-8.27172e-07
1.23e-10,-6.17536e-07
1.24e-10,-6.42178e-07
1.25e-10,-4.55132e-07
1.26e-10,-2.63202e-07
1.27e-10,-5.22006e-07
1.28e-10,-6.73487e-07
1.29e-10,-5.95841e-07
1.3e-10,-4.72306e-07
1.31e-10,-7.52341e-07
1.32e-10,-8.84557e-07
1.33e-10,-4.96618e-07
1.34e-10,-4.02646e-07
1.35e-10,-8.66567e-07
1.36e-10,-6.40974e-07
1.37e-10,-3.45556e-07
1.38e-10,-5.9039e-07
1.39e-10,-4.9095e-07
1.4e-10,-4.14857e-07
1.41e-10,-6.67826e-07
1.42e-10,-7.2154e-07
1.43e-10,-4.6558e-07
1.44e-10,-5.1872e-07
1.45e-10,-6.10022e-07
1.46e-10,-6.06646e-07
1.47e-10,-7.66455e-07
1.48e-10,-4.3505e-07
1.49e-10,-6.19207e-07
1.5e-10,-3.80056e-07
1.51e-10,-3.279e-07
1.52e-10,-6.03095e-07
1.53e-10,-5.25951e-07
1.54e-10,-5.29916e-07
1.55e-10,-3.98033e-07
1.56e-10,-6.44218e-07
1.57e-10,-5.15856e-07
1.58e-10,-7.216e-07
1.59e-10,-5.37674e-07
1.6e-10,-4.92748e-07
1.61e-10,-4.60573e-07
1.62e-10,-5.05465e-07
1.63e-10,-4.95997e-07
1.64e-10,-4.68583e-07
1.65e-10,-3.20693e-07
1.66e-10,-8.6117e-07
1.67e-10,-6.08849e-07
1.68e-10,-3.46231e-07
1.69e-10,-7.86988e-07
1.7e-10,-3.33488e-07
1.71e-10,-5.12862e-07
1.72e-10,-4.1259e-07
1.73e-10,-7.28941e-07
1.74e-10,-2.60516e-07
1.75e-10,-5.14971e-07
1.76e-10,-5.75285e-07
1.77e-10,-4.42132e-07
1.78e-10,-3.58545e-07
1.79e-10,-7.88519e-07
1.8e-10,-3.70463e-07
1.81e-10,-5.02876e-07
1.82e-10,-7.57803e-07
1.83e-10,-5.46843e-07
1.84e-10,-5.94151e-07
1.85e-10,-3.42683e-07
1.86e-10,-4.50788e-07
1.87e-10,-4.46106e-07
1.88e-10,-4.33236e-07
1.89e-10,-4.37096e-07
1.9e-10,-4.20172e-07
1.91e-10,-6.41087e-07
1.92e-10,-3.57401e-07
1.93e-10,-4.88548e-07
1.94e-10,-4.78805e-07
1.95e-10,-3.40733e-07
1.96e-10,-6.52741e-07
1.97e-10,-4.41628e-07
1.98e-10,-7.01621e-07
1.99e-10,-2.23955e-07
2e-10,-5.95839e-07
2.01e-10,-1.29929e-07
2.02e-10,-5.10095e-07
2.03e-10,-2.2892e-07
2.04e-10,-6.19063e-07
2.05e-10,-4.0104e-07
2.06e-10,-7.74526e-07
2.07e-10,-2.89597e-07
2.08e-10,-6.14028e-07
2.09e-10,-2.98146e-07
2.1e-10,-2.29413e-07
2.11e-10,-2.90709e-07
2.12e-10,-3.22872e-07
2.13e-10,-4.19534e-07
2.14e-10,-7.3907e-07
2.15e-10,-3.28865e-07
2.16e-10,-4.39768e-07
2.17e-10,-4.09033e-07
2.18e-10,-7.25647e-07
2.19e-10,-9.9321e-08
2.2e-10,-5.78419e-07
2.21e-10,-3.97672e-07
2.22e-10,-4.90384e-07
2.23e-10,-5.01994e-07
2.24e-10,-2.70806e-07
2.25e-10,-2.57316e-07
2.26e-10,-3.90778e-07
2.27e-10,-1.98261e-07
2.28e-10,-4.69864e-07
2.29e-10,-2.88493e-07
2.3e-10,-6.05475e-07
2.31e-10,-4.30722e-07
2.32e-10,-3.28406e-07
2.33e-10,-6.48751e-07
2.34e-10,-4.88767e-07
2.35e-10,-2.53892e-07
2.36e-10,-3.23347e-07
2.37e-10,-2.32229e-07
2.38e-10,-2.89235e-07
2.39e-10,-2.95077e-07
2.4e-10,-4.55937e-07
2.41e-10,-2.52192e-07
2.42e-10,-5.17422e-07
2.43e-10,-4.96051e-07
2.44e-10,-5.28702e-07
2.45e-10,-4.20483e-07
2.46e-10,-3.8665e-07
2.47e-10,-4.91023e-07
2.48e-10,-2.02612e-07
2.49e-10,-2.3697e-07
2.5e-10,-5.70307e-07
2.51e-10,-3.58347e-07
2.52e-10,-4.62529e-07
2.53e-10,-3.60376e-07
2.54e-10,-6.30978e-08
2.55e-10,-3.74251e-07
2.56e-10,-1.29156e-07
2.57e-10,-3.42958e-07
2.58e-10,-4.32615e-07
2.59e-10,-3.63029e-07
2.6e-10,-6.34024e-07
2.61e-10,-4.56886e-07
2.62e-10,-6.18174e-07
2.63e-10,-2.06185e-07
2.64e-10,-2.77932e-07
2.65e-10,-3.4023e-07
2.66e-10,-1.69819e-07
2.67e-10,-3.52226e-07
2.68e-10,-4.45387e-07
2.69e-10,-6.26013e-08
2.7e-10,-6.50456e-07
2.71e-10,-3.7466e-07
2.72e-10,-1.37089e-07
2.73e-10,-3.21869e-07
2.74e-10,-2.90799e-07
2.75e-10,-1.34436e-07
2.76e-10,-1.22093e-07
2.77e-10,-3.18136e-07
2.78e-10,-2.30184e-07
2.79e-10,-1.77216e-07
2.8e-10,-4.64748e-07
2.81e-10,-4.10002e-07
2.82e-10,-2.85423e-07
2.83e-10,-2.20314e-07
2.84e-10,-4.32923e-07
2.85e-10,-3.15415e-07
2.86e-10,-3.8878e-07
2.87e-10,-6.17455e-07
2.88e-10,-3.33661e-07
2.89e-10,-4.40687e-07
2.9e-10,-2.38274e-07
2.91e-10,-3.25212e-07
2.92e-10,-1.10845e-07
2.93e-10,-4.55017e-07
2.94e-10,-4.00497e-07
2.95e-10,-4.84169e-07
2.96e-10,-2.04286e-07
2.97e-10,-3.25881e-07
2.98e-10,5.7276e-08
2.99e-10,-1.67636e-07
3e-10,-4.01765e-07
3.01e-10,-3.42176e-07
3.02e-10,-5.27377e-07
3.03e-10,-5.47875e-07
3.04e-10,-3.77176e-07
3.05e-10,-1.14134e-07
3.06e-10,-4.18978e-07
3.07e-10,-2.29707e-07
3.08e-10,-2.44868e-08
3.09e-10,-3.02179e-07
3.1e-10,-1.85338e-07
3.11e-10,-4.81962e-07
3.12e-10,-5.1673e-07
3.13e-10,-3.62091e-07
3.14e-10,-2.39852e-07
3.15e-10,-2.83982e-07
3.16e-10,-1.73638e-07
3.17e-10,-8.41578e-08
3.18e-10,-3.05651e-07
3.19e-10,-4.81968e-07
3.2e-10,-3.25007e-07
3.21e-10,-3.01036e-07
3.22e-10,-3.56819e-07
3.23e-10,-3.51342e-07
3.24e-10,-3.84391e-08
3.25e-10,-1.42495e-07
3.26e-10,-3.01657e-07
3.27e-10,-3.88547e-07
3.28e-10,-1.87441e-07
3.29e-10,-4.34936e-07
3.3e-10,-4.26812e-07
3.31e-10,-5.1732e-07
3.32e-10,-2.40133e-07
3.33e-10,-3.61316e-07
3.34e-10,-5.04602e-08
3.35e-10,-1.94268e-07
3.36e-10,-2.61556e-07
3.37e-10,-1.10151e-07
3.38e-10,-5.42238e-07
3.39e-10,-5.76392e-07
3.4e-10,-2.13108e-07
3.41e-10,-2.07396e-07
3.42e-10,-3.03016e-07
3.43e-10,-1.88443e-07
3.44e-10,-2.71508e-07
3.45e-10,-2.90435e-07
3.46e-10,-4.14016e-07
3.47e-10,-2.66801e-07
3.48e-10,-4.91034e-07
3.49e-10,2.86265e-08
3.5e-10,-4.92557e-07
3.51e-10,-8.09311e-08
3.52e-10,-1.71483e-07
3.53e-10,-2.90504e-07
3.54e-10,-3.01546e-07
3.55e-10,-1.16195e-07
3.56e-10,-3.13169e-07
3.57e-10,-1.82195e-07
3.58e-10,-1.88925e-07
3.59e-10,-2.42876e-07
3.6e-10,-1.80296e-07
3.61e-10,-3.27293e-07
3.62e-10,-2.36274e-07
3.63e-10,-2.11967e-07
3.64e-10,-3.6884e-07
3.65e-10,-2.27651e-07
3.66e-10,-2.31673e-07
3.67e-10,-6.92771e-08
3.68e-10,-2.16261e-07
3.69e-10,-2.61569e-07
3.7e-10,-2.98337e-07
3.71e-10,-1.50493e-07
3.72e-10,-3.05613e-07
3.73e-10,-9.89161e-08
3.74e-10,-3.62418e-07
3.75e-10,-1.49663e-07
3.76e-10,-3.57668e-07
3.77e-10,-2.06435e-07
3.78e-10,-2.64783e-07
3.79e-10,-7.74248e-08
3.8e-10,-2.65036e-07
3.81e-10,-1.03953e-07
3.82e-10,-2.12578e-07
3.83e-10,-1.86748e-07
3.84e-10,-2.72109e-07
3.85e-10,-2.85932e-07
3.86e-10,5.66999e-08
3.87e-10,-2.64965e-07
3.88e-10,-1.63051e-07
3.89e-10,-3.13685e-07
3.9e-10,-2.57599e-08
3.91e-10,-1.77082e-07
3.92e-10,-3.81664e-07
3.93e-10,-2.29195e-07
3.94e-10,-1.50742e-07
3.95e-10,-1.89691e-07
3.96e-10,-3.4949e-07
3.97e-10,-1.85318e-07
3.98e-10,3.84555e-08
3.99e-10,-7.02805e-08
4e-10,-1.15542e-07
4.01e-10,-2.86314e-07
4.02e-10,-2.56514e-07
4.03e-10,-2.49197e-07
4.04e-10,-1.98019e-07
4.05e-10,-2.26429e-07
4.06e-10,-1.40717e-07
4.07e-10,-1.42921e-07
4.08e-10,-9.72239e-08
4.09e-10,7.13865e-08
4.1e-10,-1.72783e-07
4.11e-10,-1.89118e-07
4.12e-10,-3.43143e-07
4.13e-10,-2.61842e-07
4.14e-10,1.42488e-08
4.15e-10,-2.87884e-07
4.16e-10,-1.67347e-07
4.17e-10,-6.95022e-08
4.18e-10,-1.37958e-07
4.19e-10,-1.4058e-07
4.2e-10,-2.72878e-07
4.21e-10,-4.29781e-07
4.22e-10,-5.59991e-08
4.23e-10,-9.08722e-08
4.24e-10,-5.60471e-08
4.25e-10,-2.04273e-07
4.26e-10,-1.35359e-07
4.27e-10,-9.21602e-08
4.28e-10,-2.04109e-07
4.29e-10,-3.42809e-07
4.3e-10,2.41402e-09
4.31e-10,-1.95086e-07
4.32e-10,3.96901e-08
4.33e-10,-1.70625e-07
4.34e-10,-1.98228e-07
4.35e-10,-2.09352e-07
4.36e-10,-2.1805e-07
4.37e-10,-9.86588e-08
4.38e-10,-2.94483e-07
4.39e-10,-1.38067e-07
4.4e-10,-7.55474e-08
4.41e-10,-1.58377e-07
4.42e-10,-1.98965e-07
4.43e-10,-9.66929e-08
4.44e-10,-2.09355e-07
4.45e-10,-7.70259e-08
4.46e-10,-3.36492e-07
4.47e-10,-2.22825e-07
4.48e-10,-1.22418e-07
4.49e-10,-1.47052e-07
4.5e-10,4.60943e-08
4.51e-10,2.74581e-08
4.52e-10,-1.64023e-07
4.53e-10,-2.03462e-07
4.54e-10,-3.21765e-07
4.55e-10,-3.66194e-08
4.56e-10,-2.04293e-07
4.57e-10,-1.6292e-07
4.58e-10,-2.50938e-07
4.59e-10,-5.76676e-08
4.6e-10,-1.05252e-07
4.61e-10,-2.83528e-07
4.62e-10,-5.97945e-08
4.63e-10,-1.96652e-07
4.64e-10,-2.35325e-07
4.65e-10,-1.59052e-07
4.66e-10,-2.64512e-07
4.67e-10,-6.44932e-08
4.68e-10,-1.39499e-07
4.69e-10,-1.54451e-07
4.7e-10,-1.33862e-07
4.71e-10,-7.91182e-08
4.72e-10,-5.17242e-08
4.73e-10,-2.35053e-07
4.74e-10,-6.24043e-08
4.75e-10,-1.34954e-07
4.76e-10,-2.97965e-07
4.77e-10,-1.47912e-07
4.78e-10,-9.58314e-08
4.79e-10,-2.98091e-07
4.8e-10,-6.50179e-08
4.81e-10,-7.38689e-08
4.82e-10,-1.41951e-07
4.83e-10,-1.55958e-07
4.84e-10,-7.85016e-08
4.85e-10,-6.68623e-08
4.86e-10,-2.33893e-07
4.87e-10,-2.92736e-07
4.88e-10,-2.39622e-07
4.89e-10,2.2325e-08
4.9e-10,-1.40335e-07
4.91e-10,-2.37557e-07
4.92e-10,-1.06149e-07
4.93e-10,-1.66783e-07
4.94e-10,-2.08199e-07
4.95e-10,1.09181e-07
4.96e-10,-2.26747e-07
4.97e-10,-7.22367e-09
4.98e-10,-2.51681e-07
4.99e-10,-8.59407e-08
5e-10,-1.74472e-07
5.01e-10,-4.37823e-08
5.02e-10,-9.46306e-08
5.03e-10,-9.42078e-08
5.04e-10,-2.58598e-07
5.05e-10,-1.93343e-07
5.06e-10,-2.43855e-07
5.07e-10,-5.39894e-08
5.08e-10,-7.42635e-08
5.09e-10,6.86982e-09
5.1e-10,-1.27527e-07
5.11e-10,-1.89466e-07
5.12e-10,-5.71212e-08
5.13e-10,-3.04355e-07
5.14e-10,-1.93012e-07
5.15e-10,-3.45471e-08
5.16e-10,-3.861e-07
5.17e-10,-9.61855e-09
5.18e-10,-7.9138e-08
5.19e-10,-7.75614e-08
5.2e-10,-9.07678e-08
5.21e-10,-1.05227e-07
5.22e-10,-9.49864e-08
5.23e-10,-8.87588e-08
5.24e-10,-1.29688e-07
5.25e-10,-4.58976e-07
5.26e-10,-1.07761e-07
5.27e-10,-8.93755e-08
5.28e-10,-1.32271e-07
5.29e-10,-7.63286e-09
5.3e-10,-2.33222e-07
5.31e-10,-9.97865e-08
5.32e-10,-1.52536e-07
5.33e-10,-1.91973e-07
5.34e-10,2.86173e-08
5.35e-10,-1.27227e-07
5.36e-10,-1.99904e-07
5.37e-10,-1.67608e-07
5.38e-10,-1.72265e-07
5.39e-10,-4.41408e-08
5.4e-10,-2.26218e-07
5.41e-10,-1.13679e-07
5.42e-10,-1.41861e-07
5.43e-10,-8.6831e-08
5.44e-10,-8.75993e-09
5.45e-10,-1.04963e-07
5.46e-10,-1.4194e-07
5.47e-10,-1.24719e-07
5.48e-10,-1.80778e-07
5.49e-10,-8.45763e-08
5.5e-10,-1.24143e-07
5.51e-10,-1.82589e-07
5.52e-10,-7.77828e-08
5.53e-10,-7.56762e-08
5.54e-10,-2.84526e-07
5.55e-10,-8.30948e-08
5.56e-10,-5.39595e-08
5.57e-10,-1.35905e-07
5.58e-10,-2.39746e-07
5.59e-10,-2.60546e-08
5.6e-10,1.20104e-08
5.61e-10,-2.0114e-07
5.62e-10,-1.6728e-07
5.63e-10,-3.94883e-08
5.64e-10,-1.97296e-07
5.65e-10,-1.87002e-07
5.66e-10,-4.09306e-08
5.67e-10,-2.35481e-07
5.68e-10,-7.57828e-08
5.69e-10,-1.70195e-07
5.7e-10,-4.49994e-08
5.71e-10,-8.1413e-08
5.72e-10,-6.64347e-08
5.73e-10,-3.16054e-07
5.74e-10,-1.44002e-07
5.75e-10,-2.99196e-07
5.76e-10,-5.33131e-08
5.77e-10,-1.35643e-07
5.78e-10,-1.15642e-07
5.79e-10,-1.9114e-07
5.8e-10,-2.75074e-08
5.81e-10,-6.47533e-08
5.82e-10,-1.42745e-07
5.83e-10,-2.1937e-07
5.84e-10,-2.08194e-08
5.85e-10,-2.05299e-07
5.86e-10,-1.90617e-07
5.87e-10,-9.81638e-08
5.88e-10,-1.33438e-07
5.89e-10,-3.03535e-07
5.9e-10,-6.37396e-08
5.91e-10,-9.50607e-08
5.92e-10,-1.41881e-07
5.93e-10,-4.23473e-08
5.94e-10,-2.66856e-08
5.95e-10,-1.70984e-07
5.96e-10,-3.35904e-07
5.97e-10,-1.08272e-07
5.98e-10,-1.44554e-07
5.99e-10,-2.23901e-07
6e-10,-2.84181e-07
6.01e-10,-1.34088e-08
6.02e-10,-1.51103e-07
6.03e-10,-4.87769e-08
6.04e-10,-1.33528e-09
6.05e-10,3.1075e-08
6.06e-10,-2.66984e-07
6.07e-10,-2.45956e-07
6.08e-10,-2.14539e-07
6.09e-10,-4.28358e-08
6.1e-10,-1.71498e-07
6.11e-10,-6.40518e-08
6.12e-10,-1.07554e-07
6.13e-10,-2.38567e-07
6.14e-10,-2.90452e-08
6.15e-10,-5.99429e-08
6.16e-10,-1.41841e-07
6.17e-10,-2.4493e-07
6.18e-10,-5.13055e-08
6.19e-10,-9.35947e-08
6.2e-10,-1.14255e-07
6.21e-10,-1.43265e-07
6.22e-10,-2.56572e-07
6.23e-10,-9.04163e-08
6.24e-10,-1.36258e-07
6.25e-10,-4.44428e-08
6.26e-10,-6.36021e-08
6.27e-10,-1.22741e-07
6.28e-10,-2.3895e-07
6.29e-10,-5.0611e-08
6.3e-10,-9.10323e-08
6.31e-10,-3.24429e-08
6.32e-10,-2.79692e-07
6.33e-10,-2.25234e-07
6.34e-10,-7.12699e-08
6.35e-10,-7.8738e-08
6.36e-10,-1.36181e-07
6.37e-10,-1.21962e-07
6.38e-10,-1.23051e-07
6.39e-10,-1.08163e-07
6.4e-10,-4.73538e-08
6.41e-10,-1.82005e-07
6.42e-10,-1.52236e-07
6.43e-10,-1.51073e-07
6.44e-10,-1.354e-07
6.45e-10,-1.89272e-07
6.46e-10,-2.55841e-07
6.47e-10,-8.25816e-08
6.48e-10,-3.11278e-08
6.49e-10,-2.97711e-08
6.5e-10,-2.1667e-07
6.51e-10,-2.50144e-07
6.52e-10,-3.14068e-08
6.53e-10,-4.18782e-08
6.54e-10,-1.02419e-07
6.55e-10,-3.6379e-08
6.56e-10,-3.42981e-07
6.57e-10,-2.45991e-07
6.58e-10,-2.84149e-07
6.59e-10,-4.86165e-08
6.6e-10,-9.16877e-08
6.61e-10,-2.67983e-07
6.62e-10,-1.46956e-07
6.63e-10,-7.77105e-08
6.64e-10,-1.5218e-07
6.65e-10,-6.07808e-08
6.66e-10,-9.74292e-08
6.67e-10,-2.81825e-07
6.68e-10,-1.72665e-07
6.69e-10,-1.12799e-07
6.7e-10,-1.62763e-07
6.71e-10,-6.97985e-08
6.72e-10,-1.33445e-07
6.73e-10,-3.40149e-07
6.74e-10,-4.04304e-08
6.75e-10,-1.07109e-08
6.76e-10,-5.73002e-08
6.77e-10,-1.59498e-07
6.78e-10,-2.29479e-07
6.79e-10,-1.10255e-07
6.8e-10,-1.47606e-07
6.81e-10,-1.6378e-07
6.82e-10,-7.91306e-08
6.83e-10,-1.68426e-07
6.84e-10,-1.74365e-07
6.85e-10,-1.97604e-07
6.86e-10,4.28022e-08
6.87e-10,-1.43393e-07
6.88e-10,-1.67996e-07
6.89e-10,-1.21032e-07
6.9e-10,-1.28872e-07
6.91e-10,-1.24015e-07
6.92e-10,-1.47248e-07
6.93e-10,-8.64059e-08
6.94e-10,-2.10844e-08
6.95e-10,-1.95132e-07
6.96e-10,-2.25907e-07
6.97e-10,-3.66706e-08
6.98e-10,6.09878e-08
6.99e-10,-2.72924e-07
7e-10,-1.79372e-07
7.01e-10,-1.03424e-07
7.02e-10,-8.60683e-08
7.03e-10,-2.1516e-07
7.04e-10,-9.79522e-08
7.05e-10,-5.32154e-08
7.06e-10,-2.60427e-07
7.07e-10,-3.04262e-08
7.08e-10,-7.56362e-08
7.09e-10,1.52527e-08
7.1e-10,-3.27591e-07
7.11e-10,7.2394e-09
7.12e-10,-1.11159e-07
7.13e-10,-3.29337e-07
7.14e-10,-4.11492e-08
7.15e-10,-2.41854e-07
7.16e-10,-1.2847e-07
7.17e-10,-1.16863e-07
7.18e-10,-1.84828e-07
7.19e-10,-5.99122e-08
7.2e-10,-2.09778e-07
7.21e-10,3.20674e-10
7.22e-10,-4.43837e-07
7.23e-10,-8.80986e-08
7.24e-10,-1.23402e-07
7.25e-10,-6.7258e-10
7.26e-10,-4.91331e-08
7.27e-10,-1.49796e-07
7.28e-10,-2.62426e-08
7.29e-10,-3.15301e-07
7.3e-10,-8.17708e-08
7.31e-10,-2.35558e-07
7.32e-10,-1.0499e-07
7.33e-10,-2.45349e-07
7.34e-10,-9.44054e-08
7.35e-10,-1.03216e-07
7.36e-10,-5.12779e-08
7.37e-10,-1.64985e-07
7.38e-10,-1.64246e-07
7.39e-10,-3.80278e-09
7.4e-10,-2.47589e-07
7.41e-10,-1.43757e-07
7.42e-10,-1.45486e-07
7.43e-10,-1.80044e-07
7.44e-10,5.24704e-08
7.45e-10,-8.93871e-08
7.46e-10,-1.63842e-07
7.47e-10,-6.61923e-08
7.48e-10,-1.25814e-07
7.49e-10,-1.60002e-07
7.5e-10,-4.53947e-08
7.51e-10,-1.62753e-07
7.52e-10,-1.60004e-07
7.53e-10,-2.79668e-07
7.54e-10,-1.92425e-07
7.55e-10,-1.74778e-07
7.56e-10,-5.62933e-08
7.57e-10,-1.28558e-07
7.58e-10,-1.19739e-07
7.59e-10,-1.52162e-07
7.6e-10,-3.74637e-08
7.61e-10,-1.74828e-08
7.62e-10,-1.51637e-07
7.63e-10,-5.45999e-09
7.64e-10,-2.6798e-07
7.65e-10,-5.55079e-08
7.66e-10,-3.64362e-07
7.67e-10,-9.44847e-08
7.68e-10,-1.33034e-07
7.69e-10,-3.4987e-08
7.7e-10,4.49787e-10
7.71e-10,-1.19834e-07
7.72e-10,-9.83575e-08
7.73e-10,-6.06313e-08
7.74e-10,-2.09592e-07
7.75e-10,-1.6131e-07
7.76e-10,-2.67286e-07
7.77e-10,-2.4988e-07
7.78e-10,-8.40293e-08
7.79e-10,-2.1401e-08
7.8e-10,-1.15747e-07
7.81e-10,-2.59452e-08
7.82e-10,-4.52198e-08
7.83e-10,-1.30981e-07
7.84e-10,-8.47425e-08
7.85e-10,-4.45104e-08
7.86e-10,-3.03444e-07
7.87e-10,-1.19451e-07
7.88e-10,-6.32167e-08
7.89e-10,-3.48292e-07
7.9e-10,7.53536e-08
7.91e-10,-1.7897e-07
7.92e-10,-1.77266e-07
7.93e-10,-8.92668e-08
7.94e-10,-1.16862e-07
7.95e-10,-6.28109e-08
7.96e-10,-7.24369e-08
7.97e-10,-1.67364e-07
7.98e-10,-1.36021e-07
7.99e-10,-5.15138e-08
8e-10,-1.66069e-07
8.01e-10,-1.59392e-08
8.02e-10,-7.80074e-08
8.03e-10,-1.24279e-07
8.04e-10,-1.59055e-07
8.05e-10,-1.17138e-07
8.06e-10,-1.01973e-07
8.07e-10,-5.18517e-08
8.08e-10,-1.45101e-07
8.09e-10,-1.83416e-07
8.1e-10,-1.03588e-07
8.11e-10,-1.86576e-07
8.12e-10,-1.5096e-07
8.13e-10,-1.32525e-07
8.14e-10,-5.71103e-08
8.15e-10,-2.57592e-07
8.16e-10,-1.7433e-07
8.17e-10,-7.90162e-08
8.18e-10,-1.40542e-07
8.19e-10,-6.71128e-08
8.2e-10,-2.40804e-07
8.21e-10,-1.18171e-07
8.22e-10,-3.72708e-08
8.23e-10,-7.85544e-08
8.24e-10,-5.46483e-08
8.25e-10,-9.27749e-08
8.26e-10,-1.4423e-07
8.27e-10,-2.02186e-07
8.28e-10,-1.73664e-07
8.29e-10,-2.2571e-07
8.3e-10,-1.65703e-07
8.31e-10,-1.61183e-07
8.32e-10,-2.31555e-08
8.33e-10,4.93623e-08
8.34e-10,-5.24742e-08
8.35e-10,-2.33808e-07
8.36e-10,-1.47702e-07
8.37e-10,-1.0665e-07
8.38e-10,-2.66176e-07
8.39e-10,-1.08902e-07
8.4e-10,-2.18431e-07
8.41e-10,-9.6604e-08
8.42e-10,-4.3145e-08
8.43e-10,-5.13727e-08
8.44e-10,-6.43092e-08
8.45e-10,-1.15212e-07
8.46e-10,-2.5028e-07
8.47e-10,-1.06917e-07
8.48e-10,-9.21585e-08
8.49e-10,-2.99274e-07
8.5e-10,-1.38738e-07
8.51e-10,-8.35373e-08
8.52e-10,-6.45641e-08
8.53e-10,-3.27977e-07
8.54e-10,-4.13956e-09
8.55e-10,-1.44083e-07
8.56e-10,-2.27791e-07
8.57e-10,-5.42122e-08
8.58e-10,-9.61588e-08
8.59e-10,-1.03844e-07
8.6e-10,-1.96345e-07
8.61e-10,-6.03858e-08
8.62e-10,-1.07568e-07
8.63e-10,-2.58212e-07
8.64e-10,-2.11276e-07
8.65e-10,2.10119e-08
8.66e-10,-5.90657e-08
8.67e-10,-1.59645e-07
8.68e-10,-7.74265e-08
8.69e-10,-8.88649e-08
8.7e-10,-1.32199e-07
8.71e-10,-4.40688e-07
8.72e-10,-1.8484e-07
8.73e-10,-8.25197e-08
8.74e-10,-9.59394e-08
8.75e-10,-1.36306e-07
8.76e-10,-7.73646e-08
8.77e-10,-2.96168e-08
8.78e-10,-1.93835e-07
8.79e-10,-1.08402e-07
8.8e-10,-9.21376e-08
8.81e-10,-1.26583e-07
8.82e-10,-1.57727e-07
8.83e-10,-1.29484e-07
8.84e-10,-1.19399e-07
8.85e-10,-1.88771e-07
8.86e-10,9.60695e-09
8.87e-10,-4.50701e-08
8.88e-10,-9.47627e-08
8.89e-10,-2.46564e-07
8.9e-10,-1.29433e-07
8.91e-10,-5.6552e-08
8.92e-10,-2.96655e-07
8.93e-10,-1.05163e-07
8.94e-10,-1.30346e-07
8.95e-10,-1.40244e-07
8.96e-10,-9.34539e-08
8.97e-10,-3.75497e-08
8.98e-10,-1.24689e-07
8.99e-10,-8.52444e-08
9e-10,-9.08765e-08
9.01e-10,-2.36525e-07
9.02e-10,-6.43933e-08
9.03e-10,-1.23465e-07
9.04e-10,-2.52496e-07
9.05e-10,-1.68057e-07
9.06e-10,-2.02339e-07
9.07e-10,-9.49506e-08
9.08e-10,-7.92828e-09
9.09e-10,-2.12079e-08
9.1e-10,-8.68845e-08
9.11e-10,-1.55207e-07
9.12e-10,-1.62643e-08
9.13e-10,-1.48891e-07
9.14e-10,-2.35214e-07
9.15e-10,-3.14182e-07
9.16e-10,-4.44146e-08
9.17e-10,4.21785e-08
9.18e-10,-1.11172e-07
9.19e-10,-1.93906e-07
9.2e-10,-2.69542e-08
9.21e-10,-8.46453e-08
9.22e-10,-4.07989e-08
9.23e-10,-1.26912e-07
9.24e-10,-5.57395e-08
9.25e-10,-2.63504e-07
9.26e-10,-5.63215e-08
9.27e-10,-5.90494e-08
9.28e-10,-8.40702e-08
9.29e-10,-6.81819e-08
9.3e-10,-7.86229e-08
9.31e-10,-1.40085e-07
9.32e-10,-1.28762e-07
9.33e-10,-2.37347e-07
9.34e-10,-1.27043e-07
9.35e-10,-6.67668e-08
9.36e-10,-1.4837e-07
9.37e-10,-2.08565e-07
9.38e-10,-6.35502e-10
9.39e-10,-2.92208e-08
9.4e-10,-1.84259e-07
9.41e-10,-7.46285e-08
9.42e-10,-8.99279e-08
9.43e-10,-8.45251e-08
9.44e-10,-1.68426e-07
9.45e-10,2.57221e-08
9.46e-10,-7.24642e-08
9.47e-10,-1.18434e-07
9.48e-10,-1.74101e-07
9.49e-10,-2.30526e-07
9.5e-10,-7.22189e-08
9.51e-10,-6.8122e-08
9.52e-10,-1.15462e-07
9.53e-10,-3.34968e-08
9.54e-10,-8.96276e-08
9.55e-10,-1.14169e-07
9.56e-10,-1.16724e-07
9.57e-10,-1.39521e-07
9.58e-10,-1.78136e-07
9.59e-10,-1.93781e-07
9.6e-10,-8.92397e-08
9.61e-10,-5.58944e-09
9.62e-10,-1.02364e-07
9.63e-10,5.84063e-09
9.64e-10,-3.76167e-08
9.65e-10,-2.34312e-07
9.66e-10,-5.40961e-08
9.67e-10,-1.53282e-08
9.68e-10,-1.53459e-07
9.69e-10,-1.07828e-07
9.7e-10,-3.71768e-08
9.71e-10,-1.96769e-07
9.72e-10,-9.00437e-08
9.73e-10,-7.71025e-08
9.74e-10,-1.37947e-07
9.75e-10,-4.34688e-08
9.76e-10,-1.20614e-07
9.77e-10,-1.28611e-07
9.78e-10,-1.24301e-07
9.79e-10,-2.98257e-09
9.8e-10,-4.18849e-08
9.81e-10,-4.53765e-08
9.82e-10,-1.74446e-07
9.83e-10,-2.58045e-08
9.84e-10,-2.1368e-07
9.85e-10,-1.70237e-07
9.86e-10,-1.07361e-09
9.87e-10,-9.55692e-08
9.88e-10,-7.43249e-09
9.89e-10,-1.50749e-07
9.9e-10,-1.22193e-07
9.91e-10,-1.27245e-08
9.92e-10,-9.2811e-08
9.93e-10,-8.1266e-08
9.94e-10,-1.45582e-07
9.95e-10,-1.82604e-07
9.96e-10,-1.12121e-07
9.97e-10,-1.54894e-07
9.98e-10,-3.51965e-08
9.99e-10,-6.87241e-08
1e-09,-2.5953e-07
2.1e-09,0
