0,0
1e-12,-3.17633e-07
2e-12,-1.7899e-06
3e-12,-4.32187e-06
4e-12,-6.79841e-06
5e-12,-4.07177e-06
6e-12,-3.27439e-06
7e-12,-4.11078e-06
8e-12,-4.79996e-06
9e-12,-2.9931e-06
1e-11,-1.85713e-06
1.1e-11,-2.50421e-06
1.2e-11,-3.43666e-06
1.3e-11,-4.34092e-06
1.4e-11,-4.30308e-06
1.5e-11,-3.66126e-06
1.6e-11,-1.77523e-06
1.7e-11,-2.05272e-06
1.8e-11,-2.80541e-06
1.9e-11,-3.03247e-06
2e-11,-4.67682e-06
2.1e-11,-4.83858e-06
2.2e-11,-5.05346e-06
2.3e-11,-4.02124e-06
2.4e-11,-2.98998e-06
2.5e-11,-2.42876e-06
2.6e-11,-2.18298e-06
2.7e-11,-2.0625e-06
2.8e-11,-3.13179e-06
2.9e-11,-2.46688e-06
3e-11,-4.45533e-06
3.1e-11,-5.12574e-06
3.2e-11,-4.05983e-06
3.3e-11,-3.9002e-06
3.4e-11,-2.8624e-06
3.5e-11,-2.95172e-06
3.6e-11,-3.50264e-06
3.7e-11,-2.90647e-06
3.8e-11,-2.91075e-06
3.9e-11,-3.40317e-06
4e-11,-4.32475e-06
4.1e-11,-2.91523e-06
4.2e-11,-3.35477e-06
4.3e-11,-2.34845e-06
4.4e-11,-2.95807e-06
4.5e-11,-3.89717e-06
4.6e-11,-4.03875e-06
4.7e-11,-4.24687e-06
4.8e-11,-4.36636e-06
4.9e-11,-3.79388e-06
5e-11,-3.47764e-06
5.1e-11,-2.28389e-06
5.2e-11,-2.02811e-06
5.3e-11,-3.59252e-06
5.4e-11,-3.26326e-06
5.5e-11,-3.63812e-06
5.6e-11,-3.75656e-06
5.7e-11,-4.58025e-06
5.8e-11,-3.29071e-06
5.9e-11,-3.06256e-06
6e-11,-2.77707e-06
6.1e-11,-3.32618e-06
6.2e-11,-3.33902e-06
6.3e-11,-3.19293e-06
6.4e-11,-4.35689e-06
6.5e-11,-3.28006e-06
6.6e-11,-3.55035e-06
6.7e-11,-2.41865e-06
6.8e-11,-3.34411e-06
6.9e-11,-2.71117e-06
7e-11,-4.25485e-06
7.1e-11,-3.39713e-06
7.2e-11,-2.93198e-06
7.3e-11,-3.93757e-06
7.4e-11,-4.15709e-06
7.5e-11,-2.53e-06
7.6e-11,-2.68702e-06
7.7e-11,-3.03188e-06
7.8e-11,-3.02369e-06
7.9e-11,-3.50382e-06
8e-11,-3.71612e-06
8.1e-11,-3.92103e-06
8.2e-11,-3.8606e-06
8.3e-11,-2.91402e-06
8.4e-11,-2.79388e-06
8.5e-11,-3.05922e-06
8.6e-11,-2.77807e-06
8.7e-11,-3.32185e-06
8.8e-11,-3.22254e-06
8.9e-11,-3.28234e-06
9e-11,-4.49479e-06
9.1e-11,-3.18307e-06
9.2e-11,-2.45674e-06
9.3e-11,-3.17831e-06
9.4e-11,-2.8252e-06
9.5e-11,-3.29266e-06
9.6e-11,-3.30408e-06
9.7e-11,-3.12187e-06
9.8e-11,-4.25494e-06
9.9e-11,-3.76938e-06
1e-10,-2.67605e-06
1.01e-10,-2.25519e-06
1.02e-10,-3.75747e-06
1.03e-10,-2.74843e-06
1.04e-10,-3.18138e-06
1.05e-10,-3.12084e-06
1.06e-10,-3.83398e-06
1.07e-10,-4.0974e-06
1.08e-10,-3.04936e-06
1.09e-10,-2.66021e-06
1.1e-10,-2.74151e-06
1.11e-10,-3.33286e-06
1.12e-10,-3.0784e-06
1.13e-10,-3.38932e-06
1.14e-10,-3.83735e-06
1.15e-10,-3.391e-06
1.16e-10,-3.4434e-06
1.17e-10,-2.78705e-06
1.18e-10,-2.6292e-06
1.19e-10,-3.17846e-06
1.2e-10,-3.11093e-06
1.21e-10,-2.96506e-06
1.22e-10,-2.66085e-06
1.23e-10,-3.59101e-06
1.24e-10,-3.61644e-06
1.25e-10,-2.89183e-06
1.26e-10,-2.24508e-06
1.27e-10,-2.12005e-06
1.28e-10,-2.63228e-06
1.29e-10,-4.00919e-06
1.3e-10,-2.74321e-06
1.31e-10,-3.05086e-06
1.32e-10,-3.52602e-06
1.33e-10,-3.21623e-06
1.34e-10,-2.82381e-06
1.35e-10,-2.68113e-06
1.36e-10,-2.84263e-06
1.37e-10,-2.87681e-06
1.38e-10,-2.53234e-06
1.39e-10,-2.91443e-06
1.4e-10,-3.27897e-06
1.41e-10,-2.3719e-06
1.42e-10,-2.51724e-06
1.43e-10,-2.20014e-06
1.44e-10,-2.71924e-06
1.45e-10,-2.38459e-06
1.46e-10,-1.98944e-06
1.47e-10,-2.34978e-06
1.48e-10,-1.79252e-06
1.49e-10,-1.58284e-06
1.5e-10,-2.0377e-06
1.51e-10,-1.11255e-06
1.52e-10,-1.53643e-06
1.53e-10,-1.5906e-06
1.54e-10,-1.05951e-06
1.55e-10,-1.23776e-06
1.56e-10,-7.50923e-07
1.57e-10,-1.26316e-06
1.58e-10,-1.16462e-06
1.59e-10,-1.49251e-06
1.6e-10,-7.89941e-07
1.61e-10,-7.85459e-07
1.62e-10,-1.03391e-06
1.63e-10,-5.92486e-07
1.64e-10,-6.91349e-07
1.65e-10,-6.19144e-07
1.66e-10,-1.81111e-06
1.67e-10,-6.22512e-07
1.68e-10,-1.02631e-06
1.69e-10,-1.03519e-06
1.7e-10,-1.0004e-06
1.71e-10,-6.68472e-07
1.72e-10,-1.27245e-06
1.73e-10,-5.97714e-07
1.74e-10,-6.7372e-07
1.75e-10,-1.33414e-06
1.76e-10,-8.49759e-07
1.77e-10,-6.52067e-07
1.78e-10,-5.2766e-07
1.79e-10,-7.28694e-07
1.8e-10,-1.07649e-06
1.81e-10,-1.04145e-06
1.82e-10,-9.21016e-07
1.83e-10,-1.26389e-06
1.84e-10,-5.84173e-07
1.85e-10,-1.14162e-06
1.86e-10,-7.2888e-07
1.87e-10,-7.35579e-07
1.88e-10,-8.39085e-07
1.89e-10,-8.79259e-07
1.9e-10,-7.21916e-07
1.91e-10,-6.63111e-07
1.92e-10,-8.48614e-07
1.93e-10,-7.74237e-07
1.94e-10,-8.80207e-07
1.95e-10,-6.98245e-07
1.96e-10,-1.01902e-06
1.97e-10,-5.11118e-07
1.98e-10,-8.01084e-07
1.99e-10,-9.52539e-07
2e-10,-7.64693e-07
2.01e-10,-6.47144e-07
2.02e-10,-5.88964e-07
2.03e-10,-6.67713e-07
2.04e-10,-1.00803e-06
2.05e-10,-7.52377e-07
2.06e-10,-5.9245e-07
2.07e-10,-7.33574e-07
2.08e-10,-4.38963e-07
2.09e-10,-7.22993e-07
2.1e-10,-1.32783e-06
2.11e-10,-3.90285e-07
2.12e-10,-6.92589e-07
2.13e-10,-7.68899e-07
2.14e-10,-9.1513e-07
2.15e-10,-5.82473e-07
2.16e-10,-6.20444e-07
2.17e-10,-9.41499e-07
2.18e-10,-3.11344e-07
2.19e-10,-6.07777e-07
2.2e-10,-3.59297e-07
2.21e-10,-8.05287e-07
2.22e-10,-7.5549e-07
2.23e-10,-1.19792e-06
2.24e-10,-6.49097e-07
2.25e-10,-3.66805e-07
2.26e-10,-4.1607e-07
2.27e-10,-5.46225e-07
2.28e-10,-5.65841e-07
2.29e-10,-5.73924e-07
2.3e-10,-3.63262e-07
2.31e-10,-6.66669e-07
2.32e-10,-3.40933e-07
2.33e-10,-5.37568e-07
2.34e-10,-6.01886e-07
2.35e-10,-2.4676e-07
2.36e-10,-8.2972e-07
2.37e-10,-4.28119e-07
2.38e-10,-4.04257e-07
2.39e-10,-3.95441e-07
2.4e-10,-2.26489e-07
2.41e-10,-7.07914e-07
2.42e-10,-1.14985e-07
2.43e-10,-5.87964e-07
2.44e-10,-7.43665e-07
2.45e-10,-4.08614e-07
2.46e-10,-4.29439e-07
2.47e-10,-2.4427e-07
2.48e-10,-6.45613e-07
2.49e-10,-4.38976e-07
2.5e-10,-4.04234e-07
2.51e-10,-2.43705e-07
2.52e-10,-3.41742e-07
2.53e-10,-2.60608e-07
2.54e-10,-4.70685e-07
2.55e-10,-4.37705e-07
2.56e-10,-2.89136e-07
2.57e-10,-7.2669e-07
2.58e-10,-2.79752e-07
2.59e-10,-4.50095e-07
2.6e-10,-4.91981e-07
2.61e-10,-3.91057e-07
2.62e-10,-8.24481e-08
2.63e-10,-2.3606e-07
2.64e-10,4.50397e-08
2.65e-10,-4.45697e-07
2.66e-10,-4.32857e-07
2.67e-10,-5.52034e-07
2.68e-10,-2.28172e-07
2.69e-10,-2.74465e-07
2.7e-10,-1.98084e-07
2.71e-10,-3.59068e-07
2.72e-10,-1.77276e-07
2.73e-10,-2.94828e-07
2.74e-10,-6.37754e-07
2.75e-10,-3.21867e-07
2.76e-10,-2.29886e-07
2.77e-10,-3.78836e-07
2.78e-10,-2.55555e-07
2.79e-10,1.18914e-07
2.8e-10,-4.63335e-07
2.81e-10,-3.72351e-07
2.82e-10,-2.24403e-07
2.83e-10,-5.72843e-07
2.84e-10,-1.60937e-07
2.85e-10,-6.56054e-07
2.86e-10,-1.69996e-07
2.87e-10,-6.75891e-08
2.88e-10,-5.41811e-07
2.89e-10,-9.01095e-08
2.9e-10,-2.09779e-07
2.91e-10,-5.43032e-07
2.92e-10,-2.38626e-07
2.93e-10,-2.39107e-07
2.94e-10,-3.8533e-07
2.95e-10,-2.57257e-07
2.96e-10,-2.4333e-07
2.97e-10,-3.03214e-07
2.98e-10,-3.06767e-07
2.99e-10,-1.80804e-07
3e-10,-2.5744e-07
3.01e-10,-1.00855e-07
3.02e-10,-3.48622e-07
3.03e-10,-4.47888e-07
3.04e-10,-8.42297e-08
3.05e-10,-2.94232e-07
3.06e-10,-1.82822e-07
3.07e-10,-1.87737e-07
3.08e-10,-7.19785e-08
3.09e-10,-2.5194e-07
3.1e-10,-1.07295e-07
3.11e-10,-9.744e-08
3.12e-10,-3.57433e-07
3.13e-10,-6.33849e-08
3.14e-10,-3.72998e-07
3.15e-10,-1.49776e-08
3.16e-10,-5.45443e-07
3.17e-10,-1.84588e-07
3.18e-10,-2.26303e-07
3.19e-10,-2.37957e-07
3.2e-10,-1.77443e-07
3.21e-10,-1.14485e-07
3.22e-10,-2.68809e-07
3.23e-10,-5.7428e-08
3.24e-10,-1.57827e-07
3.25e-10,-2.50431e-07
3.26e-10,-2.60065e-07
3.27e-10,-2.92427e-09
3.28e-10,-1.05737e-07
3.29e-10,-1.41671e-07
3.3e-10,-4.62019e-07
3.31e-10,-8.77908e-08
3.32e-10,-8.03865e-08
3.33e-10,-2.52603e-07
3.34e-10,-1.74139e-07
3.35e-10,4.81067e-08
3.36e-10,-6.35191e-08
3.37e-10,-3.95591e-07
3.38e-10,-9.08448e-09
3.39e-10,-6.64044e-08
3.4e-10,-3.71508e-07
3.41e-10,-3.35893e-08
3.42e-10,-1.90019e-07
3.43e-10,-8.3158e-08
3.44e-10,-2.13686e-07
3.45e-10,-1.26634e-07
3.46e-10,-1.77207e-07
3.47e-10,-2.65249e-07
3.48e-10,-1.69067e-07
3.49e-10,-1.42477e-07
3.5e-10,-2.62611e-07
3.51e-10,-1.55529e-07
3.52e-10,-1.36356e-07
3.53e-10,-3.13601e-07
3.54e-10,-3.37357e-07
3.55e-10,3.84356e-08
3.56e-10,-1.65693e-07
3.57e-10,-2.26038e-07
3.58e-10,3.37693e-08
3.59e-10,-6.16564e-08
3.6e-10,-1.37807e-07
3.61e-10,-3.9002e-07
3.62e-10,1.2249e-07
3.63e-10,-2.31117e-07
3.64e-10,-1.73265e-07
3.65e-10,-2.53359e-07
3.66e-10,1.01005e-07
3.67e-10,-1.8332e-07
3.68e-10,-3.31912e-07
3.69e-10,-6.37989e-08
3.7e-10,-1.82253e-08
3.71e-10,-8.1078e-08
3.72e-10,-1.6876e-07
3.73e-10,-3.9888e-08
3.74e-10,-2.37432e-07
3.75e-10,-1.46171e-07
3.76e-10,-3.44621e-07
3.77e-10,1.02458e-07
3.78e-10,-2.73879e-07
3.79e-10,-5.40414e-08
3.8e-10,-2.1623e-07
3.81e-10,-6.47339e-08
3.82e-10,-2.33579e-07
3.83e-10,-1.03719e-07
3.84e-10,-9.79302e-08
3.85e-10,-3.66443e-08
3.86e-10,-2.27292e-07
3.87e-10,-8.98121e-08
3.88e-10,-9.27043e-08
3.89e-10,-9.48199e-08
3.9e-10,-1.07631e-07
3.91e-10,-1.7098e-07
3.92e-10,-2.60275e-07
3.93e-10,5.70361e-08
3.94e-10,-1.16492e-07
3.95e-10,-2.67884e-07
3.96e-10,6.95489e-08
3.97e-10,-1.78966e-07
3.98e-10,-1.83365e-07
3.99e-10,-2.08862e-07
4e-10,-2.01341e-07
4.01e-10,4.41851e-08
4.02e-10,-3.0265e-07
4.03e-10,6.09378e-09
4.04e-10,-1.66823e-07
4.05e-10,-1.9206e-07
4.06e-10,-1.67303e-07
4.07e-10,-2.17203e-07
4.08e-10,-1.66802e-07
4.09e-10,-1.30763e-07
4.1e-10,-6.7558e-08
4.11e-10,-2.55961e-07
4.12e-10,-1.31531e-07
4.13e-10,-3.58566e-09
4.14e-10,-1.18672e-07
4.15e-10,-1.57862e-07
4.16e-10,-1.44651e-07
4.17e-10,-5.69504e-08
4.18e-10,-1.25553e-07
4.19e-10,-1.78058e-07
4.2e-10,-1.57275e-07
4.21e-10,-7.15801e-08
4.22e-10,-1.1677e-07
4.23e-10,-2.90524e-08
4.24e-10,1.28398e-08
4.25e-10,-8.38652e-08
4.26e-10,-6.34478e-08
4.27e-10,-1.15252e-07
4.28e-10,-2.2091e-07
4.29e-10,-1.41122e-07
4.3e-10,4.39634e-09
4.31e-10,-4.37325e-08
4.32e-10,-1.39584e-07
4.33e-10,-2.17192e-07
4.34e-10,-1.6256e-07
4.35e-10,-3.38306e-08
4.36e-10,-9.94002e-08
4.37e-10,-7.29227e-08
4.38e-10,-9.18654e-08
4.39e-10,-1.70658e-07
4.4e-10,-8.83988e-08
4.41e-10,-2.67863e-08
4.42e-10,-1.97998e-07
4.43e-10,-1.20945e-07
4.44e-10,-8.76843e-08
4.45e-10,1.0562e-08
4.46e-10,-9.87787e-08
4.47e-10,-9.82851e-08
4.48e-10,-8.15914e-08
4.49e-10,-1.42604e-07
4.5e-10,-6.96974e-08
4.51e-10,-7.79424e-08
4.52e-10,-1.0321e-07
4.53e-10,-1.15276e-07
4.54e-10,-1.66332e-07
4.55e-10,-1.28367e-07
4.56e-10,-5.51374e-09
4.57e-10,-2.45734e-07
4.58e-10,-1.36742e-07
4.59e-10,-5.14118e-08
4.6e-10,-1.94504e-07
4.61e-10,-9.77875e-08
4.62e-10,9.1649e-09
4.63e-10,-8.2428e-08
4.64e-10,-1.83893e-07
4.65e-10,-1.29642e-07
4.66e-10,-1.46596e-07
4.67e-10,-1.25494e-07
4.68e-10,-1.25897e-07
4.69e-10,-1.25726e-07
4.7e-10,-4.57408e-08
4.71e-10,-7.13707e-08
4.72e-10,-7.34722e-08
4.73e-10,-7.84284e-08
4.74e-10,-1.54392e-07
4.75e-10,-1.79741e-07
4.76e-10,-5.7095e-08
4.77e-10,3.22941e-08
4.78e-10,-1.09883e-07
4.79e-10,-1.81603e-07
4.8e-10,-7.95361e-08
4.81e-10,-1.01265e-07
4.82e-10,5.02588e-08
4.83e-10,-2.47985e-07
4.84e-10,-1.69009e-07
4.85e-10,-5.41818e-08
4.86e-10,-4.19918e-09
4.87e-10,-6.85069e-08
4.88e-10,-2.05532e-08
4.89e-10,-1.74315e-07
4.9e-10,-1.99471e-07
4.91e-10,-4.36066e-08
4.92e-10,-5.41773e-09
4.93e-10,-2.80842e-07
4.94e-10,3.53508e-09
4.95e-10,-1.65253e-07
4.96e-10,-1.61585e-08
4.97e-10,3.79448e-08
4.98e-10,-1.88292e-07
4.99e-10,-1.82435e-07
5e-10,-3.74186e-08
5.01e-10,-2.79554e-07
5.02e-10,2.93782e-08
5.03e-10,-1.46853e-07
5.04e-10,-3.43883e-08
5.05e-10,-1.20189e-07
5.06e-10,-1.10887e-08
5.07e-10,3.03964e-08
5.08e-10,-1.51174e-07
5.09e-10,-7.34813e-08
5.1e-10,-1.28994e-07
5.11e-10,-5.25355e-08
5.12e-10,-1.23977e-07
5.13e-10,-8.22302e-08
5.14e-10,-5.1739e-09
5.15e-10,-7.6094e-08
5.16e-10,-1.22816e-07
5.17e-10,1.67755e-09
5.18e-10,-1.16803e-07
5.19e-10,-1.96962e-07
5.2e-10,-6.04602e-08
5.21e-10,-5.22578e-08
5.22e-10,-5.21619e-08
5.23e-10,7.11627e-09
5.24e-10,-4.72006e-08
5.25e-10,-2.50244e-07
5.26e-10,-1.97557e-07
5.27e-10,4.08471e-08
5.28e-10,-2.47927e-08
5.29e-10,1.28979e-08
5.3e-10,-2.656e-08
5.31e-10,-3.54604e-08
5.32e-10,-9.60657e-08
5.33e-10,-9.9491e-09
5.34e-10,-2.91177e-07
5.35e-10,-1.48179e-07
5.36e-10,-1.56104e-08
5.37e-10,2.23033e-08
5.38e-10,-1.34176e-07
5.39e-10,-1.22475e-08
5.4e-10,-5.3377e-08
5.41e-10,-2.62978e-08
5.42e-10,-6.29185e-08
5.43e-10,-1.30152e-07
5.44e-10,-8.83976e-08
5.45e-10,-3.07372e-08
5.46e-10,-7.42999e-09
5.47e-10,6.4374e-08
5.48e-10,-4.00704e-08
5.49e-10,-1.50301e-07
5.5e-10,2.74251e-09
5.51e-10,-9.8888e-08
5.52e-10,-2.41727e-07
5.53e-10,4.86154e-08
5.54e-10,-5.33654e-08
5.55e-10,9.35853e-09
5.56e-10,7.90546e-10
5.57e-10,-1.96004e-08
5.58e-10,-1.4469e-08
5.59e-10,-1.44716e-07
5.6e-10,-1.42366e-07
5.61e-10,-4.0453e-08
5.62e-10,-1.38694e-07
5.63e-10,3.93615e-08
5.64e-10,-5.47131e-09
5.65e-10,-1.55622e-07
5.66e-10,2.71209e-08
5.67e-10,-6.42437e-08
5.68e-10,-6.28946e-08
5.69e-10,-7.61131e-08
5.7e-10,-1.10789e-07
5.71e-10,1.18927e-08
5.72e-10,1.19298e-08
5.73e-10,5.16612e-08
5.74e-10,-7.51646e-08
5.75e-10,-1.13177e-07
5.76e-10,-4.7266e-08
5.77e-10,-5.97283e-08
5.78e-10,2.42393e-09
5.79e-10,-1.28083e-07
5.8e-10,-5.90524e-09
5.81e-10,-3.60866e-08
5.82e-10,1.61195e-09
5.83e-10,-5.02536e-08
5.84e-10,-7.25457e-08
5.85e-10,-4.66126e-08
5.86e-10,-3.53528e-08
5.87e-10,-1.2836e-07
5.88e-10,-5.06141e-08
5.89e-10,-1.60504e-08
5.9e-10,-3.99242e-09
5.91e-10,-1.11084e-07
5.92e-10,6.25344e-09
5.93e-10,-4.57343e-08
5.94e-10,-6.58261e-09
5.95e-10,3.34474e-08
5.96e-10,-1.21331e-07
5.97e-10,-1.38142e-08
5.98e-10,-5.36399e-08
5.99e-10,-1.69509e-07
6e-10,-2.68329e-08
6.01e-10,-7.48801e-08
6.02e-10,2.48296e-08
6.03e-10,-2.1141e-08
6.04e-10,2.24049e-08
6.05e-10,-8.53385e-08
6.06e-10,-4.76413e-08
6.07e-10,6.91026e-09
6.08e-10,-1.11399e-07
6.09e-10,-5.01176e-09
6.1e-10,-2.17299e-08
6.11e-10,-1.11614e-07
6.12e-10,-2.57792e-08
6.13e-10,-5.32883e-10
6.14e-10,5.15044e-10
6.15e-10,-4.56135e-08
6.16e-10,2.54385e-08
6.17e-10,-9.75256e-08
6.18e-10,7.46608e-10
6.19e-10,-1.46237e-07
6.2e-10,1.35049e-08
6.21e-10,-5.02895e-08
6.22e-10,-4.38699e-08
6.23e-10,-8.02731e-08
6.24e-10,-5.60418e-08
6.25e-10,-5.17322e-08
6.26e-10,2.48565e-08
6.27e-10,-7.19954e-08
6.28e-10,-1.2377e-07
6.29e-10,-2.30838e-09
6.3e-10,3.19994e-09
6.31e-10,-6.3331e-09
6.32e-10,-4.45253e-08
6.33e-10,-5.01681e-08
6.34e-10,-7.41167e-08
6.35e-10,-2.00431e-08
6.36e-10,-1.18265e-07
6.37e-10,-1.53897e-08
6.38e-10,2.71866e-08
6.39e-10,-9.0739e-08
6.4e-10,3.31469e-08
6.41e-10,-9.22546e-08
6.42e-10,-7.17486e-08
6.43e-10,-9.05302e-08
6.44e-10,-8.58351e-08
6.45e-10,-4.68702e-08
6.46e-10,-1.08234e-08
6.47e-10,-3.29154e-08
6.48e-10,2.12471e-08
6.49e-10,4.70753e-11
6.5e-10,-7.03697e-08
6.51e-10,-7.09788e-08
6.52e-10,-7.23166e-08
6.53e-10,1.32052e-08
6.54e-10,-7.97959e-08
6.55e-10,-2.66707e-08
6.56e-10,-2.05743e-08
6.57e-10,-3.09698e-08
6.58e-10,5.20996e-08
6.59e-10,-3.32086e-08
6.6e-10,-1.05059e-07
6.61e-10,-7.10846e-08
6.62e-10,-7.99851e-08
6.63e-10,3.55683e-08
6.64e-10,-1.90572e-08
6.65e-10,-4.89742e-08
6.66e-10,2.33732e-09
6.67e-10,-6.9782e-08
6.68e-10,-3.31604e-08
6.69e-10,-4.95174e-08
6.7e-10,-4.2297e-08
6.71e-10,-1.43014e-07
6.72e-10,-5.0556e-08
6.73e-10,-1.55325e-09
6.74e-10,3.5362e-09
6.75e-10,-4.3294e-09
6.76e-10,2.30704e-08
6.77e-10,-1.25448e-07
6.78e-10,-3.80703e-08
6.79e-10,-6.0765e-08
6.8e-10,2.23834e-08
6.81e-10,-3.66461e-08
6.82e-10,-9.83489e-08
6.83e-10,-1.25998e-08
6.84e-10,1.03453e-07
6.85e-10,-1.27083e-07
6.86e-10,-3.474e-08
6.87e-10,-6.04258e-08
6.88e-10,3.06271e-08
6.89e-10,5.20807e-09
6.9e-10,-6.84985e-08
6.91e-10,-6.98532e-08
6.92e-10,-3.25804e-09
6.93e-10,-1.01038e-07
6.94e-10,-3.19255e-08
6.95e-10,3.8825e-08
6.96e-10,-1.19469e-07
6.97e-10,-1.35469e-08
6.98e-10,2.88114e-08
6.99e-10,-1.30729e-07
7e-10,3.07775e-08
7.01e-10,-8.49362e-08
7.02e-10,1.70691e-08
7.03e-10,-9.41719e-08
7.04e-10,4.34393e-08
7.05e-10,-1.12117e-07
7.06e-10,-3.60218e-08
7.07e-10,-3.54043e-09
7.08e-10,-2.43904e-08
7.09e-10,-1.20694e-08
7.1e-10,-4.98233e-08
7.11e-10,3.43887e-08
7.12e-10,-4.612e-08
7.13e-10,-1.17977e-07
7.14e-10,-4.14947e-08
7.15e-10,-4.71062e-08
7.16e-10,3.21919e-08
7.17e-10,-3.27465e-09
7.18e-10,-3.65036e-09
7.19e-10,2.46565e-09
7.2e-10,-3.20894e-08
7.21e-10,-9.23575e-09
7.22e-10,4.11337e-09
7.23e-10,-1.23168e-07
7.24e-10,-3.76041e-09
7.25e-10,-1.05002e-08
7.26e-10,1.1811e-08
7.27e-10,-1.64743e-07
7.28e-10,-7.13154e-09
7.29e-10,-2.14969e-08
7.3e-10,1.93745e-08
7.31e-10,1.14146e-08
7.32e-10,-2.59959e-08
7.33e-10,9.82629e-10
7.34e-10,-6.79641e-08
7.35e-10,-3.80957e-08
7.36e-10,-6.12043e-08
7.37e-10,-7.08523e-08
7.38e-10,-5.02542e-09
7.39e-10,-3.77803e-09
7.4e-10,2.87435e-09
7.41e-10,-4.08635e-08
7.42e-10,-4.78056e-09
7.43e-10,9.80963e-10
7.44e-10,2.48195e-08
7.45e-10,-2.43127e-08
7.46e-10,-1.23008e-07
7.47e-10,-5.14978e-08
7.48e-10,6.36355e-09
7.49e-10,-5.10918e-09
7.5e-10,5.66921e-08
7.51e-10,-5.09011e-08
7.52e-10,-7.5814e-09
7.53e-10,3.52214e-08
7.54e-10,-5.77599e-08
7.55e-10,-7.13596e-08
7.56e-10,-6.99754e-08
7.57e-10,-8.50073e-08
7.58e-10,-1.93941e-09
7.59e-10,2.81536e-08
7.6e-10,-1.58407e-08
7.61e-10,2.81447e-08
7.62e-10,-1.66365e-08
7.63e-10,-9.72913e-08
7.64e-10,-4.42608e-08
7.65e-10,4.8564e-09
7.66e-10,-5.7281e-09
7.67e-10,-2.60371e-08
7.68e-10,-5.93086e-09
7.69e-10,1.937e-09
7.7e-10,-6.32688e-08
7.71e-10,-2.87106e-08
7.72e-10,6.56567e-10
7.73e-10,-8.09522e-08
7.74e-10,2.7563e-09
7.75e-10,1.60486e-08
7.76e-10,-6.02233e-08
7.77e-10,-3.17808e-08
7.78e-10,2.03731e-08
7.79e-10,-7.57378e-08
7.8e-10,-6.36184e-09
7.81e-10,-3.6953e-08
7.82e-10,-5.06345e-08
7.83e-10,-2.25005e-09
7.84e-10,3.01787e-08
7.85e-10,-7.6561e-08
7.86e-10,3.94062e-08
7.87e-10,-4.1233e-08
7.88e-10,1.43866e-09
7.89e-10,-5.44497e-08
7.9e-10,-9.87611e-09
7.91e-10,-2.23577e-09
7.92e-10,2.94221e-08
7.93e-10,-2.59801e-08
7.94e-10,-6.01007e-08
7.95e-10,2.50594e-08
7.96e-10,-6.81979e-08
7.97e-10,5.61855e-08
7.98e-10,-1.25799e-07
7.99e-10,3.15581e-08
8e-10,-5.89232e-08
8.01e-10,-7.78138e-09
8.02e-10,-2.59211e-08
8.03e-10,-4.88192e-08
8.04e-10,3.78149e-09
8.05e-10,-5.30824e-08
8.06e-10,3.6145e-09
8.07e-10,-8.03134e-08
8.08e-10,-4.33381e-08
8.09e-10,-2.2903e-08
8.1e-10,-2.11719e-08
8.11e-10,-3.55315e-09
8.12e-10,-1.70845e-08
8.13e-10,-3.07984e-08
8.14e-10,-7.78478e-08
8.15e-10,7.94541e-09
8.16e-10,2.99074e-08
8.17e-10,-2.7861e-08
8.18e-10,-5.56619e-08
8.19e-10,-8.85142e-08
8.2e-10,-2.78568e-08
8.21e-10,2.74557e-09
8.22e-10,-6.94005e-09
8.23e-10,-1.73207e-08
8.24e-10,-1.02558e-07
8.25e-10,-4.57012e-09
8.26e-10,-3.12685e-08
8.27e-10,-2.44604e-08
8.28e-10,5.2309e-08
8.29e-10,4.30457e-09
8.3e-10,-1.2112e-07
8.31e-10,-2.10367e-08
8.32e-10,-2.45573e-08
8.33e-10,-7.20221e-08
8.34e-10,-8.06127e-08
8.35e-10,1.0011e-07
8.36e-10,-1.02587e-07
8.37e-10,-1.23139e-08
8.38e-10,6.43896e-09
8.39e-10,-3.52799e-09
8.4e-10,-6.12171e-08
8.41e-10,6.64521e-08
8.42e-10,-9.20491e-08
8.43e-10,-1.57702e-07
8.44e-10,-6.44023e-09
8.45e-10,1.40496e-09
8.46e-10,-4.40633e-08
8.47e-10,2.98598e-08
8.48e-10,-7.48793e-09
8.49e-10,7.05394e-09
8.5e-10,-5.39642e-09
8.51e-10,-1.1359e-07
8.52e-10,4.73955e-08
8.53e-10,-1.75388e-08
8.54e-10,-8.90815e-08
8.55e-10,-3.4382e-08
8.56e-10,-1.96604e-08
8.57e-10,-4.19105e-09
8.58e-10,-1.49076e-07
8.59e-10,-4.94964e-08
8.6e-10,-2.41127e-08
8.61e-10,-4.66019e-10
8.62e-10,3.27225e-08
8.63e-10,4.50347e-08
8.64e-10,-1.41325e-07
8.65e-10,3.14996e-10
8.66e-10,-6.00079e-09
8.67e-10,-1.60582e-08
8.68e-10,-9.79031e-08
8.69e-10,-9.93593e-10
8.7e-10,3.93834e-09
8.71e-10,-1.57439e-07
8.72e-10,7.15921e-08
8.73e-10,-6.85468e-08
8.74e-10,-6.1431e-08
8.75e-10,-2.64268e-08
8.76e-10,2.1066e-08
8.77e-10,-5.40705e-09
8.78e-10,-5.71256e-08
8.79e-10,-5.16591e-09
8.8e-10,-9.8156e-08
8.81e-10,-7.22784e-08
8.82e-10,6.55407e-08
8.83e-10,1.43439e-09
8.84e-10,-6.54699e-08
8.85e-10,-1.09107e-07
8.86e-10,-1.33133e-07
8.87e-10,1.82892e-10
8.88e-10,-2.71978e-09
8.89e-10,-8.3104e-08
8.9e-10,-8.20873e-08
8.91e-10,3.47863e-08
8.92e-10,-7.7155e-08
8.93e-10,-8.31991e-10
8.94e-10,2.53079e-08
8.95e-10,-5.97264e-08
8.96e-10,-1.31652e-07
8.97e-10,-3.32203e-08
8.98e-10,-2.53044e-08
8.99e-10,4.19362e-09
9e-10,-4.47615e-08
9.01e-10,-4.03336e-09
9.02e-10,-5.06644e-08
9.03e-10,3.75528e-09
9.04e-10,-9.17898e-08
9.05e-10,2.99687e-08
9.06e-10,-1.32937e-07
9.07e-10,-6.63474e-09
9.08e-10,-2.2148e-08
9.09e-10,-2.36328e-08
9.1e-10,-4.20813e-08
9.11e-10,2.32043e-09
9.12e-10,-5.15212e-08
9.13e-10,-4.19722e-08
9.14e-10,-4.88948e-08
9.15e-10,-2.72503e-08
9.16e-10,-4.53998e-08
9.17e-10,-8.70744e-08
9.18e-10,-5.62748e-08
9.19e-10,-7.65842e-09
9.2e-10,4.90153e-09
9.21e-10,4.68571e-10
9.22e-10,-5.30924e-08
9.23e-10,-2.52642e-09
9.24e-10,5.71426e-09
9.25e-10,-8.40524e-08
9.26e-10,-6.99646e-09
9.27e-10,-3.19592e-08
9.28e-10,-1.14856e-07
9.29e-10,-5.88494e-09
9.3e-10,-1.06389e-07
9.31e-10,5.13544e-09
9.32e-10,-4.96983e-08
9.33e-10,4.29136e-09
9.34e-10,-5.15885e-08
9.35e-10,-3.49905e-09
9.36e-10,-9.48832e-08
9.37e-10,-2.46361e-08
9.38e-10,-5.0342e-08
9.39e-10,-2.90013e-08
9.4e-10,-3.49193e-08
9.41e-10,2.96089e-08
9.42e-10,-6.6098e-08
9.43e-10,-4.46457e-08
9.44e-10,-5.00381e-08
9.45e-10,-3.47866e-08
9.46e-10,-9.08349e-08
9.47e-10,-5.35216e-08
9.48e-10,-5.12724e-08
9.49e-10,1.71858e-09
9.5e-10,-3.82507e-09
9.51e-10,-5.39625e-08
9.52e-10,8.41463e-12
9.53e-10,-9.59598e-08
9.54e-10,-5.27696e-08
9.55e-10,-9.27709e-08
9.56e-10,4.49182e-09
9.57e-10,-2.12953e-09
9.58e-10,9.29363e-10
9.59e-10,4.82353e-09
9.6e-10,-6.01511e-08
9.61e-10,8.65901e-09
9.62e-10,-1.11278e-07
9.63e-10,-1.12077e-07
9.64e-10,-4.90599e-08
9.65e-10,1.07264e-09
9.66e-10,-5.45105e-09
9.67e-10,8.89668e-09
9.68e-10,-5.45136e-08
9.69e-10,4.53792e-09
9.7e-10,-4.02463e-08
9.71e-10,-5.4727e-08
9.72e-10,-6.34121e-08
9.73e-10,-6.63412e-08
9.74e-10,-4.97734e-09
9.75e-10,1.70017e-09
9.76e-10,-1.13378e-07
9.77e-10,5.46842e-09
9.78e-10,-2.97868e-08
9.79e-10,-3.80687e-08
9.8e-10,-1.67214e-07
9.81e-10,-1.39734e-09
9.82e-10,-2.75468e-09
9.83e-10,-9.91313e-08
9.84e-10,-7.59492e-09
9.85e-10,3.59315e-09
9.86e-10,-3.68233e-09
9.87e-10,-4.53088e-08
9.88e-10,-2.64665e-08
9.89e-10,-1.57016e-07
9.9e-10,-3.87366e-08
9.91e-10,8.44213e-09
9.92e-10,-2.66092e-08
9.93e-10,-1.35532e-08
9.94e-10,-3.18595e-08
9.95e-10,-4.77943e-08
9.96e-10,-4.23076e-08
9.97e-10,-1.22512e-07
9.98e-10,-4.38113e-08
9.99e-10,-4.05482e-09
1e-09,-3.52058e-09
2.1e-09,0
