0,0
1e-12,-5.31356e-07
2e-12,-1.13833e-06
3e-12,-6.31417e-07
4e-12,-7.79773e-07
5e-12,-5.42646e-07
6e-12,-3.57567e-07
7e-12,-6.3119e-07
8e-12,-7.61458e-07
9e-12,-9.13496e-07
1e-11,-9.1443e-07
1.1e-11,-1.1032e-06
1.2e-11,-6.34911e-07
1.3e-11,-9.03935e-07
1.4e-11,-5.2824e-07
1.5e-11,-4.38053e-07
1.6e-11,-6.67926e-07
1.7e-11,-7.3336e-07
1.8e-11,-5.23614e-07
1.9e-11,-9.25427e-07
2e-11,-1.37256e-06
2.1e-11,-3.55947e-07
2.2e-11,-6.69602e-07
2.3e-11,-8.24208e-07
2.4e-11,-7.64398e-07
2.5e-11,-8.03453e-07
2.6e-11,-7.27688e-07
2.7e-11,-9.53106e-07
2.8e-11,-6.16301e-07
2.9e-11,-6.13089e-07
3e-11,-8.02059e-07
3.1e-11,-7.23798e-07
3.2e-11,-6.72563e-07
3.3e-11,-6.95147e-07
3.4e-11,-6.0468e-07
3.5e-11,-9.43638e-07
3.6e-11,-9.0667e-07
3.7e-11,-6.72612e-07
3.8e-11,-3.79608e-07
3.9e-11,-1.14807e-06
4e-11,-6.77836e-07
4.1e-11,-4.65643e-07
4.2e-11,-7.70011e-07
4.3e-11,-5.81442e-07
4.4e-11,-5.03928e-07
4.5e-11,-7.09686e-07
4.6e-11,-9.96878e-07
4.7e-11,-7.27262e-07
4.8e-11,-1.07469e-06
4.9e-11,-6.94659e-07
5e-11,-4.34819e-07
5.1e-11,-8.00004e-07
5.2e-11,-5.1161e-07
5.3e-11,-8.69669e-07
5.4e-11,-5.12659e-07
5.5e-11,-8.63517e-07
5.6e-11,-5.48954e-07
5.7e-11,-9.17674e-07
5.8e-11,-8.35674e-07
5.9e-11,-5.64882e-07
6e-11,-8.71765e-07
6.1e-11,-7.32446e-07
6.2e-11,-6.83549e-07
6.3e-11,-6.828e-07
6.4e-11,-5.33243e-07
6.5e-11,-8.35789e-07
6.6e-11,-7.76574e-07
6.7e-11,-7.89373e-07
6.8e-11,-5.47216e-07
6.9e-11,-6.15076e-07
7e-11,-9.45102e-07
7.1e-11,-7.75603e-07
7.2e-11,-5.5529e-07
7.3e-11,-6.53009e-07
7.4e-11,-5.51173e-07
7.5e-11,-1.04293e-06
7.6e-11,-8.35752e-07
7.7e-11,-4.50599e-07
7.8e-11,-3.90869e-07
7.9e-11,-6.63032e-07
8e-11,-9.47257e-07
8.1e-11,-5.03729e-07
8.2e-11,-5.86793e-07
8.3e-11,-6.9342e-07
8.4e-11,-7.04897e-07
8.5e-11,-3.62015e-07
8.6e-11,-7.57255e-07
8.7e-11,-8.50485e-07
8.8e-11,-5.21711e-07
8.9e-11,-4.6351e-07
9e-11,-6.25763e-07
9.1e-11,-7.99739e-07
9.2e-11,-7.53511e-07
9.3e-11,-7.003e-07
9.4e-11,-5.63684e-07
9.5e-11,-4.43329e-07
9.6e-11,-4.04895e-07
9.7e-11,-7.148e-07
9.8e-11,-6.47192e-07
9.9e-11,-6.71733e-07
1e-10,-9.96524e-07
1.01e-10,-5.95593e-07
1.02e-10,-6.5982e-07
1.03e-10,-4.2194e-07
1.04e-10,-6.38667e-07
1.05e-10,-6.47287e-07
1.06e-10,-4.7307e-07
1.07e-10,-6.63314e-07
1.08e-10,-4.81063e-07
1.09e-10,-5.65558e-07
1.1e-10,-8.23636e-07
1.11e-10,-7.39137e-07
1.12e-10,-2.61562e-07
1.13e-10,-4.002e-07
1.14e-10,-6.64458e-07
1.15e-10,-7.42656e-07
1.16e-10,-4.19394e-07
1.17e-10,-8.08139e-07
1.18e-10,-6.69814e-07
1.19e-10,-6.5681e-07
1.2e-10,-3.8807e-07
1.21e-10,-6.96551e-07
1.22e-10,-4.60491e-07
1.23e-10,-3.40191e-07
1.24e-10,-6.24022e-07
1.25e-10,-7.16918e-07
1.26e-10,-6.52525e-07
1.27e-10,-6.10904e-07
1.28e-10,-5.67315e-07
1.29e-10,-6.70795e-07
1.3e-10,-4.05074e-07
1.31e-10,-4.96829e-07
1.32e-10,-5.02699e-07
1.33e-10,-8.0887e-07
1.34e-10,-4.66969e-07
1.35e-10,-5.33596e-07
1.36e-10,-7.30787e-07
1.37e-10,-6.10832e-07
1.38e-10,-4.45735e-07
1.39e-10,-3.58305e-07
1.4e-10,-3.97701e-07
1.41e-10,-1.13881e-06
1.42e-10,-4.52935e-07
1.43e-10,-7.73388e-07
1.44e-10,-2.50738e-07
1.45e-10,-6.2728e-07
1.46e-10,-3.47042e-07
1.47e-10,-4.36922e-07
1.48e-10,-4.81082e-07
1.49e-10,-4.71922e-07
1.5e-10,-4.25504e-07
1.51e-10,-7.9174e-07
1.52e-10,-6.22246e-07
1.53e-10,-4.49336e-07
1.54e-10,-4.01203e-07
1.55e-10,-5.39437e-07
1.56e-10,-5.17031e-07
1.57e-10,-3.79589e-07
1.58e-10,-5.3797e-07
1.59e-10,-5.2435e-07
1.6e-10,-4.47917e-07
1.61e-10,-5.1434e-07
1.62e-10,-2.86525e-07
1.63e-10,-4.01603e-07
1.64e-10,-4.67318e-07
1.65e-10,-3.27265e-07
1.66e-10,-3.3656e-07
1.67e-10,-3.31596e-07
1.68e-10,-6.79282e-07
1.69e-10,-5.603e-07
1.7e-10,-4.56227e-07
1.71e-10,-3.87748e-07
1.72e-10,-4.44056e-07
1.73e-10,-3.13879e-07
1.74e-10,-3.75722e-07
1.75e-10,-2.53699e-07
1.76e-10,-7.62086e-07
1.77e-10,-5.67098e-07
1.78e-10,-3.00135e-07
1.79e-10,-2.46068e-07
1.8e-10,-5.80325e-07
1.81e-10,-2.37949e-07
1.82e-10,-3.56252e-07
1.83e-10,-3.33681e-07
1.84e-10,-4.76619e-07
1.85e-10,-5.3154e-07
1.86e-10,-6.06165e-07
1.87e-10,-2.62885e-07
1.88e-10,-2.23878e-07
1.89e-10,-2.73063e-07
1.9e-10,-4.25712e-07
1.91e-10,-5.19536e-07
1.92e-10,-2.97853e-07
1.93e-10,-3.72181e-07
1.94e-10,-6.71091e-07
1.95e-10,-2.88387e-07
1.96e-10,-2.82073e-07
1.97e-10,-1.81009e-07
1.98e-10,-3.85016e-07
1.99e-10,-4.9676e-07
2e-10,-4.9551e-07
2.01e-10,-4.04081e-07
2.02e-10,-4.35963e-07
2.03e-10,-4.03838e-07
2.04e-10,-3.0062e-07
2.05e-10,-1.76909e-07
2.06e-10,-2.28579e-07
2.07e-10,-5.15832e-07
2.08e-10,-3.30927e-07
2.09e-10,-5.20124e-07
2.1e-10,-4.26214e-07
2.11e-10,-1.76439e-07
2.12e-10,-4.43246e-07
2.13e-10,-1.05073e-07
2.14e-10,-3.05352e-07
2.15e-10,-2.96862e-07
2.16e-10,-3.90065e-07
2.17e-10,-2.48451e-07
2.18e-10,-5.58972e-07
2.19e-10,-3.3442e-07
2.2e-10,-3.14336e-07
2.21e-10,-3.00694e-07
2.22e-10,-2.29638e-07
2.23e-10,-4.03392e-08
2.24e-10,-4.97712e-07
2.25e-10,-6.44213e-07
2.26e-10,-3.98413e-07
2.27e-10,-3.42887e-07
2.28e-10,-4.14464e-07
2.29e-10,-4.9885e-08
2.3e-10,-1.14902e-07
2.31e-10,-3.38002e-07
2.32e-10,-1.11294e-07
2.33e-10,-7.43816e-07
2.34e-10,-1.37109e-07
2.35e-10,-2.47522e-07
2.36e-10,-4.31849e-07
2.37e-10,-2.73329e-07
2.38e-10,-1.79354e-07
2.39e-10,-1.43563e-07
2.4e-10,-2.21184e-07
2.41e-10,-2.45455e-07
2.42e-10,-1.31565e-07
2.43e-10,-1.88419e-07
2.44e-10,-3.37266e-07
2.45e-10,-2.48444e-07
2.46e-10,-1.25322e-07
2.47e-10,-3.3883e-08
2.48e-10,-1.91911e-07
2.49e-10,-2.17913e-07
2.5e-10,-1.47126e-07
2.51e-10,-1.74228e-07
2.52e-10,-1.24028e-07
2.53e-10,-2.08672e-07
2.54e-10,-1.00246e-08
2.55e-10,-8.90628e-08
2.56e-10,-1.11038e-07
2.57e-10,-1.59294e-07
2.58e-10,-1.11403e-07
2.59e-10,-6.21384e-08
2.6e-10,3.39776e-08
2.61e-10,-1.31992e-07
2.62e-10,-2.87393e-07
2.63e-10,-9.2944e-08
2.64e-10,-2.17356e-08
2.65e-10,-1.78192e-07
2.66e-10,-6.53915e-08
2.67e-10,-1.64665e-07
2.68e-10,-1.58847e-07
2.69e-10,-1.38082e-07
2.7e-10,-1.08808e-07
2.71e-10,1.5142e-08
2.72e-10,3.75754e-08
2.73e-10,-1.87051e-07
2.74e-10,7.09516e-08
2.75e-10,-1.7321e-07
2.76e-10,-2.15323e-07
2.77e-10,-1.31364e-07
2.78e-10,-1.47368e-07
2.79e-10,-1.60212e-07
2.8e-10,-1.53465e-07
2.81e-10,-7.16329e-08
2.82e-10,-2.73993e-07
2.83e-10,-5.43238e-09
2.84e-10,-9.49569e-08
2.85e-10,-9.61408e-08
2.86e-10,-3.78244e-08
2.87e-10,-1.18641e-07
2.88e-10,-8.60472e-08
2.89e-10,-1.42515e-08
2.9e-10,-6.9353e-08
2.91e-10,-1.21569e-07
2.92e-10,-3.03358e-08
2.93e-10,-5.5436e-08
2.94e-10,-1.94292e-07
2.95e-10,-1.85365e-07
2.96e-10,-9.94855e-08
2.97e-10,-7.35544e-08
2.98e-10,-1.64433e-07
2.99e-10,2.24531e-08
3e-10,-1.61238e-07
3.01e-10,3.73798e-09
3.02e-10,-1.95028e-07
3.03e-10,-4.25785e-08
3.04e-10,-4.83235e-08
3.05e-10,2.09734e-09
3.06e-10,-1.53102e-07
3.07e-10,-2.84635e-08
3.08e-10,-8.63628e-08
3.09e-10,-1.87103e-07
3.1e-10,2.6947e-08
3.11e-10,7.91416e-08
3.12e-10,-1.26177e-07
3.13e-10,-2.38137e-08
3.14e-10,-1.75323e-07
3.15e-10,6.01281e-09
3.16e-10,-1.23391e-07
3.17e-10,-1.59085e-07
3.18e-10,-2.04135e-08
3.19e-10,-9.38041e-08
3.2e-10,-1.72071e-07
3.21e-10,-8.20835e-08
3.22e-10,5.07765e-08
3.23e-10,-1.49402e-07
3.24e-10,-1.52099e-07
3.25e-10,-4.17646e-08
3.26e-10,-1.12123e-07
3.27e-10,3.03924e-08
3.28e-10,-6.37069e-08
3.29e-10,1.21491e-08
3.3e-10,-4.41634e-08
3.31e-10,-1.48706e-07
3.32e-10,-9.46735e-08
3.33e-10,-4.27903e-08
3.34e-10,-6.49521e-08
3.35e-10,2.28143e-08
3.36e-10,-6.5465e-08
3.37e-10,-2.91769e-08
3.38e-10,-9.07788e-08
3.39e-10,-1.16782e-07
3.4e-10,-3.82722e-08
3.41e-10,-1.38082e-07
3.42e-10,1.21051e-09
3.43e-10,-1.8681e-07
3.44e-10,-3.52386e-08
3.45e-10,1.15264e-08
3.46e-10,-3.05875e-08
3.47e-10,-2.26218e-07
3.48e-10,-2.42156e-07
3.49e-10,-4.24589e-08
3.5e-10,-1.59327e-09
3.51e-10,-3.22051e-08
3.52e-10,-5.39936e-08
3.53e-10,-3.16425e-08
3.54e-10,-1.29369e-08
3.55e-10,-1.62668e-08
3.56e-10,-6.49184e-08
3.57e-10,-6.8208e-08
3.58e-10,-3.3273e-08
3.59e-10,1.49254e-08
3.6e-10,-9.77824e-08
3.61e-10,-1.03319e-07
3.62e-10,-1.07548e-07
3.63e-10,-6.36668e-08
3.64e-10,2.65728e-08
3.65e-10,-2.82385e-08
3.66e-10,-3.57107e-09
3.67e-10,-1.0394e-07
3.68e-10,-4.6021e-08
3.69e-10,9.08078e-09
3.7e-10,-1.39123e-07
3.71e-10,-1.31898e-07
3.72e-10,-4.41585e-08
3.73e-10,-7.05754e-08
3.74e-10,-1.39434e-07
3.75e-10,-4.10836e-09
3.76e-10,-5.89802e-08
3.77e-10,-8.27978e-08
3.78e-10,-9.87415e-08
3.79e-10,-6.37987e-10
3.8e-10,-6.29489e-08
3.81e-10,-5.54718e-08
3.82e-10,-1.01764e-08
3.83e-10,-2.69215e-08
3.84e-10,-1.2524e-07
3.85e-10,-6.22461e-08
3.86e-10,-9.39008e-08
3.87e-10,-7.57652e-08
3.88e-10,4.27495e-09
3.89e-10,-1.67852e-08
3.9e-10,-1.96019e-08
3.91e-10,-9.90673e-08
3.92e-10,-5.79167e-08
3.93e-10,-1.65676e-07
3.94e-10,-1.64348e-08
3.95e-10,4.03282e-10
3.96e-10,-3.78429e-08
3.97e-10,-8.46842e-08
3.98e-10,-7.02909e-08
3.99e-10,4.12249e-08
4e-10,-2.59875e-08
4.01e-10,-3.31147e-08
4.02e-10,-1.96764e-07
4.03e-10,-4.53261e-08
4.04e-10,-6.77172e-08
4.05e-10,-2.40798e-08
4.06e-10,-2.21505e-08
4.07e-10,-6.85457e-08
4.08e-10,-1.90163e-07
4.09e-10,2.61112e-08
4.1e-10,1.03654e-08
4.11e-10,-1.81571e-08
4.12e-10,-3.89116e-08
4.13e-10,-6.46539e-08
4.14e-10,-1.40513e-07
4.15e-10,-3.51632e-08
4.16e-10,-1.26934e-07
4.17e-10,-2.56186e-08
4.18e-10,-1.53838e-08
4.19e-10,-1.68799e-08
4.2e-10,-9.5918e-08
4.21e-10,-8.13984e-08
4.22e-10,2.53775e-09
4.23e-10,7.82363e-08
4.24e-10,-1.92296e-07
4.25e-10,-4.86579e-08
4.26e-10,-1.67411e-07
4.27e-10,-2.5741e-08
4.28e-10,-2.49418e-08
4.29e-10,-6.70537e-08
4.3e-10,1.17323e-08
4.31e-10,-1.93399e-08
4.32e-10,-2.218e-07
4.33e-10,-6.06083e-09
4.34e-10,7.95894e-08
4.35e-10,-8.13203e-08
4.36e-10,-1.50125e-07
4.37e-10,-9.76852e-08
4.38e-10,-1.03584e-09
4.39e-10,-7.46095e-08
4.4e-10,1.03837e-07
4.41e-10,-1.59563e-07
4.42e-10,-9.68116e-08
4.43e-10,-8.43015e-09
4.44e-10,3.20592e-08
4.45e-10,-4.55347e-08
4.46e-10,-7.27134e-08
4.47e-10,-2.1195e-07
4.48e-10,-3.82499e-08
4.49e-10,2.34808e-08
4.5e-10,-1.65259e-07
4.51e-10,4.12525e-08
4.52e-10,1.38051e-08
4.53e-10,-1.39625e-07
4.54e-10,-1.01977e-08
4.55e-10,-5.05067e-08
4.56e-10,-1.84526e-08
4.57e-10,-1.48447e-07
4.58e-10,-6.03253e-08
4.59e-10,-5.58692e-08
4.6e-10,7.54625e-10
4.61e-10,-8.88056e-08
4.62e-10,-4.50674e-08
4.63e-10,-9.3991e-08
4.64e-10,-5.46083e-09
4.65e-10,-7.42679e-10
4.66e-10,-7.90861e-09
4.67e-10,-6.06906e-08
4.68e-10,-2.8746e-08
4.69e-10,-2.28866e-09
4.7e-10,-1.13498e-07
4.71e-10,-1.13663e-07
4.72e-10,-6.6101e-09
4.73e-10,-1.73943e-08
4.74e-10,-4.69892e-08
4.75e-10,2.18165e-08
4.76e-10,-2.70043e-08
4.77e-10,-3.73087e-08
4.78e-10,-3.77064e-08
4.79e-10,-1.09383e-07
4.8e-10,-2.65619e-08
4.81e-10,-5.1407e-08
4.82e-10,-5.38602e-09
4.83e-10,-3.86694e-08
4.84e-10,-9.12634e-09
4.85e-10,-2.988e-10
4.86e-10,-8.53999e-08
4.87e-10,-1.09987e-07
4.88e-10,-2.95156e-08
4.89e-10,-1.16263e-07
4.9e-10,4.08578e-08
4.91e-10,-6.93026e-08
4.92e-10,-3.42593e-08
4.93e-10,-2.42133e-09
4.94e-10,1.18474e-08
4.95e-10,-1.0774e-08
4.96e-10,-6.28774e-08
4.97e-10,-1.56983e-07
4.98e-10,-5.57439e-08
4.99e-10,-2.68752e-08
5e-10,-9.13976e-08
5.01e-10,4.56684e-08
5.02e-10,-1.04772e-07
5.03e-10,-7.53999e-08
5.04e-10,5.18315e-08
5.05e-10,1.30041e-08
5.06e-10,-8.916e-08
5.07e-10,-6.44226e-08
5.08e-10,-1.1423e-07
5.09e-10,-9.35338e-08
5.1e-10,-1.91649e-09
5.11e-10,-3.14999e-08
5.12e-10,-7.77728e-08
5.13e-10,-2.16491e-09
5.14e-10,-1.56379e-07
5.15e-10,2.80437e-08
5.16e-10,-1.16708e-07
5.17e-10,-2.83087e-08
5.18e-10,4.46488e-10
5.19e-10,-1.12548e-07
5.2e-10,-1.46544e-09
5.21e-10,-1.11253e-07
5.22e-10,-6.54566e-08
5.23e-10,1.51065e-08
5.24e-10,-1.14777e-09
5.25e-10,-1.18365e-07
5.26e-10,2.72994e-08
5.27e-10,-7.76172e-08
5.28e-10,4.57742e-10
5.29e-10,-1.9667e-08
5.3e-10,-2.08565e-07
5.31e-10,-5.92448e-08
5.32e-10,-5.27451e-10
5.33e-10,-5.65124e-08
5.34e-10,2.49576e-08
5.35e-10,-1.15742e-07
5.36e-10,-2.39823e-08
5.37e-10,-8.7561e-08
5.38e-10,5.19177e-08
5.39e-10,-6.15354e-08
5.4e-10,-6.24299e-08
5.41e-10,-2.62649e-08
5.42e-10,-1.06575e-07
5.43e-10,-1.13292e-07
5.44e-10,-5.72657e-08
5.45e-10,-2.63617e-09
5.46e-10,1.44807e-08
5.47e-10,-3.09229e-09
5.48e-10,-1.28425e-07
5.49e-10,-2.32651e-08
5.5e-10,2.49596e-08
5.51e-10,-2.32842e-09
5.52e-10,-6.13691e-08
5.53e-10,-2.56908e-09
5.54e-10,-1.55568e-07
5.55e-10,-5.92618e-08
5.56e-10,-5.58397e-08
5.57e-10,-1.18349e-07
5.58e-10,-6.05878e-08
5.59e-10,1.73669e-09
5.6e-10,2.76471e-08
5.61e-10,-6.52404e-08
5.62e-10,-2.31835e-08
5.63e-10,-1.20398e-07
5.64e-10,-7.78008e-10
5.65e-10,-5.56775e-08
5.66e-10,-3.56545e-08
5.67e-10,-4.87876e-08
5.68e-10,-2.73788e-08
5.69e-10,-5.07561e-08
5.7e-10,2.02576e-08
5.71e-10,-5.26789e-08
5.72e-10,-2.13977e-07
5.73e-10,2.92005e-08
5.74e-10,-2.75813e-08
5.75e-10,-7.39231e-08
5.76e-10,2.50291e-08
5.77e-10,-2.94837e-08
5.78e-10,-3.58042e-08
5.79e-10,2.87855e-08
5.8e-10,-2.78062e-08
5.81e-10,-1.62713e-07
5.82e-10,-1.12836e-07
5.83e-10,-1.23188e-09
5.84e-10,-5.96981e-08
5.85e-10,-2.35709e-08
5.86e-10,-3.4761e-09
5.87e-10,-5.87801e-08
5.88e-10,-3.96834e-08
5.89e-10,2.90727e-09
5.9e-10,-5.57343e-09
5.91e-10,-1.10327e-07
5.92e-10,-1.87245e-08
5.93e-10,-6.00804e-08
5.94e-10,-1.1032e-07
5.95e-10,2.04991e-09
5.96e-10,-2.83538e-09
5.97e-10,-2.91547e-10
5.98e-10,-5.83985e-08
5.99e-10,-3.31473e-09
6e-10,-5.8564e-08
6.01e-10,3.64724e-09
6.02e-10,-1.97993e-09
6.03e-10,6.19776e-10
6.04e-10,-9.8576e-08
6.05e-10,-5.83434e-08
6.06e-10,-5.91371e-08
6.07e-10,-5.8701e-08
6.08e-10,-4.53072e-08
6.09e-10,-3.42912e-09
6.1e-10,2.8894e-09
6.11e-10,-5.77823e-08
6.12e-10,-3.80416e-09
6.13e-10,6.7549e-10
6.14e-10,1.15002e-09
6.15e-10,-1.03957e-07
6.16e-10,-5.96659e-08
6.17e-10,-5.81843e-08
6.18e-10,-4.9653e-08
6.19e-10,3.69742e-09
6.2e-10,-2.04712e-09
6.21e-10,-1.9436e-09
6.22e-10,-6.26955e-08
6.23e-10,-2.21383e-08
6.24e-10,-3.51332e-08
6.25e-10,-7.10928e-09
6.26e-10,-1.42635e-07
6.27e-10,3.40679e-10
6.28e-10,-2.76821e-08
6.29e-10,-4.14248e-08
6.3e-10,-1.20631e-07
6.31e-10,-1.13736e-09
6.32e-10,-5.93832e-08
6.33e-10,-1.29084e-09
6.34e-10,-5.33669e-12
6.35e-10,-2.48788e-09
6.36e-10,2.29839e-09
6.37e-10,-5.32185e-08
6.38e-10,1.64377e-10
6.39e-10,-4.77648e-08
6.4e-10,-3.29188e-08
6.41e-10,-1.82198e-09
6.42e-10,-1.83254e-07
6.43e-10,-4.65546e-08
6.44e-10,-9.70386e-10
6.45e-10,2.72764e-09
6.46e-10,3.08521e-08
6.47e-10,-8.32427e-08
6.48e-10,-7.88668e-10
6.49e-10,2.52573e-08
6.5e-10,-1.33981e-09
6.51e-10,-1.32996e-07
6.52e-10,-1.14489e-09
6.53e-10,-5.22802e-08
6.54e-10,8.82171e-10
6.55e-10,-5.5308e-08
6.56e-10,-3.0661e-08
6.57e-10,-4.99525e-08
6.58e-10,-5.16704e-08
6.59e-10,-9.2227e-09
6.6e-10,-2.90928e-08
6.61e-10,-1.13175e-09
6.62e-10,-9.9335e-12
6.63e-10,8.56022e-10
6.64e-10,-5.66491e-08
6.65e-10,-3.99474e-08
6.66e-10,-1.12683e-10
6.67e-10,-9.31438e-08
6.68e-10,-6.7168e-08
6.69e-10,-1.43387e-09
6.7e-10,-4.38819e-08
6.71e-10,-7.92144e-10
6.72e-10,-2.45098e-09
6.73e-10,-4.73676e-08
6.74e-10,3.94972e-10
6.75e-10,-1.41222e-07
6.76e-10,6.22362e-09
6.77e-10,-4.79328e-08
6.78e-10,2.51037e-08
6.79e-10,-4.12731e-08
6.8e-10,-2.9453e-08
6.81e-10,-5.08216e-08
6.82e-10,2.96184e-08
6.83e-10,-6.80765e-08
6.84e-10,-3.79892e-08
6.85e-10,3.87122e-08
6.86e-10,-1.15559e-07
6.87e-10,3.8373e-09
6.88e-10,-5.14254e-08
6.89e-10,1.50143e-09
6.9e-10,-2.56069e-08
6.91e-10,1.34878e-09
6.92e-10,5.53501e-10
6.93e-10,-2.99236e-09
6.94e-10,-2.00402e-09
6.95e-10,-4.88938e-08
6.96e-10,2.79365e-10
6.97e-10,-2.00762e-08
6.98e-10,-4.59459e-08
6.99e-10,-7.65718e-08
7e-10,1.9568e-09
7.01e-10,-2.78627e-08
7.02e-10,2.70026e-08
7.03e-10,-4.84939e-08
7.04e-10,-2.52952e-09
7.05e-10,-2.587e-08
7.06e-10,-2.16392e-08
7.07e-10,-1.56602e-09
7.08e-10,-2.85365e-08
7.09e-10,-1.96585e-08
7.1e-10,-4.54381e-08
7.11e-10,1.19729e-09
7.12e-10,-2.28382e-08
7.13e-10,-6.66271e-08
7.14e-10,7.4005e-10
7.15e-10,2.87476e-09
7.16e-10,-7.49939e-08
7.17e-10,-4.71449e-08
7.18e-10,-1.48744e-09
7.19e-10,-1.39378e-09
7.2e-10,6.36078e-09
7.21e-10,-8.63814e-08
7.22e-10,-3.32133e-09
7.23e-10,-3.36457e-12
7.24e-10,7.4364e-10
7.25e-10,1.6503e-09
7.26e-10,-4.37788e-08
7.27e-10,-1.34925e-07
7.28e-10,2.26081e-09
7.29e-10,-4.5713e-08
7.3e-10,-1.57928e-09
7.31e-10,4.57873e-08
7.32e-10,-7.81223e-10
7.33e-10,-4.14847e-08
7.34e-10,-6.31349e-08
7.35e-10,-9.29901e-10
7.36e-10,-3.99521e-08
7.37e-10,-4.72714e-08
7.38e-10,-3.75422e-09
7.39e-10,1.15499e-09
7.4e-10,-4.53707e-08
7.41e-10,1.11537e-10
7.42e-10,2.55721e-09
7.43e-10,-4.48719e-08
7.44e-10,-4.78001e-08
7.45e-10,-1.68447e-08
7.46e-10,-4.0483e-08
7.47e-10,-2.35112e-09
7.48e-10,-4.40738e-08
7.49e-10,4.36263e-09
7.5e-10,1.74922e-09
7.51e-10,-4.42659e-10
7.52e-10,-1.71926e-09
7.53e-10,-4.50956e-08
7.54e-10,-2.08785e-09
7.55e-10,-5.99533e-08
7.56e-10,-8.18275e-08
7.57e-10,-4.83222e-09
7.58e-10,-4.4475e-08
7.59e-10,-6.33852e-10
7.6e-10,-8.87717e-08
7.61e-10,4.91227e-11
7.62e-10,1.86122e-09
7.63e-10,-4.5097e-08
7.64e-10,-5.93143e-09
7.65e-10,1.0078e-09
7.66e-10,-6.69148e-08
7.67e-10,4.34499e-09
7.68e-10,-4.36451e-08
7.69e-10,-4.57082e-09
7.7e-10,1.51798e-09
7.71e-10,2.20937e-09
7.72e-10,-1.83019e-09
7.73e-10,-4.22626e-08
7.74e-10,-4.39111e-08
7.75e-10,-1.68021e-09
7.76e-10,-4.302e-08
7.77e-10,-1.05443e-07
7.78e-10,5.39719e-10
7.79e-10,-7.26137e-09
7.8e-10,-4.25756e-08
7.81e-10,4.44146e-09
7.82e-10,-1.54497e-09
7.83e-10,-3.82297e-09
7.84e-10,2.06915e-09
7.85e-10,-4.33114e-08
7.86e-10,3.96547e-10
7.87e-10,-4.36317e-09
7.88e-10,-6.32521e-08
7.89e-10,6.29658e-09
7.9e-10,-4.80332e-08
7.91e-10,-4.19163e-08
7.92e-10,-4.41834e-08
7.93e-10,-1.68688e-09
7.94e-10,-2.53511e-08
7.95e-10,2.50863e-08
7.96e-10,-4.11244e-08
7.97e-10,-1.41832e-07
7.98e-10,-3.41484e-09
7.99e-10,-3.00731e-09
8e-10,-9.98798e-10
8.01e-10,-2.59651e-08
8.02e-10,-4.14758e-08
8.03e-10,2.38338e-08
8.04e-10,-2.73372e-08
8.05e-10,-4.5069e-08
8.06e-10,-2.91773e-08
8.07e-10,-1.25914e-07
8.08e-10,2.73439e-08
8.09e-10,-3.00014e-08
8.1e-10,-2.26868e-09
8.11e-10,3.2624e-09
8.12e-10,1.31029e-09
8.13e-10,-2.06363e-08
8.14e-10,-2.45844e-08
8.15e-10,-3.52737e-09
8.16e-10,-4.62621e-08
8.17e-10,-1.18004e-07
8.18e-10,-8.64542e-08
8.19e-10,1.44252e-10
8.2e-10,-1.31534e-09
8.21e-10,-1.23176e-09
8.22e-10,2.86571e-09
8.23e-10,-1.4288e-09
8.24e-10,2.03726e-09
8.25e-10,-7.46525e-08
8.26e-10,2.61983e-10
8.27e-10,-6.6987e-08
8.28e-10,1.0882e-09
8.29e-10,-4.03184e-08
8.3e-10,3.09612e-09
8.31e-10,-3.45933e-09
8.32e-10,-4.03492e-08
8.33e-10,2.3227e-08
8.34e-10,-8.79197e-08
8.35e-10,-4.37269e-08
8.36e-10,-1.11562e-07
8.37e-10,3.61932e-09
8.38e-10,-3.0288e-08
8.39e-10,-5.80098e-08
8.4e-10,-2.10048e-09
8.41e-10,-9.10795e-10
8.42e-10,-4.10033e-08
8.43e-10,3.99952e-08
8.44e-10,-1.8176e-07
8.45e-10,2.16405e-08
8.46e-10,-1.57403e-08
8.47e-10,-6.39416e-08
8.48e-10,-4.46985e-09
8.49e-10,5.30976e-09
8.5e-10,-5.78867e-08
8.51e-10,-4.13622e-09
8.52e-10,2.46925e-09
8.53e-10,-4.27646e-08
8.54e-10,-5.33018e-08
8.55e-10,-2.61355e-08
8.56e-10,-2.99898e-08
8.57e-10,5.76229e-09
8.58e-10,-1.03643e-07
8.59e-10,7.64916e-09
8.6e-10,-2.48142e-08
8.61e-10,2.29152e-10
8.62e-10,-4.34078e-08
8.63e-10,2.15486e-09
8.64e-10,-5.21142e-08
8.65e-10,-9.77932e-10
8.66e-10,-1.43151e-07
8.67e-10,-5.50688e-08
8.68e-10,1.84584e-08
8.69e-10,-1.05265e-07
8.7e-10,5.1817e-09
8.71e-10,-1.65188e-09
8.72e-10,-1.31393e-09
8.73e-10,-3.87999e-12
8.74e-10,-5.10864e-08
8.75e-10,-1.72736e-08
8.76e-10,-7.18243e-08
8.77e-10,-5.34146e-08
8.78e-10,3.04009e-08
8.79e-10,-6.48199e-08
8.8e-10,-2.47256e-08
8.81e-10,-3.09362e-09
8.82e-10,-8.78336e-08
8.83e-10,-3.91286e-08
8.84e-10,-4.36673e-08
8.85e-10,-5.31351e-08
8.86e-10,-4.71406e-08
8.87e-10,-6.8384e-08
8.88e-10,-4.15897e-08
8.89e-10,-6.66896e-08
8.9e-10,1.99065e-09
8.91e-10,-2.52553e-09
8.92e-10,-1.09956e-07
8.93e-10,-4.53652e-08
8.94e-10,-1.23738e-09
8.95e-10,-2.24096e-09
8.96e-10,-7.44419e-09
8.97e-10,-1.8769e-08
8.98e-10,-2.72346e-09
8.99e-10,1.13485e-09
9e-10,-2.003e-07
9.01e-10,-5.65341e-08
9.02e-10,-5.42778e-08
9.03e-10,-4.22502e-09
9.04e-10,-4.17338e-08
9.05e-10,1.86689e-09
9.06e-10,-3.00559e-09
9.07e-10,9.43005e-10
9.08e-10,-6.14765e-08
9.09e-10,1.78561e-08
9.1e-10,-1.20376e-07
9.11e-10,-8.64286e-08
9.12e-10,-5.40556e-08
9.13e-10,-4.12388e-08
9.14e-10,4.43771e-12
9.15e-10,-9.99967e-08
9.16e-10,-2.30661e-09
9.17e-10,-5.59491e-08
9.18e-10,-4.09816e-08
9.19e-10,3.90311e-09
9.2e-10,-3.60838e-09
9.21e-10,-1.10652e-07
9.22e-10,-2.58873e-09
9.23e-10,-1.82892e-09
9.24e-10,2.89062e-09
9.25e-10,-4.79874e-08
9.26e-10,-1.02044e-07
9.27e-10,-1.00711e-07
9.28e-10,1.83549e-09
9.29e-10,-4.3721e-08
9.3e-10,-6.03235e-08
9.31e-10,-4.71928e-08
9.32e-10,-2.91393e-08
9.33e-10,2.5396e-10
9.34e-10,-1.83549e-10
9.35e-10,-7.72106e-08
9.36e-10,-1.67433e-09
9.37e-10,-4.2566e-08
9.38e-10,-2.43603e-08
9.39e-10,-2.89708e-09
9.4e-10,-3.85111e-08
9.41e-10,-1.16012e-07
9.42e-10,-6.02537e-08
9.43e-10,-4.45917e-08
9.44e-10,-7.09483e-08
9.45e-10,2.66151e-08
9.46e-10,-7.43536e-08
9.47e-10,-1.60218e-12
9.48e-10,-4.3393e-08
9.49e-10,-1.05782e-07
9.5e-10,1.89113e-09
9.51e-10,-6.10812e-08
9.52e-10,-8.74822e-08
9.53e-10,-1.17291e-08
9.54e-10,-8.29328e-08
9.55e-10,-1.85369e-08
9.56e-10,-4.8481e-08
9.57e-10,-6.22735e-08
9.58e-10,-4.71096e-08
9.59e-10,-4.85355e-09
9.6e-10,3.4127e-10
9.61e-10,-8.09035e-08
9.62e-10,-1.25162e-07
9.63e-10,-4.62189e-08
9.64e-10,1.82945e-11
9.65e-10,-1.65291e-07
9.66e-10,-5.78088e-09
9.67e-10,1.39591e-09
9.68e-10,1.70607e-09
9.69e-10,6.29153e-09
9.7e-10,-1.08405e-09
9.71e-10,-7.13654e-08
9.72e-10,-1.21487e-07
9.73e-10,-1.41679e-07
9.74e-10,-4.59387e-08
9.75e-10,-6.27025e-08
9.76e-10,4.67308e-09
9.77e-10,-2.85722e-09
9.78e-10,2.99238e-09
9.79e-10,-5.04012e-08
9.8e-10,1.2014e-09
9.81e-10,-4.8741e-08
9.82e-10,-1.18486e-07
9.83e-10,-6.0492e-08
9.84e-10,-1.01447e-07
9.85e-10,-4.82613e-08
9.86e-10,-6.8693e-08
9.87e-10,4.08787e-08
9.88e-10,-8.8691e-08
9.89e-10,-6.33581e-08
9.9e-10,-4.06926e-10
9.91e-10,-4.70339e-08
9.92e-10,-1.05339e-07
9.93e-10,1.79419e-09
9.94e-10,-6.51084e-08
9.95e-10,6.44772e-10
9.96e-10,-1.6877e-07
9.97e-10,-6.3284e-08
9.98e-10,3.57033e-09
9.99e-10,-3.657e-08
1e-09,-5.52851e-08
2.1e-09,0
