0,0
1e-12,-3.10579e-06
2e-12,-2.14497e-06
3e-12,-1.56511e-06
4e-12,-5.73432e-07
5e-12,-1.04091e-06
6e-12,-1.2027e-06
7e-12,-7.8276e-07
8e-12,-1.33403e-06
9e-12,-1.738e-06
1e-11,-1.74628e-06
1.1e-11,-1.64963e-06
1.2e-11,-1.14208e-06
1.3e-11,-1.25341e-06
1.4e-11,-1.70007e-06
1.5e-11,-1.3919e-06
1.6e-11,-1.45646e-06
1.7e-11,-1.82089e-06
1.8e-11,-1.85121e-06
1.9e-11,-1.83986e-06
2e-11,-1.26795e-06
2.1e-11,-1.39434e-06
2.2e-11,-1.18396e-06
2.3e-11,-1.67188e-06
2.4e-11,-1.08749e-06
2.5e-11,-1.7959e-06
2.6e-11,-2.198e-06
2.7e-11,-1.55933e-06
2.8e-11,-1.53521e-06
2.9e-11,-1.23533e-06
3e-11,-1.42929e-06
3.1e-11,-1.00438e-06
3.2e-11,-1.37039e-06
3.3e-11,-1.46748e-06
3.4e-11,-1.40929e-06
3.5e-11,-1.48473e-06
3.6e-11,-1.77638e-06
3.7e-11,-1.35837e-06
3.8e-11,-1.65087e-06
3.9e-11,-1.51087e-06
4e-11,-1.18255e-06
4.1e-11,-1.03677e-06
4.2e-11,-1.73299e-06
4.3e-11,-1.17328e-06
4.4e-11,-1.80387e-06
4.5e-11,-1.30984e-06
4.6e-11,-1.37691e-06
4.7e-11,-1.54535e-06
4.8e-11,-1.51418e-06
4.9e-11,-1.37526e-06
5e-11,-1.22528e-06
5.1e-11,-1.87446e-06
5.2e-11,-1.53502e-06
5.3e-11,-1.50421e-06
5.4e-11,-1.40655e-06
5.5e-11,-9.32782e-07
5.6e-11,-2.04948e-06
5.7e-11,-1.83875e-06
5.8e-11,-1.12542e-06
5.9e-11,-1.4093e-06
6e-11,-1.54048e-06
6.1e-11,-1.07716e-06
6.2e-11,-1.53351e-06
6.3e-11,-1.32914e-06
6.4e-11,-1.23689e-06
6.5e-11,-1.87005e-06
6.6e-11,-9.15883e-07
6.7e-11,-1.41219e-06
6.8e-11,-1.3362e-06
6.9e-11,-1.48045e-06
7e-11,-1.46694e-06
7.1e-11,-1.435e-06
7.2e-11,-1.27066e-06
7.3e-11,-9.96252e-07
7.4e-11,-1.43825e-06
7.5e-11,-9.45299e-07
7.6e-11,-1.42065e-06
7.7e-11,-1.66667e-06
7.8e-11,-1.89497e-06
7.9e-11,-1.45974e-06
8e-11,-9.68846e-07
8.1e-11,-1.28034e-06
8.2e-11,-1.89392e-06
8.3e-11,-7.87732e-07
8.4e-11,-1.24764e-06
8.5e-11,-1.24796e-06
8.6e-11,-1.37424e-06
8.7e-11,-1.34478e-06
8.8e-11,-1.36876e-06
8.9e-11,-1.04607e-06
9e-11,-1.79875e-06
9.1e-11,-1.28892e-06
9.2e-11,-1.17352e-06
9.3e-11,-1.55835e-06
9.4e-11,-1.86121e-06
9.5e-11,-1.47046e-06
9.6e-11,-1.42452e-06
9.7e-11,-1.24918e-06
9.8e-11,-9.58903e-07
9.9e-11,-9.5146e-07
1e-10,-1.49469e-06
1.01e-10,-1.64027e-06
1.02e-10,-9.54402e-07
1.03e-10,-2.0068e-06
1.04e-10,-1.33006e-06
1.05e-10,-1.58063e-06
1.06e-10,-1.07807e-06
1.07e-10,-1.02955e-06
1.08e-10,-9.9821e-07
1.09e-10,-1.60999e-06
1.1e-10,-1.11029e-06
1.11e-10,-1.43284e-06
1.12e-10,-1.37374e-06
1.13e-10,-1.7262e-06
1.14e-10,-9.31396e-07
1.15e-10,-9.92738e-07
1.16e-10,-1.0254e-06
1.17e-10,-1.28727e-06
1.18e-10,-1.27896e-06
1.19e-10,-1.27371e-06
1.2e-10,-1.36162e-06
1.21e-10,-1.42763e-06
1.22e-10,-8.80389e-07
1.23e-10,-9.33379e-07
1.24e-10,-9.89096e-07
1.25e-10,-1.00077e-06
1.26e-10,-1.24036e-06
1.27e-10,-1.06177e-06
1.28e-10,-1.34704e-06
1.29e-10,-1.56273e-06
1.3e-10,-8.80705e-07
1.31e-10,-1.26813e-06
1.32e-10,-6.46773e-07
1.33e-10,-1.0223e-06
1.34e-10,-1.11164e-06
1.35e-10,-1.16047e-06
1.36e-10,-1.18461e-06
1.37e-10,-1.48641e-06
1.38e-10,-1.05635e-06
1.39e-10,-1.08235e-06
1.4e-10,-8.18808e-07
1.41e-10,-6.29164e-07
1.42e-10,-1.0208e-06
1.43e-10,-1.35612e-06
1.44e-10,-1.28998e-06
1.45e-10,-1.27063e-06
1.46e-10,-1.03885e-06
1.47e-10,-8.58084e-07
1.48e-10,-1.20254e-06
1.49e-10,-6.56352e-07
1.5e-10,-1.09428e-06
1.51e-10,-6.73553e-07
1.52e-10,-1.0553e-06
1.53e-10,-1.13534e-06
1.54e-10,-1.2911e-06
1.55e-10,-9.74285e-07
1.56e-10,-7.95268e-07
1.57e-10,-8.36814e-07
1.58e-10,-6.78184e-07
1.59e-10,-1.18816e-06
1.6e-10,-1.05868e-06
1.61e-10,-5.13294e-07
1.62e-10,-1.20468e-06
1.63e-10,-1.20928e-06
1.64e-10,-8.25852e-07
1.65e-10,-7.34216e-07
1.66e-10,-9.40257e-07
1.67e-10,-8.54613e-07
1.68e-10,-6.59121e-07
1.69e-10,-1.13578e-06
1.7e-10,-1.07196e-06
1.71e-10,-8.95793e-07
1.72e-10,-7.69617e-07
1.73e-10,-6.27396e-07
1.74e-10,-7.3954e-07
1.75e-10,-1.32684e-06
1.76e-10,-6.20106e-07
1.77e-10,-1.09221e-06
1.78e-10,-6.80461e-07
1.79e-10,-1.35773e-06
1.8e-10,-8.92545e-07
1.81e-10,-4.85708e-07
1.82e-10,-6.52361e-07
1.83e-10,-7.66182e-07
1.84e-10,-8.90702e-07
1.85e-10,-1.13445e-06
1.86e-10,-7.40786e-07
1.87e-10,-9.12947e-07
1.88e-10,-1.18228e-06
1.89e-10,-5.9721e-07
1.9e-10,-2.62404e-07
1.91e-10,-7.65918e-07
1.92e-10,-1.01843e-06
1.93e-10,-1.14641e-06
1.94e-10,-5.47687e-07
1.95e-10,-9.51736e-07
1.96e-10,-1.01287e-06
1.97e-10,-5.64237e-07
1.98e-10,-7.07398e-07
1.99e-10,-6.35589e-07
2e-10,-9.13002e-07
2.01e-10,-9.55861e-07
2.02e-10,-7.38145e-07
2.03e-10,-1.01867e-06
2.04e-10,-1.12497e-06
2.05e-10,-8.56136e-07
2.06e-10,-6.10687e-07
2.07e-10,-8.49969e-07
2.08e-10,-9.31375e-07
2.09e-10,-9.36715e-07
2.1e-10,-9.4915e-07
2.11e-10,-3.9938e-07
2.12e-10,-9.09682e-07
2.13e-10,-1.30058e-06
2.14e-10,-8.26003e-07
2.15e-10,-7.13466e-07
2.16e-10,-4.48171e-07
2.17e-10,-8.15817e-07
2.18e-10,-9.31657e-07
2.19e-10,-7.74122e-07
2.2e-10,-7.05915e-07
2.21e-10,-1.03278e-06
2.22e-10,-7.77096e-07
2.23e-10,-7.61137e-07
2.24e-10,-8.79697e-07
2.25e-10,-6.2627e-07
2.26e-10,-6.76424e-07
2.27e-10,-1.07824e-06
2.28e-10,-7.49237e-07
2.29e-10,-4.23192e-07
2.3e-10,-6.94525e-07
2.31e-10,-6.22902e-07
2.32e-10,-7.99372e-07
2.33e-10,-3.43146e-07
2.34e-10,-7.62944e-07
2.35e-10,-6.15145e-07
2.36e-10,-4.4942e-07
2.37e-10,-6.36521e-07
2.38e-10,-3.48849e-07
2.39e-10,-4.93899e-07
2.4e-10,-5.71983e-07
2.41e-10,-7.39653e-07
2.42e-10,-4.78266e-07
2.43e-10,-2.67537e-07
2.44e-10,-3.04262e-07
2.45e-10,-3.69689e-07
2.46e-10,-2.16555e-07
2.47e-10,-3.32569e-07
2.48e-10,-3.06866e-07
2.49e-10,-3.74231e-07
2.5e-10,-4.73631e-07
2.51e-10,-3.08966e-07
2.52e-10,-5.27536e-07
2.53e-10,-1.38702e-07
2.54e-10,-2.83647e-07
2.55e-10,-4.18242e-07
2.56e-10,-3.80883e-07
2.57e-10,-3.03468e-07
2.58e-10,-5.20185e-07
2.59e-10,-2.98685e-07
2.6e-10,-4.62731e-07
2.61e-10,-2.09029e-07
2.62e-10,-3.19988e-07
2.63e-10,-3.02131e-07
2.64e-10,-4.45034e-07
2.65e-10,-3.68489e-07
2.66e-10,-3.10613e-07
2.67e-10,-4.40348e-07
2.68e-10,-1.66323e-07
2.69e-10,-2.4134e-07
2.7e-10,-5.06162e-07
2.71e-10,-2.1005e-07
2.72e-10,-3.89368e-07
2.73e-10,-2.30215e-07
2.74e-10,-3.82124e-07
2.75e-10,-4.57885e-07
2.76e-10,-3.83435e-07
2.77e-10,-1.39427e-07
2.78e-10,-3.95938e-07
2.79e-10,-4.90647e-07
2.8e-10,-4.88434e-07
2.81e-10,-3.53761e-08
2.82e-10,-4.39433e-07
2.83e-10,-4.26078e-07
2.84e-10,-3.33429e-07
2.85e-10,-6.47049e-08
2.86e-10,-8.83163e-08
2.87e-10,-3.87758e-07
2.88e-10,-2.46487e-07
2.89e-10,-4.31937e-07
2.9e-10,-5.06656e-07
2.91e-10,-1.44589e-07
2.92e-10,-4.39733e-07
2.93e-10,-1.56654e-07
2.94e-10,-1.25819e-07
2.95e-10,-4.08366e-07
2.96e-10,-1.69799e-07
2.97e-10,-1.72217e-07
2.98e-10,-3.60402e-07
2.99e-10,-2.02698e-07
3e-10,-2.36759e-07
3.01e-10,-3.48071e-07
3.02e-10,-1.64461e-07
3.03e-10,-1.70338e-07
3.04e-10,-4.66318e-07
3.05e-10,-1.64175e-07
3.06e-10,-7.65679e-08
3.07e-10,-2.5292e-07
3.08e-10,-4.43417e-07
3.09e-10,-1.57773e-07
3.1e-10,-2.19424e-07
3.11e-10,-1.19076e-07
3.12e-10,-2.61465e-07
3.13e-10,-1.52865e-07
3.14e-10,-1.9963e-07
3.15e-10,-2.79283e-07
3.16e-10,-2.48129e-07
3.17e-10,1.49691e-08
3.18e-10,-2.68256e-07
3.19e-10,-1.96472e-07
3.2e-10,-3.85524e-07
3.21e-10,-7.29025e-08
3.22e-10,-1.47601e-07
3.23e-10,-1.92562e-07
3.24e-10,6.65007e-08
3.25e-10,-3.2525e-07
3.26e-10,-8.77438e-08
3.27e-10,-2.82723e-07
3.28e-10,-8.296e-09
3.29e-10,-3.17747e-07
3.3e-10,-3.84176e-08
3.31e-10,-2.5999e-07
3.32e-10,-1.31343e-07
3.33e-10,-1.12305e-07
3.34e-10,-1.78892e-07
3.35e-10,-1.81258e-07
3.36e-10,-1.00821e-07
3.37e-10,-1.65068e-07
3.38e-10,-2.03146e-07
3.39e-10,2.08014e-08
3.4e-10,-1.70805e-07
3.41e-10,-8.33013e-08
3.42e-10,-2.17135e-07
3.43e-10,-1.5079e-07
3.44e-10,-2.6364e-07
3.45e-10,-1.20725e-07
3.46e-10,-1.75972e-07
3.47e-10,-1.81806e-07
3.48e-10,-1.41371e-07
3.49e-10,-3.54855e-08
3.5e-10,-1.59291e-07
3.51e-10,-1.14455e-07
3.52e-10,-2.93172e-07
3.53e-10,-1.52061e-07
3.54e-10,-1.74056e-07
3.55e-10,1.40444e-08
3.56e-10,-2.19041e-07
3.57e-10,-2.1145e-07
3.58e-10,-1.26751e-07
3.59e-10,1.13629e-08
3.6e-10,-1.38304e-07
3.61e-10,-2.29758e-07
3.62e-10,-1.51943e-07
3.63e-10,-2.27415e-07
3.64e-10,-6.89318e-08
3.65e-10,-7.99448e-08
3.66e-10,-2.27441e-07
3.67e-10,-1.55446e-07
3.68e-10,7.85976e-08
3.69e-10,-3.74662e-08
3.7e-10,-2.04574e-07
3.71e-10,-1.45472e-07
3.72e-10,-5.18778e-08
3.73e-10,-1.61256e-07
3.74e-10,-8.46403e-08
3.75e-10,1.0323e-08
3.76e-10,-1.41603e-07
3.77e-10,-1.84147e-07
3.78e-10,-1.92974e-08
3.79e-10,-8.62909e-08
3.8e-10,-2.89358e-07
3.81e-10,-7.61555e-08
3.82e-10,-2.41917e-08
3.83e-10,-1.50338e-07
3.84e-10,-1.73718e-07
3.85e-10,-6.41799e-08
3.86e-10,-1.68262e-07
3.87e-10,2.08593e-08
3.88e-10,-1.19045e-07
3.89e-10,-2.03069e-07
3.9e-10,-3.92488e-08
3.91e-10,-1.13088e-09
3.92e-10,-2.35707e-07
3.93e-10,-1.185e-07
3.94e-10,-2.12765e-07
3.95e-10,2.81016e-08
3.96e-10,-1.50194e-07
3.97e-10,-1.19411e-07
3.98e-10,-7.93238e-08
3.99e-10,-2.04358e-07
4e-10,-6.25941e-08
4.01e-10,-5.13105e-08
4.02e-10,-1.67984e-08
4.03e-10,-2.79129e-07
4.04e-10,1.4474e-08
4.05e-10,-1.65267e-07
4.06e-10,-1.824e-07
4.07e-10,-2.31399e-07
4.08e-10,-3.18351e-08
4.09e-10,-2.14071e-08
4.1e-10,1.95602e-08
4.11e-10,-5.7586e-08
4.12e-10,-6.78387e-08
4.13e-10,-1.16905e-07
4.14e-10,-1.16999e-07
4.15e-10,-2.20928e-07
4.16e-10,-2.20338e-07
4.17e-10,-1.16444e-07
4.18e-10,-4.80274e-08
4.19e-10,-2.97081e-08
4.2e-10,-1.72891e-07
4.21e-10,7.10619e-08
4.22e-10,3.10955e-09
4.23e-10,-1.38977e-07
4.24e-10,-1.67892e-07
4.25e-10,-1.09751e-07
4.26e-10,-1.074e-07
4.27e-10,4.12264e-08
4.28e-10,-1.89186e-07
4.29e-10,-5.19738e-08
4.3e-10,-1.18694e-07
4.31e-10,-6.03704e-08
4.32e-10,1.98512e-08
4.33e-10,-1.65322e-07
4.34e-10,-1.99661e-07
4.35e-10,-1.19261e-07
4.36e-10,-6.0572e-08
4.37e-10,-6.55374e-08
4.38e-10,-6.73554e-08
4.39e-10,2.01982e-08
4.4e-10,-1.00261e-07
4.41e-10,-1.56247e-07
4.42e-10,-6.71674e-08
4.43e-10,-2.43395e-07
4.44e-10,-7.98647e-08
4.45e-10,-2.00103e-07
4.46e-10,-8.08462e-09
4.47e-10,-9.41728e-08
4.48e-10,2.84252e-08
4.49e-10,-7.55962e-08
4.5e-10,-1.9694e-07
4.51e-10,-7.4419e-08
4.52e-10,1.65196e-08
4.53e-10,1.02779e-08
4.54e-10,-1.91798e-07
4.55e-10,-1.8312e-07
4.56e-10,-9.74478e-08
4.57e-10,-1.14119e-07
4.58e-10,-1.00201e-07
4.59e-10,-9.28341e-08
4.6e-10,2.11602e-09
4.61e-10,4.57069e-09
4.62e-10,-1.70978e-07
4.63e-10,7.66737e-09
4.64e-10,3.98048e-08
4.65e-10,5.74027e-09
4.66e-10,-1.17478e-07
4.67e-10,-2.14025e-07
4.68e-10,-8.05162e-08
4.69e-10,6.47136e-08
4.7e-10,-1.38749e-07
4.71e-10,6.03698e-08
4.72e-10,-1.06952e-07
4.73e-10,-1.71044e-07
4.74e-10,-1.02036e-07
4.75e-10,8.02934e-08
4.76e-10,-1.45805e-07
4.77e-10,-1.22608e-07
4.78e-10,-1.27825e-07
4.79e-10,-8.83801e-08
4.8e-10,-1.47728e-07
4.81e-10,-4.82456e-08
4.82e-10,4.67322e-09
4.83e-10,1.00219e-08
4.84e-10,-6.4977e-08
4.85e-10,-8.66515e-08
4.86e-10,-6.43231e-08
4.87e-10,-3.92293e-10
4.88e-10,-2.39405e-07
4.89e-10,-1.21746e-08
4.9e-10,1.2076e-08
4.91e-10,-1.38287e-07
4.92e-10,-1.11827e-07
4.93e-10,-1.17024e-07
4.94e-10,4.42358e-08
4.95e-10,-5.43596e-08
4.96e-10,-1.2062e-07
4.97e-10,-2.22326e-08
4.98e-10,-7.90717e-08
4.99e-10,-3.34676e-08
5e-10,-7.84456e-08
5.01e-10,-9.84239e-08
5.02e-10,-1.75433e-07
5.03e-10,-1.32485e-07
5.04e-10,-8.53257e-08
5.05e-10,-1.79805e-08
5.06e-10,-3.3794e-08
5.07e-10,-2.96629e-08
5.08e-10,-1.27616e-07
5.09e-10,-8.19638e-08
5.1e-10,-9.18469e-08
5.11e-10,7.46431e-09
5.12e-10,-7.84944e-08
5.13e-10,-1.29406e-07
5.14e-10,-2.54462e-08
5.15e-10,-2.04874e-08
5.16e-10,-6.60043e-08
5.17e-10,-1.24574e-07
5.18e-10,-1.05184e-07
5.19e-10,-6.76955e-08
5.2e-10,-8.26008e-08
5.21e-10,1.84188e-08
5.22e-10,-1.64718e-08
5.23e-10,-1.41719e-07
5.24e-10,-9.66961e-08
5.25e-10,-1.18048e-07
5.26e-10,-1.03939e-08
5.27e-10,-7.51771e-10
5.28e-10,-9.07829e-09
5.29e-10,-8.25472e-08
5.3e-10,-1.44539e-07
5.31e-10,1.35398e-08
5.32e-10,1.00206e-08
5.33e-10,-1.79588e-07
5.34e-10,-1.31375e-07
5.35e-10,-1.32397e-07
5.36e-10,7.49444e-08
5.37e-10,-9.3663e-08
5.38e-10,-8.97197e-08
5.39e-10,-4.53342e-08
5.4e-10,-6.57483e-08
5.41e-10,-7.71348e-08
5.42e-10,-9.3743e-09
5.43e-10,-3.40699e-08
5.44e-10,-1.22138e-07
5.45e-10,-1.95624e-08
5.46e-10,-1.93106e-08
5.47e-10,-1.74988e-08
5.48e-10,-1.88237e-07
5.49e-10,9.24067e-10
5.5e-10,-1.22538e-07
5.51e-10,-3.9746e-08
5.52e-10,-4.27347e-09
5.53e-10,-7.98239e-08
5.54e-10,-5.53218e-08
5.55e-10,-7.09469e-09
5.56e-10,-5.09262e-08
5.57e-10,-4.60823e-09
5.58e-10,-9.89033e-08
5.59e-10,-1.06483e-10
5.6e-10,-1.07972e-07
5.61e-10,-7.90488e-08
5.62e-10,-6.88536e-08
5.63e-10,-1.77522e-07
5.64e-10,-1.22868e-07
5.65e-10,-6.22659e-08
5.66e-10,-4.25241e-08
5.67e-10,4.90061e-09
5.68e-10,-2.49777e-09
5.69e-10,-2.92108e-09
5.7e-10,-6.13924e-08
5.71e-10,-3.22284e-08
5.72e-10,-5.7425e-08
5.73e-10,-8.84361e-08
5.74e-10,-6.99112e-08
5.75e-10,-1.80553e-07
5.76e-10,4.32609e-08
5.77e-10,-1.08236e-07
5.78e-10,-1.03342e-07
5.79e-10,-8.58446e-08
5.8e-10,1.06898e-09
5.81e-10,-6.60414e-08
5.82e-10,-1.24412e-07
5.83e-10,-3.12734e-08
5.84e-10,-4.36023e-09
5.85e-10,-1.36833e-07
5.86e-10,-9.766e-08
5.87e-10,5.48367e-09
5.88e-10,-5.9047e-08
5.89e-10,-1.1776e-07
5.9e-10,-9.83064e-08
5.91e-10,-1.11686e-10
5.92e-10,-4.63204e-08
5.93e-10,-4.51389e-09
5.94e-10,-7.06872e-08
5.95e-10,-3.21643e-08
5.96e-10,-7.45532e-08
5.97e-10,-2.29888e-07
5.98e-10,4.26266e-11
5.99e-10,-5.27954e-08
6e-10,-1.61401e-07
6.01e-10,-2.47523e-10
6.02e-10,-8.55769e-08
6.03e-10,-4.17772e-08
6.04e-10,-4.46136e-08
6.05e-10,1.8967e-10
6.06e-10,-1.41014e-07
6.07e-10,-3.92918e-08
6.08e-10,-1.21362e-07
6.09e-10,-4.44926e-08
6.1e-10,-2.09519e-07
6.11e-10,-7.95383e-08
6.12e-10,-6.56254e-08
6.13e-10,-2.4772e-08
6.14e-10,1.81624e-08
6.15e-10,-1.48875e-07
6.16e-10,2.11455e-08
6.17e-10,-1.83924e-08
6.18e-10,-1.61987e-09
6.19e-10,-1.74631e-07
6.2e-10,-8.67788e-08
6.21e-10,-5.75262e-08
6.22e-10,6.71314e-09
6.23e-10,-1.68877e-07
6.24e-10,-2.05904e-07
6.25e-10,-1.00317e-07
6.26e-10,1.84987e-08
6.27e-10,-1.47212e-08
6.28e-10,4.08128e-08
6.29e-10,-8.96624e-08
6.3e-10,-1.95975e-07
6.31e-10,-1.86573e-07
6.32e-10,-1.60209e-07
6.33e-10,-2.06977e-08
6.34e-10,-1.21494e-07
6.35e-10,-5.46915e-08
6.36e-10,4.48579e-08
6.37e-10,8.57718e-09
6.38e-10,-1.10536e-07
6.39e-10,-1.94598e-08
6.4e-10,1.94573e-08
6.41e-10,-3.59852e-07
6.42e-10,-1.15333e-07
6.43e-10,-1.06201e-07
6.44e-10,-5.44025e-09
6.45e-10,-8.67585e-08
6.46e-10,-1.04689e-07
6.47e-10,-3.68471e-08
6.48e-10,1.10642e-08
6.49e-10,-4.85609e-08
6.5e-10,-5.04395e-08
6.51e-10,-1.71828e-07
6.52e-10,-1.44292e-07
6.53e-10,-8.14389e-08
6.54e-10,-9.60882e-08
6.55e-10,-2.00471e-08
6.56e-10,-1.7961e-08
6.57e-10,-4.62461e-08
6.58e-10,-1.2479e-07
6.59e-10,-1.87785e-07
6.6e-10,1.43734e-08
6.61e-10,-4.31354e-08
6.62e-10,-1.15333e-07
6.63e-10,-1.449e-07
6.64e-10,-5.66086e-08
6.65e-10,-6.34916e-08
6.66e-10,-1.05656e-07
6.67e-10,-3.16469e-08
6.68e-10,-1.36037e-07
6.69e-10,-7.17053e-08
6.7e-10,-6.15382e-10
6.71e-10,-1.47556e-07
6.72e-10,2.80794e-08
6.73e-10,-2.26334e-07
6.74e-10,-1.00646e-07
6.75e-10,-6.45944e-08
6.76e-10,4.93511e-10
6.77e-10,-1.52741e-07
6.78e-10,-1.7182e-08
6.79e-10,-1.42657e-07
6.8e-10,-1.62779e-09
6.81e-10,2.62667e-09
6.82e-10,-1.20716e-07
6.83e-10,-1.84388e-07
6.84e-10,2.33127e-08
6.85e-10,-1.22495e-07
6.86e-10,-3.36279e-08
6.87e-10,-1.65704e-07
6.88e-10,-1.14026e-07
6.89e-10,-6.93045e-08
6.9e-10,-1.25254e-07
6.91e-10,-1.2412e-07
6.92e-10,-7.05787e-09
6.93e-10,1.96138e-09
6.94e-10,-1.08082e-07
6.95e-10,-6.75148e-08
6.96e-10,-1.02246e-07
6.97e-10,-4.47534e-08
6.98e-10,2.64021e-09
6.99e-10,-6.26575e-08
7e-10,-1.7032e-07
7.01e-10,-5.23056e-08
7.02e-10,3.4607e-10
7.03e-10,-1.142e-07
7.04e-10,-1.08906e-07
7.05e-10,-5.68066e-08
7.06e-10,-7.6966e-08
7.07e-10,-1.54068e-08
7.08e-10,-3.7818e-08
7.09e-10,-8.16091e-08
7.1e-10,-1.84734e-07
7.11e-10,-4.14638e-08
7.12e-10,-9.75498e-08
7.13e-10,-1.79823e-07
7.14e-10,-2.07528e-08
7.15e-10,-5.87527e-08
7.16e-10,-7.92154e-08
7.17e-10,-1.7278e-07
7.18e-10,-2.63153e-10
7.19e-10,-4.18592e-08
7.2e-10,2.20709e-09
7.21e-10,-9.91646e-08
7.22e-10,-1.15103e-07
7.23e-10,-2.02162e-07
7.24e-10,-5.73582e-09
7.25e-10,-5.43457e-08
7.26e-10,-6.843e-08
7.27e-10,2.71588e-08
7.28e-10,-6.06362e-08
7.29e-10,-5.44618e-08
7.3e-10,-1.01791e-07
7.31e-10,-1.78435e-08
7.32e-10,-2.13382e-07
7.33e-10,-7.19586e-08
7.34e-10,-1.56563e-07
7.35e-10,-5.57491e-08
7.36e-10,-7.78556e-09
7.37e-10,-1.89097e-09
7.38e-10,-9.22656e-08
7.39e-10,-1.06176e-07
7.4e-10,-4.48623e-08
7.41e-10,3.08476e-09
7.42e-10,-5.31226e-09
7.43e-10,-1.14678e-07
7.44e-10,-2.66544e-08
7.45e-10,-2.3025e-07
7.46e-10,-1.53873e-07
7.47e-10,2.65609e-08
7.48e-10,-7.74109e-08
7.49e-10,-5.29361e-08
7.5e-10,-4.37426e-08
7.51e-10,-4.21149e-08
7.52e-10,-1.02497e-07
7.53e-10,-2.1253e-08
7.54e-10,-7.66173e-08
7.55e-10,-9.11063e-08
7.56e-10,-1.34215e-07
7.57e-10,-7.65096e-08
7.58e-10,-4.30754e-08
7.59e-10,1.84125e-08
7.6e-10,-1.11455e-07
7.61e-10,2.30285e-08
7.62e-10,-2.25437e-07
7.63e-10,-9.29474e-08
7.64e-10,-2.1594e-07
7.65e-10,-6.0371e-08
7.66e-10,-5.04847e-08
7.67e-10,-4.87112e-08
7.68e-10,-2.71851e-08
7.69e-10,-2.71124e-08
7.7e-10,-3.78328e-08
7.71e-10,-6.06947e-08
7.72e-10,-1.70268e-07
7.73e-10,-1.8365e-09
7.74e-10,-7.59676e-08
7.75e-10,-3.96375e-08
7.76e-10,-1.39938e-07
7.77e-10,6.59888e-09
7.78e-10,-1.77397e-08
7.79e-10,-6.64073e-08
7.8e-10,-6.28315e-08
7.81e-10,-9.9693e-08
7.82e-10,-5.0297e-08
7.83e-10,-7.72135e-08
7.84e-10,-4.84411e-08
7.85e-10,-3.63167e-08
7.86e-10,-4.45076e-08
7.87e-10,-1.49153e-07
7.88e-10,3.60989e-09
7.89e-10,-8.15398e-08
7.9e-10,-6.62294e-08
7.91e-10,-9.73613e-08
7.92e-10,-4.80986e-08
7.93e-10,-4.80274e-08
7.94e-10,-7.0425e-08
7.95e-10,-1.01281e-07
7.96e-10,3.67115e-08
7.97e-10,-1.00842e-07
7.98e-10,-1.2476e-09
7.99e-10,-3.5568e-07
8e-10,2.08588e-08
8.01e-10,-2.53614e-08
8.02e-10,-4.12134e-08
8.03e-10,-4.50522e-08
8.04e-10,-6.89275e-08
8.05e-10,-1.69051e-08
8.06e-10,-4.41883e-08
8.07e-10,-2.68323e-08
8.08e-10,-9.01587e-08
8.09e-10,-1.4099e-07
8.1e-10,-9.45157e-08
8.11e-10,-4.61528e-10
8.12e-10,-1.66019e-07
8.13e-10,2.57491e-09
8.14e-10,-2.86064e-08
8.15e-10,-4.73744e-08
8.16e-10,-1.18825e-07
8.17e-10,-4.18898e-09
8.18e-10,-3.84112e-08
8.19e-10,-5.67418e-08
8.2e-10,2.33142e-09
8.21e-10,-2.71369e-07
8.22e-10,-3.55465e-08
8.23e-10,-4.61391e-09
8.24e-10,-1.12437e-07
8.25e-10,4.55827e-09
8.26e-10,-5.32417e-08
8.27e-10,9.23695e-10
8.28e-10,-1.34228e-07
8.29e-10,1.38212e-10
8.3e-10,-7.74402e-08
8.31e-10,-3.47348e-08
8.32e-10,-1.36087e-07
8.33e-10,3.25704e-08
8.34e-10,-1.36852e-07
8.35e-10,-9.64593e-08
8.36e-10,-8.98715e-08
8.37e-10,7.42978e-09
8.38e-10,-3.47296e-08
8.39e-10,-4.76066e-09
8.4e-10,-1.20027e-07
8.41e-10,-3.59473e-08
8.42e-10,-9.50709e-09
8.43e-10,-9.84934e-08
8.44e-10,-7.30667e-08
8.45e-10,-8.15648e-08
8.46e-10,1.60652e-11
8.47e-10,5.0133e-09
8.48e-10,-4.17519e-08
8.49e-10,-4.6702e-08
8.5e-10,-8.9126e-08
8.51e-10,-4.14665e-08
8.52e-10,-5.22632e-08
8.53e-10,-5.37892e-08
8.54e-10,-3.5487e-08
8.55e-10,-8.54286e-08
8.56e-10,3.79314e-08
8.57e-10,-5.22778e-08
8.58e-10,-1.39311e-07
8.59e-10,-4.57785e-10
8.6e-10,-1.56657e-08
8.61e-10,-4.79504e-09
8.62e-10,-1.99645e-07
8.63e-10,3.47288e-08
8.64e-10,-7.68299e-08
8.65e-10,-3.68184e-08
8.66e-10,-6.12344e-08
8.67e-10,-4.68151e-08
8.68e-10,-2.11046e-08
8.69e-10,-1.9536e-07
8.7e-10,-2.24917e-08
8.71e-10,-4.02051e-08
8.72e-10,3.41434e-09
8.73e-10,2.38688e-09
8.74e-10,-2.4401e-08
8.75e-10,-4.84657e-08
8.76e-10,-1.08068e-07
8.77e-10,3.08748e-09
8.78e-10,-1.84227e-07
8.79e-10,-1.20822e-09
8.8e-10,8.88015e-09
8.81e-10,-4.56005e-08
8.82e-10,1.4623e-10
8.83e-10,-9.00106e-08
8.84e-10,-1.70847e-09
8.85e-10,-9.91014e-08
8.86e-10,-1.47847e-09
8.87e-10,-9.90708e-08
8.88e-10,-8.73e-08
8.89e-10,-3.34774e-09
8.9e-10,2.91993e-08
8.91e-10,-4.63957e-08
8.92e-10,-1.3417e-07
8.93e-10,-1.13796e-08
8.94e-10,-4.70102e-09
8.95e-10,-1.0261e-07
8.96e-10,1.43941e-08
8.97e-10,-1.3131e-07
8.98e-10,-1.62444e-09
8.99e-10,-2.55128e-09
9e-10,2.76049e-09
9.01e-10,-7.18875e-08
9.02e-10,-2.11264e-07
9.03e-10,1.74791e-09
9.04e-10,2.24294e-09
9.05e-10,-4.16335e-08
9.06e-10,-4.43899e-09
9.07e-10,1.82663e-09
9.08e-10,-4.58834e-09
9.09e-10,-6.44422e-08
9.1e-10,4.30381e-09
9.11e-10,-1.44246e-07
9.12e-10,-4.44074e-08
9.13e-10,-7.20887e-08
9.14e-10,3.49688e-08
9.15e-10,-7.33835e-08
9.16e-10,-1.26735e-07
9.17e-10,-2.66502e-08
9.18e-10,-3.69087e-08
9.19e-10,-5.59663e-08
9.2e-10,-5.15578e-08
9.21e-10,-8.46041e-08
9.22e-10,3.24994e-09
9.23e-10,2.86688e-08
9.24e-10,-2.94492e-08
9.25e-10,-4.5397e-08
9.26e-10,-1.32976e-07
9.27e-10,5.47895e-09
9.28e-10,-8.84719e-08
9.29e-10,-1.81957e-09
9.3e-10,-8.79869e-08
9.31e-10,-4.57927e-08
9.32e-10,2.87424e-08
9.33e-10,-4.22993e-08
9.34e-10,-6.13475e-08
9.35e-10,-2.47754e-09
9.36e-10,-7.05458e-08
9.37e-10,-2.11758e-08
9.38e-10,-8.67294e-08
9.39e-10,-3.42518e-08
9.4e-10,-4.79546e-08
9.41e-10,-1.31459e-08
9.42e-10,-1.52932e-07
9.43e-10,-2.9279e-08
9.44e-10,-8.73482e-08
9.45e-10,4.35713e-08
9.46e-10,-1.61131e-08
9.47e-10,-7.91476e-08
9.48e-10,-8.31361e-08
9.49e-10,7.52956e-09
9.5e-10,-6.90313e-08
9.51e-10,-2.73949e-08
9.52e-10,-2.69523e-09
9.53e-10,-7.9798e-08
9.54e-10,-1.79964e-09
9.55e-10,-4.16996e-08
9.56e-10,-3.41752e-08
9.57e-10,-4.36922e-08
9.58e-10,-8.60689e-08
9.59e-10,8.55002e-09
9.6e-10,-1.92935e-08
9.61e-10,-1.85562e-08
9.62e-10,-2.39888e-08
9.63e-10,-7.39013e-08
9.64e-10,-4.46792e-08
9.65e-10,-3.91975e-08
9.66e-10,1.39652e-08
9.67e-10,-1.37477e-07
9.68e-10,2.58882e-08
9.69e-10,-4.5661e-08
9.7e-10,-2.56543e-08
9.71e-10,-1.3074e-09
9.72e-10,2.77991e-08
9.73e-10,-8.608e-08
9.74e-10,-2.59579e-08
9.75e-10,-6.96224e-08
9.76e-10,-1.05254e-08
9.77e-10,2.97091e-08
9.78e-10,-3.98107e-11
9.79e-10,-9.83564e-10
9.8e-10,-4.42566e-08
9.81e-10,-1.48078e-08
9.82e-10,-1.87442e-09
9.83e-10,-1.67162e-07
9.84e-10,-6.78985e-08
9.85e-10,4.38879e-08
9.86e-10,-4.23875e-08
9.87e-10,6.46862e-08
9.88e-10,-1.09573e-07
9.89e-10,2.01901e-08
9.9e-10,-4.54659e-08
9.91e-10,-5.46104e-08
9.92e-10,-6.01876e-08
9.93e-10,-4.52175e-08
9.94e-10,1.12598e-09
9.95e-10,-4.78999e-08
9.96e-10,4.09304e-08
9.97e-10,-4.6081e-08
9.98e-10,-1.84714e-08
9.99e-10,-4.58475e-09
1e-09,-2.74039e-08
2.1e-09,0
