0,0
1e-12,-7.6881e-07
2e-12,-5.1208e-07
3e-12,-9.85205e-07
4e-12,-1.43704e-06
5e-12,-2.49281e-06
6e-12,-2.33021e-06
7e-12,-1.61581e-06
8e-12,-1.08468e-06
9e-12,-4.93846e-07
1e-11,-1.2199e-06
1.1e-11,-1.04715e-06
1.2e-11,-8.45035e-07
1.3e-11,-8.49334e-07
1.4e-11,-1.24913e-06
1.5e-11,-1.3494e-06
1.6e-11,-1.9422e-06
1.7e-11,-1.51747e-06
1.8e-11,-1.1185e-06
1.9e-11,-1.10063e-06
2e-11,-1.19094e-06
2.1e-11,-9.29987e-07
2.2e-11,-1.37639e-06
2.3e-11,-1.40767e-06
2.4e-11,-1.04086e-06
2.5e-11,-1.26165e-06
2.6e-11,-1.25669e-06
2.7e-11,-5.31452e-07
2.8e-11,-1.28442e-06
2.9e-11,-1.23971e-06
3e-11,-1.4067e-06
3.1e-11,-1.84576e-06
3.2e-11,-1.21734e-06
3.3e-11,-1.27049e-06
3.4e-11,-1.07585e-06
3.5e-11,-1.57077e-06
3.6e-11,-8.65067e-07
3.7e-11,-8.61791e-07
3.8e-11,-9.03092e-07
3.9e-11,-1.15504e-06
4e-11,-9.58053e-07
4.1e-11,-1.89851e-06
4.2e-11,-1.49659e-06
4.3e-11,-1.26222e-06
4.4e-11,-5.50133e-07
4.5e-11,-1.41463e-06
4.6e-11,-1.19874e-06
4.7e-11,-1.03271e-06
4.8e-11,-1.09975e-06
4.9e-11,-1.60669e-06
5e-11,-8.91754e-07
5.1e-11,-1.377e-06
5.2e-11,-7.95545e-07
5.3e-11,-6.20606e-07
5.4e-11,-9.13399e-07
5.5e-11,-1.22294e-06
5.6e-11,-1.55746e-06
5.7e-11,-1.42528e-06
5.8e-11,-1.02963e-06
5.9e-11,-1.26184e-06
6e-11,-9.74021e-07
6.1e-11,-1.13932e-06
6.2e-11,-1.0119e-06
6.3e-11,-9.91767e-07
6.4e-11,-1.0608e-06
6.5e-11,-9.07459e-07
6.6e-11,-1.22262e-06
6.7e-11,-1.02108e-06
6.8e-11,-9.66119e-07
6.9e-11,-9.93288e-07
7e-11,-9.49813e-07
7.1e-11,-1.07932e-06
7.2e-11,-9.73151e-07
7.3e-11,-1.49562e-06
7.4e-11,-1.20138e-06
7.5e-11,-1.41963e-06
7.6e-11,-9.65265e-07
7.7e-11,-1.10993e-06
7.8e-11,-5.93153e-07
7.9e-11,-1.08233e-06
8e-11,-1.13763e-06
8.1e-11,-6.76074e-07
8.2e-11,-1.20565e-06
8.3e-11,-1.22188e-06
8.4e-11,-1.23887e-06
8.5e-11,-9.25968e-07
8.6e-11,-7.95334e-07
8.7e-11,-5.67433e-07
8.8e-11,-1.22142e-06
8.9e-11,-1.48264e-06
9e-11,-1.13071e-06
9.1e-11,-1.05763e-06
9.2e-11,-1.32207e-06
9.3e-11,-9.48021e-07
9.4e-11,-6.73793e-07
9.5e-11,-1.26313e-06
9.6e-11,-1.23825e-06
9.7e-11,-9.08596e-07
9.8e-11,-1.21168e-06
9.9e-11,-1.04283e-06
1e-10,-9.98708e-07
1.01e-10,-1.21267e-06
1.02e-10,-8.652e-07
1.03e-10,-8.00669e-07
1.04e-10,-8.4312e-07
1.05e-10,-1.25203e-06
1.06e-10,-9.06197e-07
1.07e-10,-9.2321e-07
1.08e-10,-1.38763e-06
1.09e-10,-1.04019e-06
1.1e-10,-1.00961e-06
1.11e-10,-6.67209e-07
1.12e-10,-1.29273e-06
1.13e-10,-1.08839e-06
1.14e-10,-1.39609e-06
1.15e-10,-1.21243e-06
1.16e-10,-8.32515e-07
1.17e-10,-1.0133e-06
1.18e-10,-6.5651e-07
1.19e-10,-1.10913e-06
1.2e-10,-1.28539e-06
1.21e-10,-1.21222e-06
1.22e-10,-1.22624e-06
1.23e-10,-1.0197e-06
1.24e-10,-6.63295e-07
1.25e-10,-1.14611e-06
1.26e-10,-1.06616e-06
1.27e-10,-8.61263e-07
1.28e-10,-8.61289e-07
1.29e-10,-8.86181e-07
1.3e-10,-1.19525e-06
1.31e-10,-1.39933e-06
1.32e-10,-6.70528e-07
1.33e-10,-1.35459e-06
1.34e-10,-1.28688e-06
1.35e-10,-8.22562e-07
1.36e-10,-8.12155e-07
1.37e-10,-7.97905e-07
1.38e-10,-1.20608e-06
1.39e-10,-1.07292e-06
1.4e-10,-7.64296e-07
1.41e-10,-1.09864e-06
1.42e-10,-1.32186e-06
1.43e-10,-9.69688e-07
1.44e-10,-5.88265e-07
1.45e-10,-1.3371e-06
1.46e-10,-7.43919e-07
1.47e-10,-1.19148e-06
1.48e-10,-6.1588e-07
1.49e-10,-1.19793e-06
1.5e-10,-9.60727e-07
1.51e-10,-5.29294e-07
1.52e-10,-5.06425e-07
1.53e-10,-9.49657e-07
1.54e-10,-3.96198e-07
1.55e-10,-8.30695e-07
1.56e-10,-9.73723e-07
1.57e-10,-1.01776e-06
1.58e-10,-5.98577e-07
1.59e-10,-3.20728e-07
1.6e-10,-6.2789e-07
1.61e-10,-4.52564e-07
1.62e-10,-5.11328e-07
1.63e-10,-5.30777e-07
1.64e-10,-5.82892e-07
1.65e-10,-6.88724e-07
1.66e-10,-6.36793e-07
1.67e-10,-3.23607e-07
1.68e-10,-4.7959e-07
1.69e-10,-2.39389e-07
1.7e-10,-4.98833e-07
1.71e-10,-6.10461e-07
1.72e-10,-3.89126e-07
1.73e-10,-5.7156e-07
1.74e-10,-4.18826e-07
1.75e-10,-4.44255e-07
1.76e-10,-6.32768e-07
1.77e-10,-1.67078e-07
1.78e-10,-3.00531e-07
1.79e-10,-4.98208e-07
1.8e-10,-5.08738e-07
1.81e-10,-3.72784e-07
1.82e-10,-5.73902e-07
1.83e-10,-4.37831e-07
1.84e-10,-2.23825e-07
1.85e-10,-2.68487e-07
1.86e-10,-2.03093e-07
1.87e-10,-8.3528e-07
1.88e-10,-3.61147e-07
1.89e-10,-4.56496e-07
1.9e-10,-4.60414e-07
1.91e-10,-3.16904e-07
1.92e-10,-3.7036e-07
1.93e-10,-3.883e-07
1.94e-10,-3.297e-07
1.95e-10,-5.56144e-07
1.96e-10,-1.94219e-07
1.97e-10,-3.55935e-07
1.98e-10,-8.70909e-07
1.99e-10,-4.07319e-07
2e-10,-5.81791e-07
2.01e-10,-2.1777e-07
2.02e-10,-3.59456e-07
2.03e-10,-5.06885e-07
2.04e-10,-3.35419e-07
2.05e-10,7.16221e-08
2.06e-10,-4.3629e-07
2.07e-10,-4.73614e-07
2.08e-10,-6.31267e-07
2.09e-10,-3.40769e-07
2.1e-10,-1.71664e-07
2.11e-10,-6.79495e-07
2.12e-10,-2.83103e-07
2.13e-10,-2.81884e-07
2.14e-10,-3.86495e-07
2.15e-10,-3.44573e-07
2.16e-10,-2.18521e-07
2.17e-10,-3.05522e-07
2.18e-10,-7.4055e-08
2.19e-10,-6.65993e-07
2.2e-10,-3.96166e-07
2.21e-10,-2.93174e-07
2.22e-10,-1.09745e-07
2.23e-10,-4.13224e-07
2.24e-10,-4.47106e-07
2.25e-10,-4.31209e-07
2.26e-10,-2.29755e-07
2.27e-10,-2.2835e-07
2.28e-10,-1.49703e-07
2.29e-10,-3.37324e-07
2.3e-10,-8.3294e-08
2.31e-10,-1.94614e-07
2.32e-10,-2.78961e-07
2.33e-10,-1.6859e-07
2.34e-10,-1.08417e-07
2.35e-10,-4.23048e-07
2.36e-10,-3.39435e-07
2.37e-10,-2.35558e-07
2.38e-10,-7.02416e-08
2.39e-10,-2.82237e-07
2.4e-10,-2.64658e-07
2.41e-10,-3.82322e-08
2.42e-10,-1.16271e-07
2.43e-10,-2.02207e-07
2.44e-10,-3.27082e-07
2.45e-10,-5.68064e-08
2.46e-10,-2.42679e-07
2.47e-10,-1.01658e-07
2.48e-10,-6.47563e-08
2.49e-10,-6.34558e-08
2.5e-10,-2.08146e-07
2.51e-10,-2.66194e-07
2.52e-10,-2.46172e-07
2.53e-10,-1.48777e-07
2.54e-10,-2.21602e-07
2.55e-10,-8.9206e-08
2.56e-10,-3.37785e-07
2.57e-10,-1.59732e-07
2.58e-10,-1.41203e-07
2.59e-10,-1.1554e-07
2.6e-10,-2.11434e-07
2.61e-10,-6.86172e-08
2.62e-10,-2.48739e-07
2.63e-10,-5.26062e-08
2.64e-10,-1.4839e-07
2.65e-10,-1.42011e-07
2.66e-10,-3.9133e-07
2.67e-10,-1.06228e-07
2.68e-10,-1.28846e-07
2.69e-10,-1.91368e-07
2.7e-10,-2.01686e-07
2.71e-10,-1.03657e-07
2.72e-10,-2.65739e-07
2.73e-10,-1.72654e-07
2.74e-10,-1.34047e-07
2.75e-10,-2.60148e-07
2.76e-10,-2.41666e-07
2.77e-10,6.1239e-09
2.78e-10,-6.04746e-08
2.79e-10,-3.03825e-08
2.8e-10,-2.43994e-07
2.81e-10,-3.62083e-08
2.82e-10,-1.57057e-07
2.83e-10,-2.10824e-07
2.84e-10,-1.95321e-07
2.85e-10,-2.44075e-07
2.86e-10,6.04682e-08
2.87e-10,-2.37805e-07
2.88e-10,-8.62981e-08
2.89e-10,-1.07993e-07
2.9e-10,-1.17936e-07
2.91e-10,-1.14498e-07
2.92e-10,-6.06932e-08
2.93e-10,-2.06389e-07
2.94e-10,-1.83823e-07
2.95e-10,1.24757e-08
2.96e-10,-8.90023e-08
2.97e-10,-1.56042e-07
2.98e-10,5.66403e-08
2.99e-10,-7.82266e-08
3e-10,-2.92024e-08
3.01e-10,-6.08659e-08
3.02e-10,-1.34276e-07
3.03e-10,-1.93207e-07
3.04e-10,-1.31209e-07
3.05e-10,-9.95028e-08
3.06e-10,-2.69942e-07
3.07e-10,-1.12451e-07
3.08e-10,-6.16754e-08
3.09e-10,-1.6451e-08
3.1e-10,-7.72846e-08
3.11e-10,-1.26296e-07
3.12e-10,1.18331e-07
3.13e-10,-1.62208e-07
3.14e-10,-8.62473e-08
3.15e-10,2.86894e-09
3.16e-10,-1.68873e-07
3.17e-10,-1.52954e-07
3.18e-10,-1.947e-07
3.19e-10,-1.48512e-07
3.2e-10,-1.92762e-08
3.21e-10,-8.25274e-08
3.22e-10,-7.71906e-08
3.23e-10,-2.34203e-07
3.24e-10,-5.70709e-08
3.25e-10,8.56453e-08
3.26e-10,-1.2356e-07
3.27e-10,-7.87426e-08
3.28e-10,-7.34125e-08
3.29e-10,-8.64806e-08
3.3e-10,-1.60394e-08
3.31e-10,-1.28853e-07
3.32e-10,-8.58475e-08
3.33e-10,5.20556e-08
3.34e-10,-7.5085e-08
3.35e-10,-1.23395e-07
3.36e-10,-4.98119e-08
3.37e-10,-1.0236e-07
3.38e-10,-8.59086e-08
3.39e-10,-7.29872e-08
3.4e-10,-1.19376e-07
3.41e-10,4.82399e-09
3.42e-10,-4.21439e-08
3.43e-10,-1.91063e-07
3.44e-10,-1.61246e-07
3.45e-10,-1.61208e-07
3.46e-10,-1.43352e-08
3.47e-10,-2.91075e-07
3.48e-10,7.33185e-08
3.49e-10,-1.56851e-08
3.5e-10,-1.18548e-07
3.51e-10,-5.37469e-08
3.52e-10,-1.33135e-07
3.53e-10,-1.09123e-07
3.54e-10,2.04737e-08
3.55e-10,-4.0017e-08
3.56e-10,6.09556e-10
3.57e-10,-3.33061e-08
3.58e-10,-1.4582e-07
3.59e-10,-6.35487e-08
3.6e-10,-2.4362e-07
3.61e-10,-7.45736e-08
3.62e-10,4.06992e-08
3.63e-10,-8.77518e-08
3.64e-10,-4.64542e-08
3.65e-10,1.04158e-09
3.66e-10,-6.28984e-08
3.67e-10,-4.01977e-08
3.68e-10,-1.3912e-07
3.69e-10,2.70127e-08
3.7e-10,-1.23541e-07
3.71e-10,-1.78937e-08
3.72e-10,-1.07972e-07
3.73e-10,-6.23746e-08
3.74e-10,4.00719e-08
3.75e-10,-1.36906e-07
3.76e-10,-2.91661e-07
3.77e-10,1.96169e-08
3.78e-10,-1.01775e-07
3.79e-10,3.52521e-08
3.8e-10,-1.04006e-07
3.81e-10,-3.63567e-08
3.82e-10,7.1776e-08
3.83e-10,-1.54018e-07
3.84e-10,2.65693e-08
3.85e-10,-5.91959e-08
3.86e-10,3.00979e-09
3.87e-10,-9.5938e-08
3.88e-10,-7.44732e-08
3.89e-10,6.32459e-08
3.9e-10,-5.07942e-08
3.91e-10,-1.40529e-07
3.92e-10,-2.05073e-08
3.93e-10,3.59232e-10
3.94e-10,-1.25548e-07
3.95e-10,-9.58365e-08
3.96e-10,-6.44054e-08
3.97e-10,6.33765e-08
3.98e-10,-4.85174e-08
3.99e-10,-1.00564e-08
4e-10,-8.41197e-09
4.01e-10,-1.47685e-07
4.02e-10,-9.93279e-08
4.03e-10,-2.90153e-08
4.04e-10,-1.29477e-07
4.05e-10,1.33405e-08
4.06e-10,-4.81583e-08
4.07e-10,-5.09353e-08
4.08e-10,-1.36821e-07
4.09e-10,7.18863e-08
4.1e-10,-1.24891e-07
4.11e-10,-7.92916e-08
4.12e-10,-2.92026e-08
4.13e-10,1.88537e-09
4.14e-10,-7.03885e-08
4.15e-10,-3.36504e-08
4.16e-10,-1.35463e-07
4.17e-10,8.38914e-08
4.18e-10,-5.10102e-08
4.19e-10,-3.46587e-08
4.2e-10,-1.90822e-07
4.21e-10,-3.10616e-09
4.22e-10,-7.48927e-10
4.23e-10,7.65474e-09
4.24e-10,-2.63863e-07
4.25e-10,1.52454e-08
4.26e-10,7.68054e-08
4.27e-10,-4.57023e-08
4.28e-10,1.46374e-08
4.29e-10,-1.12679e-07
4.3e-10,-4.05502e-08
4.31e-10,-8.38316e-08
4.32e-10,4.53666e-08
4.33e-10,-9.41951e-08
4.34e-10,-1.21445e-07
4.35e-10,-6.69017e-08
4.36e-10,1.14427e-07
4.37e-10,-9.11229e-08
4.38e-10,-1.04824e-07
4.39e-10,1.21641e-08
4.4e-10,-6.82597e-08
4.41e-10,-6.07138e-08
4.42e-10,-8.05443e-08
4.43e-10,-2.46475e-08
4.44e-10,4.85023e-08
4.45e-10,-8.14106e-08
4.46e-10,1.11541e-09
4.47e-10,-1.21023e-07
4.48e-10,-3.34721e-09
4.49e-10,-1.15489e-07
4.5e-10,6.80713e-08
4.51e-10,-5.20146e-08
4.52e-10,-8.27425e-08
4.53e-10,-5.69653e-08
4.54e-10,-4.09605e-08
4.55e-10,-7.72358e-08
4.56e-10,-2.20748e-08
4.57e-10,-3.14639e-08
4.58e-10,-2.70126e-08
4.59e-10,-7.19057e-08
4.6e-10,-1.32869e-08
4.61e-10,-3.42091e-08
4.62e-10,3.288e-08
4.63e-10,-2.60085e-08
4.64e-10,-3.57452e-10
4.65e-10,-7.65569e-08
4.66e-10,2.11831e-08
4.67e-10,-6.12082e-09
4.68e-10,2.07079e-09
4.69e-10,-1.00471e-07
4.7e-10,8.06396e-08
4.71e-10,-1.27988e-07
4.72e-10,2.89129e-08
4.73e-10,-7.13426e-09
4.74e-10,-1.6458e-07
4.75e-10,-9.69105e-08
4.76e-10,-1.36467e-08
4.77e-10,-3.00811e-08
4.78e-10,-4.32333e-08
4.79e-10,-3.91264e-08
4.8e-10,1.13071e-07
4.81e-10,-1.7405e-08
4.82e-10,-8.82478e-08
4.83e-10,-3.94358e-08
4.84e-10,-1.37006e-07
4.85e-10,-4.56756e-08
4.86e-10,-2.73636e-08
4.87e-10,-6.45172e-08
4.88e-10,3.06709e-08
4.89e-10,-3.05464e-08
4.9e-10,1.5526e-08
4.91e-10,-1.7147e-08
4.92e-10,-2.06094e-07
4.93e-10,2.41852e-08
4.94e-10,-1.08136e-08
4.95e-10,-1.20726e-07
4.96e-10,-8.31778e-08
4.97e-10,1.56299e-08
4.98e-10,-1.53791e-07
4.99e-10,8.34549e-09
5e-10,-1.01852e-07
5.01e-10,-2.54891e-08
5.02e-10,1.46373e-08
5.03e-10,2.50697e-08
5.04e-10,-4.07334e-08
5.05e-10,-1.8016e-07
5.06e-10,-2.81295e-08
5.07e-10,-1.10565e-07
5.08e-10,2.4911e-08
5.09e-10,-8.37179e-09
5.1e-10,-1.95084e-07
5.11e-10,5.19853e-08
5.12e-10,-5.60111e-08
5.13e-10,2.15928e-08
5.14e-10,-3.07404e-08
5.15e-10,-7.47101e-08
5.16e-10,-8.73846e-08
5.17e-10,-2.53856e-08
5.18e-10,-1.38192e-07
5.19e-10,-2.98473e-08
5.2e-10,-4.48743e-09
5.21e-10,-3.9596e-08
5.22e-10,-2.11396e-08
5.23e-10,-1.88586e-09
5.24e-10,-4.92428e-08
5.25e-10,-6.63763e-09
5.26e-10,-2.6838e-08
5.27e-10,-7.83841e-08
5.28e-10,-9.91742e-08
5.29e-10,-6.90832e-08
5.3e-10,2.55814e-08
5.31e-10,-4.12598e-08
5.32e-10,-7.04696e-08
5.33e-10,9.75057e-10
5.34e-10,5.31414e-08
5.35e-10,1.54408e-08
5.36e-10,-2.40364e-08
5.37e-10,-9.75146e-08
5.38e-10,-4.36375e-08
5.39e-10,-9.34616e-08
5.4e-10,-3.30704e-09
5.41e-10,-2.10106e-08
5.42e-10,2.88615e-09
5.43e-10,-3.94862e-08
5.44e-10,-6.47216e-08
5.45e-10,-4.10249e-08
5.46e-10,-4.22602e-09
5.47e-10,-2.47981e-08
5.48e-10,-5.07325e-08
5.49e-10,2.96339e-08
5.5e-10,-4.0392e-09
5.51e-10,-1.11947e-07
5.52e-10,-1.72498e-07
5.53e-10,-4.05492e-08
5.54e-10,-2.54231e-09
5.55e-10,5.81095e-10
5.56e-10,-1.42587e-07
5.57e-10,4.09957e-08
5.58e-10,-3.88732e-08
5.59e-10,-5.52379e-08
5.6e-10,3.70813e-08
5.61e-10,-4.01982e-08
5.62e-10,-1.94202e-07
5.63e-10,2.33087e-08
5.64e-10,-5.59282e-08
5.65e-10,-2.64802e-08
5.66e-10,-3.15767e-08
5.67e-10,-7.31545e-08
5.68e-10,-3.55212e-09
5.69e-10,-1.76594e-08
5.7e-10,-6.39047e-08
5.71e-10,5.83844e-09
5.72e-10,-6.05819e-08
5.73e-10,-2.89411e-08
5.74e-10,-1.05674e-07
5.75e-10,-3.726e-08
5.76e-10,-4.74657e-08
5.77e-10,-2.44879e-08
5.78e-10,-6.31224e-08
5.79e-10,-9.32585e-10
5.8e-10,-5.19886e-09
5.81e-10,2.21147e-08
5.82e-10,-2.47231e-08
5.83e-10,-2.37354e-09
5.84e-10,-1.23042e-07
5.85e-10,-8.04008e-08
5.86e-10,-3.431e-08
5.87e-10,-1.04366e-07
5.88e-10,2.73178e-08
5.89e-10,-9.58568e-08
5.9e-10,-1.03922e-08
5.91e-10,3.99873e-08
5.92e-10,-2.71056e-08
5.93e-10,-6.44374e-08
5.94e-10,-9.52155e-08
5.95e-10,-3.3098e-08
5.96e-10,-9.48975e-08
5.97e-10,-6.16995e-08
5.98e-10,3.29606e-08
5.99e-10,-4.1415e-09
6e-10,-4.36005e-08
6.01e-10,-2.42127e-09
6.02e-10,-3.43067e-08
6.03e-10,-1.94067e-07
6.04e-10,2.69962e-08
6.05e-10,2.49186e-08
6.06e-10,2.69889e-09
6.07e-10,-5.60118e-08
6.08e-10,-2.07514e-08
6.09e-10,-7.99713e-10
6.1e-10,-8.99486e-10
6.11e-10,-1.78359e-08
6.12e-10,-1.32799e-08
6.13e-10,-2.39348e-08
6.14e-10,-8.31042e-08
6.15e-10,-5.04323e-08
6.16e-10,-1.17457e-09
6.17e-10,3.54652e-09
6.18e-10,1.27561e-08
6.19e-10,-1.63593e-07
6.2e-10,-3.32439e-08
6.21e-10,-3.80232e-08
6.22e-10,-6.15715e-08
6.23e-10,-3.10215e-09
6.24e-10,-4.47189e-09
6.25e-10,3.14387e-08
6.26e-10,-8.19978e-08
6.27e-10,9.80908e-10
6.28e-10,5.01355e-08
6.29e-10,6.51383e-10
6.3e-10,-1.14234e-07
6.31e-10,-5.52033e-08
6.32e-10,6.02258e-13
6.33e-10,-1.17435e-07
6.34e-10,-1.68866e-08
6.35e-10,6.72198e-09
6.36e-10,-5.15446e-09
6.37e-10,-4.94243e-08
6.38e-10,-8.16545e-08
6.39e-10,-5.47745e-10
6.4e-10,2.57108e-08
6.41e-10,-5.54619e-08
6.42e-10,-2.98936e-08
6.43e-10,-5.47489e-08
6.44e-10,-1.52693e-08
6.45e-10,-5.01744e-10
6.46e-10,-1.72695e-09
6.47e-10,-2.84105e-08
6.48e-10,-1.19195e-07
6.49e-10,2.48826e-08
6.5e-10,4.76966e-11
6.51e-10,-7.86217e-08
6.52e-10,-7.23793e-08
6.53e-10,-2.61691e-09
6.54e-10,-1.5797e-09
6.55e-10,-5.15052e-08
6.56e-10,-1.63758e-07
6.57e-10,2.64586e-08
6.58e-10,-2.06998e-09
6.59e-10,-5.10381e-08
6.6e-10,-2.06355e-08
6.61e-10,-8.04505e-08
6.62e-10,1.33853e-08
6.63e-10,-1.15129e-07
6.64e-10,-5.45015e-08
6.65e-10,-3.94117e-08
6.66e-10,-5.0504e-09
6.67e-10,9.44033e-10
6.68e-10,-7.98627e-08
6.69e-10,1.23284e-09
6.7e-10,1.82906e-08
6.71e-10,-8.58432e-08
6.72e-10,2.25833e-08
6.73e-10,-1.93823e-07
6.74e-10,1.18182e-08
6.75e-10,-6.8803e-08
6.76e-10,2.75897e-08
6.77e-10,-3.50244e-08
6.78e-10,6.92449e-09
6.79e-10,1.67059e-10
6.8e-10,-1.46709e-07
6.81e-10,-1.66738e-08
6.82e-10,-4.77344e-08
6.83e-10,-2.68116e-09
6.84e-10,-1.14504e-07
6.85e-10,2.02256e-08
6.86e-10,2.91436e-09
6.87e-10,-4.68452e-08
6.88e-10,-3.20101e-08
6.89e-10,-8.64478e-08
6.9e-10,4.91546e-09
6.91e-10,2.53301e-08
6.92e-10,-3.97303e-08
6.93e-10,-4.89937e-08
6.94e-10,-1.68776e-07
6.95e-10,-5.1755e-08
6.96e-10,4.41804e-09
6.97e-10,4.78279e-08
6.98e-10,-8.45801e-08
6.99e-10,3.07157e-08
7e-10,-4.24058e-08
7.01e-10,-4.68288e-08
7.02e-10,-3.86017e-08
7.03e-10,-3.52429e-08
7.04e-10,-3.23044e-08
7.05e-10,-1.15769e-07
7.06e-10,-2.55608e-09
7.07e-10,-2.25482e-08
7.08e-10,-3.85372e-09
7.09e-10,-4.45741e-08
7.1e-10,-5.69987e-10
7.11e-10,-1.72227e-08
7.12e-10,-4.15746e-08
7.13e-10,-6.35565e-08
7.14e-10,1.28855e-09
7.15e-10,-1.40458e-07
7.16e-10,-4.80074e-08
7.17e-10,2.54256e-08
7.18e-10,-9.27519e-08
7.19e-10,-2.1865e-08
7.2e-10,-2.58782e-09
7.21e-10,-4.9679e-08
7.22e-10,-3.89307e-08
7.23e-10,-3.22104e-08
7.24e-10,-5.19457e-09
7.25e-10,-1.11121e-07
7.26e-10,9.6318e-10
7.27e-10,-8.75188e-08
7.28e-10,3.27325e-10
7.29e-10,-1.47574e-09
7.3e-10,-1.03195e-07
7.31e-10,-9.21365e-08
7.32e-10,5.84357e-10
7.33e-10,-5.27199e-09
7.34e-10,-8.21256e-09
7.35e-10,2.63568e-09
7.36e-10,-1.67469e-09
7.37e-10,-7.45976e-08
7.38e-10,-6.26617e-08
7.39e-10,-6.21112e-08
7.4e-10,-4.62004e-08
7.41e-10,3.53092e-09
7.42e-10,-1.18184e-07
7.43e-10,-1.92646e-09
7.44e-10,-9.72325e-08
7.45e-10,-4.8672e-10
7.46e-10,-3.37107e-08
7.47e-10,-1.1874e-07
7.48e-10,-1.04126e-08
7.49e-10,2.59355e-08
7.5e-10,2.8818e-09
7.51e-10,-2.86121e-08
7.52e-10,5.81923e-08
7.53e-10,-7.30756e-08
7.54e-10,-1.04378e-07
7.55e-10,-3.65554e-08
7.56e-10,-5.07771e-08
7.57e-10,-9.56603e-08
7.58e-10,-5.80991e-08
7.59e-10,-5.39733e-10
7.6e-10,-7.26786e-08
7.61e-10,-1.73865e-09
7.62e-10,2.87787e-08
7.63e-10,-4.54341e-08
7.64e-10,-5.23237e-08
7.65e-10,2.05898e-09
7.66e-10,-7.73793e-08
7.67e-10,-2.44225e-08
7.68e-10,-3.58574e-10
7.69e-10,7.78764e-10
7.7e-10,-7.11599e-08
7.71e-10,-4.52967e-08
7.72e-10,8.96901e-09
7.73e-10,-9.7757e-08
7.74e-10,-8.4237e-10
7.75e-10,-9.12647e-08
7.76e-10,1.16443e-09
7.77e-10,3.71119e-09
7.78e-10,-5.01506e-09
7.79e-10,-4.86183e-09
7.8e-10,-4.90501e-08
7.81e-10,-9.09521e-08
7.82e-10,-9.42991e-08
7.83e-10,-2.63073e-09
7.84e-10,-3.29885e-08
7.85e-10,-7.56249e-09
7.86e-10,-6.17772e-10
7.87e-10,-1.00937e-11
7.88e-10,2.42683e-08
7.89e-10,-2.6452e-08
7.9e-10,-5.47012e-08
7.91e-10,-9.2051e-08
7.92e-10,-4.16524e-08
7.93e-10,-6.59044e-08
7.94e-10,-1.21096e-07
7.95e-10,5.51498e-08
7.96e-10,2.66173e-08
7.97e-10,-6.16518e-08
7.98e-10,2.10727e-09
7.99e-10,-8.3106e-08
8e-10,-2.50431e-08
8.01e-10,-2.49625e-08
8.02e-10,-4.58377e-08
8.03e-10,-9.02178e-08
8.04e-10,-2.47381e-08
8.05e-10,-7.5437e-09
8.06e-10,-3.85138e-08
8.07e-10,-3.34267e-09
8.08e-10,-5.57203e-08
8.09e-10,2.03522e-08
8.1e-10,-7.7446e-08
8.11e-10,-5.65683e-08
8.12e-10,-9.06553e-08
8.13e-10,-2.89608e-09
8.14e-10,2.59414e-09
8.15e-10,-3.38748e-08
8.16e-10,-3.61025e-10
8.17e-10,-5.83432e-08
8.18e-10,3.22798e-09
8.19e-10,2.87744e-09
8.2e-10,-9.45095e-08
8.21e-10,-2.21589e-09
8.22e-10,-4.37757e-08
8.23e-10,4.5729e-10
8.24e-10,-6.00139e-08
8.25e-10,-3.79188e-08
8.26e-10,-5.21511e-08
8.27e-10,-5.30942e-09
8.28e-10,-4.9853e-08
8.29e-10,-1.06147e-10
8.3e-10,-8.55528e-08
8.31e-10,-6.20106e-11
8.32e-10,-3.5568e-08
8.33e-10,-6.21245e-08
8.34e-10,-5.5514e-08
8.35e-10,-5.05089e-08
8.36e-10,-6.42386e-09
8.37e-10,2.41679e-09
8.38e-10,-9.71662e-08
8.39e-10,-4.75665e-08
8.4e-10,-3.42855e-08
8.41e-10,1.09442e-08
8.42e-10,-1.58993e-09
8.43e-10,-6.32641e-08
8.44e-10,-8.70549e-09
8.45e-10,-2.45463e-09
8.46e-10,-3.04533e-08
8.47e-10,-5.24495e-08
8.48e-10,-9.63884e-08
8.49e-10,-3.42762e-09
8.5e-10,6.39367e-09
8.51e-10,-6.18364e-08
8.52e-10,-8.73987e-08
8.53e-10,5.16673e-10
8.54e-10,-2.74943e-09
8.55e-10,2.2963e-09
8.56e-10,-2.95782e-09
8.57e-10,-9.71642e-08
8.58e-10,-6.21745e-08
8.59e-10,-7.41012e-08
8.6e-10,-4.49318e-09
8.61e-10,-4.44668e-08
8.62e-10,-4.28243e-08
8.63e-10,-4.07574e-09
8.64e-10,-4.81893e-08
8.65e-10,-8.53609e-08
8.66e-10,1.18903e-09
8.67e-10,-6.62382e-08
8.68e-10,-3.1336e-08
8.69e-10,2.41338e-09
8.7e-10,-4.21332e-09
8.71e-10,-6.33407e-09
8.72e-10,-5.7995e-08
8.73e-10,-1.03131e-07
8.74e-10,5.5293e-09
8.75e-10,7.2162e-12
8.76e-10,-1.00105e-07
8.77e-10,6.13802e-09
8.78e-10,-3.90657e-08
8.79e-10,3.97903e-08
8.8e-10,-4.08821e-08
8.81e-10,-1.167e-07
8.82e-10,6.54421e-09
8.83e-10,-4.03491e-08
8.84e-10,-9.82645e-08
8.85e-10,-8.48457e-10
8.86e-10,5.40431e-10
8.87e-10,-3.20571e-10
8.88e-10,1.13576e-10
8.89e-10,-5.08596e-08
8.9e-10,-1.10287e-07
8.91e-10,-1.40353e-09
8.92e-10,-1.06446e-07
8.93e-10,-8.41461e-09
8.94e-10,-3.64717e-08
8.95e-10,2.87971e-09
8.96e-10,-6.36413e-09
8.97e-10,1.1404e-10
8.98e-10,1.13399e-09
8.99e-10,-1.82466e-07
9e-10,-4.26119e-08
9.01e-10,-6.19345e-10
9.02e-10,-7.48151e-08
9.03e-10,-9.22189e-08
9.04e-10,4.44682e-08
9.05e-10,-4.18558e-08
9.06e-10,-6.99242e-08
9.07e-10,-1.16064e-07
9.08e-10,5.88843e-09
9.09e-10,-6.01416e-09
9.1e-10,-3.94404e-08
9.11e-10,-3.34774e-08
9.12e-10,1.22242e-08
9.13e-10,-1.20469e-08
9.14e-10,-3.98356e-08
9.15e-10,-8.62172e-08
9.16e-10,-1.52874e-07
9.17e-10,2.87894e-09
9.18e-10,8.16488e-10
9.19e-10,-2.69966e-08
9.2e-10,-4.42741e-08
9.21e-10,-2.73079e-09
9.22e-10,-3.3081e-08
9.23e-10,-1.03817e-07
9.24e-10,-1.05771e-07
9.25e-10,-1.54037e-09
9.26e-10,2.94413e-09
9.27e-10,1.92829e-09
9.28e-10,-4.42495e-08
9.29e-10,-9.58958e-09
9.3e-10,4.32357e-09
9.31e-10,-3.57674e-08
9.32e-10,-6.16208e-08
9.33e-10,-1.46044e-07
9.34e-10,4.10762e-08
9.35e-10,-5.23283e-08
9.36e-10,8.27773e-09
9.37e-10,-4.67206e-10
9.38e-10,2.63879e-09
9.39e-10,-4.22901e-08
9.4e-10,-3.72999e-08
9.41e-10,-1.09158e-07
9.42e-10,-6.36181e-08
9.43e-10,-4.14006e-08
9.44e-10,-4.58083e-09
9.45e-10,8.86246e-11
9.46e-10,-4.50486e-08
9.47e-10,4.09077e-08
9.48e-10,-4.25239e-08
9.49e-10,-1.44128e-07
9.5e-10,-1.05111e-07
9.51e-10,-5.58858e-09
9.52e-10,-2.88016e-10
9.53e-10,-4.77166e-08
9.54e-10,-1.14686e-08
9.55e-10,3.44105e-09
9.56e-10,8.09546e-10
9.57e-10,-1.32481e-07
9.58e-10,-4.06804e-08
9.59e-10,-3.85013e-08
9.6e-10,4.40376e-09
9.61e-10,-4.93188e-08
9.62e-10,-4.76019e-08
9.63e-10,-6.97867e-08
9.64e-10,-4.30551e-09
9.65e-10,-1.00323e-07
9.66e-10,2.3335e-09
9.67e-10,-8.40153e-08
9.68e-10,1.91162e-09
9.69e-10,1.76901e-10
9.7e-10,-8.78656e-08
9.71e-10,-3.03682e-09
9.72e-10,-4.41725e-08
9.73e-10,-6.67308e-08
9.74e-10,2.7485e-09
9.75e-10,-8.84115e-08
9.76e-10,-3.92828e-08
9.77e-10,-5.62591e-09
9.78e-10,-4.23538e-09
9.79e-10,1.84411e-09
9.8e-10,-4.40774e-08
9.81e-10,-2.99607e-09
9.82e-10,-1.1931e-07
9.83e-10,-3.94847e-08
9.84e-10,-4.93965e-09
9.85e-10,-3.45698e-08
9.86e-10,5.48572e-09
9.87e-10,-4.50797e-08
9.88e-10,-5.34157e-09
9.89e-10,-1.16868e-07
9.9e-10,-4.03717e-08
9.91e-10,-1.1922e-09
9.92e-10,-8.9136e-09
9.93e-10,-6.42288e-08
9.94e-10,-4.36378e-08
9.95e-10,-4.44752e-08
9.96e-10,3.75609e-09
9.97e-10,-8.59531e-08
9.98e-10,-9.656e-08
9.99e-10,-3.38061e-09
1e-09,2.206e-10
2.1e-09,0
