0,0
1e-12,-1.70632e-07
2e-12,-2.0454e-06
3e-12,-1.62077e-06
4e-12,-1.41151e-06
5e-12,-2.85265e-06
6e-12,-3.06488e-06
7e-12,-2.04663e-06
8e-12,-1.45704e-06
9e-12,-1.07226e-06
1e-11,-8.38381e-07
1.1e-11,-1.15642e-06
1.2e-11,-1.68587e-06
1.3e-11,-1.90939e-06
1.4e-11,-1.93975e-06
1.5e-11,-2.09459e-06
1.6e-11,-2.07866e-06
1.7e-11,-1.75382e-06
1.8e-11,-1.25476e-06
1.9e-11,-1.52644e-06
2e-11,-1.40613e-06
2.1e-11,-1.63932e-06
2.2e-11,-1.32895e-06
2.3e-11,-2.3147e-06
2.4e-11,-1.83563e-06
2.5e-11,-2.13026e-06
2.6e-11,-1.49715e-06
2.7e-11,-1.23836e-06
2.8e-11,-1.19141e-06
2.9e-11,-1.84803e-06
3e-11,-1.5686e-06
3.1e-11,-2.4093e-06
3.2e-11,-1.39967e-06
3.3e-11,-1.51619e-06
3.4e-11,-1.30095e-06
3.5e-11,-1.79924e-06
3.6e-11,-1.40111e-06
3.7e-11,-8.46569e-07
3.8e-11,-1.52627e-06
3.9e-11,-2.12615e-06
4e-11,-1.80881e-06
4.1e-11,-2.13813e-06
4.2e-11,-1.93778e-06
4.3e-11,-1.24991e-06
4.4e-11,-1.36891e-06
4.5e-11,-6.13554e-07
4.6e-11,-1.4449e-06
4.7e-11,-2.01488e-06
4.8e-11,-2.06477e-06
4.9e-11,-1.30721e-06
5e-11,-1.44906e-06
5.1e-11,-1.31752e-06
5.2e-11,-1.57428e-06
5.3e-11,-1.15034e-06
5.4e-11,-1.17391e-06
5.5e-11,-1.07777e-06
5.6e-11,-1.96689e-06
5.7e-11,-1.66405e-06
5.8e-11,-1.33042e-06
5.9e-11,-1.5561e-06
6e-11,-9.1983e-07
6.1e-11,-1.14046e-06
6.2e-11,-1.32829e-06
6.3e-11,-1.37747e-06
6.4e-11,-1.2729e-06
6.5e-11,-1.39602e-06
6.6e-11,-1.3908e-06
6.7e-11,-1.82949e-06
6.8e-11,-1.32484e-06
6.9e-11,-1.39757e-06
7e-11,-9.06484e-07
7.1e-11,-1.36286e-06
7.2e-11,-1.4696e-06
7.3e-11,-1.51604e-06
7.4e-11,-1.2413e-06
7.5e-11,-1.17314e-06
7.6e-11,-1.06683e-06
7.7e-11,-1.60195e-06
7.8e-11,-1.34403e-06
7.9e-11,-1.29229e-06
8e-11,-1.28776e-06
8.1e-11,-1.15206e-06
8.2e-11,-1.33076e-06
8.3e-11,-1.81495e-06
8.4e-11,-1.4729e-06
8.5e-11,-1.07424e-06
8.6e-11,-1.02021e-06
8.7e-11,-1.37881e-06
8.8e-11,-8.62974e-07
8.9e-11,-1.4953e-06
9e-11,-1.37798e-06
9.1e-11,-1.74721e-06
9.2e-11,-1.25259e-06
9.3e-11,-1.12476e-06
9.4e-11,-1.27709e-06
9.5e-11,-1.31682e-06
9.6e-11,-1.12089e-06
9.7e-11,-1.34924e-06
9.8e-11,-7.59138e-07
9.9e-11,-1.72231e-06
1e-10,-1.08479e-06
1.01e-10,-1.70718e-06
1.02e-10,-9.23124e-07
1.03e-10,-1.33443e-06
1.04e-10,-1.17483e-06
1.05e-10,-8.60454e-07
1.06e-10,-1.4894e-06
1.07e-10,-1.61184e-06
1.08e-10,-1.45998e-06
1.09e-10,-7.90547e-07
1.1e-10,-7.61121e-07
1.11e-10,-8.06052e-07
1.12e-10,-1.0843e-06
1.13e-10,-9.91361e-07
1.14e-10,-1.85646e-06
1.15e-10,-1.29688e-06
1.16e-10,-1.38345e-06
1.17e-10,-1.12354e-06
1.18e-10,-9.06589e-07
1.19e-10,-1.29165e-06
1.2e-10,-1.0981e-06
1.21e-10,-6.49156e-07
1.22e-10,-1.08562e-06
1.23e-10,-1.15401e-06
1.24e-10,-1.6e-06
1.25e-10,-8.92183e-07
1.26e-10,-1.23412e-06
1.27e-10,-9.58197e-07
1.28e-10,-8.5697e-07
1.29e-10,-3.83907e-07
1.3e-10,-1.20803e-06
1.31e-10,-1.21578e-06
1.32e-10,-1.39803e-06
1.33e-10,-1.2298e-06
1.34e-10,-4.11154e-07
1.35e-10,-8.07126e-07
1.36e-10,-1.08322e-06
1.37e-10,-5.26859e-07
1.38e-10,-9.7743e-07
1.39e-10,-1.08506e-06
1.4e-10,-1.15561e-06
1.41e-10,-9.62147e-07
1.42e-10,-1.15976e-06
1.43e-10,-4.89298e-07
1.44e-10,-1.52352e-06
1.45e-10,-4.80431e-07
1.46e-10,-6.46225e-07
1.47e-10,-1.054e-06
1.48e-10,-1.4652e-06
1.49e-10,-1.0085e-06
1.5e-10,-6.52159e-07
1.51e-10,-9.7901e-07
1.52e-10,-5.2655e-07
1.53e-10,-8.86136e-07
1.54e-10,-7.16038e-07
1.55e-10,-5.45206e-07
1.56e-10,-9.10914e-07
1.57e-10,-1.09807e-06
1.58e-10,-1.08991e-06
1.59e-10,-3.28989e-07
1.6e-10,-9.64917e-07
1.61e-10,-8.65838e-07
1.62e-10,-6.00067e-07
1.63e-10,-8.73484e-07
1.64e-10,-5.51836e-07
1.65e-10,-1.22081e-06
1.66e-10,-8.17796e-07
1.67e-10,-8.80999e-07
1.68e-10,-8.96832e-07
1.69e-10,-2.36031e-07
1.7e-10,-1.0186e-06
1.71e-10,-5.12751e-07
1.72e-10,-6.05649e-07
1.73e-10,-7.75918e-07
1.74e-10,-8.07176e-07
1.75e-10,-4.19583e-07
1.76e-10,-5.49979e-07
1.77e-10,-5.24634e-07
1.78e-10,-8.8653e-07
1.79e-10,-4.9979e-07
1.8e-10,-8.16764e-07
1.81e-10,-5.57064e-07
1.82e-10,-8.72125e-07
1.83e-10,-1.00143e-06
1.84e-10,-3.83907e-07
1.85e-10,-5.3166e-07
1.86e-10,-6.99905e-07
1.87e-10,-8.12307e-07
1.88e-10,-5.57335e-07
1.89e-10,-4.9346e-07
1.9e-10,-3.76872e-07
1.91e-10,-8.83326e-07
1.92e-10,-5.50593e-07
1.93e-10,-3.0572e-07
1.94e-10,-5.52921e-07
1.95e-10,-4.41135e-07
1.96e-10,-6.12945e-07
1.97e-10,-6.83456e-07
1.98e-10,-1.92101e-07
1.99e-10,-9.54781e-07
2e-10,-2.70504e-07
2.01e-10,-5.7107e-07
2.02e-10,-1.1593e-07
2.03e-10,-5.34982e-07
2.04e-10,-1.50673e-07
2.05e-10,-6.59105e-07
2.06e-10,-5.61863e-07
2.07e-10,-5.09815e-07
2.08e-10,-6.22626e-07
2.09e-10,-6.54373e-07
2.1e-10,-2.38966e-07
2.11e-10,-2.93098e-07
2.12e-10,-5.29775e-07
2.13e-10,-4.50882e-08
2.14e-10,-3.43916e-07
2.15e-10,-5.59884e-07
2.16e-10,-7.64424e-07
2.17e-10,-3.40519e-07
2.18e-10,-2.9391e-07
2.19e-10,-4.64609e-07
2.2e-10,-2.44363e-07
2.21e-10,-4.00091e-07
2.22e-10,-4.44268e-07
2.23e-10,-4.9246e-07
2.24e-10,-6.56224e-07
2.25e-10,-4.84489e-07
2.26e-10,-1.23587e-07
2.27e-10,-3.33619e-07
2.28e-10,-3.45968e-07
2.29e-10,-1.16441e-07
2.3e-10,-5.62504e-07
2.31e-10,-3.59386e-07
2.32e-10,-4.93938e-07
2.33e-10,-5.55587e-07
2.34e-10,-1.85125e-07
2.35e-10,-2.75394e-07
2.36e-10,-5.06656e-07
2.37e-10,-2.92763e-07
2.38e-10,-2.4288e-07
2.39e-10,-5.9542e-07
2.4e-10,-2.6358e-07
2.41e-10,-3.86485e-07
2.42e-10,-2.25576e-07
2.43e-10,-6.71499e-07
2.44e-10,-1.19105e-07
2.45e-10,-2.63453e-07
2.46e-10,-3.99293e-07
2.47e-10,-3.36799e-07
2.48e-10,-9.21066e-08
2.49e-10,-3.84477e-07
2.5e-10,-5.05877e-07
2.51e-10,-2.57199e-07
2.52e-10,-2.61442e-07
2.53e-10,-1.60541e-07
2.54e-10,-2.0298e-07
2.55e-10,-2.47892e-07
2.56e-10,-1.55333e-07
2.57e-10,-2.05814e-07
2.58e-10,-4.35682e-07
2.59e-10,-3.28646e-07
2.6e-10,-2.81158e-07
2.61e-10,-3.1719e-07
2.62e-10,-1.91534e-07
2.63e-10,-4.14791e-08
2.64e-10,-3.98352e-07
2.65e-10,7.62197e-09
2.66e-10,-3.90793e-07
2.67e-10,-2.62738e-07
2.68e-10,-1.09352e-07
2.69e-10,-8.63393e-08
2.7e-10,-4.97218e-07
2.71e-10,-2.11026e-07
2.72e-10,1.20263e-08
2.73e-10,-4.56158e-07
2.74e-10,-1.98865e-07
2.75e-10,-3.9731e-07
2.76e-10,-1.25807e-07
2.77e-10,-1.51123e-07
2.78e-10,-3.09111e-07
2.79e-10,-1.2113e-07
2.8e-10,-3.12284e-07
2.81e-10,-2.1132e-07
2.82e-10,-8.97288e-10
2.83e-10,-5.30248e-07
2.84e-10,8.30332e-08
2.85e-10,-1.59476e-07
2.86e-10,-4.96092e-07
2.87e-10,-7.26541e-08
2.88e-10,-2.37447e-07
2.89e-10,-1.23489e-07
2.9e-10,-2.32612e-07
2.91e-10,-2.64343e-07
2.92e-10,-3.35524e-07
2.93e-10,-2.49696e-07
2.94e-10,-1.04582e-07
2.95e-10,-1.46766e-07
2.96e-10,-3.2406e-07
2.97e-10,-2.39912e-07
2.98e-10,-1.16577e-07
2.99e-10,-1.97295e-07
3e-10,-1.03461e-07
3.01e-10,-3.24761e-07
3.02e-10,-1.45378e-07
3.03e-10,-6.37275e-08
3.04e-10,-2.6565e-07
3.05e-10,-1.8263e-08
3.06e-10,-7.71339e-08
3.07e-10,-2.89906e-07
3.08e-10,-1.7385e-07
3.09e-10,-1.2707e-07
3.1e-10,-2.24523e-07
3.11e-10,-3.51823e-07
3.12e-10,-1.40919e-07
3.13e-10,-2.17516e-07
3.14e-10,-1.2159e-07
3.15e-10,-3.46636e-07
3.16e-10,-1.9079e-07
3.17e-10,-5.96583e-08
3.18e-10,-2.68785e-07
3.19e-10,5.48202e-08
3.2e-10,-4.33499e-07
3.21e-10,-3.93833e-07
3.22e-10,-5.6928e-08
3.23e-10,-3.08075e-07
3.24e-10,-1.01848e-07
3.25e-10,-1.3615e-07
3.26e-10,-2.54617e-07
3.27e-10,-1.96487e-07
3.28e-10,-8.09297e-08
3.29e-10,-1.09882e-07
3.3e-10,-8.54955e-08
3.31e-10,-1.44121e-07
3.32e-10,-1.30211e-07
3.33e-10,-1.97874e-07
3.34e-10,-4.60987e-08
3.35e-10,-2.64812e-07
3.36e-10,-1.95386e-07
3.37e-10,-1.90291e-07
3.38e-10,-1.9784e-08
3.39e-10,-7.91196e-08
3.4e-10,-1.43629e-07
3.41e-10,-1.4096e-07
3.42e-10,-3.26899e-08
3.43e-10,-3.54107e-07
3.44e-10,-8.20635e-08
3.45e-10,-3.83943e-07
3.46e-10,-2.68058e-07
3.47e-10,-1.75801e-07
3.48e-10,8.66521e-08
3.49e-10,-1.91139e-07
3.5e-10,-3.89513e-08
3.51e-10,-9.57556e-08
3.52e-10,-3.10769e-07
3.53e-10,-3.27407e-07
3.54e-10,-1.12744e-07
3.55e-10,5.95532e-08
3.56e-10,-2.15264e-07
3.57e-10,5.5752e-08
3.58e-10,-2.57897e-08
3.59e-10,-1.84271e-07
3.6e-10,-3.05173e-07
3.61e-10,-8.21615e-08
3.62e-10,-2.10742e-07
3.63e-10,-1.64673e-07
3.64e-10,-1.98769e-07
3.65e-10,-3.07647e-08
3.66e-10,8.35286e-08
3.67e-10,-1.89531e-07
3.68e-10,-5.39135e-08
3.69e-10,-7.90058e-08
3.7e-10,-2.88603e-07
3.71e-10,-1.85991e-07
3.72e-10,-1.72118e-07
3.73e-10,-1.96578e-08
3.74e-10,-2.70721e-07
3.75e-10,-3.45389e-08
3.76e-10,-5.72039e-09
3.77e-10,-2.65504e-08
3.78e-10,-2.03592e-07
3.79e-10,-1.12806e-07
3.8e-10,-1.87722e-07
3.81e-10,-8.10667e-08
3.82e-10,1.35339e-08
3.83e-10,-4.63317e-08
3.84e-10,-1.19979e-07
3.85e-10,-4.60175e-08
3.86e-10,-1.37598e-07
3.87e-10,-1.17022e-07
3.88e-10,-1.04717e-07
3.89e-10,2.3316e-08
3.9e-10,5.1132e-08
3.91e-10,-3.67364e-08
3.92e-10,-4.1794e-08
3.93e-10,-1.78199e-07
3.94e-10,-1.25509e-07
3.95e-10,-1.54703e-07
3.96e-10,-7.21232e-08
3.97e-10,-1.2508e-07
3.98e-10,-3.7934e-08
3.99e-10,-1.17427e-07
4e-10,-3.91325e-08
4.01e-10,-8.98752e-08
4.02e-10,-2.71441e-07
4.03e-10,-4.60022e-08
4.04e-10,8.70608e-08
4.05e-10,-7.16799e-08
4.06e-10,-4.83718e-08
4.07e-10,-1.61821e-07
4.08e-10,1.13075e-08
4.09e-10,-1.476e-07
4.1e-10,-3.39861e-08
4.11e-10,-2.11271e-07
4.12e-10,-7.10531e-08
4.13e-10,5.7564e-08
4.14e-10,-1.09158e-07
4.15e-10,4.94708e-08
4.16e-10,-3.34314e-08
4.17e-10,-2.73092e-07
4.18e-10,-2.22434e-08
4.19e-10,-1.20452e-07
4.2e-10,-1.43995e-07
4.21e-10,-8.57345e-08
4.22e-10,-3.1642e-08
4.23e-10,-4.7635e-08
4.24e-10,-2.95034e-08
4.25e-10,-2.58579e-07
4.26e-10,-7.33415e-08
4.27e-10,-1.0984e-07
4.28e-10,-7.45637e-08
4.29e-10,-1.61846e-07
4.3e-10,-4.99165e-08
4.31e-10,-1.09896e-07
4.32e-10,-6.24059e-08
4.33e-10,-1.62898e-07
4.34e-10,5.08191e-08
4.35e-10,2.51325e-08
4.36e-10,3.42862e-08
4.37e-10,-2.62393e-07
4.38e-10,1.05531e-07
4.39e-10,-8.76996e-08
4.4e-10,-1.05661e-07
4.41e-10,1.73193e-08
4.42e-10,-8.92989e-08
4.43e-10,-9.25228e-08
4.44e-10,-4.23727e-08
4.45e-10,1.67738e-08
4.46e-10,-5.34612e-08
4.47e-10,-1.13604e-07
4.48e-10,-6.61217e-08
4.49e-10,-1.54953e-07
4.5e-10,1.4981e-08
4.51e-10,-1.96152e-08
4.52e-10,-8.65208e-08
4.53e-10,-2.62054e-08
4.54e-10,-8.17509e-08
4.55e-10,-9.63808e-08
4.56e-10,-5.59392e-08
4.57e-10,-1.37754e-07
4.58e-10,-5.03349e-09
4.59e-10,-1.10848e-07
4.6e-10,-1.15304e-07
4.61e-10,-2.78762e-08
4.62e-10,-1.16435e-07
4.63e-10,-6.84747e-08
4.64e-10,-3.07632e-08
4.65e-10,1.01406e-09
4.66e-10,-1.01982e-07
4.67e-10,-6.43875e-09
4.68e-10,2.54262e-08
4.69e-10,-4.03078e-08
4.7e-10,-7.75276e-08
4.71e-10,-1.05378e-07
4.72e-10,6.16799e-08
4.73e-10,-3.18605e-08
4.74e-10,-7.88087e-08
4.75e-10,-1.10021e-07
4.76e-10,-1.28587e-07
4.77e-10,-1.40295e-08
4.78e-10,1.49641e-08
4.79e-10,-1.78897e-07
4.8e-10,-3.82421e-10
4.81e-10,7.87257e-08
4.82e-10,-4.66462e-08
4.83e-10,-7.08091e-09
4.84e-10,-1.03897e-07
4.85e-10,4.9918e-10
4.86e-10,-8.82557e-08
4.87e-10,-1.50661e-07
4.88e-10,-4.67046e-08
4.89e-10,-2.22148e-08
4.9e-10,-3.09973e-08
4.91e-10,-2.77537e-08
4.92e-10,1.72833e-08
4.93e-10,-4.16424e-08
4.94e-10,-1.68302e-07
4.95e-10,-1.49768e-08
4.96e-10,-1.18089e-07
4.97e-10,-3.15609e-08
4.98e-10,-1.39425e-09
4.99e-10,-5.01241e-09
5e-10,-7.66718e-08
5.01e-10,-3.21784e-08
5.02e-10,-7.73994e-08
5.03e-10,-8.72201e-08
5.04e-10,-8.94554e-08
5.05e-10,-2.52854e-08
5.06e-10,-1.4461e-08
5.07e-10,-2.77861e-08
5.08e-10,3.93461e-09
5.09e-10,-3.55461e-08
5.1e-10,-9.106e-08
5.11e-10,-4.92894e-08
5.12e-10,-5.86282e-08
5.13e-10,-4.47782e-08
5.14e-10,-6.59574e-08
5.15e-10,-5.96031e-08
5.16e-10,4.42876e-08
5.17e-10,-4.27559e-08
5.18e-10,3.47702e-09
5.19e-10,-9.03856e-08
5.2e-10,-1.52494e-07
5.21e-10,-8.56854e-09
5.22e-10,-1.22133e-08
5.23e-10,-1.12404e-09
5.24e-10,-8.13192e-08
5.25e-10,2.76343e-08
5.26e-10,-5.09616e-08
5.27e-10,-1.27298e-08
5.28e-10,-2.43088e-08
5.29e-10,-1.0796e-07
5.3e-10,-5.96925e-08
5.31e-10,-1.56047e-07
5.32e-10,5.21773e-08
5.33e-10,-2.16773e-08
5.34e-10,7.86265e-08
5.35e-10,-1.70076e-07
5.36e-10,-2.2235e-08
5.37e-10,-7.77129e-08
5.38e-10,2.18292e-08
5.39e-10,-6.53692e-08
5.4e-10,-5.40458e-08
5.41e-10,2.7334e-08
5.42e-10,-1.1104e-07
5.43e-10,-9.18176e-09
5.44e-10,-1.00137e-07
5.45e-10,1.09441e-07
5.46e-10,-4.23082e-08
5.47e-10,-4.86699e-08
5.48e-10,-8.8768e-08
5.49e-10,-2.98845e-08
5.5e-10,-1.63373e-08
5.51e-10,-1.11456e-07
5.52e-10,-2.3108e-08
5.53e-10,-1.23707e-07
5.54e-10,-4.84223e-08
5.55e-10,-2.43178e-08
5.56e-10,-9.67736e-10
5.57e-10,-3.94862e-08
5.58e-10,-3.3455e-09
5.59e-10,-1.60008e-07
5.6e-10,-4.35566e-08
5.61e-10,-2.06967e-08
5.62e-10,-5.01306e-08
5.63e-10,-2.18857e-08
5.64e-10,-4.27388e-08
5.65e-10,-3.86703e-09
5.66e-10,-3.31349e-08
5.67e-10,-3.00075e-08
5.68e-10,-9.24179e-08
5.69e-10,5.96619e-09
5.7e-10,2.05853e-08
5.71e-10,-3.85597e-08
5.72e-10,-1.38366e-07
5.73e-10,-9.77124e-09
5.74e-10,-9.56274e-10
5.75e-10,-6.23986e-08
5.76e-10,-4.67259e-08
5.77e-10,2.764e-08
5.78e-10,-7.30243e-08
5.79e-10,-3.11499e-09
5.8e-10,-1.14416e-07
5.81e-10,-4.80653e-12
5.82e-10,-2.11013e-08
5.83e-10,1.77581e-09
5.84e-10,-9.23052e-08
5.85e-10,2.47956e-08
5.86e-10,-3.79843e-08
5.87e-10,2.26302e-08
5.88e-10,-1.12207e-07
5.89e-10,2.39585e-08
5.9e-10,-2.35918e-08
5.91e-10,-2.53427e-08
5.92e-10,2.30414e-08
5.93e-10,-2.79829e-09
5.94e-10,-1.01071e-07
5.95e-10,7.01475e-09
5.96e-10,-3.08291e-08
5.97e-10,-8.44555e-09
5.98e-10,-5.60645e-08
5.99e-10,-4.04795e-08
6e-10,-5.9705e-08
6.01e-10,-9.58205e-08
6.02e-10,-1.25711e-08
6.03e-10,2.70323e-08
6.04e-10,-2.29994e-08
6.05e-10,-2.9199e-08
6.06e-10,-1.66108e-07
6.07e-10,-3.07341e-08
6.08e-10,-4.85354e-09
6.09e-10,2.63349e-08
6.1e-10,-6.49238e-08
6.11e-10,-1.28895e-08
6.12e-10,-3.17663e-08
6.13e-10,-6.28367e-08
6.14e-10,-2.10546e-09
6.15e-10,-3.19033e-08
6.16e-10,9.31651e-10
6.17e-10,-2.54059e-08
6.18e-10,-1.41549e-07
6.19e-10,3.28166e-09
6.2e-10,2.11526e-08
6.21e-10,-6.20613e-08
6.22e-10,3.25021e-08
6.23e-10,-2.86098e-08
6.24e-10,2.3366e-08
6.25e-10,-1.79184e-09
6.26e-10,-1.53489e-11
6.27e-10,-1.90602e-07
6.28e-10,-2.79913e-08
6.29e-10,-3.20341e-08
6.3e-10,-4.0653e-08
6.31e-10,-2.89381e-08
6.32e-10,-2.23066e-08
6.33e-10,3.34213e-08
6.34e-10,-3.03887e-08
6.35e-10,-6.51978e-08
6.36e-10,-5.87484e-08
6.37e-10,-4.10897e-08
6.38e-10,-3.46151e-09
6.39e-10,-7.91916e-08
6.4e-10,2.03403e-08
6.41e-10,-4.08429e-08
6.42e-10,-1.84726e-08
6.43e-10,-3.79305e-08
6.44e-10,-1.14642e-07
6.45e-10,5.39571e-08
6.46e-10,-2.7796e-09
6.47e-10,-2.99811e-08
6.48e-10,-8.81287e-08
6.49e-10,2.41537e-08
6.5e-10,3.40214e-09
6.51e-10,-9.78909e-08
6.52e-10,-3.27315e-08
6.53e-10,-8.54162e-08
6.54e-10,-4.11454e-10
6.55e-10,-3.23268e-09
6.56e-10,-1.92018e-09
6.57e-10,3.34939e-09
6.58e-10,-1.66798e-09
6.59e-10,-6.64057e-08
6.6e-10,-6.47416e-08
6.61e-10,2.96918e-08
6.62e-10,-5.86505e-08
6.63e-10,2.81326e-08
6.64e-10,-3.86048e-08
6.65e-10,-4.36017e-10
6.66e-10,-5.79654e-08
6.67e-10,3.14014e-09
6.68e-10,-2.2207e-09
6.69e-10,-1.23634e-07
6.7e-10,4.35105e-09
6.71e-10,-8.59889e-09
6.72e-10,-8.6107e-10
6.73e-10,3.77417e-09
6.74e-10,1.96036e-09
6.75e-10,-4.41928e-08
6.76e-10,-2.6357e-08
6.77e-10,-6.68779e-08
6.78e-10,-2.04356e-09
6.79e-10,-5.69361e-08
6.8e-10,1.1738e-09
6.81e-10,2.52547e-08
6.82e-10,-3.02302e-08
6.83e-10,1.70157e-09
6.84e-10,3.72681e-09
6.85e-10,-7.55081e-08
6.86e-10,-4.2433e-08
6.87e-10,3.85607e-08
6.88e-10,-4.32481e-08
6.89e-10,2.01105e-09
6.9e-10,-6.27345e-08
6.91e-10,4.88474e-09
6.92e-10,-3.24652e-09
6.93e-10,-2.50842e-09
6.94e-10,-3.248e-08
6.95e-10,3.02178e-08
6.96e-10,4.93905e-09
6.97e-10,-3.94603e-08
6.98e-10,-4.18387e-09
6.99e-10,2.57974e-09
7e-10,9.59815e-10
7.01e-10,-2.62521e-09
7.02e-10,-6.41683e-08
7.03e-10,2.99537e-08
7.04e-10,-2.44044e-09
7.05e-10,-5.75366e-08
7.06e-10,2.74457e-08
7.07e-10,5.45654e-09
7.08e-10,-2.66328e-09
7.09e-10,-2.4991e-08
7.1e-10,-1.17108e-08
7.11e-10,4.22922e-09
7.12e-10,-1.1134e-09
7.13e-10,-6.14655e-08
7.14e-10,-1.86255e-09
7.15e-10,-1.12696e-09
7.16e-10,3.77834e-09
7.17e-10,4.75632e-09
7.18e-10,2.31274e-08
7.19e-10,-5.49226e-08
7.2e-10,6.49075e-09
7.21e-10,-4.00741e-09
7.22e-10,-2.94971e-08
7.23e-10,-1.02267e-08
7.24e-10,-5.79478e-08
7.25e-10,3.51197e-09
7.26e-10,-5.93814e-09
7.27e-10,-4.36006e-08
7.28e-10,1.12641e-09
7.29e-10,-2.07242e-09
7.3e-10,1.85209e-09
7.31e-10,-6.27031e-09
7.32e-10,2.47032e-08
7.33e-10,3.05566e-08
7.34e-10,-6.09292e-08
7.35e-10,6.35182e-09
7.36e-10,-6.54322e-08
7.37e-10,-5.54493e-08
7.38e-10,5.19114e-10
7.39e-10,-1.8359e-09
7.4e-10,5.36186e-10
7.41e-10,-3.38173e-08
7.42e-10,-2.09816e-08
7.43e-10,-1.25034e-09
7.44e-10,2.61356e-08
7.45e-10,-5.82412e-08
7.46e-10,-3.18987e-09
7.47e-10,-3.56779e-08
7.48e-10,-3.90542e-10
7.49e-10,9.85068e-11
7.5e-10,2.98166e-09
7.51e-10,-4.84617e-09
7.52e-10,5.7032e-10
7.53e-10,4.87833e-09
7.54e-10,3.42805e-09
7.55e-10,-1.10795e-09
7.56e-10,5.72189e-09
7.57e-10,-3.03938e-08
7.58e-10,2.12685e-10
7.59e-10,-3.04315e-08
7.6e-10,-2.59238e-08
7.61e-10,3.05067e-08
7.62e-10,-2.62297e-08
7.63e-10,-2.38289e-09
7.64e-10,-3.77557e-08
7.65e-10,4.08639e-09
7.66e-10,-2.81576e-08
7.67e-10,2.66527e-08
7.68e-10,-5.55117e-08
7.69e-10,3.3092e-09
7.7e-10,-3.21507e-08
7.71e-10,-4.48278e-09
7.72e-10,1.13944e-09
7.73e-10,-2.47286e-08
7.74e-10,2.46567e-08
7.75e-10,-2.29571e-10
7.76e-10,-3.50728e-08
7.77e-10,7.09224e-09
7.78e-10,1.85462e-09
7.79e-10,2.21311e-08
7.8e-10,1.26539e-09
7.81e-10,-2.79882e-08
7.82e-10,2.95941e-08
7.83e-10,-2.64448e-08
7.84e-10,-2.93356e-08
7.85e-10,-2.55154e-08
7.86e-10,9.79202e-10
7.87e-10,1.79404e-08
7.88e-10,-5.6876e-08
7.89e-10,-2.50083e-08
7.9e-10,5.15869e-08
7.91e-10,-9.92842e-08
7.92e-10,7.90298e-08
7.93e-10,-5.5288e-08
7.94e-10,-7.14349e-10
7.95e-10,2.22123e-09
7.96e-10,-3.3394e-09
7.97e-10,-2.92983e-08
7.98e-10,-1.11641e-08
7.99e-10,2.10844e-09
8e-10,-2.69957e-09
8.01e-10,-2.27251e-08
8.02e-10,6.32272e-09
8.03e-10,-2.58562e-08
8.04e-10,4.66333e-08
8.05e-10,-7.94509e-08
8.06e-10,-4.97525e-08
8.07e-10,2.08419e-08
8.08e-10,-2.44699e-08
8.09e-10,2.21871e-08
8.1e-10,-2.8256e-08
8.11e-10,1.38525e-09
8.12e-10,-3.77914e-08
8.13e-10,2.71758e-09
8.14e-10,2.11381e-08
8.15e-10,4.03112e-09
8.16e-10,-5.09295e-09
8.17e-10,-1.86621e-08
8.18e-10,8.60122e-09
8.19e-10,-3.23141e-08
8.2e-10,2.6749e-08
8.21e-10,-4.00138e-09
8.22e-10,-2.05112e-08
8.23e-10,5.74642e-10
8.24e-10,3.21969e-09
8.25e-10,4.26109e-09
8.26e-10,-6.98817e-10
8.27e-10,-8.89711e-09
8.28e-10,-2.49703e-08
8.29e-10,-4.27237e-08
8.3e-10,-4.75229e-08
8.31e-10,-2.33435e-08
8.32e-10,2.56157e-08
8.33e-10,3.2267e-08
8.34e-10,-5.23743e-08
8.35e-10,-2.66662e-08
8.36e-10,2.38446e-08
8.37e-10,-2.79182e-08
8.38e-10,2.98347e-08
8.39e-10,-8.6122e-10
8.4e-10,-9.46933e-08
8.41e-10,-2.80419e-08
8.42e-10,2.49019e-08
8.43e-10,2.21283e-09
8.44e-10,2.93118e-09
8.45e-10,-7.77141e-08
8.46e-10,-3.56607e-08
8.47e-10,-5.2353e-09
8.48e-10,2.67912e-10
8.49e-10,1.10142e-09
8.5e-10,1.91967e-09
8.51e-10,-1.08e-07
8.52e-10,-2.7884e-10
8.53e-10,-2.6226e-09
8.54e-10,3.01299e-10
8.55e-10,2.84242e-08
8.56e-10,-1.53543e-09
8.57e-10,-4.82959e-08
8.58e-10,-7.16344e-08
8.59e-10,-8.86828e-10
8.6e-10,-1.00929e-07
8.61e-10,7.31329e-09
8.62e-10,5.50524e-10
8.63e-10,-3.07177e-08
8.64e-10,-3.88398e-08
8.65e-10,-9.11725e-10
8.66e-10,-8.09636e-09
8.67e-10,4.46884e-08
8.68e-10,-9.32955e-08
8.69e-10,2.78911e-08
8.7e-10,-1.31627e-07
8.71e-10,4.63774e-09
8.72e-10,-9.27131e-09
8.73e-10,-4.31542e-08
8.74e-10,1.70695e-09
8.75e-10,6.01744e-09
8.76e-10,-3.69994e-09
8.77e-10,-9.89086e-08
8.78e-10,-2.77391e-08
8.79e-10,-8.11171e-10
8.8e-10,-8.85102e-08
8.81e-10,-1.89625e-09
8.82e-10,-2.89768e-09
8.83e-10,2.93613e-08
8.84e-10,-7.38054e-08
8.85e-10,-3.33016e-09
8.86e-10,2.37491e-08
8.87e-10,4.937e-09
8.88e-10,-1.35898e-07
8.89e-10,-1.07604e-09
8.9e-10,-6.3265e-08
8.91e-10,-6.03214e-09
8.92e-10,2.94952e-08
8.93e-10,-2.46718e-08
8.94e-10,-8.53974e-09
8.95e-10,6.34191e-09
8.96e-10,-1.54993e-10
8.97e-10,-3.63625e-10
8.98e-10,-4.18739e-08
8.99e-10,-5.8659e-08
9e-10,-2.49744e-09
9.01e-10,-1.24256e-07
9.02e-10,3.89839e-09
9.03e-10,1.05627e-08
9.04e-10,-1.50923e-08
9.05e-10,-3.62324e-08
9.06e-10,-2.35994e-10
9.07e-10,-4.37817e-08
9.08e-10,3.61281e-09
9.09e-10,-3.47556e-09
9.1e-10,-2.53914e-08
9.11e-10,-4.59145e-08
9.12e-10,-3.40469e-10
9.13e-10,-6.17351e-08
9.14e-10,-4.35895e-08
9.15e-10,9.0339e-10
9.16e-10,-3.55346e-09
9.17e-10,-4.61694e-11
9.18e-10,-4.48965e-08
9.19e-10,-1.68046e-09
9.2e-10,-5.13643e-10
9.21e-10,-6.21391e-08
9.22e-10,-3.23365e-08
9.23e-10,-1.54004e-09
9.24e-10,-2.41915e-10
9.25e-10,-6.19918e-08
9.26e-10,-4.38284e-08
9.27e-10,7.92482e-10
9.28e-10,-4.24974e-09
9.29e-10,4.5932e-09
9.3e-10,-3.08618e-09
9.31e-10,-3.38867e-10
9.32e-10,-5.88035e-08
9.33e-10,-4.489e-08
9.34e-10,-2.16041e-09
9.35e-10,-8.05773e-08
9.36e-10,-1.03654e-09
9.37e-10,-5.97174e-08
9.38e-10,-1.46961e-08
9.39e-10,2.01522e-08
9.4e-10,-2.52212e-09
9.41e-10,-2.70188e-08
9.42e-10,-5.5096e-08
9.43e-10,1.32132e-09
9.44e-10,-1.92401e-08
9.45e-10,-2.95912e-08
9.46e-10,-2.74774e-09
9.47e-10,-5.13574e-08
9.48e-10,2.35224e-08
9.49e-10,1.80615e-08
9.5e-10,-1.84023e-08
9.51e-10,-7.80092e-08
9.52e-10,-4.99036e-08
9.53e-10,3.15012e-09
9.54e-10,-3.79596e-08
9.55e-10,2.51614e-09
9.56e-10,-2.06535e-10
9.57e-10,2.7235e-08
9.58e-10,-1.99483e-08
9.59e-10,-6.64687e-08
9.6e-10,-2.14159e-08
9.61e-10,2.08988e-08
9.62e-10,-7.64436e-08
9.63e-10,-6.43156e-08
9.64e-10,2.99467e-09
9.65e-10,-5.57099e-08
9.66e-10,-4.97336e-08
9.67e-10,1.83388e-09
9.68e-10,2.15906e-08
9.69e-10,6.28173e-09
9.7e-10,2.55194e-08
9.71e-10,-3.15951e-08
9.72e-10,2.3403e-08
9.73e-10,-5.27216e-08
9.74e-10,-3.42598e-08
9.75e-10,-1.01763e-07
9.76e-10,2.79127e-08
9.77e-10,-5.31204e-08
9.78e-10,-4.56985e-09
9.79e-10,1.3704e-09
9.8e-10,-2.74807e-08
9.81e-10,-1.911e-10
9.82e-10,-4.46924e-08
9.83e-10,-3.17246e-08
9.84e-10,-4.05049e-08
9.85e-10,-3.65564e-10
9.86e-10,-5.16548e-08
9.87e-10,-4.99752e-08
9.88e-10,2.15499e-09
9.89e-10,-4.58854e-09
9.9e-10,-2.71912e-08
9.91e-10,1.93259e-09
9.92e-10,-3.69292e-08
9.93e-10,-2.95305e-08
9.94e-10,9.59937e-10
9.95e-10,2.16918e-09
9.96e-10,-5.32449e-08
9.97e-10,-2.79687e-09
9.98e-10,8.31019e-09
9.99e-10,-4.92923e-09
1e-09,-9.45704e-08
2.1e-09,0
