0,0
1e-12,-7.33269e-07
2e-12,-8.63966e-07
3e-12,-1.50338e-06
4e-12,-1.96446e-06
5e-12,-1.48742e-06
6e-12,-1.85062e-06
7e-12,-1.33498e-06
8e-12,-6.3824e-07
9e-12,-1.49329e-06
1e-11,-1.38039e-06
1.1e-11,-1.01522e-06
1.2e-11,-7.30596e-07
1.3e-11,-1.19977e-06
1.4e-11,-1.70571e-06
1.5e-11,-2.03104e-06
1.6e-11,-1.15246e-06
1.7e-11,-6.67591e-07
1.8e-11,-8.59627e-07
1.9e-11,-1.61805e-06
2e-11,-1.15723e-06
2.1e-11,-1.3946e-06
2.2e-11,-1.27032e-06
2.3e-11,-1.37836e-06
2.4e-11,-1.19288e-06
2.5e-11,-7.5659e-07
2.6e-11,-1.11993e-06
2.7e-11,-1.15532e-06
2.8e-11,-1.11937e-06
2.9e-11,-9.4517e-07
3e-11,-1.49617e-06
3.1e-11,-1.54657e-06
3.2e-11,-1.13281e-06
3.3e-11,-9.73853e-07
3.4e-11,-1.04771e-06
3.5e-11,-1.40922e-06
3.6e-11,-9.13522e-07
3.7e-11,-1.22273e-06
3.8e-11,-9.70415e-07
3.9e-11,-1.29432e-06
4e-11,-1.02029e-06
4.1e-11,-9.24441e-07
4.2e-11,-1.20236e-06
4.3e-11,-1.09325e-06
4.4e-11,-1.62335e-06
4.5e-11,-1.04757e-06
4.6e-11,-1.13944e-06
4.7e-11,-1.3153e-06
4.8e-11,-9.95336e-07
4.9e-11,-6.57234e-07
5e-11,-1.0003e-06
5.1e-11,-5.28741e-07
5.2e-11,-9.54251e-07
5.3e-11,-1.13753e-06
5.4e-11,-1.07685e-06
5.5e-11,-7.5253e-07
5.6e-11,-1.20679e-06
5.7e-11,-1.47441e-06
5.8e-11,-1.00606e-06
5.9e-11,-7.02445e-07
6e-11,-6.71871e-07
6.1e-11,-9.33724e-07
6.2e-11,-6.38293e-07
6.3e-11,-8.30743e-07
6.4e-11,-1.01566e-06
6.5e-11,-1.0157e-06
6.6e-11,-1.20826e-06
6.7e-11,-1.36946e-06
6.8e-11,-8.74467e-07
6.9e-11,-7.14317e-07
7e-11,-1.05212e-06
7.1e-11,-5.38307e-07
7.2e-11,-9.94598e-07
7.3e-11,-8.09918e-07
7.4e-11,-1.17909e-06
7.5e-11,-1.047e-06
7.6e-11,-7.51474e-07
7.7e-11,-9.37979e-07
7.8e-11,-7.41469e-07
7.9e-11,-1.14897e-06
8e-11,-7.69302e-07
8.1e-11,-1.21404e-06
8.2e-11,-6.3302e-07
8.3e-11,-4.96404e-07
8.4e-11,-6.91126e-07
8.5e-11,-1.57155e-06
8.6e-11,-7.64236e-07
8.7e-11,-9.1615e-07
8.8e-11,-7.54663e-07
8.9e-11,-8.6115e-07
9e-11,-7.17485e-07
9.1e-11,-9.29573e-07
9.2e-11,-6.99557e-07
9.3e-11,-7.83081e-07
9.4e-11,-7.2422e-07
9.5e-11,-8.98036e-07
9.6e-11,-9.96449e-07
9.7e-11,-8.20476e-07
9.8e-11,-1.11843e-06
9.9e-11,-6.43664e-07
1e-10,-6.80128e-07
1.01e-10,-7.49813e-07
1.02e-10,-9.38372e-07
1.03e-10,-9.96537e-07
1.04e-10,-4.25794e-07
1.05e-10,-7.18884e-07
1.06e-10,-7.97956e-07
1.07e-10,-6.86995e-07
1.08e-10,-4.8944e-07
1.09e-10,-6.77278e-07
1.1e-10,-5.85898e-07
1.11e-10,-9.68079e-07
1.12e-10,-6.41197e-07
1.13e-10,-8.31874e-07
1.14e-10,-7.15915e-07
1.15e-10,-8.31297e-07
1.16e-10,-4.98935e-07
1.17e-10,-2.7195e-07
1.18e-10,-6.07261e-07
1.19e-10,-8.63506e-07
1.2e-10,-5.41686e-07
1.21e-10,-3.58207e-07
1.22e-10,-9.10846e-07
1.23e-10,-5.36214e-07
1.24e-10,-5.39531e-07
1.25e-10,-7.12154e-07
1.26e-10,-6.18323e-07
1.27e-10,-9.3707e-07
1.28e-10,-6.22783e-07
1.29e-10,-4.66687e-07
1.3e-10,-3.25053e-07
1.31e-10,-5.6805e-07
1.32e-10,-4.94553e-07
1.33e-10,-4.22273e-07
1.34e-10,-6.16954e-07
1.35e-10,-8.29348e-07
1.36e-10,-5.38628e-07
1.37e-10,-7.70912e-07
1.38e-10,-6.69983e-07
1.39e-10,-4.47239e-07
1.4e-10,-8.46825e-07
1.41e-10,-4.01265e-07
1.42e-10,-5.86874e-07
1.43e-10,-6.15809e-07
1.44e-10,-1.60753e-07
1.45e-10,-5.67534e-07
1.46e-10,-4.95396e-07
1.47e-10,-7.99048e-07
1.48e-10,-5.34167e-07
1.49e-10,-7.3741e-07
1.5e-10,-5.07017e-07
1.51e-10,-7.68677e-07
1.52e-10,-5.64759e-07
1.53e-10,-7.29977e-07
1.54e-10,-6.69057e-07
1.55e-10,-5.23247e-07
1.56e-10,-5.0783e-07
1.57e-10,-3.55899e-07
1.58e-10,-6.01151e-07
1.59e-10,-5.63703e-07
1.6e-10,-3.69321e-07
1.61e-10,-3.5534e-07
1.62e-10,-6.10612e-07
1.63e-10,-8.36574e-07
1.64e-10,-4.33805e-07
1.65e-10,-5.26169e-07
1.66e-10,-8.39637e-07
1.67e-10,-5.65907e-07
1.68e-10,-4.5043e-07
1.69e-10,-6.63323e-07
1.7e-10,-8.34446e-07
1.71e-10,-5.683e-07
1.72e-10,-3.00951e-07
1.73e-10,-5.34582e-07
1.74e-10,-7.2706e-07
1.75e-10,-4.76823e-07
1.76e-10,-6.65805e-07
1.77e-10,-5.8292e-07
1.78e-10,-3.96055e-07
1.79e-10,-3.70216e-07
1.8e-10,-4.59806e-07
1.81e-10,-7.28882e-07
1.82e-10,-4.11906e-07
1.83e-10,-5.9643e-07
1.84e-10,-6.3762e-07
1.85e-10,-6.45067e-07
1.86e-10,-7.52134e-07
1.87e-10,-2.16249e-07
1.88e-10,-7.95407e-07
1.89e-10,-5.17742e-07
1.9e-10,-4.69781e-07
1.91e-10,-6.35832e-07
1.92e-10,-4.0467e-07
1.93e-10,-4.71621e-07
1.94e-10,-3.75535e-07
1.95e-10,-3.86742e-07
1.96e-10,-4.14103e-07
1.97e-10,-3.45525e-07
1.98e-10,-9.63303e-07
1.99e-10,-4.46464e-07
2e-10,-6.70144e-07
2.01e-10,-3.63871e-07
2.02e-10,-5.36324e-07
2.03e-10,-6.25609e-07
2.04e-10,-3.67772e-07
2.05e-10,-4.61683e-07
2.06e-10,-5.0056e-07
2.07e-10,-3.10339e-07
2.08e-10,-4.96439e-07
2.09e-10,-7.84542e-07
2.1e-10,-4.813e-08
2.11e-10,-6.78629e-07
2.12e-10,-5.04566e-07
2.13e-10,-4.35262e-07
2.14e-10,-3.78846e-07
2.15e-10,-4.21184e-07
2.16e-10,-3.77201e-07
2.17e-10,-4.16987e-07
2.18e-10,-4.37141e-07
2.19e-10,-4.93771e-07
2.2e-10,-5.83092e-07
2.21e-10,-7.12985e-07
2.22e-10,-1.75735e-07
2.23e-10,-5.30915e-07
2.24e-10,-3.13212e-07
2.25e-10,-3.77772e-07
2.26e-10,-3.35844e-07
2.27e-10,-3.8074e-07
2.28e-10,-2.93307e-07
2.29e-10,-2.84928e-07
2.3e-10,-4.88522e-07
2.31e-10,-3.13034e-07
2.32e-10,-6.42934e-07
2.33e-10,-4.33996e-07
2.34e-10,-5.52709e-07
2.35e-10,-3.88179e-07
2.36e-10,-3.0556e-07
2.37e-10,-3.47579e-07
2.38e-10,-3.90543e-07
2.39e-10,-3.3177e-07
2.4e-10,-6.32402e-07
2.41e-10,-2.17294e-07
2.42e-10,-4.28098e-07
2.43e-10,-3.32595e-07
2.44e-10,-6.23882e-07
2.45e-10,-4.5406e-07
2.46e-10,-3.83205e-07
2.47e-10,-3.77149e-07
2.48e-10,-3.45753e-07
2.49e-10,-2.17734e-07
2.5e-10,-9.28998e-08
2.51e-10,-2.7888e-07
2.52e-10,-2.11118e-07
2.53e-10,-5.69464e-07
2.54e-10,-3.36573e-07
2.55e-10,-3.01774e-07
2.56e-10,-3.61165e-07
2.57e-10,-2.70116e-07
2.58e-10,-3.60633e-07
2.59e-10,-3.57889e-07
2.6e-10,-6.06286e-08
2.61e-10,-5.13522e-07
2.62e-10,7.50024e-09
2.63e-10,-1.89113e-07
2.64e-10,-3.33896e-07
2.65e-10,-2.47953e-07
2.66e-10,-2.12697e-07
2.67e-10,-1.54867e-07
2.68e-10,-3.90136e-07
2.69e-10,-3.39345e-07
2.7e-10,-3.44846e-07
2.71e-10,-4.50953e-07
2.72e-10,-2.08903e-07
2.73e-10,-2.49396e-07
2.74e-10,-4.66777e-07
2.75e-10,-4.0494e-07
2.76e-10,-2.70456e-07
2.77e-10,-5.0965e-07
2.78e-10,-1.7253e-07
2.79e-10,-2.66592e-07
2.8e-10,-1.98398e-07
2.81e-10,-2.5059e-07
2.82e-10,-1.96754e-07
2.83e-10,-1.9497e-07
2.84e-10,-3.6727e-07
2.85e-10,-2.77658e-07
2.86e-10,-4.64571e-07
2.87e-10,-2.25348e-07
2.88e-10,-2.38924e-07
2.89e-10,-4.03906e-07
2.9e-10,-2.07833e-07
2.91e-10,-2.71691e-07
2.92e-10,-3.49035e-07
2.93e-10,-3.19527e-07
2.94e-10,-3.51905e-07
2.95e-10,-1.2208e-07
2.96e-10,-3.52787e-07
2.97e-10,-1.50007e-07
2.98e-10,-7.32721e-08
2.99e-10,-3.0807e-07
3e-10,-3.01833e-07
3.01e-10,-9.37976e-08
3.02e-10,-2.96648e-07
3.03e-10,-4.77178e-07
3.04e-10,-1.97452e-07
3.05e-10,-1.51498e-07
3.06e-10,-7.57081e-08
3.07e-10,-3.79544e-07
3.08e-10,-4.12332e-07
3.09e-10,3.66775e-09
3.1e-10,-2.83126e-07
3.11e-10,-4.05266e-07
3.12e-10,-2.36501e-07
3.13e-10,-2.35597e-07
3.14e-10,-2.14829e-07
3.15e-10,-1.4356e-07
3.16e-10,-3.05197e-07
3.17e-10,-2.4658e-07
3.18e-10,-1.76955e-07
3.19e-10,-2.80431e-07
3.2e-10,-5.02508e-07
3.21e-10,-1.67302e-07
3.22e-10,-1.76846e-07
3.23e-10,-2.57992e-07
3.24e-10,2.85829e-08
3.25e-10,-1.55516e-07
3.26e-10,-2.20686e-07
3.27e-10,-3.81847e-07
3.28e-10,-2.30084e-07
3.29e-10,-1.86365e-07
3.3e-10,-2.27887e-07
3.31e-10,-1.21086e-07
3.32e-10,-4.39472e-07
3.33e-10,8.15062e-08
3.34e-10,-3.62679e-07
3.35e-10,-1.32881e-07
3.36e-10,-2.79275e-07
3.37e-10,-1.85129e-07
3.38e-10,-6.44882e-09
3.39e-10,-2.33693e-07
3.4e-10,3.62726e-09
3.41e-10,-1.17477e-07
3.42e-10,-2.59984e-07
3.43e-10,-2.82246e-07
3.44e-10,-3.53166e-07
3.45e-10,-2.43295e-07
3.46e-10,-2.17741e-07
3.47e-10,-4.48651e-08
3.48e-10,-6.99822e-08
3.49e-10,-2.10248e-07
3.5e-10,-2.83654e-07
3.51e-10,-4.39211e-08
3.52e-10,-2.1271e-07
3.53e-10,-2.43573e-07
3.54e-10,-7.31505e-08
3.55e-10,-1.11034e-07
3.56e-10,-1.81621e-07
3.57e-10,-3.65456e-07
3.58e-10,8.42345e-09
3.59e-10,-2.32027e-07
3.6e-10,-9.92586e-08
3.61e-10,-7.78812e-08
3.62e-10,-2.06169e-07
3.63e-10,-6.01979e-08
3.64e-10,-2.92515e-07
3.65e-10,3.315e-08
3.66e-10,-1.83676e-07
3.67e-10,-2.33775e-07
3.68e-10,-3.74411e-08
3.69e-10,-1.85084e-07
3.7e-10,-7.92953e-08
3.71e-10,-1.79275e-07
3.72e-10,-1.54731e-07
3.73e-10,-1.21946e-07
3.74e-10,-1.4126e-07
3.75e-10,-1.54589e-07
3.76e-10,-4.25201e-08
3.77e-10,-2.19968e-07
3.78e-10,-1.321e-07
3.79e-10,4.31504e-08
3.8e-10,-1.89968e-07
3.81e-10,-1.08032e-07
3.82e-10,-1.37833e-07
3.83e-10,-2.40161e-07
3.84e-10,-3.37202e-09
3.85e-10,6.58455e-08
3.86e-10,-3.17481e-07
3.87e-10,8.61474e-08
3.88e-10,-3.04801e-07
3.89e-10,-3.19956e-08
3.9e-10,-3.40304e-08
3.91e-10,-1.14383e-07
3.92e-10,-2.2896e-07
3.93e-10,-8.85307e-08
3.94e-10,-1.80802e-07
3.95e-10,-2.13073e-07
3.96e-10,6.6225e-08
3.97e-10,-1.73776e-07
3.98e-10,-9.44246e-08
3.99e-10,4.27343e-08
4e-10,-2.04048e-07
4.01e-10,-9.48441e-08
4.02e-10,-2.18747e-07
4.03e-10,-1.88316e-07
4.04e-10,8.03165e-08
4.05e-10,-3.10447e-07
4.06e-10,-1.23792e-07
4.07e-10,-6.61161e-08
4.08e-10,-2.11972e-07
4.09e-10,-5.47883e-08
4.1e-10,-1.85169e-07
4.11e-10,-4.21623e-08
4.12e-10,-1.8789e-07
4.13e-10,3.10547e-08
4.14e-10,-6.81051e-08
4.15e-10,-9.76284e-08
4.16e-10,-7.26156e-08
4.17e-10,-1.43982e-07
4.18e-10,-1.56387e-07
4.19e-10,-5.96161e-08
4.2e-10,1.09426e-08
4.21e-10,-2.79017e-08
4.22e-10,-1.64765e-07
4.23e-10,1.20159e-07
4.24e-10,-1.99746e-08
4.25e-10,-1.13794e-08
4.26e-10,-2.3191e-07
4.27e-10,-2.99597e-07
4.28e-10,4.08955e-08
4.29e-10,-5.20307e-08
4.3e-10,-7.04888e-08
4.31e-10,-4.68154e-08
4.32e-10,-6.61939e-08
4.33e-10,-5.83108e-08
4.34e-10,-1.23981e-07
4.35e-10,-9.17109e-08
4.36e-10,3.47924e-08
4.37e-10,-1.2451e-07
4.38e-10,-3.95235e-08
4.39e-10,-1.67877e-07
4.4e-10,-6.69655e-08
4.41e-10,-3.50833e-08
4.42e-10,-9.52642e-08
4.43e-10,-1.37769e-07
4.44e-10,-1.33848e-07
4.45e-10,4.28908e-08
4.46e-10,-6.70355e-08
4.47e-10,2.85079e-08
4.48e-10,-2.99089e-08
4.49e-10,-1.68883e-07
4.5e-10,-1.60613e-07
4.51e-10,-8.54346e-08
4.52e-10,-1.76275e-07
4.53e-10,-6.17353e-08
4.54e-10,-3.25161e-08
4.55e-10,-1.79528e-08
4.56e-10,8.1243e-08
4.57e-10,-3.38582e-08
4.58e-10,-1.10426e-07
4.59e-10,-1.53139e-07
4.6e-10,-1.31134e-07
4.61e-10,-3.19434e-08
4.62e-10,2.05065e-08
4.63e-10,-6.3223e-08
4.64e-10,-2.30966e-08
4.65e-10,-4.74754e-08
4.66e-10,-7.1829e-08
4.67e-10,-1.8152e-07
4.68e-10,7.07053e-09
4.69e-10,-2.98828e-08
4.7e-10,-1.22232e-07
4.71e-10,-1.85501e-08
4.72e-10,3.86865e-08
4.73e-10,-6.97847e-08
4.74e-10,-9.20368e-08
4.75e-10,7.21755e-09
4.76e-10,-1.23744e-07
4.77e-10,3.6483e-08
4.78e-10,-1.04658e-07
4.79e-10,-2.00782e-08
4.8e-10,2.17969e-08
4.81e-10,-7.6449e-08
4.82e-10,-3.33963e-08
4.83e-10,-7.84043e-08
4.84e-10,-6.28704e-08
4.85e-10,-4.75397e-08
4.86e-10,-7.62749e-08
4.87e-10,-4.9999e-08
4.88e-10,-7.70026e-08
4.89e-10,-5.89254e-08
4.9e-10,-1.03997e-08
4.91e-10,9.04544e-10
4.92e-10,-1.91923e-07
4.93e-10,1.4781e-08
4.94e-10,1.29069e-08
4.95e-10,-4.87181e-08
4.96e-10,-1.36169e-07
4.97e-10,3.73602e-09
4.98e-10,-6.77521e-08
4.99e-10,-2.13116e-08
5e-10,-1.23874e-07
5.01e-10,-2.59303e-08
5.02e-10,5.53828e-08
5.03e-10,-1.18894e-07
5.04e-10,-1.27905e-07
5.05e-10,6.9504e-12
5.06e-10,1.8588e-08
5.07e-10,-6.29643e-09
5.08e-10,-1.38905e-07
5.09e-10,-2.5277e-08
5.1e-10,-1.89517e-09
5.11e-10,-4.71511e-08
5.12e-10,-3.42245e-08
5.13e-10,2.73357e-08
5.14e-10,3.28271e-08
5.15e-10,-1.33539e-07
5.16e-10,-1.46471e-07
5.17e-10,-2.77589e-08
5.18e-10,-5.73541e-09
5.19e-10,-3.1266e-09
5.2e-10,-1.68061e-08
5.21e-10,-6.38128e-08
5.22e-10,-7.44534e-08
5.23e-10,9.20924e-08
5.24e-10,-4.15124e-08
5.25e-10,-6.56842e-08
5.26e-10,-9.67723e-08
5.27e-10,-7.8699e-08
5.28e-10,1.1661e-08
5.29e-10,4.5535e-08
5.3e-10,1.70218e-08
5.31e-10,-7.3802e-08
5.32e-10,5.97786e-08
5.33e-10,-1.43356e-07
5.34e-10,3.76148e-08
5.35e-10,-1.21032e-07
5.36e-10,-4.85531e-08
5.37e-10,2.86924e-08
5.38e-10,-2.55616e-08
5.39e-10,-3.12088e-08
5.4e-10,4.67448e-08
5.41e-10,-4.26756e-08
5.42e-10,-1.78429e-07
5.43e-10,5.9628e-08
5.44e-10,-1.17088e-07
5.45e-10,-2.4451e-08
5.46e-10,-7.86634e-08
5.47e-10,-3.12944e-09
5.48e-10,-4.8641e-08
5.49e-10,-7.06769e-08
5.5e-10,-2.53684e-09
5.51e-10,-4.25439e-08
5.52e-10,-1.66347e-08
5.53e-10,-1.47677e-09
5.54e-10,-6.82775e-08
5.55e-10,5.98276e-09
5.56e-10,-3.07284e-08
5.57e-10,-3.50454e-08
5.58e-10,-3.79677e-08
5.59e-10,-3.75742e-08
5.6e-10,-4.92375e-08
5.61e-10,1.69647e-09
5.62e-10,-8.67017e-08
5.63e-10,-2.86761e-08
5.64e-10,-5.46989e-09
5.65e-10,2.69326e-08
5.66e-10,-9.43379e-08
5.67e-10,7.86505e-08
5.68e-10,-5.42195e-08
5.69e-10,-3.04547e-08
5.7e-10,5.74825e-09
5.71e-10,-1.17769e-07
5.72e-10,2.44593e-08
5.73e-10,2.85222e-08
5.74e-10,-8.07186e-08
5.75e-10,3.19475e-08
5.76e-10,2.40121e-08
5.77e-10,-8.93951e-08
5.78e-10,-5.44679e-08
5.79e-10,-1.81539e-08
5.8e-10,-2.79512e-08
5.81e-10,-1.76691e-08
5.82e-10,2.21602e-08
5.83e-10,3.51096e-09
5.84e-10,-2.6301e-08
5.85e-10,-1.02646e-07
5.86e-10,-2.80129e-08
5.87e-10,-8.5238e-09
5.88e-10,3.0549e-08
5.89e-10,-2.35241e-08
5.9e-10,7.01683e-09
5.91e-10,-2.5146e-09
5.92e-10,-6.38335e-08
5.93e-10,-2.51486e-08
5.94e-10,-2.36227e-08
5.95e-10,-4.3973e-09
5.96e-10,-3.14298e-08
5.97e-10,-2.13782e-09
5.98e-10,-1.48193e-07
5.99e-10,-2.30431e-09
6e-10,-1.11545e-08
6.01e-10,1.41992e-09
6.02e-10,-2.80544e-08
6.03e-10,-2.34624e-08
6.04e-10,-3.21759e-09
6.05e-10,-2.15606e-08
6.06e-10,4.87774e-08
6.07e-10,-1.33053e-07
6.08e-10,7.06823e-09
6.09e-10,-9.12972e-08
6.1e-10,-2.98697e-09
6.11e-10,-6.88152e-09
6.12e-10,-5.17947e-08
6.13e-10,5.05642e-08
6.14e-10,-6.7704e-09
6.15e-10,-1.3556e-08
6.16e-10,-9.40656e-08
6.17e-10,2.57857e-08
6.18e-10,-8.82318e-08
6.19e-10,3.02507e-08
6.2e-10,-1.77226e-09
6.21e-10,-2.73108e-08
6.22e-10,2.67828e-08
6.23e-10,-4.70621e-08
6.24e-10,-8.30853e-08
6.25e-10,5.79679e-09
6.26e-10,-5.48612e-09
6.27e-10,-4.87476e-08
6.28e-10,2.20355e-08
6.29e-10,-2.61085e-08
6.3e-10,-4.4328e-09
6.31e-10,4.91318e-08
6.32e-10,-8.08533e-08
6.33e-10,-3.40893e-09
6.34e-10,-1.14361e-09
6.35e-10,-3.0115e-08
6.36e-10,-4.55763e-08
6.37e-10,2.58577e-09
6.38e-10,-5.74377e-09
6.39e-10,3.20753e-09
6.4e-10,1.54235e-09
6.41e-10,-1.8909e-09
6.42e-10,-3.08827e-08
6.43e-10,-1.33344e-09
6.44e-10,2.69583e-08
6.45e-10,-3.24077e-08
6.46e-10,8.13553e-09
6.47e-10,-4.63929e-09
6.48e-10,-3.5017e-08
6.49e-10,-2.09703e-09
6.5e-10,-9.16781e-11
6.51e-10,-4.56548e-08
6.52e-10,4.00124e-09
6.53e-10,1.26406e-09
6.54e-10,2.47447e-08
6.55e-10,2.02871e-08
6.56e-10,2.30658e-09
6.57e-10,2.85698e-10
6.58e-10,2.71008e-08
6.59e-10,3.50064e-10
6.6e-10,1.47306e-09
6.61e-10,-2.65739e-08
6.62e-10,-5.56132e-08
6.63e-10,-3.3189e-08
6.64e-10,5.25157e-08
6.65e-10,-1.84073e-09
6.66e-10,3.44795e-10
6.67e-10,-4.49564e-08
6.68e-10,-2.13855e-08
6.69e-10,-1.76823e-09
6.7e-10,2.32271e-08
6.71e-10,-2.69919e-08
6.72e-10,2.14564e-08
6.73e-10,-2.44451e-08
6.74e-10,4.02061e-09
6.75e-10,-3.10404e-08
6.76e-10,2.51574e-08
6.77e-10,-2.29029e-08
6.78e-10,-6.19333e-10
6.79e-10,-3.24678e-08
6.8e-10,1.6898e-09
6.81e-10,-1.86447e-09
6.82e-10,2.63286e-10
6.83e-10,2.51514e-08
6.84e-10,-2.86769e-08
6.85e-10,-2.70852e-08
6.86e-10,2.97468e-08
6.87e-10,-2.4392e-08
6.88e-10,-8.14087e-08
6.89e-10,2.71986e-09
6.9e-10,9.36965e-10
6.91e-10,-3.50095e-09
6.92e-10,3.23071e-10
6.93e-10,3.18452e-08
6.94e-10,-3.43502e-08
6.95e-10,2.16791e-09
6.96e-10,-8.31586e-10
6.97e-10,-1.29274e-09
6.98e-10,-3.80291e-10
6.99e-10,-3.20853e-08
7e-10,-4.28337e-08
7.01e-10,-3.96622e-10
7.02e-10,4.0823e-09
7.03e-10,-2.62104e-08
7.04e-10,3.77113e-09
7.05e-10,2.44941e-08
7.06e-10,-2.32064e-09
7.07e-10,3.0824e-10
7.08e-10,-5.42163e-09
7.09e-10,-6.97941e-08
7.1e-10,-3.40469e-10
7.11e-10,4.56018e-08
7.12e-10,-4.7782e-08
7.13e-10,6.05765e-09
7.14e-10,-6.53557e-09
7.15e-10,2.90265e-08
7.16e-10,1.44153e-09
7.17e-10,-4.44582e-09
7.18e-10,-5.76738e-08
7.19e-10,3.03992e-09
7.2e-10,2.62448e-09
7.21e-10,-8.22613e-10
7.22e-10,-4.10674e-08
7.23e-10,2.86547e-08
7.24e-10,-3.1771e-08
7.25e-10,3.12224e-08
7.26e-10,-2.80126e-08
7.27e-10,-4.02827e-10
7.28e-10,-1.35043e-09
7.29e-10,4.25872e-09
7.3e-10,5.89354e-10
7.31e-10,-5.07003e-09
7.32e-10,-4.00381e-08
7.33e-10,4.65224e-08
7.34e-10,-2.77755e-08
7.35e-10,3.08588e-09
7.36e-10,-4.31893e-08
7.37e-10,9.52895e-10
7.38e-10,-1.75733e-09
7.39e-10,-5.11529e-09
7.4e-10,4.31314e-08
7.41e-10,-6.01714e-09
7.42e-10,-4.32954e-08
7.43e-10,-2.85046e-08
7.44e-10,2.47475e-09
7.45e-10,-1.87632e-09
7.46e-10,-3.9431e-08
7.47e-10,-4.36113e-08
7.48e-10,4.72904e-10
7.49e-10,-1.4829e-09
7.5e-10,2.42563e-10
7.51e-10,2.61967e-09
7.52e-10,1.91581e-10
7.53e-10,1.34959e-09
7.54e-10,-3.09486e-09
7.55e-10,3.08989e-09
7.56e-10,-4.92763e-09
7.57e-10,-4.51454e-08
7.58e-10,4.29859e-08
7.59e-10,-4.1544e-08
7.6e-10,-4.70016e-09
7.61e-10,3.47627e-10
7.62e-10,1.1498e-09
7.63e-10,-7.25578e-11
7.64e-10,1.60873e-09
7.65e-10,-3.6011e-08
7.66e-10,-2.01582e-09
7.67e-10,2.81678e-08
7.68e-10,1.55758e-08
7.69e-10,-8.16987e-08
7.7e-10,-1.47611e-08
7.71e-10,3.22624e-10
7.72e-10,3.12489e-09
7.73e-10,-3.862e-09
7.74e-10,-2.09586e-09
7.75e-10,2.66028e-09
7.76e-10,2.07041e-09
7.77e-10,-7.0933e-08
7.78e-10,-2.90535e-09
7.79e-10,-3.13251e-08
7.8e-10,-4.2346e-08
7.81e-10,1.14681e-09
7.82e-10,2.43091e-08
7.83e-10,-4.86194e-09
7.84e-10,-2.61616e-08
7.85e-10,-4.14979e-08
7.86e-10,2.87004e-09
7.87e-10,-3.61844e-09
7.88e-10,-6.64232e-09
7.89e-10,-4.68626e-08
7.9e-10,1.61993e-10
7.91e-10,2.38545e-10
7.92e-10,-1.49529e-09
7.93e-10,7.96359e-10
7.94e-10,-2.27756e-09
7.95e-10,6.24655e-10
7.96e-10,-4.66632e-08
7.97e-10,6.24849e-10
7.98e-10,-4.36389e-08
7.99e-10,-5.55751e-09
8e-10,2.63308e-09
8.01e-10,2.28872e-09
8.02e-10,-1.03609e-09
8.03e-10,-2.39944e-09
8.04e-10,1.4908e-09
8.05e-10,-8.76016e-08
8.06e-10,3.81528e-08
8.07e-10,-4.17228e-08
8.08e-10,-3.28102e-08
8.09e-10,3.50495e-08
8.1e-10,-2.94211e-08
8.11e-10,2.99073e-09
8.12e-10,-3.00202e-09
8.13e-10,-4.94e-08
8.14e-10,-3.64534e-10
8.15e-10,2.45255e-08
8.16e-10,-2.90135e-08
8.17e-10,8.5868e-10
8.18e-10,-4.76122e-08
8.19e-10,-3.86717e-08
8.2e-10,-1.94541e-08
8.21e-10,-2.79826e-08
8.22e-10,-5.33359e-09
8.23e-10,4.59317e-09
8.24e-10,3.81401e-09
8.25e-10,-2.34861e-09
8.26e-10,-4.22999e-08
8.27e-10,-7.76008e-09
8.28e-10,-4.16038e-08
8.29e-10,-4.2493e-08
8.3e-10,6.28416e-10
8.31e-10,-4.27288e-08
8.32e-10,-2.71193e-10
8.33e-10,1.15514e-09
8.34e-10,-2.9895e-09
8.35e-10,6.89689e-10
8.36e-10,-5.50433e-08
8.37e-10,-4.87605e-08
8.38e-10,-8.80321e-10
8.39e-10,-4.16042e-08
8.4e-10,-4.31381e-09
8.41e-10,3.50347e-09
8.42e-10,-1.94514e-09
8.43e-10,-5.40027e-08
8.44e-10,4.7798e-09
8.45e-10,1.50529e-09
8.46e-10,-2.70469e-08
8.47e-10,-4.81962e-08
8.48e-10,-4.52219e-09
8.49e-10,-4.46465e-08
8.5e-10,2.87032e-08
8.51e-10,-5.66824e-08
8.52e-10,-1.98906e-08
8.53e-10,2.58907e-08
8.54e-10,-2.51342e-08
8.55e-10,-4.55232e-08
8.56e-10,6.24349e-10
8.57e-10,1.90812e-08
8.58e-10,-3.04387e-08
8.59e-10,-2.76631e-08
8.6e-10,-2.80996e-08
8.61e-10,-4.55623e-08
8.62e-10,-1.74021e-09
8.63e-10,-4.51007e-08
8.64e-10,1.08391e-09
8.65e-10,2.06906e-09
8.66e-10,2.5521e-09
8.67e-10,-2.19317e-08
8.68e-10,-5.83314e-08
8.69e-10,-2.29042e-09
8.7e-10,2.63441e-09
8.71e-10,-2.16854e-09
8.72e-10,-9.28187e-08
8.73e-10,-2.77563e-09
8.74e-10,9.04973e-10
8.75e-10,1.11205e-09
8.76e-10,-7.27935e-09
8.77e-10,-4.82667e-08
8.78e-10,1.48707e-08
8.79e-10,-6.48859e-08
8.8e-10,2.45117e-09
8.81e-10,-5.34126e-08
8.82e-10,3.83508e-09
8.83e-10,-1.19698e-09
8.84e-10,-2.05187e-09
8.85e-10,-6.02245e-08
8.86e-10,-3.98778e-09
8.87e-10,2.51094e-08
8.88e-10,-4.54226e-08
8.89e-10,2.27648e-09
8.9e-10,-7.8988e-08
8.91e-10,-3.21131e-08
8.92e-10,-1.62781e-09
8.93e-10,5.6017e-09
8.94e-10,-5.1802e-10
8.95e-10,2.91675e-09
8.96e-10,-2.58654e-08
8.97e-10,-4.83832e-08
8.98e-10,-1.49301e-09
8.99e-10,-1.13005e-07
9e-10,3.41007e-10
9.01e-10,8.19973e-10
9.02e-10,-3.88603e-09
9.03e-10,-5.0395e-09
9.04e-10,2.62478e-10
9.05e-10,-3.51369e-09
9.06e-10,-6.04638e-08
9.07e-10,-4.54749e-08
9.08e-10,-5.28421e-08
9.09e-10,2.11307e-09
9.1e-10,2.69959e-08
9.11e-10,-3.59731e-09
9.12e-10,-3.54862e-09
9.13e-10,-5.70138e-10
9.14e-10,3.08219e-09
9.15e-10,-5.67119e-09
9.16e-10,-5.80697e-08
9.17e-10,-5.13584e-08
9.18e-10,-5.28715e-08
9.19e-10,8.00475e-10
9.2e-10,3.44707e-09
9.21e-10,-4.3724e-09
9.22e-10,-2.8707e-08
9.23e-10,-6.24996e-08
9.24e-10,2.93052e-09
9.25e-10,-2.83442e-09
9.26e-10,-3.34319e-09
9.27e-10,-1.30053e-07
9.28e-10,1.84226e-09
9.29e-10,5.88539e-09
9.3e-10,-4.83193e-09
9.31e-10,1.02733e-09
9.32e-10,-6.38293e-08
9.33e-10,-6.17933e-09
9.34e-10,2.74101e-08
9.35e-10,-8.39315e-08
9.36e-10,1.58977e-09
9.37e-10,-5.13398e-08
9.38e-10,-4.01665e-08
9.39e-10,-4.46579e-09
9.4e-10,-2.23676e-08
9.41e-10,-3.67387e-08
9.42e-10,-8.52122e-09
9.43e-10,-5.52686e-08
9.44e-10,2.70737e-09
9.45e-10,-4.20629e-10
9.46e-10,-5.43387e-08
9.47e-10,4.45806e-09
9.48e-10,-4.92968e-09
9.49e-10,-6.46064e-08
9.5e-10,-5.60384e-09
9.51e-10,6.30014e-09
9.52e-10,-6.47774e-08
9.53e-10,1.50234e-09
9.54e-10,-1.00552e-09
9.55e-10,-2.29045e-09
9.56e-10,-5.27134e-08
9.57e-10,-2.31988e-09
9.58e-10,-1.07041e-07
9.59e-10,4.85886e-09
9.6e-10,-5.25684e-09
9.61e-10,-1.47927e-09
9.62e-10,-5.8165e-08
9.63e-10,-3.15284e-09
9.64e-10,1.32735e-09
9.65e-10,-8.63497e-10
9.66e-10,-5.34029e-08
9.67e-10,2.17183e-10
9.68e-10,-3.89113e-08
9.69e-10,2.75166e-09
9.7e-10,-6.2411e-08
9.71e-10,1.92116e-09
9.72e-10,9.15553e-10
9.73e-10,-9.85437e-10
9.74e-10,-2.85277e-09
9.75e-10,8.56713e-10
9.76e-10,-4.31259e-08
9.77e-10,-1.40285e-08
9.78e-10,-6.25374e-08
9.79e-10,-4.61861e-08
9.8e-10,2.8604e-08
9.81e-10,-1.38049e-09
9.82e-10,1.9612e-09
9.83e-10,-1.68233e-09
9.84e-10,-3.58158e-10
9.85e-10,-8.36174e-08
9.86e-10,-9.17861e-09
9.87e-10,-5.4619e-08
9.88e-10,-2.33459e-08
9.89e-10,1.33499e-09
9.9e-10,8.05381e-10
9.91e-10,3.42052e-09
9.92e-10,-4.47524e-08
9.93e-10,-6.17299e-08
9.94e-10,-8.59395e-08
9.95e-10,2.75342e-09
9.96e-10,1.53886e-09
9.97e-10,-1.27094e-09
9.98e-10,-1.96301e-09
9.99e-10,3.83719e-09
1e-09,2.30051e-08
2.1e-09,0
