0,0
1e-12,-1.23729e-06
2e-12,-6.2566e-07
3e-12,-1.10026e-06
4e-12,-3.98432e-06
5e-12,-4.97608e-06
6e-12,-4.44135e-06
7e-12,-3.25017e-06
8e-12,-3.80903e-06
9e-12,-2.63992e-06
1e-11,-1.85662e-06
1.1e-11,-1.1727e-06
1.2e-11,-2.72082e-06
1.3e-11,-2.49747e-06
1.4e-11,-3.68803e-06
1.5e-11,-2.33535e-06
1.6e-11,-2.06876e-06
1.7e-11,-1.69624e-06
1.8e-11,-1.75632e-06
1.9e-11,-2.00608e-06
2e-11,-2.01004e-06
2.1e-11,-3.33178e-06
2.2e-11,-3.69943e-06
2.3e-11,-4.58186e-06
2.4e-11,-3.2067e-06
2.5e-11,-3.02803e-06
2.6e-11,-2.57635e-06
2.7e-11,-1.32175e-06
2.8e-11,-2.10842e-06
2.9e-11,-1.42443e-06
3e-11,-2.55488e-06
3.1e-11,-2.13779e-06
3.2e-11,-2.54075e-06
3.3e-11,-2.66757e-06
3.4e-11,-2.85365e-06
3.5e-11,-2.13903e-06
3.6e-11,-2.836e-06
3.7e-11,-2.095e-06
3.8e-11,-2.90628e-06
3.9e-11,-3.2346e-06
4e-11,-3.09243e-06
4.1e-11,-2.90175e-06
4.2e-11,-2.76973e-06
4.3e-11,-2.6648e-06
4.4e-11,-1.76897e-06
4.5e-11,-2.12977e-06
4.6e-11,-2.19748e-06
4.7e-11,-1.59321e-06
4.8e-11,-2.30348e-06
4.9e-11,-2.52621e-06
5e-11,-2.99982e-06
5.1e-11,-2.9806e-06
5.2e-11,-2.68378e-06
5.3e-11,-2.99833e-06
5.4e-11,-2.6378e-06
5.5e-11,-2.45859e-06
5.6e-11,-2.1897e-06
5.7e-11,-2.56607e-06
5.8e-11,-2.88259e-06
5.9e-11,-3.06773e-06
6e-11,-2.49565e-06
6.1e-11,-2.77528e-06
6.2e-11,-2.2767e-06
6.3e-11,-1.91675e-06
6.4e-11,-2.02547e-06
6.5e-11,-2.90814e-06
6.6e-11,-2.13487e-06
6.7e-11,-2.46018e-06
6.8e-11,-2.98471e-06
6.9e-11,-2.83608e-06
7e-11,-2.43418e-06
7.1e-11,-1.92625e-06
7.2e-11,-2.42816e-06
7.3e-11,-2.81783e-06
7.4e-11,-2.2987e-06
7.5e-11,-2.92076e-06
7.6e-11,-2.65842e-06
7.7e-11,-3.21951e-06
7.8e-11,-3.10912e-06
7.9e-11,-1.9282e-06
8e-11,-2.56555e-06
8.1e-11,-2.65706e-06
8.2e-11,-1.8674e-06
8.3e-11,-2.40142e-06
8.4e-11,-2.6404e-06
8.5e-11,-3.03491e-06
8.6e-11,-2.47467e-06
8.7e-11,-2.16206e-06
8.8e-11,-2.5288e-06
8.9e-11,-2.05511e-06
9e-11,-2.41665e-06
9.1e-11,-2.19344e-06
9.2e-11,-2.70352e-06
9.3e-11,-2.80201e-06
9.4e-11,-3.07529e-06
9.5e-11,-2.49718e-06
9.6e-11,-2.97876e-06
9.7e-11,-2.64649e-06
9.8e-11,-2.55631e-06
9.9e-11,-2.3142e-06
1e-10,-2.14496e-06
1.01e-10,-2.53432e-06
1.02e-10,-2.52162e-06
1.03e-10,-3.58063e-06
1.04e-10,-3.06728e-06
1.05e-10,-2.6456e-06
1.06e-10,-1.98439e-06
1.07e-10,-2.35814e-06
1.08e-10,-1.99846e-06
1.09e-10,-2.29653e-06
1.1e-10,-1.68062e-06
1.11e-10,-3.40289e-06
1.12e-10,-2.89901e-06
1.13e-10,-2.25877e-06
1.14e-10,-2.37301e-06
1.15e-10,-3.00063e-06
1.16e-10,-1.56957e-06
1.17e-10,-1.93996e-06
1.18e-10,-2.50443e-06
1.19e-10,-2.4049e-06
1.2e-10,-3.3352e-06
1.21e-10,-2.78647e-06
1.22e-10,-2.21194e-06
1.23e-10,-2.33201e-06
1.24e-10,-2.38487e-06
1.25e-10,-1.55795e-06
1.26e-10,-2.11899e-06
1.27e-10,-2.64761e-06
1.28e-10,-3.80567e-06
1.29e-10,-2.12511e-06
1.3e-10,-2.6194e-06
1.31e-10,-2.77523e-06
1.32e-10,-2.41254e-06
1.33e-10,-2.2463e-06
1.34e-10,-2.40987e-06
1.35e-10,-2.2833e-06
1.36e-10,-2.63507e-06
1.37e-10,-2.2105e-06
1.38e-10,-2.46259e-06
1.39e-10,-2.38318e-06
1.4e-10,-1.88327e-06
1.41e-10,-2.76514e-06
1.42e-10,-2.35231e-06
1.43e-10,-2.16673e-06
1.44e-10,-2.94987e-06
1.45e-10,-1.72411e-06
1.46e-10,-2.4157e-06
1.47e-10,-2.01571e-06
1.48e-10,-2.75713e-06
1.49e-10,-2.55096e-06
1.5e-10,-1.75092e-06
1.51e-10,-2.88703e-06
1.52e-10,-2.2743e-06
1.53e-10,-2.41421e-06
1.54e-10,-2.35543e-06
1.55e-10,-2.54762e-06
1.56e-10,-2.87125e-06
1.57e-10,-2.04573e-06
1.58e-10,-2.02463e-06
1.59e-10,-2.15323e-06
1.6e-10,-2.07218e-06
1.61e-10,-3.30715e-06
1.62e-10,-2.18959e-06
1.63e-10,-2.10377e-06
1.64e-10,-2.54789e-06
1.65e-10,-2.47369e-06
1.66e-10,-2.21497e-06
1.67e-10,-2.05043e-06
1.68e-10,-2.14222e-06
1.69e-10,-2.46533e-06
1.7e-10,-2.53025e-06
1.71e-10,-2.24823e-06
1.72e-10,-2.07941e-06
1.73e-10,-2.81691e-06
1.74e-10,-2.19097e-06
1.75e-10,-2.13642e-06
1.76e-10,-2.59231e-06
1.77e-10,-2.17382e-06
1.78e-10,-2.36585e-06
1.79e-10,-2.41835e-06
1.8e-10,-1.71239e-06
1.81e-10,-1.76911e-06
1.82e-10,-2.1677e-06
1.83e-10,-1.56235e-06
1.84e-10,-2.03336e-06
1.85e-10,-2.42625e-06
1.86e-10,-1.24882e-06
1.87e-10,-2.18449e-06
1.88e-10,-8.88845e-07
1.89e-10,-1.42481e-06
1.9e-10,-1.1397e-06
1.91e-10,-6.39523e-07
1.92e-10,-1.09142e-06
1.93e-10,-7.66997e-07
1.94e-10,-9.51291e-07
1.95e-10,-1.01883e-06
1.96e-10,-8.01485e-07
1.97e-10,-9.15676e-07
1.98e-10,-4.2313e-07
1.99e-10,-7.31804e-07
2e-10,-5.48803e-07
2.01e-10,-6.11178e-07
2.02e-10,-7.52378e-07
2.03e-10,-6.9994e-07
2.04e-10,-1.01151e-06
2.05e-10,-6.44403e-07
2.06e-10,-4.58431e-07
2.07e-10,-6.1659e-07
2.08e-10,-5.00872e-07
2.09e-10,-6.65318e-07
2.1e-10,-6.33924e-07
2.11e-10,-2.80389e-07
2.12e-10,-6.48312e-07
2.13e-10,-7.77102e-07
2.14e-10,-6.42853e-07
2.15e-10,-5.03529e-07
2.16e-10,-5.79871e-07
2.17e-10,-7.91696e-07
2.18e-10,-6.11091e-07
2.19e-10,-6.34499e-07
2.2e-10,-4.03699e-07
2.21e-10,-5.17072e-07
2.22e-10,-8.52068e-07
2.23e-10,-2.98396e-07
2.24e-10,-4.87298e-07
2.25e-10,-6.72712e-07
2.26e-10,-8.64005e-07
2.27e-10,-4.99606e-07
2.28e-10,-5.12961e-07
2.29e-10,-5.08975e-07
2.3e-10,-7.2838e-07
2.31e-10,-7.91982e-07
2.32e-10,-1.02433e-07
2.33e-10,-6.22504e-07
2.34e-10,-9.6936e-07
2.35e-10,-3.52744e-07
2.36e-10,-2.54542e-07
2.37e-10,-7.26313e-07
2.38e-10,-9.32545e-07
2.39e-10,-6.72765e-07
2.4e-10,-3.19063e-07
2.41e-10,-7.41976e-07
2.42e-10,-3.75939e-07
2.43e-10,-4.31457e-07
2.44e-10,-6.67515e-07
2.45e-10,-1.25565e-07
2.46e-10,-6.51227e-07
2.47e-10,-4.88659e-07
2.48e-10,-5.63457e-07
2.49e-10,-4.47276e-07
2.5e-10,-7.20713e-07
2.51e-10,-3.65671e-07
2.52e-10,-6.91577e-07
2.53e-10,-4.20745e-07
2.54e-10,-5.93081e-07
2.55e-10,-3.97933e-07
2.56e-10,-3.74209e-07
2.57e-10,-4.05668e-07
2.58e-10,-2.95961e-07
2.59e-10,-1.97298e-07
2.6e-10,-5.26563e-07
2.61e-10,-5.07686e-07
2.62e-10,-3.24385e-07
2.63e-10,-3.40996e-07
2.64e-10,-5.50092e-07
2.65e-10,-4.62961e-07
2.66e-10,-6.76223e-08
2.67e-10,-7.9882e-07
2.68e-10,-5.19998e-07
2.69e-10,-7.27996e-07
2.7e-10,-4.0312e-08
2.71e-10,-1.90733e-07
2.72e-10,-6.85274e-07
2.73e-10,-4.66058e-07
2.74e-10,-3.08999e-07
2.75e-10,-5.24163e-07
2.76e-10,-4.18354e-07
2.77e-10,-3.36781e-07
2.78e-10,-8.80421e-08
2.79e-10,-2.35905e-07
2.8e-10,-4.39212e-07
2.81e-10,-2.81333e-07
2.82e-10,-6.94232e-07
2.83e-10,-3.33824e-07
2.84e-10,-3.71568e-07
2.85e-10,-2.10212e-07
2.86e-10,-5.24627e-07
2.87e-10,-6.92121e-08
2.88e-10,-1.72867e-07
2.89e-10,-2.99205e-07
2.9e-10,-4.31264e-07
2.91e-10,-9.16842e-08
2.92e-10,-3.32766e-07
2.93e-10,-3.56844e-07
2.94e-10,-3.36108e-07
2.95e-10,-5.34383e-07
2.96e-10,-9.9177e-08
2.97e-10,-4.92757e-08
2.98e-10,-2.86912e-07
2.99e-10,-4.26791e-07
3e-10,-2.71376e-07
3.01e-10,-1.73526e-07
3.02e-10,-3.79879e-07
3.03e-10,-4.17754e-07
3.04e-10,-1.54438e-07
3.05e-10,-3.99276e-07
3.06e-10,-1.34848e-07
3.07e-10,-1.77569e-07
3.08e-10,-2.48066e-07
3.09e-10,-2.37588e-07
3.1e-10,-8.77938e-08
3.11e-10,-2.71799e-07
3.12e-10,-1.96379e-07
3.13e-10,-3.89825e-07
3.14e-10,-3.16402e-08
3.15e-10,-2.02636e-07
3.16e-10,-4.4819e-07
3.17e-10,-4.35857e-08
3.18e-10,-1.70799e-07
3.19e-10,-3.14794e-07
3.2e-10,-3.16956e-07
3.21e-10,-1.2672e-07
3.22e-10,-2.52083e-07
3.23e-10,-1.27805e-07
3.24e-10,-1.50425e-07
3.25e-10,-5.12422e-07
3.26e-10,-1.50826e-07
3.27e-10,-1.05193e-07
3.28e-10,-1.02433e-07
3.29e-10,-3.2336e-07
3.3e-10,4.95955e-08
3.31e-10,-1.48289e-07
3.32e-10,-1.96621e-07
3.33e-10,-2.93791e-07
3.34e-10,-2.90987e-07
3.35e-10,-3.10453e-08
3.36e-10,-2.64469e-07
3.37e-10,-1.11594e-07
3.38e-10,-2.13402e-07
3.39e-10,-4.1792e-08
3.4e-10,-1.71458e-07
3.41e-10,-2.53204e-07
3.42e-10,-1.63509e-07
3.43e-10,-2.80692e-07
3.44e-10,-1.11126e-07
3.45e-10,-4.57323e-07
3.46e-10,-7.46482e-08
3.47e-10,1.67973e-09
3.48e-10,-1.38336e-07
3.49e-10,-1.46623e-07
3.5e-10,-2.24975e-07
3.51e-10,-2.09197e-07
3.52e-10,4.14594e-09
3.53e-10,-2.54816e-07
3.54e-10,-1.5341e-07
3.55e-10,-5.8552e-08
3.56e-10,3.43619e-08
3.57e-10,-2.6358e-07
3.58e-10,3.10781e-09
3.59e-10,-1.94405e-07
3.6e-10,-5.65381e-08
3.61e-10,-1.67813e-07
3.62e-10,-1.95022e-07
3.63e-10,-1.61967e-08
3.64e-10,-1.12805e-07
3.65e-10,-3.63463e-07
3.66e-10,-7.71913e-08
3.67e-10,-2.68481e-07
3.68e-10,-5.82133e-08
3.69e-10,-1.30981e-07
3.7e-10,-9.44502e-08
3.71e-10,6.49309e-10
3.72e-10,-1.62465e-07
3.73e-10,-4.27386e-08
3.74e-10,2.91914e-08
3.75e-10,-4.10751e-07
3.76e-10,-2.05813e-07
3.77e-10,-5.71766e-08
3.78e-10,-1.42902e-07
3.79e-10,-2.07997e-07
3.8e-10,-1.0029e-07
3.81e-10,-1.26121e-07
3.82e-10,-1.43816e-08
3.83e-10,-2.29416e-07
3.84e-10,-1.9553e-07
3.85e-10,-1.61523e-07
3.86e-10,-2.28187e-07
3.87e-10,-1.28528e-07
3.88e-10,1.07907e-07
3.89e-10,-2.3629e-07
3.9e-10,-9.83266e-08
3.91e-10,4.21752e-09
3.92e-10,-5.29603e-08
3.93e-10,-2.99477e-07
3.94e-10,-1.94342e-07
3.95e-10,-1.03408e-07
3.96e-10,-8.5966e-08
3.97e-10,-2.60469e-07
3.98e-10,-1.0032e-07
3.99e-10,5.92661e-09
4e-10,-2.14223e-07
4.01e-10,-6.95323e-08
4.02e-10,-3.80205e-08
4.03e-10,-8.14402e-08
4.04e-10,-1.98204e-07
4.05e-10,-1.96117e-07
4.06e-10,1.72872e-08
4.07e-10,-5.8493e-08
4.08e-10,-1.52464e-07
4.09e-10,-2.47486e-07
4.1e-10,-1.87937e-07
4.11e-10,1.03703e-08
4.12e-10,-1.7345e-07
4.13e-10,-8.35915e-08
4.14e-10,-4.27951e-08
4.15e-10,-1.09719e-07
4.16e-10,-3.91336e-08
4.17e-10,-2.39278e-07
4.18e-10,-1.0017e-07
4.19e-10,-2.62286e-08
4.2e-10,-8.41746e-08
4.21e-10,-1.38463e-07
4.22e-10,-2.03572e-08
4.23e-10,-1.3414e-07
4.24e-10,-9.10221e-08
4.25e-10,-1.41207e-07
4.26e-10,-3.45339e-08
4.27e-10,-3.58714e-07
4.28e-10,-1.85161e-09
4.29e-10,-1.78041e-07
4.3e-10,-3.4078e-08
4.31e-10,-7.65549e-08
4.32e-10,-6.4556e-08
4.33e-10,-3.16525e-08
4.34e-10,-2.76533e-09
4.35e-10,-7.64045e-08
4.36e-10,-2.30245e-07
4.37e-10,-1.56402e-07
4.38e-10,-6.54e-08
4.39e-10,-2.50324e-07
4.4e-10,-1.81379e-07
4.41e-10,-4.66898e-08
4.42e-10,9.16668e-08
4.43e-10,-1.28721e-07
4.44e-10,-9.31812e-08
4.45e-10,-3.26124e-08
4.46e-10,7.91759e-10
4.47e-10,-4.14864e-07
4.48e-10,4.3319e-08
4.49e-10,-1.85172e-07
4.5e-10,1.20484e-08
4.51e-10,-2.55235e-07
4.52e-10,1.39577e-08
4.53e-10,-3.98348e-08
4.54e-10,-4.8244e-08
4.55e-10,3.75483e-09
4.56e-10,-1.87891e-07
4.57e-10,-7.24414e-08
4.58e-10,-1.83217e-07
4.59e-10,-1.22646e-07
4.6e-10,-1.29273e-08
4.61e-10,-1.44653e-07
4.62e-10,-1.06477e-07
4.63e-10,-1.12804e-07
4.64e-10,1.70119e-08
4.65e-10,-1.67592e-07
4.66e-10,-7.20273e-08
4.67e-10,7.94239e-08
4.68e-10,-1.00774e-07
4.69e-10,-1.26983e-07
4.7e-10,-8.37373e-08
4.71e-10,-1.02295e-07
4.72e-10,-1.07076e-07
4.73e-10,-1.47751e-08
4.74e-10,-1.66343e-07
4.75e-10,-9.66609e-08
4.76e-10,-2.7325e-08
4.77e-10,-1.19414e-07
4.78e-10,-5.57242e-08
4.79e-10,-7.43989e-08
4.8e-10,-2.71772e-08
4.81e-10,-8.8147e-08
4.82e-10,-1.58586e-08
4.83e-10,-2.02867e-07
4.84e-10,-2.18252e-07
4.85e-10,1.27651e-08
4.86e-10,-1.03419e-08
4.87e-10,-3.20964e-08
4.88e-10,-4.78776e-08
4.89e-10,-6.18947e-08
4.9e-10,-2.79222e-08
4.91e-10,2.45688e-09
4.92e-10,-2.94887e-07
4.93e-10,8.82352e-08
4.94e-10,-3.14018e-09
4.95e-10,-6.10197e-08
4.96e-10,-1.60582e-07
4.97e-10,-4.32964e-08
4.98e-10,-1.40402e-08
4.99e-10,-1.08954e-07
5e-10,3.66452e-10
5.01e-10,-1.33843e-07
5.02e-10,-1.33867e-07
5.03e-10,-1.63658e-08
5.04e-10,-1.15145e-07
5.05e-10,-3.10519e-08
5.06e-10,-5.30028e-08
5.07e-10,-1.10535e-07
5.08e-10,-6.98234e-08
5.09e-10,-3.83222e-08
5.1e-10,6.98688e-08
5.11e-10,-1.00291e-07
5.12e-10,-1.44813e-07
5.13e-10,-7.29949e-08
5.14e-10,-1.49647e-08
5.15e-10,-6.60112e-08
5.16e-10,-1.21259e-07
5.17e-10,-6.65961e-08
5.18e-10,-4.80801e-08
5.19e-10,-1.21098e-07
5.2e-10,2.53268e-08
5.21e-10,-1.25166e-07
5.22e-10,-1.38323e-07
5.23e-10,-8.37026e-08
5.24e-10,-2.61775e-08
5.25e-10,-7.54933e-08
5.26e-10,-6.15529e-08
5.27e-10,-4.60375e-08
5.28e-10,-1.10726e-07
5.29e-10,3.84321e-09
5.3e-10,1.8326e-08
5.31e-10,1.72637e-08
5.32e-10,-4.83173e-09
5.33e-10,-1.96679e-07
5.34e-10,-6.85501e-08
5.35e-10,5.49488e-08
5.36e-10,-1.81568e-07
5.37e-10,-7.81432e-08
5.38e-10,6.26884e-08
5.39e-10,-8.57377e-08
5.4e-10,-8.69479e-08
5.41e-10,8.3222e-08
5.42e-10,-2.003e-07
5.43e-10,-8.2096e-08
5.44e-10,-1.40031e-07
5.45e-10,-1.05723e-07
5.46e-10,-2.76372e-08
5.47e-10,3.48907e-09
5.48e-10,-9.77255e-08
5.49e-10,-1.18999e-07
5.5e-10,5.08905e-08
5.51e-10,-1.18746e-08
5.52e-10,-4.08292e-08
5.53e-10,-1.14481e-07
5.54e-10,-1.13665e-07
5.55e-10,-2.25678e-08
5.56e-10,-7.90688e-09
5.57e-10,-6.18211e-09
5.58e-10,4.6866e-08
5.59e-10,-5.94958e-08
5.6e-10,-7.70769e-08
5.61e-10,-2.28005e-07
5.62e-10,3.2009e-08
5.63e-10,-6.69556e-09
5.64e-10,-5.26263e-08
5.65e-10,-1.00496e-07
5.66e-10,-4.55265e-08
5.67e-10,-8.49922e-08
5.68e-10,-2.75618e-08
5.69e-10,-1.39875e-07
5.7e-10,-3.345e-08
5.71e-10,3.09713e-08
5.72e-10,-3.96284e-08
5.73e-10,-2.72725e-08
5.74e-10,-3.14588e-08
5.75e-10,-1.79031e-08
5.76e-10,-5.65211e-08
5.77e-10,-1.02702e-07
5.78e-10,-1.1125e-07
5.79e-10,-4.10306e-08
5.8e-10,-7.15018e-08
5.81e-10,1.80319e-08
5.82e-10,-8.62569e-08
5.83e-10,7.51775e-09
5.84e-10,-1.68159e-08
5.85e-10,-1.27278e-08
5.86e-10,-1.16839e-07
5.87e-10,-7.92194e-08
5.88e-10,-1.85506e-07
5.89e-10,9.97451e-10
5.9e-10,2.15886e-09
5.91e-10,4.1759e-10
5.92e-10,-6.66572e-08
5.93e-10,-8.74305e-08
5.94e-10,-6.93892e-08
5.95e-10,-6.03304e-08
5.96e-10,-8.45403e-08
5.97e-10,-2.33213e-08
5.98e-10,-6.65319e-08
5.99e-10,-3.67928e-08
6e-10,1.71214e-09
6.01e-10,-3.94501e-08
6.02e-10,-9.18829e-08
6.03e-10,-5.82921e-08
6.04e-10,-5.75825e-08
6.05e-10,-2.45486e-08
6.06e-10,-7.51141e-08
6.07e-10,5.73473e-08
6.08e-10,1.28795e-09
6.09e-10,-8.50566e-08
6.1e-10,-4.49361e-08
6.11e-10,-1.21323e-07
6.12e-10,-6.88651e-08
6.13e-10,-6.30446e-08
6.14e-10,-7.1263e-08
6.15e-10,-5.79913e-08
6.16e-10,-8.94623e-12
6.17e-10,-6.44873e-08
6.18e-10,-2.92387e-09
6.19e-10,-1.20951e-07
6.2e-10,6.05928e-09
6.21e-10,-3.1702e-08
6.22e-10,-9.37498e-08
6.23e-10,-7.22711e-08
6.24e-10,2.50945e-08
6.25e-10,-3.62953e-08
6.26e-10,-4.24524e-08
6.27e-10,-7.0382e-08
6.28e-10,-3.38055e-08
6.29e-10,-2.35916e-08
6.3e-10,3.60877e-08
6.31e-10,-1.23253e-07
6.32e-10,-1.50105e-09
6.33e-10,-1.16875e-07
6.34e-10,-4.36015e-08
6.35e-10,-4.59894e-08
6.36e-10,-4.51027e-08
6.37e-10,-5.13699e-08
6.38e-10,-1.58635e-08
6.39e-10,-6.11428e-08
6.4e-10,-4.40188e-08
6.41e-10,1.57418e-09
6.42e-10,-4.05519e-08
6.43e-10,-2.96779e-08
6.44e-10,4.24147e-09
6.45e-10,-1.58893e-07
6.46e-10,-1.50265e-08
6.47e-10,-2.36091e-08
6.48e-10,-1.30079e-07
6.49e-10,-4.43862e-08
6.5e-10,1.15374e-09
6.51e-10,1.06989e-09
6.52e-10,-6.42459e-08
6.53e-10,-2.48171e-08
6.54e-10,-1.86287e-08
6.55e-10,-1.55668e-08
6.56e-10,-1.12482e-07
6.57e-10,-9.80086e-08
6.58e-10,-1.06175e-07
6.59e-10,1.41429e-08
6.6e-10,1.95862e-08
6.61e-10,3.74478e-09
6.62e-10,-9.46221e-08
6.63e-10,-3.18208e-08
6.64e-10,-3.57738e-08
6.65e-10,-6.047e-08
6.66e-10,-2.90278e-08
6.67e-10,-4.21091e-08
6.68e-10,-5.74945e-08
6.69e-10,3.23344e-09
6.7e-10,-3.39544e-08
6.71e-10,-3.72765e-09
6.72e-10,-7.10093e-08
6.73e-10,-8.57516e-08
6.74e-10,-3.25023e-08
6.75e-10,2.09414e-08
6.76e-10,4.74659e-09
6.77e-10,-4.3152e-08
6.78e-10,-7.57058e-08
6.79e-10,-4.47699e-11
6.8e-10,-3.36141e-08
6.81e-10,-1.06666e-07
6.82e-10,6.40037e-09
6.83e-10,-8.51639e-09
6.84e-10,1.29477e-08
6.85e-10,-9.66181e-08
6.86e-10,-1.58543e-08
6.87e-10,-8.25083e-08
6.88e-10,5.05339e-08
6.89e-10,-5.73307e-08
6.9e-10,-1.89548e-08
6.91e-10,-4.41868e-08
6.92e-10,-4.8424e-08
6.93e-10,-1.06544e-08
6.94e-10,2.66377e-08
6.95e-10,-8.09052e-08
6.96e-10,-1.75533e-08
6.97e-10,1.5542e-08
6.98e-10,-7.72856e-08
6.99e-10,1.37818e-08
7e-10,-8.68918e-08
7.01e-10,-9.86068e-08
7.02e-10,3.19092e-08
7.03e-10,4.34717e-09
7.04e-10,-4.38508e-08
7.05e-10,-3.39751e-10
7.06e-10,-8.99438e-08
7.07e-10,-2.88402e-08
7.08e-10,-5.91073e-08
7.09e-10,6.76336e-09
7.1e-10,-4.43766e-08
7.11e-10,-5.3752e-08
7.12e-10,-8.64632e-08
7.13e-10,2.02377e-08
7.14e-10,-2.72068e-08
7.15e-10,-7.47874e-08
7.16e-10,-2.46279e-08
7.17e-10,1.14726e-08
7.18e-10,-5.55512e-08
7.19e-10,-1.54353e-08
7.2e-10,6.20582e-08
7.21e-10,-7.13271e-08
7.22e-10,-1.01676e-07
7.23e-10,-1.18406e-07
7.24e-10,-2.07396e-08
7.25e-10,-6.73461e-09
7.26e-10,-3.33833e-08
7.27e-10,-1.32102e-09
7.28e-10,-2.35267e-08
7.29e-10,2.09756e-08
7.3e-10,1.22781e-09
7.31e-10,-4.95758e-08
7.32e-10,-1.71005e-07
7.33e-10,-1.65331e-08
7.34e-10,-8.71606e-09
7.35e-10,-2.10461e-08
7.36e-10,3.90091e-09
7.37e-10,-3.03465e-08
7.38e-10,2.46194e-08
7.39e-10,-1.87483e-07
7.4e-10,-6.58154e-08
7.41e-10,-1.84423e-10
7.42e-10,1.96216e-08
7.43e-10,4.13925e-09
7.44e-10,-6.93396e-08
7.45e-10,1.64696e-08
7.46e-10,-5.303e-08
7.47e-10,-5.25354e-08
7.48e-10,2.57398e-08
7.49e-10,-9.64525e-08
7.5e-10,-3.50988e-09
7.51e-10,-4.2853e-08
7.52e-10,3.17347e-08
7.53e-10,-1.96462e-08
7.54e-10,-3.70349e-08
7.55e-10,-1.96186e-08
7.56e-10,-8.70611e-08
7.57e-10,-7.10623e-08
7.58e-10,-2.37885e-08
7.59e-10,-2.93847e-08
7.6e-10,-1.15804e-09
7.61e-10,5.02987e-10
7.62e-10,-2.38711e-08
7.63e-10,4.8545e-09
7.64e-10,-1.25008e-07
7.65e-10,7.75365e-10
7.66e-10,-3.45785e-08
7.67e-10,-5.99309e-08
7.68e-10,-3.83085e-10
7.69e-10,-3.0575e-08
7.7e-10,-2.55613e-08
7.71e-10,-4.5565e-08
7.72e-10,-6.19863e-08
7.73e-10,-5.7062e-08
7.74e-10,-2.61195e-08
7.75e-10,4.14341e-09
7.76e-10,-8.33106e-10
7.77e-10,-9.0969e-09
7.78e-10,-7.40466e-08
7.79e-10,5.14527e-10
7.8e-10,-4.58598e-08
7.81e-10,-2.96328e-08
7.82e-10,-5.40724e-08
7.83e-10,-4.91199e-08
7.84e-10,-6.32824e-08
7.85e-10,-4.05944e-08
7.86e-10,-9.87833e-09
7.87e-10,-1.02437e-08
7.88e-10,-7.77549e-09
7.89e-10,-4.97872e-08
7.9e-10,-3.91039e-08
7.91e-10,-5.04334e-08
7.92e-10,-4.21232e-08
7.93e-10,-5.09126e-08
7.94e-10,-2.66944e-08
7.95e-10,8.83479e-10
7.96e-10,-2.44734e-08
7.97e-10,-5.01607e-09
7.98e-10,-6.47196e-08
7.99e-10,-1.50662e-08
8e-10,-7.55204e-08
8.01e-10,-1.24046e-08
8.02e-10,-5.90438e-08
8.03e-10,-2.93598e-08
8.04e-10,1.43079e-09
8.05e-10,-3.30201e-08
8.06e-10,-5.95481e-08
8.07e-10,2.4723e-08
8.08e-10,-2.28626e-08
8.09e-10,-3.17066e-08
8.1e-10,-6.6044e-08
8.11e-10,-1.04954e-07
8.12e-10,-1.01757e-08
8.13e-10,2.67644e-08
8.14e-10,-2.09932e-08
8.15e-10,-9.34203e-08
8.16e-10,-5.77554e-09
8.17e-10,-1.68501e-09
8.18e-10,-2.60443e-08
8.19e-10,-4.65373e-08
8.2e-10,2.82602e-08
8.21e-10,-7.81032e-08
8.22e-10,2.52363e-09
8.23e-10,-1.23076e-08
8.24e-10,-6.42951e-08
8.25e-10,-3.63949e-09
8.26e-10,1.47647e-09
8.27e-10,-5.18101e-08
8.28e-10,-1.16489e-07
8.29e-10,-1.84107e-08
8.3e-10,-2.87093e-08
8.31e-10,-3.31991e-08
8.32e-10,-5.53491e-08
8.33e-10,3.64383e-09
8.34e-10,-3.56254e-08
8.35e-10,1.85459e-10
8.36e-10,-3.84388e-08
8.37e-10,-2.04391e-09
8.38e-10,-2.47709e-08
8.39e-10,-6.04841e-08
8.4e-10,-1.75721e-08
8.41e-10,-6.50236e-08
8.42e-10,-1.13998e-09
8.43e-10,2.79922e-10
8.44e-10,3.54493e-08
8.45e-10,-3.98471e-08
8.46e-10,-4.16985e-08
8.47e-10,-9.05477e-09
8.48e-10,9.97856e-10
8.49e-10,1.25685e-08
8.5e-10,-8.98953e-08
8.51e-10,-2.44711e-08
8.52e-10,-2.65357e-08
8.53e-10,-3.78871e-09
8.54e-10,-5.11114e-08
8.55e-10,-4.67583e-08
8.56e-10,-1.37457e-08
8.57e-10,2.54647e-08
8.58e-10,2.08045e-09
8.59e-10,-6.19232e-08
8.6e-10,-2.21565e-08
8.61e-10,-6.40906e-09
8.62e-10,-7.08318e-09
8.63e-10,-7.45953e-08
8.64e-10,2.09618e-09
8.65e-10,-1.02722e-08
8.66e-10,-5.21059e-08
8.67e-10,-9.68953e-08
8.68e-10,-4.28326e-09
8.69e-10,-1.08915e-08
8.7e-10,1.24391e-09
8.71e-10,-2.28188e-08
8.72e-10,2.64786e-08
8.73e-10,-5.4409e-08
8.74e-10,-4.36487e-08
8.75e-10,-1.24209e-08
8.76e-10,-1.32322e-07
8.77e-10,1.82935e-08
8.78e-10,2.07868e-09
8.79e-10,-1.40421e-08
8.8e-10,-5.65231e-08
8.81e-10,2.42348e-09
8.82e-10,-1.95233e-08
8.83e-10,2.41366e-08
8.84e-10,-2.82994e-08
8.85e-10,-3.29778e-08
8.86e-10,-9.21266e-09
8.87e-10,-8.7882e-08
8.88e-10,3.02286e-10
8.89e-10,-6.78207e-08
8.9e-10,2.02396e-09
8.91e-10,5.03183e-09
8.92e-10,3.48735e-09
8.93e-10,-3.20631e-08
8.94e-10,-9.0331e-09
8.95e-10,-1.50444e-09
8.96e-10,2.85123e-08
8.97e-10,-5.55149e-08
8.98e-10,-6.02872e-08
8.99e-10,-2.75267e-08
9e-10,2.38222e-08
9.01e-10,-2.63734e-08
9.02e-10,1.93188e-09
9.03e-10,-3.4725e-08
9.04e-10,-3.05955e-09
9.05e-10,-5.15929e-09
9.06e-10,-5.91091e-08
9.07e-10,-1.02113e-08
9.08e-10,4.14252e-09
9.09e-10,-8.21952e-08
9.1e-10,-3.48592e-09
9.11e-10,-2.35573e-08
9.12e-10,-3.40131e-09
9.13e-10,-1.23032e-09
9.14e-10,-6.11095e-08
9.15e-10,2.35313e-10
9.16e-10,-3.55736e-09
9.17e-10,6.00369e-09
9.18e-10,4.9953e-09
9.19e-10,-3.83462e-08
9.2e-10,-7.26331e-08
9.21e-10,-9.72703e-09
9.22e-10,-4.87561e-08
9.23e-10,-1.35025e-08
9.24e-10,-1.41313e-09
9.25e-10,-2.31285e-08
9.26e-10,5.30516e-09
9.27e-10,-7.44777e-09
9.28e-10,-1.35688e-08
9.29e-10,-1.78707e-09
9.3e-10,-6.77855e-08
9.31e-10,-6.3289e-08
9.32e-10,-1.70293e-08
9.33e-10,-2.68552e-10
9.34e-10,-4.74688e-09
9.35e-10,4.3235e-09
9.36e-10,-1.06725e-08
9.37e-10,4.98283e-09
9.38e-10,-4.71161e-09
9.39e-10,-5.31453e-09
9.4e-10,-6.08137e-08
9.41e-10,-2.51791e-09
9.42e-10,1.19695e-09
9.43e-10,-5.89872e-08
9.44e-10,-1.37439e-08
9.45e-10,2.59981e-09
9.46e-10,-2.25269e-09
9.47e-10,5.48461e-10
9.48e-10,-6.23221e-08
9.49e-10,2.13912e-09
9.5e-10,-2.74098e-09
9.51e-10,2.82523e-08
9.52e-10,3.5036e-09
9.53e-10,-2.95586e-08
9.54e-10,-5.83636e-08
9.55e-10,3.76357e-08
9.56e-10,-4.32955e-08
9.57e-10,-3.32326e-08
9.58e-10,-7.31972e-10
9.59e-10,-6.29433e-09
9.6e-10,6.11359e-09
9.61e-10,-1.37723e-09
9.62e-10,-6.60919e-09
9.63e-10,-2.81954e-08
9.64e-10,3.57133e-09
9.65e-10,-2.15229e-08
9.66e-10,-1.10028e-08
9.67e-10,-4.30405e-09
9.68e-10,3.14743e-09
9.69e-10,-7.72935e-09
9.7e-10,1.14203e-08
9.71e-10,3.15875e-09
9.72e-10,-2.51916e-10
9.73e-10,5.55465e-09
9.74e-10,-5.94059e-09
9.75e-10,-5.3331e-08
9.76e-10,-8.4506e-09
9.77e-10,3.38429e-09
9.78e-10,3.95477e-09
9.79e-10,-3.09047e-08
9.8e-10,8.97828e-12
9.81e-10,-1.29001e-08
9.82e-10,-1.03821e-09
9.83e-10,2.22053e-10
9.84e-10,-3.658e-09
9.85e-10,1.62143e-09
9.86e-10,-2.03962e-09
9.87e-10,-5.45181e-08
9.88e-10,-4.84473e-09
9.89e-10,-3.21095e-09
9.9e-10,1.23207e-08
9.91e-10,-1.92988e-08
9.92e-10,-5.5912e-09
9.93e-10,-3.51794e-09
9.94e-10,3.90645e-09
9.95e-10,-2.42319e-08
9.96e-10,3.85127e-09
9.97e-10,8.08902e-09
9.98e-10,-1.07152e-08
9.99e-10,-8.92184e-08
1e-09,1.69954e-09
2.1e-09,0
