0,0
1e-12,-1.65166e-06
2e-12,-3.71281e-06
3e-12,-7.78967e-06
4e-12,-4.51656e-06
5e-12,-1.76663e-06
6e-12,-4.47673e-06
7e-12,-5.7602e-06
8e-12,-2.13276e-06
9e-12,-1.6319e-06
1e-11,-1.45435e-06
1.1e-11,-2.04152e-06
1.2e-11,-2.89194e-06
1.3e-11,-4.17371e-06
1.4e-11,-6.7716e-06
1.5e-11,-8.66182e-06
1.6e-11,-6.00942e-06
1.7e-11,-2.87853e-06
1.8e-11,-2.16283e-06
1.9e-11,-1.89775e-06
2e-11,-1.32197e-06
2.1e-11,-1.91456e-06
2.2e-11,-3.32694e-06
2.3e-11,-5.25211e-06
2.4e-11,-6.75041e-06
2.5e-11,-4.84598e-06
2.6e-11,-4.65969e-06
2.7e-11,-2.96386e-06
2.8e-11,-1.50968e-06
2.9e-11,-2.18379e-06
3e-11,-2.78714e-06
3.1e-11,-3.96307e-06
3.2e-11,-4.71893e-06
3.3e-11,-4.66471e-06
3.4e-11,-4.04028e-06
3.5e-11,-3.59e-06
3.6e-11,-3.47054e-06
3.7e-11,-4.3002e-06
3.8e-11,-3.43152e-06
3.9e-11,-3.9912e-06
4e-11,-4.48937e-06
4.1e-11,-3.63761e-06
4.2e-11,-3.41564e-06
4.3e-11,-2.83693e-06
4.4e-11,-3.0622e-06
4.5e-11,-3.57692e-06
4.6e-11,-3.50588e-06
4.7e-11,-3.56599e-06
4.8e-11,-3.81951e-06
4.9e-11,-3.76926e-06
5e-11,-3.86051e-06
5.1e-11,-2.73739e-06
5.2e-11,-2.71986e-06
5.3e-11,-1.98105e-06
5.4e-11,-2.29669e-06
5.5e-11,-2.67167e-06
5.6e-11,-2.61128e-06
5.7e-11,-3.07159e-06
5.8e-11,-2.67904e-06
5.9e-11,-3.40808e-06
6e-11,-3.36536e-06
6.1e-11,-3.26303e-06
6.2e-11,-2.66299e-06
6.3e-11,-1.64883e-06
6.4e-11,-2.01279e-06
6.5e-11,-2.1782e-06
6.6e-11,-2.46059e-06
6.7e-11,-3.2597e-06
6.8e-11,-2.48307e-06
6.9e-11,-3.35672e-06
7e-11,-3.71572e-06
7.1e-11,-2.29567e-06
7.2e-11,-2.73027e-06
7.3e-11,-3.08195e-06
7.4e-11,-2.03496e-06
7.5e-11,-2.13483e-06
7.6e-11,-1.86406e-06
7.7e-11,-1.98838e-06
7.8e-11,-3.15807e-06
7.9e-11,-2.77485e-06
8e-11,-2.56304e-06
8.1e-11,-3.23018e-06
8.2e-11,-2.58583e-06
8.3e-11,-2.73836e-06
8.4e-11,-1.88041e-06
8.5e-11,-2.78128e-06
8.6e-11,-1.76556e-06
8.7e-11,-1.95658e-06
8.8e-11,-2.39619e-06
8.9e-11,-2.80028e-06
9e-11,-2.6304e-06
9.1e-11,-2.66419e-06
9.2e-11,-2.16291e-06
9.3e-11,-2.98515e-06
9.4e-11,-1.76099e-06
9.5e-11,-2.38544e-06
9.6e-11,-2.2629e-06
9.7e-11,-2.9823e-06
9.8e-11,-2.38729e-06
9.9e-11,-2.17263e-06
1e-10,-2.13802e-06
1.01e-10,-2.16329e-06
1.02e-10,-2.86562e-06
1.03e-10,-3.00656e-06
1.04e-10,-1.98879e-06
1.05e-10,-3.15355e-06
1.06e-10,-2.36933e-06
1.07e-10,-2.07374e-06
1.08e-10,-2.16291e-06
1.09e-10,-2.55262e-06
1.1e-10,-1.87698e-06
1.11e-10,-1.66195e-06
1.12e-10,-3.08576e-06
1.13e-10,-2.29055e-06
1.14e-10,-2.45271e-06
1.15e-10,-2.53613e-06
1.16e-10,-2.19925e-06
1.17e-10,-2.59278e-06
1.18e-10,-2.59856e-06
1.19e-10,-2.596e-06
1.2e-10,-2.4586e-06
1.21e-10,-1.54754e-06
1.22e-10,-2.51289e-06
1.23e-10,-2.4674e-06
1.24e-10,-1.76834e-06
1.25e-10,-2.74746e-06
1.26e-10,-2.90211e-06
1.27e-10,-2.45461e-06
1.28e-10,-2.30994e-06
1.29e-10,-2.36766e-06
1.3e-10,-2.47486e-06
1.31e-10,-2.53444e-06
1.32e-10,-1.50619e-06
1.33e-10,-2.76422e-06
1.34e-10,-2.05553e-06
1.35e-10,-2.08145e-06
1.36e-10,-2.24278e-06
1.37e-10,-2.11122e-06
1.38e-10,-2.45808e-06
1.39e-10,-2.02777e-06
1.4e-10,-2.86256e-06
1.41e-10,-2.10276e-06
1.42e-10,-2.37944e-06
1.43e-10,-2.05798e-06
1.44e-10,-2.10429e-06
1.45e-10,-2.20521e-06
1.46e-10,-2.12591e-06
1.47e-10,-1.78345e-06
1.48e-10,-2.39166e-06
1.49e-10,-2.12531e-06
1.5e-10,-2.23347e-06
1.51e-10,-2.19748e-06
1.52e-10,-2.82825e-06
1.53e-10,-2.02616e-06
1.54e-10,-1.99112e-06
1.55e-10,-1.40645e-06
1.56e-10,-2.377e-06
1.57e-10,-1.74608e-06
1.58e-10,-1.80746e-06
1.59e-10,-2.73604e-06
1.6e-10,-1.95623e-06
1.61e-10,-2.21372e-06
1.62e-10,-1.45433e-06
1.63e-10,-1.96735e-06
1.64e-10,-2.50227e-06
1.65e-10,-2.32569e-06
1.66e-10,-1.8849e-06
1.67e-10,-1.92382e-06
1.68e-10,-2.52943e-06
1.69e-10,-1.6068e-06
1.7e-10,-2.04498e-06
1.71e-10,-1.28759e-06
1.72e-10,-2.3406e-06
1.73e-10,-2.02744e-06
1.74e-10,-1.86479e-06
1.75e-10,-1.34857e-06
1.76e-10,-2.17742e-06
1.77e-10,-1.50527e-06
1.78e-10,-1.53909e-06
1.79e-10,-1.81098e-06
1.8e-10,-1.91255e-06
1.81e-10,-1.4644e-06
1.82e-10,-2.3188e-06
1.83e-10,-1.78832e-06
1.84e-10,-2.35733e-06
1.85e-10,-1.67906e-06
1.86e-10,-1.19311e-06
1.87e-10,-1.46405e-06
1.88e-10,-1.71554e-06
1.89e-10,-1.25419e-06
1.9e-10,-1.57119e-06
1.91e-10,-1.55689e-06
1.92e-10,-2.57587e-06
1.93e-10,-1.86314e-06
1.94e-10,-1.3309e-06
1.95e-10,-1.48881e-06
1.96e-10,-1.69624e-06
1.97e-10,-1.43012e-06
1.98e-10,-1.19735e-06
1.99e-10,-1.56778e-06
2e-10,-1.90579e-06
2.01e-10,-1.74898e-06
2.02e-10,-1.84111e-06
2.03e-10,-1.53043e-06
2.04e-10,-1.34857e-06
2.05e-10,-1.808e-06
2.06e-10,-1.16607e-06
2.07e-10,-2.01367e-06
2.08e-10,-1.70022e-06
2.09e-10,-1.90763e-06
2.1e-10,-1.69991e-06
2.11e-10,-1.66106e-06
2.12e-10,-1.78383e-06
2.13e-10,-8.02068e-07
2.14e-10,-8.84662e-07
2.15e-10,-1.26557e-06
2.16e-10,-1.43528e-06
2.17e-10,-2.25881e-06
2.18e-10,-1.11756e-06
2.19e-10,-1.54181e-06
2.2e-10,-1.6366e-06
2.21e-10,-7.97087e-07
2.22e-10,-1.11368e-06
2.23e-10,-8.1602e-07
2.24e-10,-8.36558e-07
2.25e-10,-7.97565e-07
2.26e-10,-9.60472e-07
2.27e-10,-1.11579e-06
2.28e-10,-8.78883e-07
2.29e-10,-8.79134e-07
2.3e-10,-8.11068e-07
2.31e-10,-8.62604e-07
2.32e-10,-5.7009e-07
2.33e-10,-7.72402e-07
2.34e-10,-5.84082e-07
2.35e-10,-3.76088e-07
2.36e-10,-5.682e-07
2.37e-10,-3.84998e-07
2.38e-10,-7.99943e-07
2.39e-10,-3.6763e-07
2.4e-10,-3.58981e-07
2.41e-10,-4.52393e-07
2.42e-10,-7.18088e-07
2.43e-10,-5.09377e-07
2.44e-10,-5.38222e-07
2.45e-10,-5.46317e-07
2.46e-10,-3.69804e-07
2.47e-10,-6.56874e-07
2.48e-10,-4.60656e-07
2.49e-10,-3.26019e-07
2.5e-10,-3.06901e-07
2.51e-10,-5.49049e-07
2.52e-10,-4.27196e-07
2.53e-10,-7.05249e-07
2.54e-10,-1.97928e-07
2.55e-10,-4.85352e-07
2.56e-10,-6.02683e-07
2.57e-10,-4.66098e-07
2.58e-10,-1.37088e-07
2.59e-10,-3.59709e-07
2.6e-10,-4.37517e-07
2.61e-10,-3.12225e-07
2.62e-10,-6.81075e-07
2.63e-10,-4.20033e-07
2.64e-10,-5.81691e-07
2.65e-10,-4.07683e-07
2.66e-10,-5.36312e-07
2.67e-10,-5.09522e-07
2.68e-10,-4.14511e-07
2.69e-10,-4.77758e-07
2.7e-10,-3.79775e-07
2.71e-10,-2.18379e-07
2.72e-10,-5.29786e-07
2.73e-10,-3.5173e-07
2.74e-10,-2.61177e-07
2.75e-10,-2.26126e-07
2.76e-10,-2.50708e-07
2.77e-10,-6.01986e-07
2.78e-10,-5.87718e-07
2.79e-10,-2.65514e-08
2.8e-10,-2.04836e-07
2.81e-10,-3.99239e-07
2.82e-10,-4.04638e-07
2.83e-10,-1.9593e-07
2.84e-10,-4.60092e-07
2.85e-10,-1.43083e-07
2.86e-10,-3.073e-07
2.87e-10,-4.56383e-07
2.88e-10,-2.72161e-07
2.89e-10,-4.40175e-07
2.9e-10,-3.38502e-07
2.91e-10,-3.95362e-07
2.92e-10,-1.25808e-07
2.93e-10,-3.04688e-07
2.94e-10,-3.55115e-07
2.95e-10,-3.34154e-07
2.96e-10,-1.73747e-07
2.97e-10,-2.42735e-07
2.98e-10,-4.8538e-07
2.99e-10,-1.58926e-07
3e-10,-3.508e-07
3.01e-10,-1.46651e-07
3.02e-10,-5.39926e-07
3.03e-10,-1.30847e-07
3.04e-10,-2.75348e-07
3.05e-10,-4.2494e-07
3.06e-10,-4.1433e-07
3.07e-10,-2.66911e-07
3.08e-10,-3.47027e-07
3.09e-10,-1.16831e-07
3.1e-10,-4.03429e-07
3.11e-10,-3.08266e-07
3.12e-10,-3.22396e-07
3.13e-10,-3.0288e-07
3.14e-10,-4.56756e-07
3.15e-10,-3.41484e-07
3.16e-10,-2.60432e-07
3.17e-10,-1.177e-07
3.18e-10,-1.9756e-07
3.19e-10,-9.7508e-08
3.2e-10,-7.41374e-08
3.21e-10,-3.88263e-07
3.22e-10,-2.8522e-07
3.23e-10,-1.66088e-07
3.24e-10,-1.78643e-07
3.25e-10,-1.41155e-07
3.26e-10,-1.23509e-07
3.27e-10,-4.46889e-07
3.28e-10,-3.10355e-07
3.29e-10,-1.57244e-07
3.3e-10,-4.59897e-07
3.31e-10,-3.80734e-07
3.32e-10,-1.07144e-07
3.33e-10,-4.41532e-07
3.34e-10,-9.42069e-08
3.35e-10,-2.67467e-07
3.36e-10,-1.67427e-07
3.37e-10,1.87824e-08
3.38e-10,-3.14987e-07
3.39e-10,-4.72482e-07
3.4e-10,-1.40595e-07
3.41e-10,-2.84795e-07
3.42e-10,-2.51981e-07
3.43e-10,-2.49981e-07
3.44e-10,-1.56549e-07
3.45e-10,-1.69493e-07
3.46e-10,-2.68422e-07
3.47e-10,9.99298e-08
3.48e-10,-4.68644e-07
3.49e-10,-1.1512e-07
3.5e-10,-2.77231e-07
3.51e-10,9.3109e-09
3.52e-10,-1.75192e-07
3.53e-10,-2.55766e-07
3.54e-10,-2.01475e-07
3.55e-10,-2.84478e-07
3.56e-10,-2.45653e-07
3.57e-10,-4.80343e-07
3.58e-10,-2.87565e-07
3.59e-10,-2.80942e-07
3.6e-10,8.58453e-08
3.61e-10,-8.59402e-08
3.62e-10,-1.0515e-07
3.63e-10,-3.24933e-07
3.64e-10,5.78654e-08
3.65e-10,-1.54511e-07
3.66e-10,-1.57543e-07
3.67e-10,-1.6117e-07
3.68e-10,-2.50742e-07
3.69e-10,-2.24499e-07
3.7e-10,-1.03568e-07
3.71e-10,-5.54777e-08
3.72e-10,-1.24495e-07
3.73e-10,-3.12314e-07
3.74e-10,4.3515e-08
3.75e-10,-1.30278e-07
3.76e-10,-9.11008e-09
3.77e-10,-2.89729e-07
3.78e-10,-7.44832e-09
3.79e-10,-1.31422e-07
3.8e-10,-1.4173e-07
3.81e-10,-7.65747e-08
3.82e-10,-2.8318e-07
3.83e-10,-1.04772e-07
3.84e-10,-3.64358e-07
3.85e-10,1.3523e-07
3.86e-10,-1.09045e-07
3.87e-10,-1.02633e-07
3.88e-10,-4.31037e-08
3.89e-10,-2.12509e-07
3.9e-10,-1.9855e-07
3.91e-10,-2.41242e-07
3.92e-10,-8.9541e-08
3.93e-10,-4.36736e-07
3.94e-10,6.96145e-08
3.95e-10,-4.95211e-08
3.96e-10,-2.73465e-07
3.97e-10,-1.33441e-07
3.98e-10,3.04312e-08
3.99e-10,-1.4957e-07
4e-10,-6.38541e-08
4.01e-10,-3.83724e-07
4.02e-10,3.84801e-08
4.03e-10,4.96173e-09
4.04e-10,-9.09982e-08
4.05e-10,-1.50806e-08
4.06e-10,-2.31941e-07
4.07e-10,-1.9143e-07
4.08e-10,-8.98846e-08
4.09e-10,-2.31661e-07
4.1e-10,-1.31621e-07
4.11e-10,-6.0791e-08
4.12e-10,-7.00134e-08
4.13e-10,1.04865e-07
4.14e-10,-1.60095e-07
4.15e-10,-1.47538e-07
4.16e-10,-6.39678e-09
4.17e-10,-1.50258e-07
4.18e-10,-1.41587e-07
4.19e-10,-2.14889e-07
4.2e-10,-7.94833e-08
4.21e-10,-4.09025e-08
4.22e-10,2.14898e-08
4.23e-10,-1.5653e-07
4.24e-10,-3.88638e-08
4.25e-10,-3.40809e-08
4.26e-10,-2.08191e-07
4.27e-10,-3.81887e-07
4.28e-10,7.8062e-08
4.29e-10,-1.5554e-07
4.3e-10,-2.11552e-07
4.31e-10,4.7513e-08
4.32e-10,-1.91288e-07
4.33e-10,-4.58305e-08
4.34e-10,5.14157e-08
4.35e-10,-8.79097e-08
4.36e-10,-2.58225e-07
4.37e-10,7.05538e-08
4.38e-10,-5.21174e-08
4.39e-10,-1.03855e-07
4.4e-10,-7.5173e-08
4.41e-10,-8.58019e-08
4.42e-10,-1.53563e-07
4.43e-10,-9.49401e-08
4.44e-10,-1.48171e-07
4.45e-10,-1.06364e-07
4.46e-10,4.8626e-08
4.47e-10,1.77599e-07
4.48e-10,-1.63387e-07
4.49e-10,-8.30909e-08
4.5e-10,-1.41457e-07
4.51e-10,-9.09355e-08
4.52e-10,-1.0732e-08
4.53e-10,-1.43548e-07
4.54e-10,-5.67e-08
4.55e-10,-6.86203e-08
4.56e-10,-1.21966e-07
4.57e-10,-2.99299e-08
4.58e-10,8.1399e-10
4.59e-10,-9.01494e-08
4.6e-10,-1.42122e-07
4.61e-10,-3.04502e-08
4.62e-10,-7.27659e-08
4.63e-10,-9.89168e-08
4.64e-10,3.23539e-08
4.65e-10,-1.03374e-07
4.66e-10,3.24299e-08
4.67e-10,-9.41945e-08
4.68e-10,-2.35845e-07
4.69e-10,-8.56717e-08
4.7e-10,-7.19351e-08
4.71e-10,2.68202e-08
4.72e-10,6.82149e-08
4.73e-10,2.91486e-08
4.74e-10,-2.73584e-07
4.75e-10,3.03596e-08
4.76e-10,-8.8426e-08
4.77e-10,-1.96336e-07
4.78e-10,-3.28464e-08
4.79e-10,6.40455e-08
4.8e-10,8.90644e-08
4.81e-10,-2.10135e-07
4.82e-10,-2.91084e-08
4.83e-10,-6.52998e-08
4.84e-10,-1.14543e-07
4.85e-10,-6.31185e-08
4.86e-10,-1.02513e-07
4.87e-10,7.96556e-08
4.88e-10,-5.44329e-09
4.89e-10,-8.17597e-08
4.9e-10,-2.55959e-08
4.91e-10,-9.03367e-08
4.92e-10,-1.10687e-07
4.93e-10,-4.11671e-08
4.94e-10,-3.08977e-08
4.95e-10,-2.95763e-09
4.96e-10,-9.06807e-08
4.97e-10,-4.60273e-09
4.98e-10,-4.91624e-08
4.99e-10,1.19894e-08
5e-10,-3.6238e-08
5.01e-10,6.49934e-08
5.02e-10,-1.09737e-07
5.03e-10,3.77226e-08
5.04e-10,-4.89555e-08
5.05e-10,-4.49596e-08
5.06e-10,5.5699e-08
5.07e-10,2.01439e-09
5.08e-10,-1.92448e-07
5.09e-10,4.86174e-08
5.1e-10,-3.94762e-08
5.11e-10,-4.67229e-09
5.12e-10,-8.88644e-08
5.13e-10,2.02242e-10
5.14e-10,3.49997e-08
5.15e-10,-8.13948e-08
5.16e-10,3.34228e-08
5.17e-10,-3.4024e-08
5.18e-10,-7.3889e-08
5.19e-10,-5.39897e-08
5.2e-10,1.31382e-08
5.21e-10,-2.66411e-08
5.22e-10,-1.07492e-07
5.23e-10,-3.15577e-09
5.24e-10,5.47167e-10
5.25e-10,1.60251e-08
5.26e-10,-4.71882e-09
5.27e-10,-1.26692e-07
5.28e-10,-4.77948e-08
5.29e-10,-2.12724e-08
5.3e-10,1.80856e-08
5.31e-10,-8.63796e-09
5.32e-10,-8.41746e-08
5.33e-10,1.89318e-08
5.34e-10,2.98159e-09
5.35e-10,-8.39754e-08
5.36e-10,-9.9986e-09
5.37e-10,-2.36517e-08
5.38e-10,3.91302e-09
5.39e-10,-4.22517e-09
5.4e-10,3.05432e-08
5.41e-10,-2.93089e-08
5.42e-10,-1.07305e-07
5.43e-10,5.13653e-08
5.44e-10,-1.06773e-07
5.45e-10,-3.4823e-08
5.46e-10,1.6207e-08
5.47e-10,-7.42428e-09
5.48e-10,-1.10202e-08
5.49e-10,-3.41225e-08
5.5e-10,8.02995e-09
5.51e-10,-9.48172e-08
5.52e-10,4.124e-08
5.53e-10,-2.18254e-08
5.54e-10,3.00449e-08
5.55e-10,-1.04051e-07
5.56e-10,-6.46999e-08
5.57e-10,3.03214e-08
5.58e-10,-8.58863e-08
5.59e-10,-2.90694e-08
5.6e-10,8.21688e-09
5.61e-10,-6.33951e-08
5.62e-10,-1.4039e-09
5.63e-10,-3.43242e-08
5.64e-10,-6.10481e-08
5.65e-10,-2.21408e-08
5.66e-10,1.40411e-08
5.67e-10,-4.86276e-08
5.68e-10,-4.62849e-08
5.69e-10,1.67672e-09
5.7e-10,-9.23206e-09
5.71e-10,-3.27409e-08
5.72e-10,-1.15938e-07
5.73e-10,1.32449e-07
5.74e-10,-8.24102e-10
5.75e-10,-1.1629e-07
5.76e-10,2.74856e-08
5.77e-10,-6.65464e-08
5.78e-10,2.01122e-08
5.79e-10,-1.10286e-07
5.8e-10,2.08222e-08
5.81e-10,6.61299e-08
5.82e-10,-1.08371e-07
5.83e-10,-5.19564e-09
5.84e-10,2.20403e-10
5.85e-10,-2.83116e-08
5.86e-10,-2.94294e-08
5.87e-10,-1.5432e-08
5.88e-10,2.86338e-08
5.89e-10,-3.48901e-08
5.9e-10,-8.75536e-08
5.91e-10,2.39799e-08
5.92e-10,-2.92985e-08
5.93e-10,-2.46698e-08
5.94e-10,-2.69198e-08
5.95e-10,1.33234e-08
5.96e-10,2.51595e-08
5.97e-10,-1.25691e-08
5.98e-10,5.75198e-09
5.99e-10,-3.95905e-08
6e-10,-2.52436e-09
6.01e-10,-2.37819e-08
6.02e-10,-6.4397e-08
6.03e-10,-2.71726e-08
6.04e-10,2.32289e-08
6.05e-10,4.34941e-09
6.06e-10,-3.87663e-08
6.07e-10,-9.73931e-08
6.08e-10,-3.76809e-08
6.09e-10,-5.33294e-09
6.1e-10,-5.46266e-08
6.11e-10,5.0072e-08
6.12e-10,-5.34687e-08
6.13e-10,-4.76514e-09
6.14e-10,-5.2636e-08
6.15e-10,2.17977e-08
6.16e-10,-3.92295e-08
6.17e-10,-9.8006e-08
6.18e-10,-4.3346e-08
6.19e-10,9.42734e-10
6.2e-10,2.95011e-08
6.21e-10,-7.03888e-09
6.22e-10,-5.54132e-08
6.23e-10,6.25388e-08
6.24e-10,9.17574e-09
6.25e-10,-1.46942e-07
6.26e-10,-3.48142e-09
6.27e-10,-2.65461e-08
6.28e-10,2.76494e-08
6.29e-10,-6.02137e-08
6.3e-10,-3.96294e-09
6.31e-10,-1.99223e-08
6.32e-10,7.72425e-09
6.33e-10,-5.24066e-08
6.34e-10,-1.4526e-07
6.35e-10,-7.33296e-08
6.36e-10,1.63906e-08
6.37e-10,6.11939e-09
6.38e-10,-2.47402e-08
6.39e-10,-3.74207e-09
6.4e-10,-2.97694e-08
6.41e-10,-3.99966e-09
6.42e-10,3.50817e-08
6.43e-10,-2.37215e-08
6.44e-10,-5.86873e-08
6.45e-10,-8.53193e-08
6.46e-10,2.68545e-08
6.47e-10,-2.51931e-08
6.48e-10,2.35956e-08
6.49e-10,8.57284e-09
6.5e-10,-8.13377e-08
6.51e-10,7.69294e-09
6.52e-10,1.66343e-08
6.53e-10,-1.97214e-08
6.54e-10,1.87166e-10
6.55e-10,-1.9661e-08
6.56e-10,-6.65269e-09
6.57e-10,-8.73718e-08
6.58e-10,-8.15779e-09
6.59e-10,3.28848e-08
6.6e-10,-8.11584e-08
6.61e-10,-5.14156e-08
6.62e-10,-3.13391e-08
6.63e-10,-4.24549e-08
6.64e-10,5.24533e-08
6.65e-10,-5.80247e-08
6.66e-10,-3.07189e-08
6.67e-10,-3.00393e-08
6.68e-10,-4.82617e-08
6.69e-10,-8.1899e-09
6.7e-10,-2.282e-09
6.71e-10,-2.30234e-08
6.72e-10,2.93213e-08
6.73e-10,-5.56649e-08
6.74e-10,3.10174e-08
6.75e-10,-3.55388e-08
6.76e-10,-5.1291e-08
6.77e-10,2.21097e-08
6.78e-10,1.06209e-09
6.79e-10,-5.34732e-09
6.8e-10,-7.89373e-08
6.81e-10,3.38264e-09
6.82e-10,2.32805e-09
6.83e-10,-1.33607e-08
6.84e-10,2.26353e-08
6.85e-10,-1.73226e-08
6.86e-10,-7.77853e-08
6.87e-10,5.29303e-08
6.88e-10,-1.61672e-07
6.89e-10,2.18951e-08
6.9e-10,-4.75973e-08
6.91e-10,-3.07824e-09
6.92e-10,2.57728e-08
6.93e-10,2.24635e-11
6.94e-10,7.55071e-10
6.95e-10,-1.47551e-07
6.96e-10,-1.95914e-08
6.97e-10,1.53244e-08
6.98e-10,-3.22877e-08
6.99e-10,-2.67468e-08
7e-10,-4.1627e-09
7.01e-10,-1.72955e-08
7.02e-10,-1.84866e-08
7.03e-10,-8.00089e-08
7.04e-10,-5.08382e-08
7.05e-10,7.56939e-10
7.06e-10,2.30143e-08
7.07e-10,3.5277e-10
7.08e-10,-8.43154e-10
7.09e-10,-8.3458e-08
7.1e-10,-1.01919e-08
7.11e-10,-5.69323e-08
7.12e-10,-1.39259e-09
7.13e-10,-2.30973e-08
7.14e-10,-4.69647e-08
7.15e-10,-1.90153e-09
7.16e-10,-3.14556e-09
7.17e-10,-4.32277e-08
7.18e-10,6.6682e-09
7.19e-10,-8.40695e-09
7.2e-10,-5.05955e-08
7.21e-10,-2.96004e-08
7.22e-10,-5.06335e-08
7.23e-10,-4.60503e-09
7.24e-10,3.0863e-09
7.25e-10,-1.05018e-10
7.26e-10,-6.09849e-08
7.27e-10,1.15878e-09
7.28e-10,-6.35791e-08
7.29e-10,-6.3388e-08
7.3e-10,-7.14354e-09
7.31e-10,8.95676e-09
7.32e-10,-7.72981e-09
7.33e-10,-1.07163e-08
7.34e-10,-1.48354e-09
7.35e-10,-5.57681e-08
7.36e-10,4.51429e-09
7.37e-10,-4.14279e-08
7.38e-10,-5.38814e-09
7.39e-10,-5.84559e-08
7.4e-10,-2.49711e-08
7.41e-10,-4.89108e-09
7.42e-10,7.24278e-09
7.43e-10,-1.66998e-08
7.44e-10,-3.72619e-08
7.45e-10,-3.1604e-08
7.46e-10,-1.0421e-08
7.47e-10,-4.02984e-08
7.48e-10,-6.40179e-08
7.49e-10,-2.90983e-08
7.5e-10,-6.45948e-09
7.51e-10,6.15179e-09
7.52e-10,5.2158e-09
7.53e-10,-3.67425e-08
7.54e-10,-2.16108e-08
7.55e-10,4.03132e-09
7.56e-10,-3.27795e-08
7.57e-10,-7.97791e-08
7.58e-10,-1.5488e-08
7.59e-10,-1.02393e-08
7.6e-10,-2.90806e-08
7.61e-10,-5.51535e-08
7.62e-10,-5.64767e-09
7.63e-10,-7.41531e-09
7.64e-10,-1.15582e-09
7.65e-10,8.99631e-09
7.66e-10,-1.13801e-07
7.67e-10,-3.14504e-08
7.68e-10,-3.90834e-09
7.69e-10,-4.2125e-09
7.7e-10,-8.82393e-08
7.71e-10,-1.28743e-08
7.72e-10,-2.54589e-08
7.73e-10,2.49324e-08
7.74e-10,-8.15871e-08
7.75e-10,4.664e-09
7.76e-10,-4.83248e-08
7.77e-10,-4.36813e-08
7.78e-10,-7.96129e-08
7.79e-10,9.79349e-09
7.8e-10,-2.9104e-08
7.81e-10,3.53124e-09
7.82e-10,-3.45665e-08
7.83e-10,-2.34443e-08
7.84e-10,-7.56759e-08
7.85e-10,-1.06333e-07
7.86e-10,3.96928e-08
7.87e-10,-5.93931e-09
7.88e-10,3.01115e-09
7.89e-10,4.50379e-09
7.9e-10,-5.44715e-08
7.91e-10,-6.12025e-08
7.92e-10,-1.84973e-09
7.93e-10,-7.98207e-08
7.94e-10,-8.55151e-08
7.95e-10,2.96243e-09
7.96e-10,-1.58412e-09
7.97e-10,-3.40097e-10
7.98e-10,-2.16108e-09
7.99e-10,-3.888e-09
8e-10,-2.50115e-08
8.01e-10,-1.48179e-08
8.02e-10,-5.91399e-08
8.03e-10,-5.15552e-08
8.04e-10,-8.63585e-09
8.05e-10,-3.71517e-08
8.06e-10,1.11011e-09
8.07e-10,-3.68126e-09
8.08e-10,3.60598e-09
8.09e-10,-1.6977e-09
8.1e-10,-9.53932e-08
8.11e-10,-5.66007e-08
8.12e-10,-1.36023e-08
8.13e-10,-6.64108e-09
8.14e-10,1.43038e-10
8.15e-10,7.42457e-10
8.16e-10,3.00704e-08
8.17e-10,-7.75947e-09
8.18e-10,-1.08468e-07
8.19e-10,-3.2239e-08
8.2e-10,-5.70677e-08
8.21e-10,3.28103e-09
8.22e-10,3.13768e-08
8.23e-10,-3.72669e-08
8.24e-10,6.8665e-09
8.25e-10,-7.50094e-08
8.26e-10,7.31782e-10
8.27e-10,-1.17411e-07
8.28e-10,-2.72089e-09
8.29e-10,-3.87468e-08
8.3e-10,6.23621e-10
8.31e-10,-5.01034e-09
8.32e-10,-4.50702e-09
8.33e-10,-2.84344e-08
8.34e-10,-5.91794e-08
8.35e-10,-5.97375e-08
8.36e-10,3.00147e-08
8.37e-10,4.71035e-09
8.38e-10,-6.33901e-09
8.39e-10,-1.70793e-08
8.4e-10,-5.58529e-08
8.41e-10,-5.64298e-08
8.42e-10,-3.39802e-08
8.43e-10,-1.1314e-07
8.44e-10,2.2097e-08
8.45e-10,3.91754e-10
8.46e-10,3.05366e-10
8.47e-10,-3.25893e-09
8.48e-10,-5.62444e-09
8.49e-10,-3.22153e-08
8.5e-10,-3.0047e-08
8.51e-10,-6.40967e-08
8.52e-10,-2.02641e-09
8.53e-10,-3.0746e-08
8.54e-10,-6.80858e-08
8.55e-10,7.52936e-09
8.56e-10,-2.11199e-08
8.57e-10,-2.53622e-08
8.58e-10,2.79965e-08
8.59e-10,-6.14972e-08
8.6e-10,-2.14875e-08
8.61e-10,1.21989e-09
8.62e-10,-2.71255e-08
8.63e-10,2.01474e-08
8.64e-10,-5.77777e-10
8.65e-10,-3.7274e-08
8.66e-10,-2.99127e-08
8.67e-10,-1.25685e-07
8.68e-10,-9.26496e-08
8.69e-10,6.60885e-08
8.7e-10,-4.08365e-08
8.71e-10,-2.98241e-08
8.72e-10,4.36115e-09
8.73e-10,2.469e-08
8.74e-10,-3.06671e-08
8.75e-10,-1.52921e-08
8.76e-10,-5.73139e-08
8.77e-10,-8.00571e-08
8.78e-10,-5.50073e-09
8.79e-10,-4.14221e-10
8.8e-10,3.3381e-09
8.81e-10,2.37807e-09
8.82e-10,-5.79043e-08
8.83e-10,-3.93538e-08
8.84e-10,-6.03129e-08
8.85e-10,7.17126e-09
8.86e-10,-6.89446e-08
8.87e-10,-4.44843e-09
8.88e-10,-1.25245e-08
8.89e-10,8.0709e-09
8.9e-10,-2.65866e-09
8.91e-10,-4.34327e-08
8.92e-10,-3.92176e-08
8.93e-10,-4.77835e-08
8.94e-10,6.95902e-10
8.95e-10,-1.00409e-07
8.96e-10,-1.82078e-10
8.97e-10,-6.77266e-09
8.98e-10,4.31131e-09
8.99e-10,-2.8477e-09
9e-10,-3.85469e-08
9.01e-10,-1.98987e-08
9.02e-10,-5.09212e-08
9.03e-10,-8.44763e-08
9.04e-10,-8.37604e-10
9.05e-10,7.66135e-10
9.06e-10,4.05256e-09
9.07e-10,-4.43679e-09
9.08e-10,5.02749e-09
9.09e-10,-1.49374e-08
9.1e-10,-5.26468e-08
9.11e-10,-7.6636e-08
9.12e-10,-3.98074e-08
9.13e-10,-4.89929e-08
9.14e-10,1.32013e-09
9.15e-10,-1.21528e-09
9.16e-10,-6.07043e-09
9.17e-10,5.01122e-10
9.18e-10,-4.02269e-08
9.19e-10,-4.80902e-08
9.2e-10,-3.00304e-08
9.21e-10,-6.22243e-08
9.22e-10,4.05971e-09
9.23e-10,-6.58439e-09
9.24e-10,-3.70086e-08
9.25e-10,2.16096e-09
9.26e-10,-4.52147e-08
9.27e-10,-1.27402e-08
9.28e-10,-2.41087e-08
9.29e-10,-4.21644e-08
9.3e-10,-6.43171e-08
9.31e-10,-8.84744e-08
9.32e-10,-5.13552e-09
9.33e-10,-2.06238e-09
9.34e-10,3.54549e-08
9.35e-10,-1.02547e-07
9.36e-10,-1.26945e-08
9.37e-10,-2.88793e-08
9.38e-10,-2.85714e-08
9.39e-10,-5.55517e-08
9.4e-10,-4.32401e-09
9.41e-10,-2.66309e-08
9.42e-10,-4.15182e-09
9.43e-10,1.18422e-09
9.44e-10,-1.24067e-07
9.45e-10,2.74898e-09
9.46e-10,-4.86028e-08
9.47e-10,-3.82753e-08
9.48e-10,-3.80075e-08
9.49e-10,-3.98896e-09
9.5e-10,-1.21855e-09
9.51e-10,3.26781e-09
9.52e-10,-4.68163e-08
9.53e-10,-1.10522e-09
9.54e-10,-6.06225e-08
9.55e-10,-2.96647e-08
9.56e-10,-3.05699e-09
9.57e-10,-8.11459e-08
9.58e-10,-4.80587e-08
9.59e-10,-5.32821e-09
9.6e-10,-4.32537e-08
9.61e-10,-1.87641e-09
9.62e-10,4.76581e-09
9.63e-10,-1.02983e-08
9.64e-10,-4.75596e-08
9.65e-10,-3.72208e-09
9.66e-10,-5.7354e-09
9.67e-10,-4.51098e-08
9.68e-10,-9.16138e-08
9.69e-10,1.24363e-09
9.7e-10,2.76962e-09
9.71e-10,-2.3705e-08
9.72e-10,-2.82263e-09
9.73e-10,-6.31769e-08
9.74e-10,2.15267e-08
9.75e-10,-6.4789e-08
9.76e-10,-4.61792e-09
9.77e-10,-4.57786e-08
9.78e-10,-3.71784e-08
9.79e-10,-6.60602e-09
9.8e-10,-6.27821e-08
9.81e-10,2.90286e-09
9.82e-10,-4.57384e-08
9.83e-10,-4.11685e-08
9.84e-10,-4.92059e-08
9.85e-10,-5.27318e-08
9.86e-10,-5.30161e-09
9.87e-10,2.02553e-09
9.88e-10,-4.2378e-08
9.89e-10,-2.46371e-09
9.9e-10,-5.27101e-08
9.91e-10,-9.93422e-08
9.92e-10,-7.03189e-10
9.93e-10,-9.52665e-09
9.94e-10,6.26564e-09
9.95e-10,-4.01421e-10
9.96e-10,-1.41726e-09
9.97e-10,-3.24488e-08
9.98e-10,-6.50337e-08
9.99e-10,-1.68018e-08
1e-09,-9.92443e-08
2.1e-09,0
