0,0
1e-12,-4.1806e-06
2e-12,-2.53e-06
3e-12,-1.70813e-06
4e-12,-6.164e-07
5e-12,-5.95336e-07
6e-12,-1.1069e-06
7e-12,-1.53233e-06
8e-12,-3.27868e-06
9e-12,-3.37909e-06
1e-11,-2.20232e-06
1.1e-11,-2.41843e-06
1.2e-11,-1.93295e-06
1.3e-11,-1.58674e-06
1.4e-11,-1.43716e-06
1.5e-11,-1.56059e-06
1.6e-11,-2.15605e-06
1.7e-11,-2.23199e-06
1.8e-11,-3.00035e-06
1.9e-11,-2.04179e-06
2e-11,-1.75705e-06
2.1e-11,-1.22518e-06
2.2e-11,-1.99375e-06
2.3e-11,-1.99583e-06
2.4e-11,-1.78509e-06
2.5e-11,-2.84003e-06
2.6e-11,-2.88885e-06
2.7e-11,-2.47804e-06
2.8e-11,-1.95897e-06
2.9e-11,-1.03374e-06
3e-11,-1.02739e-06
3.1e-11,-1.68996e-06
3.2e-11,-2.112e-06
3.3e-11,-2.25732e-06
3.4e-11,-2.97874e-06
3.5e-11,-3.05611e-06
3.6e-11,-2.53901e-06
3.7e-11,-1.68806e-06
3.8e-11,-1.57522e-06
3.9e-11,-1.49303e-06
4e-11,-1.1632e-06
4.1e-11,-2.18249e-06
4.2e-11,-1.91602e-06
4.3e-11,-2.26207e-06
4.4e-11,-2.69217e-06
4.5e-11,-1.96845e-06
4.6e-11,-1.61702e-06
4.7e-11,-1.55907e-06
4.8e-11,-1.79269e-06
4.9e-11,-1.54445e-06
5e-11,-2.7609e-06
5.1e-11,-2.53639e-06
5.2e-11,-1.779e-06
5.3e-11,-1.72649e-06
5.4e-11,-2.16478e-06
5.5e-11,-1.28469e-06
5.6e-11,-1.37538e-06
5.7e-11,-1.79204e-06
5.8e-11,-2.29826e-06
5.9e-11,-2.11717e-06
6e-11,-2.19452e-06
6.1e-11,-1.66379e-06
6.2e-11,-1.75178e-06
6.3e-11,-1.83489e-06
6.4e-11,-1.40194e-06
6.5e-11,-1.67878e-06
6.6e-11,-2.2158e-06
6.7e-11,-1.94256e-06
6.8e-11,-2.13887e-06
6.9e-11,-2.05047e-06
7e-11,-9.38516e-07
7.1e-11,-2.01947e-06
7.2e-11,-1.68144e-06
7.3e-11,-1.64099e-06
7.4e-11,-1.93381e-06
7.5e-11,-1.31961e-06
7.6e-11,-2.70128e-06
7.7e-11,-1.95164e-06
7.8e-11,-1.13918e-06
7.9e-11,-1.50839e-06
8e-11,-1.48403e-06
8.1e-11,-1.88823e-06
8.2e-11,-1.26943e-06
8.3e-11,-1.89782e-06
8.4e-11,-2.09541e-06
8.5e-11,-2.33425e-06
8.6e-11,-1.30475e-06
8.7e-11,-1.0582e-06
8.8e-11,-1.89665e-06
8.9e-11,-1.7e-06
9e-11,-1.33722e-06
9.1e-11,-1.53501e-06
9.2e-11,-1.92372e-06
9.3e-11,-1.51537e-06
9.4e-11,-1.6842e-06
9.5e-11,-1.3386e-06
9.6e-11,-1.44939e-06
9.7e-11,-1.72522e-06
9.8e-11,-1.68657e-06
9.9e-11,-1.38063e-06
1e-10,-1.94178e-06
1.01e-10,-1.60397e-06
1.02e-10,-1.19775e-06
1.03e-10,-1.06342e-06
1.04e-10,-1.44783e-06
1.05e-10,-1.39121e-06
1.06e-10,-1.28033e-06
1.07e-10,-1.4113e-06
1.08e-10,-1.61903e-06
1.09e-10,-8.36661e-07
1.1e-10,-1.39769e-06
1.11e-10,-1.56412e-06
1.12e-10,-1.37869e-06
1.13e-10,-1.14716e-06
1.14e-10,-1.61203e-06
1.15e-10,-1.03852e-06
1.16e-10,-1.08899e-06
1.17e-10,-1.39717e-06
1.18e-10,-1.55016e-06
1.19e-10,-7.11309e-07
1.2e-10,-1.0161e-06
1.21e-10,-1.79393e-06
1.22e-10,-1.3363e-06
1.23e-10,-1.48015e-06
1.24e-10,-1.11717e-06
1.25e-10,-1.16235e-06
1.26e-10,-1.59789e-06
1.27e-10,-1.27058e-06
1.28e-10,-1.22457e-06
1.29e-10,-1.11423e-06
1.3e-10,-1.3042e-06
1.31e-10,-1.31546e-06
1.32e-10,-1.02648e-06
1.33e-10,-1.11341e-06
1.34e-10,-1.22124e-06
1.35e-10,-1.50019e-06
1.36e-10,-1.72561e-06
1.37e-10,-1.20139e-06
1.38e-10,-1.06194e-06
1.39e-10,-1.06967e-06
1.4e-10,-1.04916e-06
1.41e-10,-1.0156e-06
1.42e-10,-1.17402e-06
1.43e-10,-1.50033e-06
1.44e-10,-1.34238e-06
1.45e-10,-1.13826e-06
1.46e-10,-1.61173e-06
1.47e-10,-8.25127e-07
1.48e-10,-1.29012e-06
1.49e-10,-9.77431e-07
1.5e-10,-1.01589e-06
1.51e-10,-9.45438e-07
1.52e-10,-1.37319e-06
1.53e-10,-9.36809e-07
1.54e-10,-1.24701e-06
1.55e-10,-9.48554e-07
1.56e-10,-7.75347e-07
1.57e-10,-1.16333e-06
1.58e-10,-1.36128e-06
1.59e-10,-1.1434e-06
1.6e-10,-1.08202e-06
1.61e-10,-1.22638e-06
1.62e-10,-1.08587e-06
1.63e-10,-1.11189e-06
1.64e-10,-8.23553e-07
1.65e-10,-1.33855e-06
1.66e-10,-8.97235e-07
1.67e-10,-1.32116e-06
1.68e-10,-8.18149e-07
1.69e-10,-9.01336e-07
1.7e-10,-1.12507e-06
1.71e-10,-8.31481e-07
1.72e-10,-8.22881e-07
1.73e-10,-1.24432e-06
1.74e-10,-1.13175e-06
1.75e-10,-1.1555e-06
1.76e-10,-9.4551e-07
1.77e-10,-7.55757e-07
1.78e-10,-1.17068e-06
1.79e-10,-1.31682e-06
1.8e-10,-9.72947e-07
1.81e-10,-9.34636e-07
1.82e-10,-1.10244e-06
1.83e-10,-4.7853e-07
1.84e-10,-9.63485e-07
1.85e-10,-1.25515e-06
1.86e-10,-7.70963e-07
1.87e-10,-8.88995e-07
1.88e-10,-1.35936e-06
1.89e-10,-6.52184e-07
1.9e-10,-9.30741e-07
1.91e-10,-1.17175e-06
1.92e-10,-8.00893e-07
1.93e-10,-8.12356e-07
1.94e-10,-1.05537e-06
1.95e-10,-1.14934e-06
1.96e-10,-7.3652e-07
1.97e-10,-9.32078e-07
1.98e-10,-1.00781e-06
1.99e-10,-5.80252e-07
2e-10,-7.86435e-07
2.01e-10,-1.07916e-06
2.02e-10,-7.32485e-07
2.03e-10,-6.42177e-07
2.04e-10,-9.33936e-07
2.05e-10,-9.52442e-07
2.06e-10,-9.7891e-07
2.07e-10,-4.82221e-07
2.08e-10,-9.61014e-07
2.09e-10,-7.45565e-07
2.1e-10,-7.63958e-07
2.11e-10,-8.59383e-07
2.12e-10,-4.90104e-07
2.13e-10,-1.04096e-06
2.14e-10,-7.35821e-07
2.15e-10,-1.0151e-06
2.16e-10,-4.90788e-07
2.17e-10,-6.01173e-07
2.18e-10,-1.1539e-06
2.19e-10,-7.02672e-07
2.2e-10,-5.62937e-07
2.21e-10,-9.7753e-07
2.22e-10,-9.82111e-07
2.23e-10,-6.62204e-07
2.24e-10,-4.46725e-07
2.25e-10,-5.8796e-07
2.26e-10,-9.53443e-07
2.27e-10,-7.90888e-07
2.28e-10,-5.50458e-07
2.29e-10,-7.58705e-07
2.3e-10,-4.5244e-07
2.31e-10,-7.21474e-07
2.32e-10,-6.09299e-07
2.33e-10,-5.52077e-07
2.34e-10,-4.6625e-07
2.35e-10,-6.53087e-07
2.36e-10,-4.4652e-07
2.37e-10,-3.64508e-07
2.38e-10,-5.02305e-07
2.39e-10,-4.78247e-07
2.4e-10,-6.12855e-07
2.41e-10,-6.71051e-07
2.42e-10,-2.30272e-07
2.43e-10,-6.18522e-07
2.44e-10,-3.51991e-07
2.45e-10,-3.3463e-07
2.46e-10,-3.89537e-07
2.47e-10,-7.80558e-07
2.48e-10,-5.05346e-07
2.49e-10,-2.28204e-07
2.5e-10,-3.41528e-07
2.51e-10,-5.51049e-07
2.52e-10,-2.22983e-07
2.53e-10,-6.23698e-07
2.54e-10,-3.02221e-07
2.55e-10,-7.85105e-07
2.56e-10,-6.13958e-07
2.57e-10,-4.08972e-07
2.58e-10,-1.42826e-07
2.59e-10,-4.87742e-07
2.6e-10,-5.19493e-07
2.61e-10,-2.86516e-08
2.62e-10,-4.48372e-07
2.63e-10,-5.32384e-07
2.64e-10,-5.74581e-07
2.65e-10,-4.60343e-07
2.66e-10,-3.96544e-07
2.67e-10,-4.59585e-07
2.68e-10,-2.38843e-07
2.69e-10,-2.423e-07
2.7e-10,-3.96465e-07
2.71e-10,-2.82706e-07
2.72e-10,-4.24508e-07
2.73e-10,-3.75513e-07
2.74e-10,-3.64132e-07
2.75e-10,-6.59863e-07
2.76e-10,-1.40492e-07
2.77e-10,-4.18312e-07
2.78e-10,-4.10345e-07
2.79e-10,-2.9768e-07
2.8e-10,-4.09127e-07
2.81e-10,-2.05736e-07
2.82e-10,-3.05369e-07
2.83e-10,-1.40826e-07
2.84e-10,-3.13036e-07
2.85e-10,-2.96306e-07
2.86e-10,-4.62331e-07
2.87e-10,-3.04839e-07
2.88e-10,-3.52903e-07
2.89e-10,-4.83846e-07
2.9e-10,-3.00015e-07
2.91e-10,-1.26306e-07
2.92e-10,-3.34203e-07
2.93e-10,-1.74511e-07
2.94e-10,-9.31892e-08
2.95e-10,-3.75183e-07
2.96e-10,-4.69478e-07
2.97e-10,-3.83809e-07
2.98e-10,-2.88613e-07
2.99e-10,-2.23849e-07
3e-10,-3.52649e-07
3.01e-10,-9.24193e-08
3.02e-10,-1.6576e-07
3.03e-10,-2.11496e-07
3.04e-10,-2.88801e-07
3.05e-10,-3.8856e-07
3.06e-10,-1.89445e-07
3.07e-10,-2.89241e-07
3.08e-10,-1.71277e-07
3.09e-10,-4.62511e-07
3.1e-10,-2.82907e-07
3.11e-10,-4.9856e-08
3.12e-10,-3.49172e-07
3.13e-10,-2.47937e-07
3.14e-10,-2.32762e-07
3.15e-10,-3.57291e-07
3.16e-10,-2.22793e-07
3.17e-10,-8.77616e-08
3.18e-10,-3.67099e-07
3.19e-10,-8.564e-08
3.2e-10,-1.84851e-07
3.21e-10,-2.60178e-07
3.22e-10,-3.16104e-07
3.23e-10,-6.24235e-08
3.24e-10,-1.29419e-07
3.25e-10,-3.26758e-07
3.26e-10,-2.7181e-07
3.27e-10,-1.32168e-07
3.28e-10,-3.57003e-07
3.29e-10,-2.71513e-07
3.3e-10,-3.69948e-07
3.31e-10,-3.87598e-07
3.32e-10,-7.89011e-08
3.33e-10,-2.65316e-07
3.34e-10,-1.16396e-07
3.35e-10,-2.86039e-07
3.36e-10,-4.3281e-07
3.37e-10,5.42581e-08
3.38e-10,-2.43099e-07
3.39e-10,-1.39044e-07
3.4e-10,-5.44112e-07
3.41e-10,-6.792e-08
3.42e-10,-3.47561e-07
3.43e-10,-7.63445e-08
3.44e-10,-3.42096e-07
3.45e-10,-7.91054e-08
3.46e-10,-2.16528e-07
3.47e-10,-2.7288e-08
3.48e-10,-4.22647e-07
3.49e-10,-7.34067e-08
3.5e-10,-2.92937e-07
3.51e-10,-8.31725e-08
3.52e-10,-2.64147e-07
3.53e-10,-3.60864e-07
3.54e-10,-5.56333e-09
3.55e-10,-3.57895e-07
3.56e-10,-1.67003e-07
3.57e-10,-1.52331e-07
3.58e-10,-8.60597e-08
3.59e-10,-2.15692e-07
3.6e-10,-3.81651e-08
3.61e-10,-2.47114e-07
3.62e-10,-3.77673e-07
3.63e-10,-3.83359e-07
3.64e-10,-3.12072e-07
3.65e-10,-1.29704e-07
3.66e-10,-1.59389e-07
3.67e-10,6.1888e-09
3.68e-10,-2.33656e-07
3.69e-10,-3.1915e-07
3.7e-10,8.73187e-09
3.71e-10,-3.05419e-07
3.72e-10,-7.98622e-08
3.73e-10,-1.47041e-07
3.74e-10,-2.55559e-07
3.75e-10,-6.51861e-08
3.76e-10,-1.29552e-07
3.77e-10,-1.6161e-07
3.78e-10,-1.09628e-08
3.79e-10,-1.79529e-07
3.8e-10,-2.75274e-07
3.81e-10,-1.60367e-07
3.82e-10,-1.77096e-07
3.83e-10,-2.95591e-07
3.84e-10,3.0236e-08
3.85e-10,-1.33858e-07
3.86e-10,-2.02411e-07
3.87e-10,-9.12741e-08
3.88e-10,-2.5379e-07
3.89e-10,-2.912e-07
3.9e-10,-1.08543e-07
3.91e-10,-8.0643e-08
3.92e-10,-1.54689e-07
3.93e-10,-1.27069e-07
3.94e-10,-1.57569e-07
3.95e-10,-5.24256e-08
3.96e-10,-1.55434e-07
3.97e-10,-2.033e-07
3.98e-10,-1.54341e-07
3.99e-10,-3.045e-08
4e-10,-1.16466e-07
4.01e-10,-1.63845e-07
4.02e-10,-5.90376e-08
4.03e-10,-7.77848e-08
4.04e-10,-2.53056e-07
4.05e-10,-4.07304e-08
4.06e-10,-1.48199e-07
4.07e-10,-2.61347e-07
4.08e-10,-1.82983e-07
4.09e-10,-7.60518e-08
4.1e-10,-9.76658e-09
4.11e-10,-1.14597e-07
4.12e-10,-1.57952e-07
4.13e-10,-5.49864e-08
4.14e-10,-1.267e-07
4.15e-10,-1.77182e-07
4.16e-10,-1.59669e-07
4.17e-10,-2.56147e-07
4.18e-10,-6.71522e-08
4.19e-10,-3.48311e-08
4.2e-10,-2.0401e-07
4.21e-10,-2.71028e-07
4.22e-10,-5.77404e-09
4.23e-10,-3.62681e-07
4.24e-10,-2.2263e-09
4.25e-10,-8.42088e-10
4.26e-10,-9.08541e-08
4.27e-10,-1.09747e-07
4.28e-10,-1.1793e-07
4.29e-10,-1.51975e-07
4.3e-10,-8.65689e-08
4.31e-10,-2.74682e-07
4.32e-10,-1.34587e-07
4.33e-10,-1.34616e-07
4.34e-10,-8.28475e-08
4.35e-10,-1.16454e-07
4.36e-10,-1.24318e-07
4.37e-10,-5.22004e-08
4.38e-10,-1.81893e-09
4.39e-10,-1.06762e-07
4.4e-10,-2.41377e-07
4.41e-10,-2.90198e-07
4.42e-10,-2.7004e-07
4.43e-10,-1.2223e-07
4.44e-10,-1.29106e-07
4.45e-10,7.33215e-08
4.46e-10,-1.42207e-07
4.47e-10,-7.83011e-08
4.48e-10,-2.60985e-07
4.49e-10,3.48093e-08
4.5e-10,-3.85225e-07
4.51e-10,-1.95324e-07
4.52e-10,-8.18061e-08
4.53e-10,8.863e-08
4.54e-10,-2.85543e-07
4.55e-10,-1.52485e-07
4.56e-10,-1.2969e-07
4.57e-10,-4.33992e-09
4.58e-10,-1.51931e-07
4.59e-10,-4.73888e-08
4.6e-10,-1.42421e-07
4.61e-10,-8.08289e-08
4.62e-10,-2.31402e-07
4.63e-10,-1.65491e-07
4.64e-10,-1.29352e-07
4.65e-10,-5.98579e-08
4.66e-10,-1.02462e-07
4.67e-10,1.1711e-09
4.68e-10,-2.86713e-07
4.69e-10,-9.06975e-08
4.7e-10,-3.89243e-08
4.71e-10,-1.56921e-07
4.72e-10,-5.19437e-08
4.73e-10,-1.53542e-07
4.74e-10,-2.16689e-07
4.75e-10,-5.97272e-08
4.76e-10,-3.33211e-09
4.77e-10,-5.27802e-08
4.78e-10,-2.78979e-07
4.79e-10,-4.19945e-08
4.8e-10,-2.81399e-07
4.81e-10,-1.65374e-07
4.82e-10,-1.28982e-07
4.83e-10,-1.85767e-07
4.84e-10,2.64485e-09
4.85e-10,-6.32839e-08
4.86e-10,-1.36958e-07
4.87e-10,-1.12282e-07
4.88e-10,-9.53088e-08
4.89e-10,-3.81136e-08
4.9e-10,-1.55454e-07
4.91e-10,-1.61319e-07
4.92e-10,-1.98561e-07
4.93e-10,4.54851e-08
4.94e-10,-2.58087e-07
4.95e-10,4.82139e-09
4.96e-10,-2.59281e-07
4.97e-10,-4.11111e-08
4.98e-10,1.33196e-07
4.99e-10,-2.42258e-07
5e-10,-3.53941e-07
5.01e-10,-2.20044e-07
5.02e-10,-4.76513e-08
5.03e-10,-1.30524e-07
5.04e-10,-1.90613e-07
5.05e-10,-2.63184e-08
5.06e-10,-2.32976e-08
5.07e-10,-2.03059e-08
5.08e-10,-5.94609e-08
5.09e-10,-2.14554e-07
5.1e-10,-9.27985e-08
5.11e-10,-5.07212e-08
5.12e-10,-1.7572e-07
5.13e-10,-1.45819e-07
5.14e-10,-7.76205e-08
5.15e-10,-7.98994e-08
5.16e-10,-8.21436e-08
5.17e-10,-1.25262e-07
5.18e-10,-1.52881e-07
5.19e-10,-1.62557e-07
5.2e-10,-1.85956e-07
5.21e-10,-2.26736e-08
5.22e-10,-1.16955e-07
5.23e-10,-8.39723e-08
5.24e-10,-1.69515e-07
5.25e-10,-2.30829e-07
5.26e-10,-4.86424e-08
5.27e-10,-1.37581e-07
5.28e-10,-5.86509e-08
5.29e-10,-8.09067e-08
5.3e-10,1.79014e-08
5.31e-10,-7.09205e-08
5.32e-10,4.84583e-08
5.33e-10,-2.36727e-07
5.34e-10,-4.95203e-08
5.35e-10,-1.1052e-07
5.36e-10,-2.04308e-07
5.37e-10,-7.15808e-08
5.38e-10,-6.3018e-09
5.39e-10,-1.20615e-07
5.4e-10,-6.88648e-08
5.41e-10,7.40131e-09
5.42e-10,-6.26978e-08
5.43e-10,-1.55654e-07
5.44e-10,-2.82753e-07
5.45e-10,-1.16311e-07
5.46e-10,4.6215e-08
5.47e-10,-1.21612e-07
5.48e-10,-6.80032e-08
5.49e-10,-1.04265e-07
5.5e-10,1.01105e-07
5.51e-10,-1.38674e-07
5.52e-10,5.03228e-08
5.53e-10,-2.45195e-07
5.54e-10,-2.81321e-07
5.55e-10,-3.51302e-08
5.56e-10,-9.20149e-08
5.57e-10,7.84296e-08
5.58e-10,-5.25289e-08
5.59e-10,-7.77425e-08
5.6e-10,6.52795e-08
5.61e-10,-1.91412e-07
5.62e-10,-2.12416e-07
5.63e-10,-2.04568e-07
5.64e-10,-9.78786e-08
5.65e-10,-8.37953e-08
5.66e-10,-1.39756e-08
5.67e-10,-1.54017e-07
5.68e-10,-4.30943e-08
5.69e-10,-2.44847e-07
5.7e-10,-6.47922e-09
5.71e-10,-2.34417e-07
5.72e-10,-5.90417e-09
5.73e-10,-6.35817e-08
5.74e-10,-8.71452e-08
5.75e-10,-2.8477e-08
5.76e-10,3.22784e-09
5.77e-10,-9.1274e-08
5.78e-10,-2.6502e-07
5.79e-10,-6.49185e-09
5.8e-10,-3.56618e-08
5.81e-10,-1.70432e-07
5.82e-10,-6.82954e-08
5.83e-10,-3.85673e-08
5.84e-10,-1.16084e-07
5.85e-10,1.8218e-08
5.86e-10,-2.03565e-07
5.87e-10,-3.74021e-08
5.88e-10,-2.38892e-07
5.89e-10,-1.04555e-07
5.9e-10,4.26921e-08
5.91e-10,-9.33293e-08
5.92e-10,3.08241e-08
5.93e-10,-2.09268e-07
5.94e-10,-1.84806e-07
5.95e-10,4.85645e-08
5.96e-10,-9.53836e-08
5.97e-10,-1.51921e-07
5.98e-10,-8.92208e-08
5.99e-10,-5.64746e-08
6e-10,3.0912e-08
6.01e-10,-2.3413e-07
6.02e-10,-6.12306e-08
6.03e-10,-7.20652e-09
6.04e-10,-9.40362e-08
6.05e-10,-1.15546e-07
6.06e-10,2.20142e-08
6.07e-10,-1.53049e-07
6.08e-10,-2.89695e-08
6.09e-10,-2.84029e-07
6.1e-10,-2.65265e-08
6.11e-10,-4.79488e-08
6.12e-10,-7.50829e-08
6.13e-10,-1.1949e-07
6.14e-10,-3.70689e-08
6.15e-10,-3.65096e-09
6.16e-10,-1.13734e-07
6.17e-10,-1.89756e-07
6.18e-10,-7.66646e-08
6.19e-10,-1.18246e-07
6.2e-10,-9.92794e-08
6.21e-10,-1.92707e-08
6.22e-10,3.76314e-09
6.23e-10,-1.7788e-07
6.24e-10,1.21067e-09
6.25e-10,-1.42206e-07
6.26e-10,-1.32119e-07
6.27e-10,-1.78466e-07
6.28e-10,3.04749e-08
6.29e-10,-5.02659e-09
6.3e-10,1.72925e-08
6.31e-10,-2.76977e-07
6.32e-10,-9.44291e-08
6.33e-10,-1.03062e-07
6.34e-10,-1.916e-07
6.35e-10,-7.65816e-08
6.36e-10,-6.35973e-08
6.37e-10,-2.15278e-10
6.38e-10,3.19147e-08
6.39e-10,-9.46596e-08
6.4e-10,-6.56688e-08
6.41e-10,-1.41042e-08
6.42e-10,-2.60588e-07
6.43e-10,-1.60829e-09
6.44e-10,-9.52203e-08
6.45e-10,-1.09621e-07
6.46e-10,-7.88705e-10
6.47e-10,-6.86847e-08
6.48e-10,1.16448e-08
6.49e-10,-7.93434e-08
6.5e-10,-7.32514e-08
6.51e-10,-4.78641e-08
6.52e-10,-6.58135e-08
6.53e-10,-6.58876e-08
6.54e-10,-6.57587e-08
6.55e-10,-9.39522e-08
6.56e-10,-1.01434e-07
6.57e-10,-1.02552e-07
6.58e-10,-7.75298e-08
6.59e-10,2.02695e-08
6.6e-10,-6.1109e-08
6.61e-10,-3.39955e-08
6.62e-10,-1.27583e-07
6.63e-10,-7.58863e-08
6.64e-10,3.75419e-08
6.65e-10,-9.97857e-09
6.66e-10,-1.27004e-07
6.67e-10,-9.81941e-08
6.68e-10,-9.42239e-08
6.69e-10,-1.87621e-07
6.7e-10,-1.74677e-07
6.71e-10,2.23265e-09
6.72e-10,-7.14175e-11
6.73e-10,-4.34003e-08
6.74e-10,-9.29811e-08
6.75e-10,-1.96969e-08
6.76e-10,-4.38924e-08
6.77e-10,-2.09525e-07
6.78e-10,-9.38344e-08
6.79e-10,-3.71978e-08
6.8e-10,-1.11399e-07
6.81e-10,-3.23208e-08
6.82e-10,1.82182e-08
6.83e-10,-8.41114e-08
6.84e-10,-8.71806e-08
6.85e-10,3.30356e-08
6.86e-10,-4.23158e-08
6.87e-10,-2.09431e-07
6.88e-10,-3.84798e-08
6.89e-10,-1.18183e-07
6.9e-10,-1.33058e-08
6.91e-10,3.44849e-08
6.92e-10,-8.6742e-08
6.93e-10,-4.33192e-09
6.94e-10,-4.08999e-08
6.95e-10,-2.8221e-08
6.96e-10,-2.51968e-08
6.97e-10,-2.07318e-07
6.98e-10,-8.58957e-08
6.99e-10,-9.55228e-08
7e-10,-2.82742e-08
7.01e-10,-1.09584e-07
7.02e-10,5.47465e-09
7.03e-10,-5.06518e-08
7.04e-10,2.83525e-08
7.05e-10,-2.38269e-08
7.06e-10,-2.02686e-08
7.07e-10,-9.04298e-08
7.08e-10,2.13895e-09
7.09e-10,-5.14795e-08
7.1e-10,-9.42087e-08
7.11e-10,-7.91132e-08
7.12e-10,-5.19993e-08
7.13e-10,-7.81508e-08
7.14e-10,-3.05291e-08
7.15e-10,-1.4866e-08
7.16e-10,-2.2394e-08
7.17e-10,-2.20823e-08
7.18e-10,-2.97143e-08
7.19e-10,-1.25879e-08
7.2e-10,3.00053e-08
7.21e-10,-1.06155e-07
7.22e-10,-1.64525e-07
7.23e-10,-4.81354e-08
7.24e-10,-8.32579e-08
7.25e-10,2.63606e-09
7.26e-10,-1.02132e-07
7.27e-10,4.84505e-09
7.28e-10,-5.23385e-08
7.29e-10,-4.84901e-08
7.3e-10,-8.81015e-08
7.31e-10,-3.22122e-08
7.32e-10,-4.33156e-08
7.33e-10,-3.90141e-08
7.34e-10,-4.59864e-08
7.35e-10,-1.281e-07
7.36e-10,-5.20522e-08
7.37e-10,2.39155e-08
7.38e-10,-1.5993e-08
7.39e-10,-1.25595e-07
7.4e-10,-5.81755e-09
7.41e-10,-5.01749e-08
7.42e-10,-3.07124e-08
7.43e-10,-7.4898e-08
7.44e-10,-3.19163e-08
7.45e-10,-1.53362e-07
7.46e-10,-2.59135e-08
7.47e-10,-1.85258e-08
7.48e-10,-8.0781e-08
7.49e-10,2.70807e-08
7.5e-10,2.67047e-08
7.51e-10,-9.47905e-08
7.52e-10,-1.87394e-07
7.53e-10,-1.09705e-08
7.54e-10,-9.50908e-08
7.55e-10,-3.31165e-08
7.56e-10,-1.19862e-07
7.57e-10,-6.93987e-09
7.58e-10,-1.49785e-08
7.59e-10,-6.50688e-08
7.6e-10,-5.50275e-08
7.61e-10,-4.74303e-08
7.62e-10,-2.73216e-08
7.63e-10,-7.51741e-08
7.64e-10,-1.4782e-08
7.65e-10,-1.02094e-07
7.66e-10,-9.24348e-08
7.67e-10,-1.12941e-09
7.68e-10,-8.08297e-08
7.69e-10,-3.35479e-08
7.7e-10,-1.94005e-07
7.71e-10,-2.23072e-08
7.72e-10,1.95764e-08
7.73e-10,-2.81913e-08
7.74e-10,-9.65826e-08
7.75e-10,-2.93741e-08
7.76e-10,-9.47011e-08
7.77e-10,6.71103e-10
7.78e-10,-1.11289e-07
7.79e-10,-9.24855e-08
7.8e-10,-8.19116e-08
7.81e-10,-5.60287e-08
7.82e-10,-2.3092e-08
7.83e-10,-3.67714e-10
7.84e-10,3.90501e-09
7.85e-10,-1.83602e-07
7.86e-10,-9.31029e-08
7.87e-10,-9.2277e-08
7.88e-10,-5.27317e-08
7.89e-10,-2.94767e-08
7.9e-10,-6.5313e-08
7.91e-10,-2.35664e-08
7.92e-10,-2.3685e-08
7.93e-10,-3.868e-09
7.94e-10,-1.71375e-07
7.95e-10,-4.67374e-08
7.96e-10,-5.61402e-09
7.97e-10,-1.5441e-07
7.98e-10,-6.04691e-09
7.99e-10,2.38714e-09
8e-10,-4.93602e-08
8.01e-10,-1.24478e-07
8.02e-10,-5.81586e-08
8.03e-10,-5.47408e-08
8.04e-10,-1.05562e-07
8.05e-10,-6.29497e-08
8.06e-10,-5.73327e-08
8.07e-10,-3.84216e-08
8.08e-10,3.50599e-09
8.09e-10,2.13102e-09
8.1e-10,-1.28855e-07
8.11e-10,-4.27202e-08
8.12e-10,-1.32227e-07
8.13e-10,-5.56487e-08
8.14e-10,-5.75296e-08
8.15e-10,-1.21914e-07
8.16e-10,4.02815e-08
8.17e-10,-1.38798e-08
8.18e-10,-6.2022e-08
8.19e-10,-4.11321e-08
8.2e-10,-1.33044e-07
8.21e-10,-1.70645e-07
8.22e-10,-1.06613e-07
8.23e-10,6.14197e-10
8.24e-10,-6.60885e-08
8.25e-10,2.8198e-09
8.26e-10,-4.56661e-08
8.27e-10,-6.73679e-08
8.28e-10,-2.73028e-09
8.29e-10,-1.62578e-07
8.3e-10,-1.2064e-07
8.31e-10,-5.90324e-08
8.32e-10,2.37099e-09
8.33e-10,-1.16445e-10
8.34e-10,-1.28692e-07
8.35e-10,-2.23376e-09
8.36e-10,6.94922e-09
8.37e-10,-6.15927e-08
8.38e-10,-2.03646e-07
8.39e-10,-9.98083e-08
8.4e-10,-5.59575e-09
8.41e-10,-5.05535e-08
8.42e-10,-4.04779e-10
8.43e-10,7.87454e-10
8.44e-10,-1.30167e-07
8.45e-10,-2.93875e-08
8.46e-10,-1.3622e-07
8.47e-10,3.49652e-08
8.48e-10,-1.02784e-07
8.49e-10,-1.07797e-07
8.5e-10,-2.27907e-09
8.51e-10,4.76747e-10
8.52e-10,-6.56129e-08
8.53e-10,-5.17068e-08
8.54e-10,-5.60474e-08
8.55e-10,-6.10548e-08
8.56e-10,9.73747e-10
8.57e-10,-9.19797e-08
8.58e-10,-5.36687e-08
8.59e-10,-5.31715e-08
8.6e-10,-7.19858e-08
8.61e-10,-1.01115e-07
8.62e-10,4.47134e-09
8.63e-10,-2.97881e-09
8.64e-10,-5.43134e-08
8.65e-10,-5.88374e-08
8.66e-10,-1.13372e-07
8.67e-10,-4.78234e-08
8.68e-10,-6.54742e-08
8.69e-10,-7.35802e-08
8.7e-10,-1.50619e-09
8.71e-10,2.14088e-09
8.72e-10,-6.78162e-08
8.73e-10,-5.30295e-08
8.74e-10,1.81947e-08
8.75e-10,-5.31558e-08
8.76e-10,-9.68714e-08
8.77e-10,-6.50267e-08
8.78e-10,-5.27419e-08
8.79e-10,4.03352e-10
8.8e-10,-3.1208e-08
8.81e-10,-2.7178e-08
8.82e-10,-4.45799e-08
8.83e-10,-5.68349e-08
8.84e-10,-9.40928e-08
8.85e-10,-4.4998e-08
8.86e-10,-7.38755e-08
8.87e-10,-5.97064e-08
8.88e-10,4.40826e-09
8.89e-10,-3.61929e-09
8.9e-10,-8.88067e-08
8.91e-10,-5.96418e-08
8.92e-10,-5.83098e-08
8.93e-10,-5.94193e-08
8.94e-10,5.26994e-09
8.95e-10,-5.15475e-09
8.96e-10,-2.81492e-08
8.97e-10,-2.93992e-08
8.98e-10,-1.06518e-07
8.99e-10,-4.34714e-08
9e-10,-9.47382e-08
9.01e-10,-1.07387e-07
9.02e-10,-5.22766e-10
9.03e-10,3.44057e-09
9.04e-10,-4.44311e-10
9.05e-10,-4.62056e-08
9.06e-10,4.27946e-09
9.07e-10,-1.20292e-07
9.08e-10,-1.19787e-07
9.09e-10,-7.04811e-08
9.1e-10,-7.79411e-11
9.11e-10,-1.45775e-09
9.12e-10,4.72852e-09
9.13e-10,2.51071e-08
9.14e-10,-5.41452e-08
9.15e-10,-3.04331e-08
9.16e-10,-1.28194e-07
9.17e-10,-4.54078e-08
9.18e-10,8.29141e-09
9.19e-10,-2.70326e-08
9.2e-10,-2.48446e-08
9.21e-10,-1.31683e-09
9.22e-10,-4.30965e-08
9.23e-10,-6.13688e-08
9.24e-10,-3.15374e-08
9.25e-10,-6.29127e-08
9.26e-10,-4.12862e-08
9.27e-10,-6.6564e-08
9.28e-10,-5.25365e-09
9.29e-10,-2.49457e-08
9.3e-10,-5.35922e-08
9.31e-10,-8.65531e-08
9.32e-10,-4.63021e-08
9.33e-10,-3.91251e-08
9.34e-10,-3.49113e-08
9.35e-10,-2.19925e-09
9.36e-10,-2.97959e-08
9.37e-10,-4.95295e-09
9.38e-10,2.5491e-08
9.39e-10,2.37164e-09
9.4e-10,-1.35834e-07
9.41e-10,5.68298e-09
9.42e-10,-7.47765e-08
9.43e-10,-8.00197e-08
9.44e-10,-6.65346e-10
9.45e-10,-3.11373e-08
9.46e-10,-4.27804e-09
9.47e-10,3.55752e-09
9.48e-10,-9.09078e-11
9.49e-10,-1.27831e-07
9.5e-10,-6.71982e-08
9.51e-10,1.5699e-10
9.52e-10,-3.90301e-08
9.53e-10,-2.52106e-08
9.54e-10,-8.53673e-08
9.55e-10,8.41677e-09
9.56e-10,-3.68255e-08
9.57e-10,-4.08601e-08
9.58e-10,3.99289e-08
9.59e-10,-7.44447e-08
9.6e-10,-4.6251e-08
9.61e-10,-3.77174e-08
9.62e-10,1.77509e-09
9.63e-10,-2.39358e-09
9.64e-10,-2.84523e-09
9.65e-10,-9.76578e-08
9.66e-10,3.03475e-09
9.67e-10,-3.41929e-08
9.68e-10,-6.09208e-08
9.69e-10,2.47082e-09
9.7e-10,-5.34931e-08
9.71e-10,-3.80087e-08
9.72e-10,6.23325e-11
9.73e-10,-3.20585e-08
9.74e-10,-3.65586e-09
9.75e-10,-4.38806e-08
9.76e-10,6.82277e-08
9.77e-10,-9.01461e-08
9.78e-10,-6.69859e-08
9.79e-10,-5.40563e-08
9.8e-10,1.26915e-08
9.81e-10,-1.20814e-09
9.82e-10,-4.57144e-08
9.83e-10,3.57164e-09
9.84e-10,-3.1879e-08
9.85e-10,-4.63201e-08
9.86e-10,-6.55232e-08
9.87e-10,9.82823e-10
9.88e-10,-5.23966e-08
9.89e-10,-7.10764e-08
9.9e-10,-4.5106e-09
9.91e-10,-4.0947e-08
9.92e-10,-1.10763e-09
9.93e-10,-4.28165e-09
9.94e-10,-7.89583e-08
9.95e-10,-4.24708e-09
9.96e-10,-4.94551e-08
9.97e-10,-5.08257e-09
9.98e-10,-3.4746e-08
9.99e-10,3.49454e-09
1e-09,-4.53255e-08
2.1e-09,0
