0,0
1e-12,-1.92967e-07
2e-12,-1.37176e-06
3e-12,-1.58572e-06
4e-12,-2.00996e-06
5e-12,-2.59033e-06
6e-12,-1.53408e-06
7e-12,-2.43771e-06
8e-12,-1.31638e-06
9e-12,-1.04997e-06
1e-11,-9.68822e-07
1.1e-11,-6.78827e-07
1.2e-11,-1.81593e-06
1.3e-11,-2.05886e-06
1.4e-11,-1.40774e-06
1.5e-11,-1.89908e-06
1.6e-11,-2.03626e-06
1.7e-11,-1.30388e-06
1.8e-11,-1.25736e-06
1.9e-11,-1.0182e-06
2e-11,-1.77236e-06
2.1e-11,-1.71022e-06
2.2e-11,-1.20423e-06
2.3e-11,-2.05232e-06
2.4e-11,-1.58241e-06
2.5e-11,-1.47507e-06
2.6e-11,-9.49638e-07
2.7e-11,-1.15683e-06
2.8e-11,-1.20264e-06
2.9e-11,-1.36065e-06
3e-11,-1.99654e-06
3.1e-11,-2.1594e-06
3.2e-11,-1.54492e-06
3.3e-11,-1.30472e-06
3.4e-11,-7.37209e-07
3.5e-11,-1.13673e-06
3.6e-11,-1.43e-06
3.7e-11,-1.34088e-06
3.8e-11,-1.90569e-06
3.9e-11,-1.92259e-06
4e-11,-1.99978e-06
4.1e-11,-1.48207e-06
4.2e-11,-1.81751e-06
4.3e-11,-1.02847e-06
4.4e-11,-1.05371e-06
4.5e-11,-1.21098e-06
4.6e-11,-1.39578e-06
4.7e-11,-1.70854e-06
4.8e-11,-1.96249e-06
4.9e-11,-1.83259e-06
5e-11,-1.09383e-06
5.1e-11,-1.05033e-06
5.2e-11,-9.74765e-07
5.3e-11,-1.41974e-06
5.4e-11,-1.38383e-06
5.5e-11,-1.73391e-06
5.6e-11,-1.93158e-06
5.7e-11,-7.00122e-07
5.8e-11,-1.27841e-06
5.9e-11,-1.08973e-06
6e-11,-1.18973e-06
6.1e-11,-1.65675e-06
6.2e-11,-1.10124e-06
6.3e-11,-1.54537e-06
6.4e-11,-1.34092e-06
6.5e-11,-1.56427e-06
6.6e-11,-9.82963e-07
6.7e-11,-1.12329e-06
6.8e-11,-1.56922e-06
6.9e-11,-1.22441e-06
7e-11,-1.11815e-06
7.1e-11,-1.37655e-06
7.2e-11,-1.6843e-06
7.3e-11,-9.21588e-07
7.4e-11,-1.11755e-06
7.5e-11,-1.04762e-06
7.6e-11,-1.63001e-06
7.7e-11,-8.63131e-07
7.8e-11,-1.55308e-06
7.9e-11,-1.02393e-06
8e-11,-1.10271e-06
8.1e-11,-1.1599e-06
8.2e-11,-1.30632e-06
8.3e-11,-1.0588e-06
8.4e-11,-1.19857e-06
8.5e-11,-1.41534e-06
8.6e-11,-1.33529e-06
8.7e-11,-1.28569e-06
8.8e-11,-9.43766e-07
8.9e-11,-1.25237e-06
9e-11,-1.30508e-06
9.1e-11,-1.09621e-06
9.2e-11,-1.37373e-06
9.3e-11,-1.39042e-06
9.4e-11,-8.60078e-07
9.5e-11,-8.78701e-07
9.6e-11,-1.12246e-06
9.7e-11,-1.55071e-06
9.8e-11,-9.1322e-07
9.9e-11,-1.28276e-06
1e-10,-1.30411e-06
1.01e-10,-1.16342e-06
1.02e-10,-1.0375e-06
1.03e-10,-9.44404e-07
1.04e-10,-1.56757e-06
1.05e-10,-7.91539e-07
1.06e-10,-1.34615e-06
1.07e-10,-9.72321e-07
1.08e-10,-8.0038e-07
1.09e-10,-1.13799e-06
1.1e-10,-1.2687e-06
1.11e-10,-1.10809e-06
1.12e-10,-8.1418e-07
1.13e-10,-7.94849e-07
1.14e-10,-1.03882e-06
1.15e-10,-8.73658e-07
1.16e-10,-1.15235e-06
1.17e-10,-1.2183e-06
1.18e-10,-7.18658e-07
1.19e-10,-1.03619e-06
1.2e-10,-9.25848e-07
1.21e-10,-8.18358e-07
1.22e-10,-1.20382e-06
1.23e-10,-9.36564e-07
1.24e-10,-1.1175e-06
1.25e-10,-5.67838e-07
1.26e-10,-1.04819e-06
1.27e-10,-1.12422e-06
1.28e-10,-1.05369e-06
1.29e-10,-9.27085e-07
1.3e-10,-1.34017e-06
1.31e-10,-4.28481e-07
1.32e-10,-8.54902e-07
1.33e-10,-8.00063e-07
1.34e-10,-8.06234e-07
1.35e-10,-8.72753e-07
1.36e-10,-1.1609e-06
1.37e-10,-1.11334e-06
1.38e-10,-1.04685e-06
1.39e-10,-8.8983e-07
1.4e-10,-5.18397e-07
1.41e-10,-8.20755e-07
1.42e-10,-6.50726e-07
1.43e-10,-1.16886e-06
1.44e-10,-8.80352e-07
1.45e-10,-6.94737e-07
1.46e-10,-9.57594e-07
1.47e-10,-8.83823e-07
1.48e-10,-4.74157e-07
1.49e-10,-9.70154e-07
1.5e-10,-6.60971e-07
1.51e-10,-6.70863e-07
1.52e-10,-8.57798e-07
1.53e-10,-4.83197e-07
1.54e-10,-5.95233e-07
1.55e-10,-9.64965e-07
1.56e-10,-8.21712e-07
1.57e-10,-5.70935e-07
1.58e-10,-6.47961e-07
1.59e-10,-7.00203e-07
1.6e-10,-1.12834e-06
1.61e-10,-5.97892e-07
1.62e-10,-1.22987e-06
1.63e-10,-7.90105e-07
1.64e-10,-7.28076e-07
1.65e-10,-4.28695e-07
1.66e-10,-6.23689e-07
1.67e-10,-6.18764e-07
1.68e-10,-1.10592e-06
1.69e-10,-4.20998e-07
1.7e-10,-6.76473e-07
1.71e-10,-6.00578e-07
1.72e-10,-9.80357e-07
1.73e-10,-5.52025e-07
1.74e-10,-8.58271e-07
1.75e-10,-7.93788e-07
1.76e-10,-7.64122e-07
1.77e-10,-8.77736e-07
1.78e-10,-5.39107e-07
1.79e-10,-8.12203e-07
1.8e-10,-7.79397e-07
1.81e-10,-4.94815e-07
1.82e-10,-7.49953e-07
1.83e-10,-6.77048e-07
1.84e-10,-8.11851e-07
1.85e-10,-9.1557e-07
1.86e-10,-3.05553e-07
1.87e-10,-7.28068e-07
1.88e-10,-7.61536e-07
1.89e-10,-6.70636e-07
1.9e-10,-7.03403e-07
1.91e-10,-6.88542e-07
1.92e-10,-7.80723e-07
1.93e-10,-8.12545e-07
1.94e-10,-6.82345e-07
1.95e-10,-4.72066e-07
1.96e-10,-6.21009e-07
1.97e-10,-6.98946e-07
1.98e-10,-7.82715e-07
1.99e-10,-6.79299e-07
2e-10,-8.3551e-07
2.01e-10,-6.18071e-07
2.02e-10,-8.63113e-07
2.03e-10,-6.30818e-07
2.04e-10,-5.33244e-07
2.05e-10,-5.19217e-07
2.06e-10,-7.32272e-07
2.07e-10,-9.56977e-07
2.08e-10,-3.07979e-07
2.09e-10,-7.97493e-07
2.1e-10,-8.05357e-07
2.11e-10,-4.67751e-07
2.12e-10,-8.06108e-07
2.13e-10,-5.11044e-07
2.14e-10,-5.52893e-07
2.15e-10,-1.09662e-06
2.16e-10,-5.59776e-07
2.17e-10,-5.15757e-07
2.18e-10,-5.80154e-07
2.19e-10,-4.98356e-07
2.2e-10,-3.27485e-07
2.21e-10,-5.01266e-07
2.22e-10,-2.87312e-07
2.23e-10,-8.23341e-07
2.24e-10,-8.46672e-07
2.25e-10,-5.85304e-07
2.26e-10,-6.54279e-07
2.27e-10,-6.86227e-07
2.28e-10,-5.80485e-07
2.29e-10,-5.80053e-07
2.3e-10,-4.86547e-07
2.31e-10,-7.83626e-07
2.32e-10,-5.63869e-07
2.33e-10,-5.27426e-07
2.34e-10,-5.18215e-07
2.35e-10,-3.76681e-07
2.36e-10,-5.33282e-07
2.37e-10,-4.49093e-07
2.38e-10,-3.53898e-07
2.39e-10,-2.05033e-07
2.4e-10,-4.63878e-07
2.41e-10,-6.65211e-07
2.42e-10,-3.31403e-07
2.43e-10,-2.54811e-07
2.44e-10,-3.06069e-07
2.45e-10,-5.35696e-07
2.46e-10,-3.27493e-07
2.47e-10,-2.08863e-07
2.48e-10,-4.27484e-07
2.49e-10,-3.48983e-07
2.5e-10,-1.91591e-07
2.51e-10,-2.96474e-07
2.52e-10,-3.28702e-07
2.53e-10,-2.2118e-07
2.54e-10,-3.84976e-07
2.55e-10,-2.66302e-07
2.56e-10,-5.90937e-07
2.57e-10,-2.12203e-07
2.58e-10,-3.55261e-07
2.59e-10,-3.26581e-07
2.6e-10,-4.85546e-07
2.61e-10,-1.46194e-07
2.62e-10,-1.58779e-07
2.63e-10,-2.9084e-07
2.64e-10,-3.62699e-07
2.65e-10,-3.41761e-07
2.66e-10,-2.76345e-07
2.67e-10,-1.86186e-07
2.68e-10,-3.09903e-07
2.69e-10,-5.12142e-07
2.7e-10,-2.49999e-07
2.71e-10,-1.6706e-07
2.72e-10,-1.79812e-07
2.73e-10,-2.81577e-07
2.74e-10,-2.93841e-07
2.75e-10,-4.52612e-07
2.76e-10,-2.78735e-07
2.77e-10,-3.6412e-07
2.78e-10,-5.44736e-07
2.79e-10,-9.85927e-08
2.8e-10,-1.16606e-07
2.81e-10,-2.11504e-07
2.82e-10,-1.35023e-07
2.83e-10,-3.86219e-07
2.84e-10,-4.07849e-07
2.85e-10,-3.27992e-07
2.86e-10,-2.12601e-07
2.87e-10,-2.78112e-07
2.88e-10,-4.04997e-07
2.89e-10,-7.07864e-08
2.9e-10,-1.10506e-07
2.91e-10,-9.41832e-08
2.92e-10,-3.33308e-07
2.93e-10,-5.46544e-07
2.94e-10,-4.15152e-07
2.95e-10,-2.04817e-07
2.96e-10,-1.68227e-07
2.97e-10,-5.96117e-08
2.98e-10,-6.11653e-08
2.99e-10,-2.34566e-07
3e-10,-2.76024e-07
3.01e-10,-4.07764e-07
3.02e-10,-4.74873e-07
3.03e-10,-2.09676e-07
3.04e-10,-2.97782e-07
3.05e-10,-1.89761e-07
3.06e-10,-2.43651e-07
3.07e-10,2.5162e-08
3.08e-10,-3.10708e-07
3.09e-10,-4.47808e-07
3.1e-10,-2.61778e-07
3.11e-10,-1.89029e-07
3.12e-10,-2.88777e-07
3.13e-10,-2.93267e-07
3.14e-10,-1.30075e-07
3.15e-10,-3.38145e-07
3.16e-10,-2.34058e-07
3.17e-10,-6.21961e-08
3.18e-10,-5.19028e-07
3.19e-10,-1.8162e-07
3.2e-10,-3.29681e-07
3.21e-10,-2.56094e-07
3.22e-10,-2.40199e-07
3.23e-10,-1.76246e-07
3.24e-10,3.42376e-08
3.25e-10,-4.84782e-07
3.26e-10,-2.42138e-07
3.27e-10,-2.55511e-07
3.28e-10,-2.34833e-07
3.29e-10,-2.19234e-07
3.3e-10,-1.36199e-07
3.31e-10,-7.44921e-08
3.32e-10,-4.55596e-07
3.33e-10,-2.26823e-07
3.34e-10,-2.63713e-07
3.35e-10,-9.46922e-08
3.36e-10,-2.99948e-07
3.37e-10,-3.73889e-07
3.38e-10,1.12317e-07
3.39e-10,-1.81392e-07
3.4e-10,-4.10938e-07
3.41e-10,-1.93558e-07
3.42e-10,-4.49077e-07
3.43e-10,-1.63999e-07
3.44e-10,-1.54462e-07
3.45e-10,-1.34751e-07
3.46e-10,-3.5256e-07
3.47e-10,-1.74627e-07
3.48e-10,-2.96621e-07
3.49e-10,-3.46569e-07
3.5e-10,-3.31323e-07
3.51e-10,-8.76357e-08
3.52e-10,-7.67035e-08
3.53e-10,8.80019e-10
3.54e-10,-2.11025e-07
3.55e-10,-4.23117e-07
3.56e-10,-1.22588e-07
3.57e-10,-1.60589e-07
3.58e-10,-2.13453e-07
3.59e-10,-3.84232e-07
3.6e-10,3.68964e-08
3.61e-10,-1.68541e-07
3.62e-10,-1.05877e-07
3.63e-10,-1.11667e-07
3.64e-10,-2.11124e-07
3.65e-10,-4.53795e-08
3.66e-10,-5.93812e-08
3.67e-10,-1.96249e-07
3.68e-10,-3.11829e-07
3.69e-10,-9.26143e-08
3.7e-10,-6.59885e-08
3.71e-10,-1.62455e-07
3.72e-10,-3.23675e-08
3.73e-10,2.8912e-08
3.74e-10,-2.05192e-07
3.75e-10,-1.04504e-07
3.76e-10,-2.85065e-07
3.77e-10,-3.07122e-07
3.78e-10,1.07257e-07
3.79e-10,-2.08691e-07
3.8e-10,-7.97111e-08
3.81e-10,-2.10986e-07
3.82e-10,9.04939e-09
3.83e-10,-2.2683e-07
3.84e-10,-1.20349e-07
3.85e-10,-2.15248e-07
3.86e-10,-1.83066e-07
3.87e-10,-1.68366e-07
3.88e-10,-2.14883e-07
3.89e-10,-4.10171e-10
3.9e-10,-9.96065e-08
3.91e-10,1.49276e-08
3.92e-10,-2.09086e-07
3.93e-10,-7.95087e-08
3.94e-10,-8.95213e-08
3.95e-10,-2.60989e-07
3.96e-10,-2.2911e-07
3.97e-10,-6.60997e-08
3.98e-10,-1.6743e-07
3.99e-10,-3.13389e-08
4e-10,-1.21329e-07
4.01e-10,7.37789e-08
4.02e-10,-3.828e-07
4.03e-10,-6.21936e-08
4.04e-10,-2.00134e-07
4.05e-10,-4.70348e-08
4.06e-10,-8.70639e-08
4.07e-10,-1.43383e-07
4.08e-10,-2.1584e-07
4.09e-10,-2.71056e-08
4.1e-10,-2.72101e-07
4.11e-10,-1.37683e-07
4.12e-10,3.25618e-08
4.13e-10,-7.4837e-08
4.14e-10,-2.97505e-07
4.15e-10,-1.41919e-07
4.16e-10,3.07098e-08
4.17e-10,-1.76421e-08
4.18e-10,-3.51713e-07
4.19e-10,-1.20669e-07
4.2e-10,-2.7695e-07
4.21e-10,-1.36998e-07
4.22e-10,-2.96318e-09
4.23e-10,-1.48339e-07
4.24e-10,-1.32724e-07
4.25e-10,-7.47631e-08
4.26e-10,-7.92112e-08
4.27e-10,-3.17576e-07
4.28e-10,-3.08842e-08
4.29e-10,-2.87657e-07
4.3e-10,-5.38505e-08
4.31e-10,-1.96654e-07
4.32e-10,-1.09907e-07
4.33e-10,-1.2492e-07
4.34e-10,-1.20855e-07
4.35e-10,-1.29149e-07
4.36e-10,3.0848e-08
4.37e-10,-1.4598e-07
4.38e-10,-2.5705e-07
4.39e-10,-7.98249e-08
4.4e-10,-1.02954e-07
4.41e-10,-9.1452e-08
4.42e-10,-1.83281e-07
4.43e-10,-2.1059e-07
4.44e-10,1.12915e-08
4.45e-10,-7.08804e-08
4.46e-10,-1.13355e-07
4.47e-10,-1.31289e-07
4.48e-10,-3.21208e-08
4.49e-10,-2.08736e-07
4.5e-10,7.5569e-09
4.51e-10,-1.75048e-07
4.52e-10,-1.82686e-07
4.53e-10,-9.61082e-08
4.54e-10,-1.20432e-07
4.55e-10,-5.23372e-08
4.56e-10,-2.61602e-07
4.57e-10,-1.10238e-07
4.58e-10,-1.31086e-07
4.59e-10,-9.98123e-08
4.6e-10,-1.97609e-07
4.61e-10,-1.60959e-07
4.62e-10,1.81246e-08
4.63e-10,-1.83104e-07
4.64e-10,-9.83e-08
4.65e-10,-4.73116e-08
4.66e-10,-2.37522e-07
4.67e-10,-6.8987e-08
4.68e-10,-5.4004e-08
4.69e-10,-4.07487e-08
4.7e-10,-1.29058e-07
4.71e-10,-2.24757e-07
4.72e-10,-8.26233e-08
4.73e-10,-1.25414e-07
4.74e-10,-2.23422e-07
4.75e-10,4.52371e-08
4.76e-10,-1.87631e-07
4.77e-10,-1.10575e-07
4.78e-10,-2.73816e-08
4.79e-10,-1.06732e-07
4.8e-10,2.65884e-08
4.81e-10,-2.80983e-07
4.82e-10,-1.21146e-07
4.83e-10,-8.82843e-08
4.84e-10,-9.00175e-08
4.85e-10,-8.46339e-08
4.86e-10,1.87644e-08
4.87e-10,-8.79758e-08
4.88e-10,-1.12452e-07
4.89e-10,-1.84809e-07
4.9e-10,-3.86396e-08
4.91e-10,-1.40277e-07
4.92e-10,-1.95039e-07
4.93e-10,-5.38503e-09
4.94e-10,-2.14252e-08
4.95e-10,-3.66571e-09
4.96e-10,-7.22441e-08
4.97e-10,-2.84995e-08
4.98e-10,-2.24433e-07
4.99e-10,-2.65447e-07
5e-10,2.44518e-09
5.01e-10,-8.28662e-09
5.02e-10,-7.00864e-08
5.03e-10,-5.68502e-08
5.04e-10,-1.03941e-07
5.05e-10,-9.37133e-08
5.06e-10,-2.24359e-07
5.07e-10,-8.09831e-08
5.08e-10,-3.14467e-08
5.09e-10,-1.19648e-07
5.1e-10,-5.86456e-08
5.11e-10,-2.35872e-08
5.12e-10,-1.41269e-08
5.13e-10,-6.49398e-08
5.14e-10,-1.81127e-07
5.15e-10,-2.14133e-07
5.16e-10,-4.98063e-08
5.17e-10,-4.40928e-08
5.18e-10,2.45092e-08
5.19e-10,-8.98834e-08
5.2e-10,-8.62289e-08
5.21e-10,-9.90992e-08
5.22e-10,-1.126e-07
5.23e-10,-2.44716e-07
5.24e-10,-3.88371e-08
5.25e-10,-4.82192e-08
5.26e-10,-2.02127e-08
5.27e-10,-1.68809e-07
5.28e-10,3.76594e-09
5.29e-10,-7.52911e-08
5.3e-10,-1.35705e-07
5.31e-10,-9.13654e-08
5.32e-10,-1.37715e-07
5.33e-10,-1.25815e-07
5.34e-10,-1.2151e-07
5.35e-10,9.26223e-09
5.36e-10,2.55559e-09
5.37e-10,-1.24954e-07
5.38e-10,-1.73505e-07
5.39e-10,-1.41347e-07
5.4e-10,-6.33326e-08
5.41e-10,-1.2178e-07
5.42e-10,-1.25169e-08
5.43e-10,-2.21736e-08
5.44e-10,-7.68437e-08
5.45e-10,-1.14916e-07
5.46e-10,-1.55536e-07
5.47e-10,1.8463e-08
5.48e-10,-1.21111e-07
5.49e-10,-1.0855e-07
5.5e-10,-7.91713e-08
5.51e-10,-4.85155e-08
5.52e-10,-5.62487e-08
5.53e-10,-8.71784e-08
5.54e-10,-1.33493e-07
5.55e-10,2.33166e-08
5.56e-10,-8.28769e-08
5.57e-10,-3.21087e-07
5.58e-10,-5.49281e-09
5.59e-10,-2.64736e-08
5.6e-10,-2.07015e-08
5.61e-10,-9.59836e-08
5.62e-10,-3.78287e-08
5.63e-10,-1.08936e-07
5.64e-10,4.63659e-08
5.65e-10,-1.35677e-07
5.66e-10,-2.28295e-08
5.67e-10,-2.16579e-07
5.68e-10,-1.50682e-07
5.69e-10,3.63888e-10
5.7e-10,-1.88479e-07
5.71e-10,-1.41935e-07
5.72e-10,-1.34189e-07
5.73e-10,1.70347e-09
5.74e-10,-5.43252e-09
5.75e-10,-5.08041e-08
5.76e-10,-4.8844e-10
5.77e-10,-1.78437e-07
5.78e-10,-2.07977e-07
5.79e-10,-3.78514e-08
5.8e-10,-4.98965e-09
5.81e-10,-1.33553e-07
5.82e-10,-3.92508e-08
5.83e-10,-5.92519e-08
5.84e-10,-1.44821e-08
5.85e-10,-5.46094e-08
5.86e-10,-3.88406e-09
5.87e-10,-2.28538e-07
5.88e-10,-1.08898e-07
5.89e-10,-2.17801e-07
5.9e-10,1.21736e-08
5.91e-10,2.43863e-08
5.92e-10,-1.31148e-07
5.93e-10,-3.37823e-08
5.94e-10,2.44538e-08
5.95e-10,-1.243e-07
5.96e-10,-1.125e-07
5.97e-10,-1.77711e-07
5.98e-10,1.90623e-08
5.99e-10,-2.48184e-08
6e-10,-1.45504e-07
6.01e-10,-5.26249e-08
6.02e-10,-4.57867e-09
6.03e-10,-1.45815e-07
6.04e-10,-3.95998e-08
6.05e-10,-4.95842e-08
6.06e-10,-1.98482e-07
6.07e-10,-2.54707e-08
6.08e-10,-2.90128e-08
6.09e-10,-2.26884e-07
6.1e-10,-1.78402e-08
6.11e-10,-1.47445e-07
6.12e-10,-7.22146e-08
6.13e-10,-5.27352e-09
6.14e-10,-1.10289e-07
6.15e-10,5.32737e-09
6.16e-10,-6.33926e-09
6.17e-10,-1.78567e-07
6.18e-10,-5.60833e-08
6.19e-10,-1.72121e-07
6.2e-10,5.18063e-08
6.21e-10,4.62259e-09
6.22e-10,-2.08186e-07
6.23e-10,-8.00846e-08
6.24e-10,5.51537e-08
6.25e-10,-7.95121e-08
6.26e-10,-1.89638e-07
6.27e-10,-7.37661e-09
6.28e-10,-1.20796e-07
6.29e-10,-2.12306e-09
6.3e-10,-1.16317e-07
6.31e-10,3.04856e-08
6.32e-10,-3.06458e-07
6.33e-10,-1.45705e-08
6.34e-10,-9.25848e-08
6.35e-10,-6.70345e-08
6.36e-10,-6.80998e-08
6.37e-10,-5.67865e-08
6.38e-10,-5.41772e-08
6.39e-10,-8.5029e-09
6.4e-10,-1.29659e-07
6.41e-10,-7.97536e-10
6.42e-10,-5.11033e-09
6.43e-10,-2.96649e-07
6.44e-10,9.69415e-09
6.45e-10,-2.05945e-07
6.46e-10,-9.99746e-09
6.47e-10,-8.6271e-09
6.48e-10,-1.01246e-07
6.49e-10,1.43995e-08
6.5e-10,1.59532e-08
6.51e-10,-1.98237e-08
6.52e-10,-1.55729e-07
6.53e-10,-8.7651e-08
6.54e-10,-1.37006e-07
6.55e-10,-1.23319e-07
6.56e-10,7.8915e-09
6.57e-10,-4.47519e-08
6.58e-10,-2.66558e-08
6.59e-10,-7.15168e-09
6.6e-10,-1.34646e-07
6.61e-10,2.97892e-08
6.62e-10,-1.7848e-07
6.63e-10,-2.74475e-08
6.64e-10,-3.76293e-08
6.65e-10,-1.02312e-07
6.66e-10,-1.19417e-07
6.67e-10,-9.08821e-08
6.68e-10,1.90538e-09
6.69e-10,-2.47648e-07
6.7e-10,-1.33086e-07
6.71e-10,1.38411e-08
6.72e-10,1.8122e-08
6.73e-10,-2.67066e-08
6.74e-10,2.3815e-08
6.75e-10,2.95405e-09
6.76e-10,-1.30698e-07
6.77e-10,-8.5919e-08
6.78e-10,-1.81805e-07
6.79e-10,-5.49669e-08
6.8e-10,-4.97822e-08
6.81e-10,-1.45124e-07
6.82e-10,-7.71924e-08
6.83e-10,-1.04012e-08
6.84e-10,6.72502e-08
6.85e-10,5.53608e-09
6.86e-10,-1.35167e-07
6.87e-10,-1.51459e-07
6.88e-10,2.28628e-08
6.89e-10,-1.51775e-07
6.9e-10,-6.71333e-08
6.91e-10,-2.91673e-09
6.92e-10,-6.81031e-08
6.93e-10,-3.86164e-08
6.94e-10,-1.9323e-08
6.95e-10,-1.39055e-07
6.96e-10,-2.06185e-07
6.97e-10,-4.41903e-08
6.98e-10,-7.91541e-08
6.99e-10,-6.52085e-08
7e-10,-1.15707e-07
7.01e-10,-1.63177e-09
7.02e-10,-3.9093e-08
7.03e-10,1.30014e-08
7.04e-10,-2.67154e-07
7.05e-10,2.11613e-09
7.06e-10,-2.39556e-08
7.07e-10,-6.72608e-08
7.08e-10,-5.46202e-10
7.09e-10,-2.063e-08
7.1e-10,-2.60073e-08
7.11e-10,-2.93516e-08
7.12e-10,-2.82221e-07
7.13e-10,-1.04936e-09
7.14e-10,-5.27756e-08
7.15e-10,-6.69158e-08
7.16e-10,-1.59269e-08
7.17e-10,-2.59042e-08
7.18e-10,6.28233e-10
7.19e-10,6.75185e-09
7.2e-10,-2.65156e-07
7.21e-10,-7.89792e-08
7.22e-10,-8.87698e-08
7.23e-10,1.81301e-10
7.24e-10,-2.73428e-08
7.25e-10,2.07162e-08
7.26e-10,1.49845e-10
7.27e-10,-5.06394e-08
7.28e-10,-1.06719e-07
7.29e-10,-1.33511e-07
7.3e-10,-5.11495e-08
7.31e-10,-1.2105e-07
7.32e-10,-2.74707e-08
7.33e-10,-2.19029e-08
7.34e-10,2.77982e-08
7.35e-10,4.59748e-08
7.36e-10,-1.46129e-07
7.37e-10,-4.71378e-08
7.38e-10,-6.65254e-08
7.39e-10,-9.19446e-08
7.4e-10,-1.23127e-07
7.41e-10,-4.67407e-08
7.42e-10,-6.39361e-08
7.43e-10,-2.60729e-10
7.44e-10,-5.93239e-08
7.45e-10,-2.26999e-08
7.46e-10,-7.96949e-08
7.47e-10,-9.07855e-08
7.48e-10,-3.72432e-09
7.49e-10,-1.55098e-09
7.5e-10,-1.25577e-07
7.51e-10,-2.78733e-08
7.52e-10,-3.14708e-08
7.53e-10,-1.03751e-07
7.54e-10,-5.63444e-09
7.55e-10,-1.10276e-07
7.56e-10,-1.49054e-07
7.57e-10,-1.88599e-09
7.58e-10,2.67706e-08
7.59e-10,-4.46042e-08
7.6e-10,-7.06456e-08
7.61e-10,2.57492e-08
7.62e-10,-2.3996e-08
7.63e-10,-4.54541e-08
7.64e-10,-6.72929e-08
7.65e-10,-1.04271e-07
7.66e-10,3.11051e-08
7.67e-10,1.10558e-09
7.68e-10,-7.11165e-08
7.69e-10,-6.12433e-08
7.7e-10,-7.87094e-08
7.71e-10,-2.67323e-09
7.72e-10,-2.13219e-08
7.73e-10,-7.57875e-09
7.74e-10,-1.22144e-07
7.75e-10,3.83486e-10
7.76e-10,2.39711e-08
7.77e-10,-2.3751e-07
7.78e-10,3.09768e-08
7.79e-10,-2.37963e-08
7.8e-10,-4.77573e-08
7.81e-10,-6.41167e-09
7.82e-10,-1.49289e-07
7.83e-10,-1.6871e-08
7.84e-10,-4.54824e-08
7.85e-10,1.75767e-09
7.86e-10,-8.28011e-08
7.87e-10,-3.8393e-08
7.88e-10,3.12028e-08
7.89e-10,3.96474e-08
7.9e-10,-3.67619e-08
7.91e-10,-2.66482e-08
7.92e-10,-9.04177e-08
7.93e-10,-1.43993e-07
7.94e-10,-1.04414e-09
7.95e-10,-6.32257e-08
7.96e-10,4.82361e-08
7.97e-10,-4.7185e-09
7.98e-10,-4.8489e-08
7.99e-10,-4.82348e-08
8e-10,-1.03134e-07
8.01e-10,-3.14481e-08
8.02e-10,-4.50347e-08
8.03e-10,-9.41596e-08
8.04e-10,-1.5564e-08
8.05e-10,-5.60096e-08
8.06e-10,2.05728e-08
8.07e-10,4.16364e-10
8.08e-10,-9.18272e-09
8.09e-10,-1.64316e-07
8.1e-10,-2.38244e-08
8.11e-10,-8.86823e-08
8.12e-10,-4.64333e-08
8.13e-10,3.41138e-10
8.14e-10,-4.36476e-08
8.15e-10,-2.89135e-09
8.16e-10,-4.30578e-08
8.17e-10,-6.36928e-08
8.18e-10,-5.09705e-08
8.19e-10,-5.99105e-08
8.2e-10,-4.67428e-08
8.21e-10,-4.57212e-08
8.22e-10,-6.56884e-11
8.23e-10,1.23781e-09
8.24e-10,4.11032e-09
8.25e-10,-1.00053e-07
8.26e-10,-5.02989e-08
8.27e-10,-2.87438e-09
8.28e-10,-1.53516e-07
8.29e-10,4.26825e-09
8.3e-10,-4.97798e-08
8.31e-10,-1.44644e-08
8.32e-10,-7.46813e-08
8.33e-10,-4.51385e-08
8.34e-10,-5.10007e-08
8.35e-10,-5.69873e-08
8.36e-10,-8.32433e-10
8.37e-10,-4.83105e-09
8.38e-10,-6.05762e-08
8.39e-10,-4.54698e-08
8.4e-10,-4.90694e-08
8.41e-10,-2.09955e-09
8.42e-10,-3.38576e-08
8.43e-10,-1.55644e-07
8.44e-10,-4.63579e-08
8.45e-10,-4.30937e-08
8.46e-10,-6.70739e-08
8.47e-10,1.338e-09
8.48e-10,-4.8663e-08
8.49e-10,-4.258e-08
8.5e-10,-4.77422e-08
8.51e-10,3.07781e-09
8.52e-10,-1.17342e-07
8.53e-10,-7.11295e-08
8.54e-10,-3.35532e-08
8.55e-10,-2.30789e-09
8.56e-10,-4.22458e-08
8.57e-10,1.67763e-08
8.58e-10,-8.95738e-08
8.59e-10,-4.51502e-08
8.6e-10,-8.77699e-08
8.61e-10,-7.90155e-08
8.62e-10,-6.6231e-08
8.63e-10,-5.07987e-08
8.64e-10,-8.71641e-09
8.65e-10,1.76143e-09
8.66e-10,-4.54885e-08
8.67e-10,-2.94573e-09
8.68e-10,-3.38542e-08
8.69e-10,-2.05384e-07
8.7e-10,-2.51473e-09
8.71e-10,-5.70253e-08
8.72e-10,-4.7365e-08
8.73e-10,-2.12783e-09
8.74e-10,-4.03624e-08
8.75e-10,-3.33089e-08
8.76e-10,-1.16117e-09
8.77e-10,-4.39245e-08
8.78e-10,-1.28481e-07
8.79e-10,-5.46827e-08
8.8e-10,-1.69405e-07
8.81e-10,4.45691e-08
8.82e-10,-2.1648e-09
8.83e-10,-9.17448e-08
8.84e-10,-2.63366e-09
8.85e-10,-3.03547e-08
8.86e-10,-7.95016e-08
8.87e-10,-1.12806e-07
8.88e-10,3.70794e-09
8.89e-10,-6.06339e-08
8.9e-10,-5.60422e-09
8.91e-10,6.84463e-10
8.92e-10,-6.25714e-08
8.93e-10,-4.49017e-08
8.94e-10,-1.42581e-07
8.95e-10,-7.76102e-08
8.96e-10,1.68327e-09
8.97e-10,-5.22659e-08
8.98e-10,-6.74538e-08
8.99e-10,-3.2502e-09
9e-10,-3.49441e-10
9.01e-10,-9.22982e-11
9.02e-10,-2.21661e-07
9.03e-10,2.7473e-09
9.04e-10,-5.06912e-08
9.05e-10,-6.16234e-08
9.06e-10,-2.78583e-08
9.07e-10,-3.12441e-08
9.08e-10,-9.07651e-08
9.09e-10,4.45143e-09
9.1e-10,-4.46169e-08
9.11e-10,-4.34272e-08
9.12e-10,-3.16072e-08
9.13e-10,-5.19663e-08
9.14e-10,-1.00738e-07
9.15e-10,-3.14676e-09
9.16e-10,-1.2686e-07
9.17e-10,-5.85016e-08
9.18e-10,-7.48094e-08
9.19e-10,2.98027e-09
9.2e-10,3.55607e-09
9.21e-10,2.94628e-09
9.22e-10,-6.58483e-08
9.23e-10,-1.99837e-08
9.24e-10,-6.51664e-08
9.25e-10,4.62309e-09
9.26e-10,-6.93044e-08
9.27e-10,-1.34875e-07
9.28e-10,-8.84222e-09
9.29e-10,-1.07957e-07
9.3e-10,-4.74684e-09
9.31e-10,-5.75436e-08
9.32e-10,3.99199e-08
9.33e-10,-5.76472e-08
9.34e-10,-1.52307e-07
9.35e-10,4.64826e-08
9.36e-10,-8.12995e-08
9.37e-10,3.72652e-08
9.38e-10,-1.21956e-07
9.39e-10,-7.16496e-08
9.4e-10,-4.84453e-08
9.41e-10,-1.35718e-07
9.42e-10,-1.35114e-07
9.43e-10,-3.3463e-09
9.44e-10,3.61843e-09
9.45e-10,-5.2291e-08
9.46e-10,-1.61416e-09
9.47e-10,-4.90456e-09
9.48e-10,-6.05021e-08
9.49e-10,-6.42988e-08
9.5e-10,-6.15658e-08
9.51e-10,-8.75045e-08
9.52e-10,-5.44867e-08
9.53e-10,-2.709e-09
9.54e-10,-4.97343e-08
9.55e-10,-1.43889e-09
9.56e-10,-4.41418e-08
9.57e-10,-1.93659e-09
9.58e-10,-1.27167e-07
9.59e-10,-1.27055e-07
9.6e-10,-8.27016e-10
9.61e-10,-3.08272e-08
9.62e-10,-2.86254e-08
9.63e-10,2.21714e-09
9.64e-10,-5.16602e-08
9.65e-10,-4.20927e-10
9.66e-10,3.08394e-09
9.67e-10,-1.48274e-07
9.68e-10,-4.42968e-08
9.69e-10,-1.14623e-07
9.7e-10,-2.41651e-08
9.71e-10,-6.93331e-08
9.72e-10,-5.00651e-08
9.73e-10,1.50362e-09
9.74e-10,-5.87977e-08
9.75e-10,-3.00981e-08
9.76e-10,1.12135e-09
9.77e-10,-9.93513e-08
9.78e-10,2.07075e-09
9.79e-10,-1.58723e-09
9.8e-10,-4.55768e-08
9.81e-10,-1.62062e-07
9.82e-10,-1.26479e-07
9.83e-10,3.38377e-09
9.84e-10,2.16446e-09
9.85e-10,-5.87371e-08
9.86e-10,-3.5035e-08
9.87e-10,1.11526e-09
9.88e-10,1.38305e-08
9.89e-10,-4.67956e-08
9.9e-10,-6.74232e-08
9.91e-10,-6.18315e-08
9.92e-10,-2.64484e-08
9.93e-10,4.37109e-09
9.94e-10,-1.17721e-07
9.95e-10,-2.25587e-08
9.96e-10,-2.21506e-08
9.97e-10,2.05381e-08
9.98e-10,-1.78975e-07
9.99e-10,-7.66809e-09
1e-09,-1.41301e-07
2.1e-09,0
