0,0
1e-12,-5.65413e-07
2e-12,-1.1644e-06
3e-12,-7.90042e-07
4e-12,-1.11669e-06
5e-12,-1.90782e-06
6e-12,-2.04227e-06
7e-12,-1.19033e-06
8e-12,-9.32678e-07
9e-12,-7.14035e-07
1e-11,-4.63743e-07
1.1e-11,-1.055e-06
1.2e-11,-6.03061e-07
1.3e-11,-1.06804e-06
1.4e-11,-1.36751e-06
1.5e-11,-1.4351e-06
1.6e-11,-1.8383e-06
1.7e-11,-1.07971e-06
1.8e-11,-9.09936e-07
1.9e-11,-9.68459e-07
2e-11,-9.01898e-07
2.1e-11,-6.83058e-07
2.2e-11,-1.45692e-06
2.3e-11,-1.29507e-06
2.4e-11,-1.07484e-06
2.5e-11,-9.72957e-07
2.6e-11,-1.40955e-06
2.7e-11,-7.23476e-07
2.8e-11,-8.50953e-07
2.9e-11,-1.22047e-06
3e-11,-1.20875e-06
3.1e-11,-9.2654e-07
3.2e-11,-1.42506e-06
3.3e-11,-1.51646e-06
3.4e-11,-1.02485e-06
3.5e-11,-1.10401e-06
3.6e-11,-7.66149e-07
3.7e-11,-8.37357e-07
3.8e-11,-1.46309e-06
3.9e-11,-1.03731e-06
4e-11,-1.20224e-06
4.1e-11,-1.40472e-06
4.2e-11,-6.24069e-07
4.3e-11,-1.17873e-06
4.4e-11,-9.83277e-07
4.5e-11,-1.30676e-06
4.6e-11,-9.21517e-07
4.7e-11,-1.38864e-06
4.8e-11,-1.31552e-06
4.9e-11,-9.24654e-07
5e-11,-7.45954e-07
5.1e-11,-1.0601e-06
5.2e-11,-9.5687e-07
5.3e-11,-8.98612e-07
5.4e-11,-8.54932e-07
5.5e-11,-1.18878e-06
5.6e-11,-1.52168e-06
5.7e-11,-1.22316e-06
5.8e-11,-1.15056e-06
5.9e-11,-7.61034e-07
6e-11,-1.01479e-06
6.1e-11,-1.05964e-06
6.2e-11,-1.30833e-06
6.3e-11,-1.06941e-06
6.4e-11,-1.34451e-06
6.5e-11,-1.15066e-06
6.6e-11,-7.91277e-07
6.7e-11,-8.7782e-07
6.8e-11,-1.05492e-06
6.9e-11,-1.47978e-06
7e-11,-6.18647e-07
7.1e-11,-1.2152e-06
7.2e-11,-1.37957e-06
7.3e-11,-7.81078e-07
7.4e-11,-1.24942e-06
7.5e-11,-8.43421e-07
7.6e-11,-9.01244e-07
7.7e-11,-1.0795e-06
7.8e-11,-1.10366e-06
7.9e-11,-6.7316e-07
8e-11,-1.43503e-06
8.1e-11,-1.11921e-06
8.2e-11,-1.10365e-06
8.3e-11,-1.33658e-06
8.4e-11,-9.38387e-07
8.5e-11,-1.21298e-06
8.6e-11,-5.46614e-07
8.7e-11,-6.66126e-07
8.8e-11,-1.22607e-06
8.9e-11,-1.22425e-06
9e-11,-8.25821e-07
9.1e-11,-1.48087e-06
9.2e-11,-9.22266e-07
9.3e-11,-9.31122e-07
9.4e-11,-9.01573e-07
9.5e-11,-9.08756e-07
9.6e-11,-1.1843e-06
9.7e-11,-7.13372e-07
9.8e-11,-8.83656e-07
9.9e-11,-1.22964e-06
1e-10,-7.90902e-07
1.01e-10,-1.17241e-06
1.02e-10,-1.02705e-06
1.03e-10,-8.29848e-07
1.04e-10,-7.96145e-07
1.05e-10,-1.08493e-06
1.06e-10,-6.68178e-07
1.07e-10,-1.02545e-06
1.08e-10,-1.09401e-06
1.09e-10,-9.26157e-07
1.1e-10,-5.46762e-07
1.11e-10,-1.28875e-06
1.12e-10,-7.42723e-07
1.13e-10,-9.98823e-07
1.14e-10,-9.69738e-07
1.15e-10,-6.67604e-07
1.16e-10,-7.46769e-07
1.17e-10,-9.52532e-07
1.18e-10,-6.01106e-07
1.19e-10,-1.12452e-06
1.2e-10,-6.69104e-07
1.21e-10,-1.09079e-06
1.22e-10,-6.91007e-07
1.23e-10,-7.4973e-07
1.24e-10,-6.04004e-07
1.25e-10,-1.02694e-06
1.26e-10,-6.31896e-07
1.27e-10,-1.13284e-06
1.28e-10,-4.95158e-07
1.29e-10,-4.37756e-07
1.3e-10,-8.76476e-07
1.31e-10,-8.74108e-07
1.32e-10,-6.44874e-07
1.33e-10,-7.94994e-07
1.34e-10,-6.34632e-07
1.35e-10,-6.7402e-07
1.36e-10,-9.50605e-07
1.37e-10,-6.34952e-07
1.38e-10,-6.22302e-07
1.39e-10,-7.96974e-07
1.4e-10,-6.11096e-07
1.41e-10,-7.14418e-07
1.42e-10,-6.37149e-07
1.43e-10,-7.15999e-07
1.44e-10,-8.27112e-07
1.45e-10,-6.58781e-07
1.46e-10,-7.45595e-07
1.47e-10,-1.0427e-06
1.48e-10,-5.26584e-07
1.49e-10,-7.85308e-07
1.5e-10,-2.58779e-07
1.51e-10,-6.87524e-07
1.52e-10,-6.6723e-07
1.53e-10,-4.56369e-07
1.54e-10,-8.62613e-07
1.55e-10,-8.53239e-07
1.56e-10,-5.27773e-07
1.57e-10,-4.88307e-07
1.58e-10,-3.92293e-07
1.59e-10,-6.24771e-07
1.6e-10,-7.75363e-07
1.61e-10,-8.4054e-07
1.62e-10,-7.11229e-07
1.63e-10,-7.22516e-07
1.64e-10,-4.65915e-07
1.65e-10,-5.05478e-07
1.66e-10,-4.07294e-07
1.67e-10,-3.79455e-07
1.68e-10,-4.99265e-07
1.69e-10,-9.2623e-07
1.7e-10,-3.79691e-07
1.71e-10,-4.86575e-07
1.72e-10,-3.92734e-07
1.73e-10,-4.58203e-07
1.74e-10,-6.84724e-07
1.75e-10,-4.82094e-07
1.76e-10,-3.30961e-07
1.77e-10,-3.71297e-07
1.78e-10,-8.25153e-07
1.79e-10,-4.01767e-07
1.8e-10,-5.41975e-07
1.81e-10,-1.39656e-07
1.82e-10,-5.17228e-07
1.83e-10,-6.68745e-07
1.84e-10,-5.81993e-07
1.85e-10,-2.17529e-07
1.86e-10,-6.47601e-07
1.87e-10,-2.32361e-07
1.88e-10,-3.1062e-07
1.89e-10,-5.15729e-07
1.9e-10,-5.26705e-07
1.91e-10,-2.55579e-07
1.92e-10,-3.92158e-07
1.93e-10,-3.76253e-07
1.94e-10,-3.68172e-07
1.95e-10,-5.08863e-07
1.96e-10,-4.70113e-07
1.97e-10,-3.48899e-07
1.98e-10,-1.20373e-07
1.99e-10,-2.4311e-07
2e-10,-4.20464e-07
2.01e-10,-2.7578e-07
2.02e-10,-1.26237e-07
2.03e-10,-9.11455e-08
2.04e-10,-5.39187e-07
2.05e-10,-2.48784e-07
2.06e-10,-1.19947e-07
2.07e-10,-5.03246e-07
2.08e-10,-1.71216e-07
2.09e-10,-5.35599e-07
2.1e-10,-2.1964e-07
2.11e-10,-8.41235e-08
2.12e-10,-2.40622e-07
2.13e-10,-4.66587e-07
2.14e-10,-7.28142e-08
2.15e-10,-3.28589e-07
2.16e-10,-2.28408e-07
2.17e-10,-1.46335e-07
2.18e-10,-3.27889e-07
2.19e-10,-2.89253e-07
2.2e-10,5.49204e-10
2.21e-10,-3.49756e-07
2.22e-10,-1.91421e-07
2.23e-10,-3.66567e-07
2.24e-10,-1.62126e-07
2.25e-10,-1.73867e-07
2.26e-10,-1.89147e-07
2.27e-10,-3.58827e-07
2.28e-10,-1.59348e-07
2.29e-10,-4.21991e-07
2.3e-10,-1.32494e-07
2.31e-10,-2.54486e-07
2.32e-10,-3.96078e-07
2.33e-10,-2.44468e-07
2.34e-10,-4.81741e-07
2.35e-10,-3.25178e-08
2.36e-10,-2.17671e-07
2.37e-10,-1.12574e-07
2.38e-10,-2.93331e-07
2.39e-10,-1.84398e-07
2.4e-10,-3.50239e-07
2.41e-10,-3.54366e-08
2.42e-10,-1.43386e-07
2.43e-10,-2.76089e-07
2.44e-10,-2.81194e-07
2.45e-10,-1.62849e-07
2.46e-10,-1.09018e-07
2.47e-10,-1.70921e-07
2.48e-10,-6.56236e-07
2.49e-10,5.67338e-08
2.5e-10,-2.56615e-07
2.51e-10,-7.57232e-08
2.52e-10,-2.08846e-07
2.53e-10,-9.38225e-08
2.54e-10,-2.05694e-07
2.55e-10,6.09458e-08
2.56e-10,-2.86031e-07
2.57e-10,-1.73227e-07
2.58e-10,-2.58252e-07
2.59e-10,-2.5514e-07
2.6e-10,-3.95386e-08
2.61e-10,-3.12774e-07
2.62e-10,-9.52643e-08
2.63e-10,-2.49351e-07
2.64e-10,-1.06846e-07
2.65e-10,-1.85162e-07
2.66e-10,-1.2027e-07
2.67e-10,-8.2959e-08
2.68e-10,-2.33933e-08
2.69e-10,-1.47067e-07
2.7e-10,-1.16419e-07
2.71e-10,-1.9538e-07
2.72e-10,-1.54229e-07
2.73e-10,-7.00029e-08
2.74e-10,-9.98036e-08
2.75e-10,-5.13001e-08
2.76e-10,-1.51021e-07
2.77e-10,-6.23936e-08
2.78e-10,-7.32706e-08
2.79e-10,-2.90386e-07
2.8e-10,1.64818e-07
2.81e-10,-1.02179e-07
2.82e-10,-1.1882e-07
2.83e-10,-1.59763e-07
2.84e-10,-1.65768e-07
2.85e-10,6.1418e-08
2.86e-10,-3.01897e-07
2.87e-10,-8.88552e-08
2.88e-10,-2.42524e-07
2.89e-10,-2.0944e-07
2.9e-10,-6.88319e-08
2.91e-10,-9.06785e-08
2.92e-10,-1.33197e-08
2.93e-10,-9.4546e-08
2.94e-10,-1.67243e-07
2.95e-10,-7.3178e-08
2.96e-10,-2.4963e-07
2.97e-10,-5.27463e-08
2.98e-10,-1.82379e-07
2.99e-10,2.4996e-09
3e-10,-2.57135e-07
3.01e-10,-7.80088e-08
3.02e-10,3.50746e-08
3.03e-10,-2.78751e-07
3.04e-10,7.7103e-08
3.05e-10,-2.72697e-08
3.06e-10,-1.87208e-07
3.07e-10,-9.04776e-08
3.08e-10,-3.03846e-07
3.09e-10,-1.25209e-07
3.1e-10,-1.80961e-07
3.11e-10,-7.98803e-08
3.12e-10,2.3555e-08
3.13e-10,-6.91617e-08
3.14e-10,-7.12422e-08
3.15e-10,-1.52533e-07
3.16e-10,-1.18045e-07
3.17e-10,-1.28446e-07
3.18e-10,-1.49561e-07
3.19e-10,-1.57153e-07
3.2e-10,-4.20683e-08
3.21e-10,-1.09762e-07
3.22e-10,5.29554e-08
3.23e-10,-1.41127e-07
3.24e-10,-2.05559e-07
3.25e-10,-7.55203e-09
3.26e-10,-1.15838e-07
3.27e-10,-1.16967e-07
3.28e-10,-1.1726e-07
3.29e-10,-2.43852e-07
3.3e-10,-1.09985e-07
3.31e-10,-2.99349e-08
3.32e-10,-1.40137e-07
3.33e-10,-7.62372e-08
3.34e-10,-1.43228e-08
3.35e-10,-7.72178e-08
3.36e-10,8.45789e-10
3.37e-10,-1.66294e-07
3.38e-10,-7.38061e-08
3.39e-10,-7.38699e-08
3.4e-10,-4.3608e-08
3.41e-10,-1.89663e-07
3.42e-10,-8.30161e-08
3.43e-10,1.70864e-08
3.44e-10,-8.12105e-08
3.45e-10,-5.71437e-08
3.46e-10,-7.00409e-08
3.47e-10,-1.26201e-08
3.48e-10,-2.72615e-08
3.49e-10,-5.22024e-08
3.5e-10,-6.62343e-08
3.51e-10,-2.83527e-07
3.52e-10,-8.8954e-08
3.53e-10,-6.85768e-08
3.54e-10,-6.71798e-08
3.55e-10,-7.46826e-08
3.56e-10,-1.36928e-07
3.57e-10,-7.92068e-09
3.58e-10,-2.12029e-08
3.59e-10,-1.64702e-07
3.6e-10,-2.14118e-07
3.61e-10,-1.53818e-07
3.62e-10,-7.89462e-08
3.63e-10,-1.01532e-07
3.64e-10,8.42782e-08
3.65e-10,-7.50882e-08
3.66e-10,-1.54582e-07
3.67e-10,-4.54116e-08
3.68e-10,-1.72415e-07
3.69e-10,-2.31542e-07
3.7e-10,2.38024e-08
3.71e-10,-1.37463e-07
3.72e-10,-1.57625e-08
3.73e-10,-6.85502e-08
3.74e-10,1.43791e-08
3.75e-10,-1.15323e-07
3.76e-10,-2.63875e-07
3.77e-10,-1.61821e-08
3.78e-10,-1.73024e-07
3.79e-10,-1.03849e-07
3.8e-10,-1.98603e-08
3.81e-10,-6.1727e-08
3.82e-10,-4.17365e-08
3.83e-10,-3.6948e-09
3.84e-10,-1.08602e-07
3.85e-10,-6.51796e-09
3.86e-10,-1.0401e-07
3.87e-10,-1.79545e-07
3.88e-10,-4.35728e-09
3.89e-10,-9.32583e-08
3.9e-10,-2.47731e-08
3.91e-10,-4.75477e-08
3.92e-10,-2.04421e-07
3.93e-10,-3.14443e-09
3.94e-10,-4.69776e-08
3.95e-10,-8.51135e-08
3.96e-10,-8.10005e-08
3.97e-10,-1.51492e-07
3.98e-10,-7.60987e-08
3.99e-10,-3.41856e-08
4e-10,4.20467e-08
4.01e-10,-1.44909e-07
4.02e-10,2.25702e-09
4.03e-10,-2.20109e-07
4.04e-10,-1.07923e-08
4.05e-10,-1.64198e-07
4.06e-10,-9.67493e-08
4.07e-10,-7.92794e-08
4.08e-10,2.87807e-08
4.09e-10,-2.403e-07
4.1e-10,2.00523e-08
4.11e-10,-9.10182e-08
4.12e-10,-1.3444e-07
4.13e-10,4.21313e-09
4.14e-10,-1.91813e-07
4.15e-10,-7.01505e-08
4.16e-10,-1.44214e-07
4.17e-10,-1.45429e-08
4.18e-10,-1.39427e-07
4.19e-10,-2.58617e-08
4.2e-10,-7.59836e-08
4.21e-10,-1.21593e-08
4.22e-10,-1.52596e-07
4.23e-10,-5.11689e-08
4.24e-10,-1.04707e-07
4.25e-10,-5.54437e-08
4.26e-10,-1.35962e-07
4.27e-10,1.26298e-08
4.28e-10,-2.4543e-08
4.29e-10,-1.62039e-07
4.3e-10,-1.05385e-07
4.31e-10,9.95491e-09
4.32e-10,-5.662e-08
4.33e-10,-7.32672e-08
4.34e-10,3.19429e-08
4.35e-10,-1.48656e-07
4.36e-10,-4.34853e-08
4.37e-10,-8.59556e-08
4.38e-10,-1.00764e-07
4.39e-10,-1.34026e-07
4.4e-10,-1.01066e-07
4.41e-10,-4.35351e-08
4.42e-10,2.61582e-08
4.43e-10,-6.75183e-08
4.44e-10,2.09305e-08
4.45e-10,-1.54723e-07
4.46e-10,-8.74039e-08
4.47e-10,6.65969e-08
4.48e-10,-2.19633e-07
4.49e-10,-9.39966e-08
4.5e-10,4.11312e-08
4.51e-10,-9.47772e-08
4.52e-10,-1.2958e-07
4.53e-10,-3.7003e-08
4.54e-10,-1.13817e-07
4.55e-10,-3.36153e-08
4.56e-10,-1.69667e-07
4.57e-10,-5.84479e-08
4.58e-10,9.34432e-10
4.59e-10,-1.09439e-07
4.6e-10,-3.86501e-08
4.61e-10,4.09333e-09
4.62e-10,-2.34988e-07
4.63e-10,-4.06725e-08
4.64e-10,-1.47837e-07
4.65e-10,-5.44657e-08
4.66e-10,-3.69984e-08
4.67e-10,4.25932e-09
4.68e-10,-3.62092e-09
4.69e-10,-2.65441e-08
4.7e-10,-4.33121e-08
4.71e-10,-1.27694e-07
4.72e-10,-1.72503e-07
4.73e-10,-7.56381e-08
4.74e-10,-5.86102e-08
4.75e-10,-1.59076e-08
4.76e-10,-5.13046e-10
4.77e-10,-5.1723e-08
4.78e-10,-5.3854e-08
4.79e-10,-1.57217e-07
4.8e-10,-1.52121e-08
4.81e-10,-4.58354e-08
4.82e-10,-6.80066e-08
4.83e-10,-1.49624e-07
4.84e-10,-3.89353e-09
4.85e-10,-5.18368e-08
4.86e-10,-2.14176e-09
4.87e-10,-1.07578e-07
4.88e-10,-8.94233e-08
4.89e-10,2.44692e-08
4.9e-10,-1.31243e-07
4.91e-10,3.28931e-09
4.92e-10,-7.52561e-08
4.93e-10,-6.54895e-08
4.94e-10,-7.70227e-08
4.95e-10,-2.4517e-07
4.96e-10,2.10029e-08
4.97e-10,-5.76744e-08
4.98e-10,-1.06758e-07
4.99e-10,-2.23112e-08
5e-10,2.63808e-08
5.01e-10,9.88679e-10
5.02e-10,-6.24356e-08
5.03e-10,-1.7969e-07
5.04e-10,-1.00992e-07
5.05e-10,2.81179e-08
5.06e-10,-4.48819e-08
5.07e-10,-5.94438e-08
5.08e-10,-1.94878e-08
5.09e-10,2.11736e-08
5.1e-10,-7.74675e-10
5.11e-10,-7.57256e-08
5.12e-10,1.19396e-08
5.13e-10,-1.8077e-07
5.14e-10,-1.39838e-08
5.15e-10,-7.79829e-08
5.16e-10,3.52194e-08
5.17e-10,-2.92143e-08
5.18e-10,4.93144e-10
5.19e-10,-1.31549e-07
5.2e-10,7.58327e-08
5.21e-10,-1.41438e-07
5.22e-10,-7.5747e-08
5.23e-10,2.06696e-08
5.24e-10,-5.56604e-08
5.25e-10,-7.22911e-08
5.26e-10,-1.04592e-07
5.27e-10,1.36082e-07
5.28e-10,-2.10567e-07
5.29e-10,-4.51924e-08
5.3e-10,-2.08645e-08
5.31e-10,-5.49355e-08
5.32e-10,-6.05923e-08
5.33e-10,-8.73399e-08
5.34e-10,4.57462e-08
5.35e-10,-3.8346e-08
5.36e-10,-6.35765e-08
5.37e-10,-8.94936e-08
5.38e-10,-2.10089e-08
5.39e-10,-4.46367e-08
5.4e-10,1.15758e-08
5.41e-10,-8.93782e-08
5.42e-10,-4.18799e-08
5.43e-10,-7.36501e-09
5.44e-10,-1.63225e-07
5.45e-10,-1.29371e-07
5.46e-10,-1.69302e-09
5.47e-10,-4.30302e-08
5.48e-10,2.17149e-09
5.49e-10,-5.5999e-08
5.5e-10,-8.94048e-08
5.51e-10,-5.34604e-08
5.52e-10,-2.36838e-08
5.53e-10,-1.70174e-07
5.54e-10,2.37621e-08
5.55e-10,-2.027e-08
5.56e-10,-3.67411e-08
5.57e-10,1.90786e-09
5.58e-10,-4.19141e-08
5.59e-10,-1.0715e-07
5.6e-10,-8.92925e-08
5.61e-10,-1.85912e-08
5.62e-10,-4.95588e-08
5.63e-10,-4.77151e-08
5.64e-10,-2.55763e-08
5.65e-10,3.81714e-08
5.66e-10,-5.75201e-08
5.67e-10,-3.58669e-08
5.68e-10,-5.46922e-08
5.69e-10,-3.49725e-08
5.7e-10,-1.42702e-07
5.71e-10,-1.00959e-07
5.72e-10,-2.44433e-08
5.73e-10,2.77035e-08
5.74e-10,-5.90522e-08
5.75e-10,-8.19733e-08
5.76e-10,-5.66256e-08
5.77e-10,-4.82993e-08
5.78e-10,8.65942e-09
5.79e-10,-4.98364e-08
5.8e-10,-1.47607e-07
5.81e-10,-3.35467e-08
5.82e-10,2.42251e-08
5.83e-10,-1.0897e-09
5.84e-10,-2.15345e-07
5.85e-10,-4.59888e-08
5.86e-10,3.42641e-09
5.87e-10,-2.95408e-08
5.88e-10,2.56917e-08
5.89e-10,-1.23208e-07
5.9e-10,-4.37378e-08
5.91e-10,-1.05594e-07
5.92e-10,2.15072e-08
5.93e-10,-1.20453e-07
5.94e-10,2.03605e-09
5.95e-10,-4.44437e-08
5.96e-10,-8.592e-10
5.97e-10,-9.58507e-08
5.98e-10,-7.59347e-08
5.99e-10,-7.3686e-08
6e-10,-7.26073e-08
6.01e-10,-1.90122e-07
6.02e-10,-4.82063e-08
6.03e-10,-3.06159e-08
6.04e-10,-2.4311e-08
6.05e-10,-2.62763e-08
6.06e-10,-1.93341e-08
6.07e-10,-1.2622e-07
6.08e-10,-1.70895e-07
6.09e-10,-9.28047e-08
6.1e-10,-7.37738e-08
6.11e-10,-2.4106e-09
6.12e-10,-4.40843e-09
6.13e-10,-4.46777e-08
6.14e-10,-2.48631e-08
6.15e-10,-6.25351e-08
6.16e-10,-1.82e-08
6.17e-10,-1.71832e-07
6.18e-10,-1.32061e-07
6.19e-10,-3.85364e-09
6.2e-10,4.04368e-09
6.21e-10,-1.00737e-09
6.22e-10,-5.57667e-08
6.23e-10,-1.35916e-07
6.24e-10,-1.19257e-07
6.25e-10,-2.39933e-07
6.26e-10,-8.03228e-08
6.27e-10,-3.91964e-08
6.28e-10,-1.31496e-08
6.29e-10,-3.06509e-08
6.3e-10,-6.50583e-08
6.31e-10,-8.43462e-08
6.32e-10,-4.05199e-08
6.33e-10,-9.16622e-08
6.34e-10,-5.94904e-08
6.35e-10,-1.82124e-07
6.36e-10,-2.82861e-08
6.37e-10,-4.54979e-08
6.38e-10,-3.28292e-10
6.39e-10,-5.97532e-08
6.4e-10,2.36593e-10
6.41e-10,-1.40715e-07
6.42e-10,-7.03288e-08
6.43e-10,-4.34112e-08
6.44e-10,-4.9733e-08
6.45e-10,-8.59022e-08
6.46e-10,-6.39179e-08
6.47e-10,-1.5695e-07
6.48e-10,-3.48241e-09
6.49e-10,-4.55755e-08
6.5e-10,-5.65082e-08
6.51e-10,-1.49643e-07
6.52e-10,-2.8805e-08
6.53e-10,2.82892e-08
6.54e-10,-1.6655e-07
6.55e-10,-7.72143e-08
6.56e-10,-1.127e-07
6.57e-10,-4.38168e-08
6.58e-10,-1.06755e-07
6.59e-10,-3.51682e-08
6.6e-10,-7.29142e-08
6.61e-10,-4.2197e-08
6.62e-10,-4.42328e-08
6.63e-10,-5.19669e-08
6.64e-10,-1.07676e-09
6.65e-10,-1.12703e-07
6.66e-10,-1.55349e-07
6.67e-10,-9.1466e-08
6.68e-10,-9.05269e-08
6.69e-10,-6.32621e-08
6.7e-10,-8.5246e-08
6.71e-10,-1.13372e-07
6.72e-10,-1.21458e-09
6.73e-10,-9.97451e-08
6.74e-10,-4.77601e-08
6.75e-10,-1.63583e-07
6.76e-10,-4.66059e-08
6.77e-10,-4.61341e-08
6.78e-10,-6.79543e-08
6.79e-10,-1.29101e-09
6.8e-10,-1.77953e-07
6.81e-10,-4.89766e-08
6.82e-10,-4.63974e-08
6.83e-10,-1.62779e-07
6.84e-10,-4.66928e-08
6.85e-10,-5.26928e-08
6.86e-10,-1.5184e-07
6.87e-10,-4.75696e-08
6.88e-10,-1.7463e-07
6.89e-10,9.39787e-11
6.9e-10,-3.24606e-09
6.91e-10,-1.68536e-07
6.92e-10,-1.35216e-07
6.93e-10,-6.91046e-08
6.94e-10,-5.65229e-08
6.95e-10,-1.21252e-07
6.96e-10,-1.07082e-07
6.97e-10,-6.97322e-08
6.98e-10,-4.42543e-08
6.99e-10,2.4799e-10
7e-10,-1.37514e-07
7.01e-10,-8.8781e-08
7.02e-10,1.4376e-09
7.03e-10,-1.62077e-07
7.04e-10,-1.90238e-07
7.05e-10,-1.20493e-07
7.06e-10,-4.62028e-08
7.07e-10,7.40394e-09
7.08e-10,4.05908e-10
7.09e-10,-5.19703e-08
7.1e-10,-1.78795e-07
7.11e-10,-1.5945e-07
7.12e-10,-5.60094e-09
7.13e-10,-1.40574e-07
7.14e-10,-4.46264e-08
7.15e-10,-8.06327e-08
7.16e-10,-5.40068e-08
7.17e-10,-2.80921e-09
7.18e-10,-1.3973e-07
7.19e-10,-1.44828e-07
7.2e-10,-9.21798e-08
7.21e-10,-1.05211e-07
7.22e-10,-4.1779e-08
7.23e-10,-4.93818e-08
7.24e-10,-1.07592e-07
7.25e-10,-4.94769e-08
7.26e-10,2.94011e-09
7.27e-10,-1.07925e-07
7.28e-10,-1.21581e-07
7.29e-10,-1.05474e-07
7.3e-10,-5.37803e-10
7.31e-10,-1.00893e-07
7.32e-10,-1.39631e-07
7.33e-10,-5.68667e-08
7.34e-10,-4.48584e-08
7.35e-10,-1.12194e-07
7.36e-10,-4.78878e-09
7.37e-10,-1.60561e-07
7.38e-10,-2.40453e-09
7.39e-10,-1.28164e-07
7.4e-10,-5.33058e-08
7.41e-10,-9.19231e-08
7.42e-10,-9.83741e-08
7.43e-10,-1.06287e-07
7.44e-10,-7.44627e-10
7.45e-10,-7.91302e-08
7.46e-10,-9.08491e-08
7.47e-10,1.90885e-09
7.48e-10,-1.21714e-07
7.49e-10,-1.54768e-07
7.5e-10,-4.99551e-09
7.51e-10,-1.45798e-07
7.52e-10,-8.97023e-08
7.53e-10,-8.03945e-10
7.54e-10,-1.14703e-07
7.55e-10,2.91504e-08
7.56e-10,-2.711e-07
7.57e-10,-4.56795e-08
7.58e-10,-5.79858e-08
7.59e-10,1.40302e-09
7.6e-10,-1.01022e-07
7.61e-10,-1.66917e-07
7.62e-10,-2.83455e-08
7.63e-10,6.16704e-09
7.64e-10,-2.59312e-07
7.65e-10,-9.14998e-08
7.66e-10,-8.29167e-08
7.67e-10,-6.85744e-10
7.68e-10,2.24439e-08
7.69e-10,-1.75067e-07
7.7e-10,-1.02441e-07
7.71e-10,2.79327e-08
7.72e-10,-6.65754e-08
7.73e-10,-1.75789e-07
7.74e-10,-2.02699e-07
7.75e-10,-6.85665e-08
7.76e-10,-2.29813e-08
7.77e-10,-5.93718e-08
7.78e-10,-1.20288e-07
7.79e-10,-4.92396e-08
7.8e-10,-5.0815e-09
7.81e-10,-1.05539e-07
7.82e-10,-1.75933e-07
7.83e-10,-1.67679e-07
7.84e-10,-5.24038e-08
7.85e-10,-2.14491e-08
7.86e-10,-9.78868e-08
7.87e-10,-6.14441e-08
7.88e-10,-3.76323e-09
7.89e-10,-8.49971e-08
7.9e-10,-3.46546e-07
7.91e-10,-5.23685e-08
7.92e-10,-6.81838e-08
7.93e-10,-7.04618e-08
7.94e-10,-3.30364e-08
7.95e-10,-6.15239e-08
7.96e-10,-3.34951e-09
7.97e-10,2.84133e-08
7.98e-10,-2.2294e-07
7.99e-10,-1.48605e-07
8e-10,-1.31856e-07
8.01e-10,-6.35164e-08
8.02e-10,-5.8828e-08
8.03e-10,-6.30964e-08
8.04e-10,-1.19426e-08
8.05e-10,-2.83151e-08
8.06e-10,-8.04396e-08
8.07e-10,-2.292e-07
8.08e-10,-5.12068e-08
8.09e-10,-1.17614e-07
8.1e-10,-5.98089e-08
8.11e-10,-1.18926e-07
8.12e-10,2.13084e-09
8.13e-10,-5.78854e-10
8.14e-10,-1.04745e-07
8.15e-10,-6.2119e-08
8.16e-10,-1.7694e-07
8.17e-10,-3.52354e-08
8.18e-10,-1.45983e-07
8.19e-10,-2.55145e-08
8.2e-10,-7.28319e-08
8.21e-10,7.10171e-09
8.22e-10,-8.28838e-08
8.23e-10,-7.30393e-09
8.24e-10,-2.46034e-07
8.25e-10,-5.7524e-08
8.26e-10,-3.0563e-08
8.27e-10,-7.90921e-08
8.28e-10,1.12172e-09
8.29e-10,-1.30176e-07
8.3e-10,-7.86725e-08
8.31e-10,-8.6775e-09
8.32e-10,-2.26114e-07
8.33e-10,-1.65439e-07
8.34e-10,3.37094e-09
8.35e-10,-1.22371e-07
8.36e-10,2.53766e-08
8.37e-10,-9.07893e-08
8.38e-10,-1.44482e-07
8.39e-10,-1.35161e-09
8.4e-10,-7.96215e-08
8.41e-10,-1.64251e-07
8.42e-10,-7.51318e-08
8.43e-10,-5.17025e-08
8.44e-10,-8.80435e-08
8.45e-10,-5.39816e-08
8.46e-10,-3.52767e-08
8.47e-10,-6.9827e-08
8.48e-10,-5.66418e-08
8.49e-10,-8.81528e-08
8.5e-10,2.81913e-08
8.51e-10,-2.23208e-07
8.52e-10,-8.65253e-08
8.53e-10,-6.18555e-08
8.54e-10,1.70649e-09
8.55e-10,-1.90589e-07
8.56e-10,-2.18628e-09
8.57e-10,2.95531e-08
8.58e-10,-6.09634e-08
8.59e-10,-1.30116e-07
8.6e-10,-9.72537e-08
8.61e-10,-8.43233e-08
8.62e-10,-9.38886e-08
8.63e-10,-1.24069e-07
8.64e-10,-3.64276e-08
8.65e-10,8.03986e-09
8.66e-10,-2.98744e-08
8.67e-10,-6.18771e-08
8.68e-10,-1.27867e-07
8.69e-10,-1.04801e-07
8.7e-10,-6.23467e-08
8.71e-10,-1.24274e-07
8.72e-10,-6.2865e-08
8.73e-10,-4.08588e-09
8.74e-10,-3.93086e-08
8.75e-10,-2.87574e-08
8.76e-10,-1.29937e-07
8.77e-10,-8.65342e-08
8.78e-10,-1.38546e-07
8.79e-10,-6.08575e-08
8.8e-10,-1.25822e-07
8.81e-10,-8.21413e-08
8.82e-10,2.28131e-08
8.83e-10,-2.82481e-08
8.84e-10,-7.19642e-08
8.85e-10,-3.78058e-08
8.86e-10,-6.5312e-08
8.87e-10,3.59059e-09
8.88e-10,-1.0676e-07
8.89e-10,-1.27162e-07
8.9e-10,-9.16613e-08
8.91e-10,-5.67076e-08
8.92e-10,-1.2779e-07
8.93e-10,-6.74392e-08
8.94e-10,1.69459e-09
8.95e-10,-6.58975e-08
8.96e-10,-1.28616e-07
8.97e-10,-6.09406e-08
8.98e-10,-6.32053e-08
8.99e-10,-4.50693e-08
9e-10,-5.23401e-08
9.01e-10,-4.96921e-08
9.02e-10,-6.3511e-08
9.03e-10,2.77679e-09
9.04e-10,-6.83688e-08
9.05e-10,-1.15556e-07
9.06e-10,-6.09341e-08
9.07e-10,-6.55489e-08
9.08e-10,-9.05532e-08
9.09e-10,2.49097e-08
9.1e-10,-2.12509e-09
9.11e-10,-6.07893e-08
9.12e-10,-1.73225e-07
9.13e-10,2.47887e-09
9.14e-10,-1.43913e-09
9.15e-10,-3.68534e-08
9.16e-10,-2.46743e-09
9.17e-10,-9.19297e-08
9.18e-10,-1.46459e-09
9.19e-10,-1.61177e-08
9.2e-10,-1.77277e-07
9.21e-10,-6.32466e-08
9.22e-10,2.61848e-08
9.23e-10,-6.43573e-08
9.24e-10,-2.66723e-08
9.25e-10,-4.73826e-10
9.26e-10,-4.67409e-08
9.27e-10,4.68971e-10
9.28e-10,-8.75246e-08
9.29e-10,1.56761e-09
9.3e-10,-1.96554e-07
9.31e-10,-3.26643e-08
9.32e-10,1.29861e-10
9.33e-10,4.25756e-09
9.34e-10,-5.44765e-08
9.35e-10,-6.70197e-10
9.36e-10,-4.37648e-08
9.37e-10,-2.98978e-08
9.38e-10,2.37887e-08
9.39e-10,-7.34762e-08
9.4e-10,-4.93974e-08
9.41e-10,-4.37765e-08
9.42e-10,-6.80777e-08
9.43e-10,-1.42172e-08
9.44e-10,-7.44098e-08
9.45e-10,1.65177e-09
9.46e-10,-1.9828e-09
9.47e-10,1.74535e-08
9.48e-10,-5.61774e-08
9.49e-10,8.06417e-09
9.5e-10,-7.65064e-08
9.51e-10,-7.06574e-09
9.52e-10,-5.21804e-08
9.53e-10,-1.82466e-08
9.54e-10,-5.94039e-10
9.55e-10,-3.95587e-08
9.56e-10,-3.03226e-09
9.57e-10,7.81911e-10
9.58e-10,-2.01766e-08
9.59e-10,-4.56487e-10
9.6e-10,-7.55673e-08
9.61e-10,4.03551e-09
9.62e-10,-1.00881e-07
9.63e-10,6.67635e-10
9.64e-10,-4.23803e-08
9.65e-10,-4.59354e-08
9.66e-10,-1.52592e-08
9.67e-10,1.02011e-09
9.68e-10,-2.74998e-09
9.69e-10,-4.67211e-08
9.7e-10,-3.00959e-10
9.71e-10,-2.71899e-09
9.72e-10,-1.84854e-09
9.73e-10,-5.49964e-08
9.74e-10,-8.91173e-08
9.75e-10,-1.79046e-08
9.76e-10,-4.77875e-08
9.77e-10,4.81849e-09
9.78e-10,-1.93792e-08
9.79e-10,2.66782e-08
9.8e-10,-4.57473e-08
9.81e-10,-2.53967e-08
9.82e-10,-5.55672e-08
9.83e-10,-1.48167e-09
9.84e-10,-8.9874e-08
9.85e-10,-1.63669e-08
9.86e-10,-6.83571e-09
9.87e-10,-5.95334e-08
9.88e-10,-2.97947e-09
9.89e-10,1.2586e-09
9.9e-10,-6.50758e-08
9.91e-10,-8.82799e-10
9.92e-10,-9.28845e-08
9.93e-10,2.6268e-09
9.94e-10,-3.93239e-08
9.95e-10,-3.21136e-09
9.96e-10,-4.9035e-08
9.97e-10,-4.94466e-08
9.98e-10,3.54634e-09
9.99e-10,-6.263e-08
1e-09,-2.73577e-09
2.1e-09,0
